u,v
00231.5521,00295.3693
00351.7333,00198.1239
00345.8924,00230.6899
00348.8229,00206.7705
00206.1246,00181.7608
00338.5111,00163.5061
00382.2015,00088.0851
00415.7326,00163.3771
00386.2732,00150.0915
00387.2365,00168.7808
00298.6411,00131.3558
00391.3932,00159.5690
00247.1764,00152.6844
00388.3131,00167.9653
00191.3919,00217.1535
00329.1028,00205.3366
00401.1863,00135.2945
00309.8359,00223.4306
00476.4391,00098.7757
00107.6624,00139.0750
00504.2162,00139.5712
00260.2997,00157.3938
00407.7993,00174.7178
00502.2493,00153.7193
00326.4213,00245.7737
00291.7793,00304.9173
00200.1021,00162.4376
00342.3803,00221.7761
00349.0509,00209.9692
00369.7923,00143.7007
00356.0338,00160.1354
00364.7223,00176.1794
00450.5461,00215.5583
00401.5827,00164.9075
00401.1034,00187.3825
00288.4636,00119.0116
00364.9658,00198.0188
00367.9534,00179.6611
00176.2977,00216.4571
00260.2650,00167.4762
00394.4467,00144.3437
00299.1721,00232.8207
00113.8710,00133.2912
00493.4319,00022.5385
00467.4875,00156.3297
00387.5573,00179.3052
00247.8420,00102.1228
00517.3015,00171.3433
00233.1461,00281.6879
00238.7107,00134.6827
00355.3356,00241.1493
00359.1332,00209.5499
00318.0473,00209.6886
00295.3853,00190.5443
00362.2440,00105.0911
00368.5824,00174.3204
00328.8812,00124.9130
00343.6402,00152.2032
00131.7219,00141.6738
00378.1855,00138.2152
00439.9798,00226.4201
00448.9500,00083.3567
00280.8332,00233.2374
00492.1228,00028.1512
00253.5114,00170.2874
00368.9675,00197.4251
00441.3885,00139.2221
00214.9845,00205.8464
00365.9290,00184.4629
00471.5220,00164.1111
00264.7525,00161.8402
00201.2885,00249.3611
00452.4858,00148.2684
00208.1179,00145.0882
00466.1191,00181.7675
00394.4591,00273.2769
00323.3079,00211.0124
00355.7836,00202.5872
00366.7542,00191.6096
00353.7188,00093.4565
00426.0479,00247.1036
00355.2067,00198.4404
00474.6193,00243.0071
00484.6882,00039.7649
00294.5372,00267.3818
00401.5606,00109.6369
00340.3604,00155.1694
00444.1189,00237.5994
00267.0744,00256.1318
00381.8055,00192.6803
00388.4274,00150.7551
00285.0409,00223.5631
00203.4321,00220.7994
00192.4554,00171.5696
00242.9105,00183.7339
00477.8632,00168.8935
00263.3882,00103.8568
00443.1505,00161.9391
00451.1341,00173.6291
00387.6629,00211.9834
00379.7126,00284.0220
00454.4359,00243.7193
00436.7353,00041.0426
00392.3951,00225.8111
00333.1428,00220.4030
00369.1962,00199.4632
00268.7943,00195.7227
00508.4744,00237.0274
00340.5136,00180.5546
00370.1920,00145.1504
00252.6356,00202.1582
00418.2117,00289.1722
00311.6799,00173.0444
00283.4529,00244.9541
00328.4715,00223.9139
00262.0760,00287.4666
00239.8095,00212.6703
00475.0171,00168.4753
00238.6302,00232.3748
00278.5637,00142.4521
00457.9739,00168.9048
00362.5392,00185.5813
00416.0556,00154.3827
00378.6404,00202.6712
00434.0733,00254.7387
00380.7271,00152.6952
00388.3411,00232.5201
00408.1813,00186.2550
00437.1024,00254.5701
00380.2078,00194.1066
00315.8694,00083.8641
00139.7190,00262.2550
00406.1426,00136.6930
00409.0564,00215.1842
00298.4117,00210.6738
00411.7420,00100.2919
00455.1487,00248.3768
00316.1593,00271.5819
00323.4330,00199.4205
00194.9932,00140.4797
00199.6166,00287.1531
00428.1840,00165.0003
00220.9947,00216.5366
00309.4400,00199.6050
00383.4681,00193.9870
00400.1354,00217.0479
00407.8792,00162.1851
00380.2757,00114.3526
00406.3853,00281.5485
00177.1723,00269.7130
00261.4038,00119.5451
00318.5727,00158.4003
00405.1540,00219.7533
00397.0667,00188.2506
00420.5731,00176.0791
00425.6397,00162.8609
00305.8044,00216.3271
00453.9123,00268.4955
00388.6568,00149.6223
00316.4804,00217.0962
00459.0224,00220.9120
00270.3037,00274.8665
00308.7064,00218.9425
00211.2798,00144.6877
00181.5592,00251.6938
00364.1677,00166.7661
00165.4438,00283.0065
00386.6973,00193.6093
00296.3235,00175.2588
00277.0729,00126.8562
00216.6245,00178.9101
00472.4760,00152.0961
00572.5025,00157.4903
00311.7043,00091.0447
00359.8837,00190.6570
00374.4401,00205.2713
00289.3990,00151.1512
00387.9669,00210.2730
00408.5797,00182.4003
00430.7037,00167.9745
00414.5620,00136.6512
00385.8546,00120.7684
00422.6588,00172.1539
00457.6176,00231.5807
00299.2682,00224.3238
00207.2701,00128.2899
00272.5197,00279.8341
00300.5459,00229.4402
00237.4667,00203.6276
00278.9808,00115.7126
00320.6805,00196.0780
00192.6485,00265.3460
00295.9649,00189.6328
00384.2383,00192.3018
00419.4044,00196.7117
00219.0268,00204.5812
00534.4665,00173.8606
00334.0851,00078.8666
00369.9071,00124.2839
00312.8567,00170.7114
00444.8573,00207.3209
00394.3250,00215.9971
00416.4304,00178.2329
00408.0358,00114.8624
00372.8882,00120.1847
00437.9962,00165.0184
00465.8464,00128.6112
00288.6389,00172.8627
00216.7372,00151.9929
00457.6262,00266.1266
00323.3164,00201.7752
00289.5863,00207.9103
00292.2533,00343.3868
00455.2103,00284.6130
00284.7022,00254.8142
00209.1151,00314.9599
00383.1413,00148.2183
00283.1522,00207.6196
00393.9922,00190.6572
00360.0076,00108.0300
00398.4265,00217.5541
00349.2479,00081.4318
00200.8169,00230.5802
00314.8414,00146.4262
00410.0137,00213.9103
00441.4248,00218.0296
00432.6409,00201.6488
00255.3153,00046.2202
00388.4077,00096.1766
00211.4993,00182.3089
00397.9311,00174.6245
00356.2780,00142.6925
00441.8756,00137.6178
00267.5717,00221.3045
00376.9373,00220.1610
00382.3902,00235.4225
00275.6786,00217.1528
00317.9257,00338.7918
00291.6014,00256.6324
00259.7005,00339.6736
00329.3595,00167.7591
00416.3900,00132.0585
00278.6174,00165.1269
00392.3489,00225.8805
00396.3938,00236.0456
00336.2307,00087.5575
00214.5474,00225.5180
00269.1414,00013.3048
00323.8858,00177.1810
00160.6067,00138.8650
00420.6923,00222.6407
00388.9925,00113.6272
00467.3163,00261.2158
00434.0670,00197.8830
00350.4057,00100.8209
00308.6233,00217.4150
00418.6050,00124.3996
00345.5370,00164.5303
00444.9797,00198.3923
00352.3521,00159.9804
00363.1519,00320.8224
00229.3531,00194.7474
00294.3244,00248.3372
00327.0459,00131.0097
00264.0348,00259.6806
00270.6535,00002.1896
00505.8654,00113.7284
00219.7192,00231.9285
00423.6510,00180.2402
00332.6277,00233.9128
00340.9425,00083.9309
00369.8610,00204.7371
00153.2612,00100.0415
00230.8652,00230.9472
00387.1775,00092.3978
00295.4630,00201.7044
00399.5455,00309.6010
00411.3567,00185.7007
00453.3795,00241.2621
00413.2455,00235.1581
00389.1955,00197.4460
00430.8840,00124.9669
00304.1075,00159.4332
00416.8523,00228.7615
00431.5200,00190.8078
00277.3245,00125.1326
00329.0192,00244.7150
00379.7171,00304.3727
00244.3369,00064.5989
00524.3852,00136.4236
00292.2625,00181.0636
00239.4707,00107.2638
00322.8097,00177.5199
00466.8993,00168.3522
00316.0301,00272.5880
00214.4306,00134.8544
00390.5685,00202.7395
00238.7151,00224.3768
00191.9299,00264.5152
00335.3961,00105.2986
00398.7093,00293.4886
00427.9619,00245.6427
00298.5473,00185.0649
00293.8107,00190.1125
00419.2439,00197.0593
00392.3575,00262.2072
00422.1140,00184.5714
00235.9871,00124.0670
00256.5185,00127.3618
00396.6219,00209.1624
00441.0235,00171.0073
00333.7818,00234.8166
00370.4823,00297.7538
00464.2038,00150.4188
00263.9716,00227.2451
00230.6103,00110.2816
00218.8013,00135.2198
00379.3815,00177.5761
00453.6393,00223.3819
00206.7457,00173.7955
00305.7484,00260.5565
00402.3355,00217.7045
00320.1583,00103.0138
00286.2696,00272.9880
00343.9306,00160.6343
00373.8482,00258.7049
00355.6622,00202.3405
00288.4533,00165.2375
00416.0266,00234.2116
00464.8938,00204.7116
00296.8262,00139.9407
00359.2283,00216.3379
00437.3137,00195.9171
00371.3437,00217.3516
00311.6311,00160.6463
00359.9220,00235.4672
00352.1026,00282.9106
00444.6418,00176.6697
00305.6162,00197.1859
00505.9399,00244.9503
00222.0600,00095.5043
00262.6128,00220.8702
00140.4862,00234.6504
00413.2393,00199.5554
00436.7416,00160.6908
00434.7950,00229.4495
00259.9028,00098.6137
00279.6739,00254.4214
00360.3069,00228.2496
00352.6809,00145.8647
00320.7538,00223.5294
00341.3811,00276.9182
00358.6099,00122.1804
00408.5696,00198.2831
00386.3276,00150.3990
00355.1747,00190.0347
00436.6534,00153.7999
00369.1552,00219.0614
00331.9482,00199.2546
00371.2246,00244.1111
00269.7280,00164.0635
00441.3861,00176.9674
00348.6433,00262.8823
00530.8417,00216.2967
00160.7397,00120.6104
00157.9886,00182.4948
00273.1884,00267.2880
00388.9676,00221.9713
00532.5022,00134.4784
00452.6187,00236.7662
00379.7160,00187.8952
00281.2921,00083.9872
00387.8815,00124.9030
00336.4853,00228.3517
00276.9321,00228.2964
00367.7014,00267.5008
00369.4939,00121.9595
00408.2967,00261.5555
00424.0994,00149.1050
00333.6857,00189.2054
00318.4987,00191.3519
00454.2561,00132.5418
00376.4547,00218.7385
00215.5926,00150.6469
00367.8320,00264.0497
00420.5833,00221.0901
00180.8096,00158.0066
00333.9770,00234.4995
00154.5841,00204.7233
00431.5665,00192.4783
00254.3382,00219.7073
00430.4006,00194.9353
00400.1709,00168.7956
00432.8926,00231.4608
00386.4023,00159.4352
00431.2246,00161.4916
00320.0321,00056.2029
00314.7617,00175.5022
00456.8091,00181.7728
00251.4071,00245.5751
00332.5257,00255.7507
00446.9220,00192.6727
00410.6333,00087.0488
00270.5732,00152.4527
00345.4769,00194.5970
00456.4509,00154.2543
00434.7010,00235.9233
00327.6752,00178.2695
00341.8250,00082.9113
00131.2077,00245.7046
00362.2151,00232.4178
00425.9100,00212.1033
00299.8857,00216.8786
00478.5202,00206.3944
00404.0008,00142.8485
00253.0254,00224.4769
00420.3123,00205.3070
00317.6581,00167.4463
00302.2910,00073.4930
00383.4676,00155.2532
00377.4743,00197.2692
00381.1687,00169.9678
00395.4392,00167.1661
00219.7012,00236.1444
00307.3763,00223.2755
00459.0077,00214.3042
00250.0568,00164.6474
00323.7344,00117.8573
00170.6244,00144.7630
00346.0141,00200.3095
00403.6951,00270.2433
00453.4968,00142.4394
00134.6035,00209.4875
00354.1660,00211.1004
00462.8651,00189.1558
00352.7648,00223.8822
00444.8719,00197.2533
00283.0526,00229.4689
00361.4724,00141.2322
00417.4679,00134.6212
00421.6094,00191.9494
00236.4435,00247.7318
00344.4719,00141.4439
00375.4982,00201.6704
00356.5464,00156.5977
00312.1713,00050.2429
00357.4211,00174.5360
00233.3429,00235.4979
00316.9168,00219.6228
00306.8535,00186.6366
00250.2613,00140.9803
00309.5086,00153.3742
00319.7083,00212.7864
00244.0532,00136.9836
00437.5165,00156.2016
00414.3149,00260.8508
00439.7980,00240.0773
00367.5691,00212.1430
00316.6099,00192.0287
00354.9074,00116.2269
00453.8680,00229.1711
00421.2158,00101.1274
00251.7676,00212.1611
00459.8983,00159.8836
00415.7863,00173.4489
00436.0576,00178.4017
00356.4412,00132.7145
00413.7747,00215.4736
00299.7517,00057.9465
00241.9995,00245.5030
00343.6037,00189.0548
00319.8261,00172.9734
00242.6040,00142.3835
00246.6687,00209.6910
00352.4244,00236.9591
00363.6358,00149.9071
00407.1012,00281.7325
00301.4141,00171.4852
00222.7792,00168.3197
00344.1155,00112.6136
00416.7723,00201.1500
00368.8369,00253.0093
00361.9779,00207.6195
00401.3371,00085.1222
00330.8308,00249.5299
00448.6947,00152.2026
00234.7278,00198.2404
00467.3732,00160.3911
00420.5760,00156.0445
00315.4965,00153.5013
00444.6953,00184.3448
00374.0953,00229.9174
00361.6199,00074.5698
00331.6115,00154.5802
00366.9897,00155.9796
00219.5638,00168.5552
00196.8242,00243.2359
00407.3112,00141.6804
00243.0346,00224.0466
00387.7790,00222.1306
00414.0247,00278.6590
00399.8547,00143.9283
00283.9979,00185.3049
00317.1901,00041.0527
00406.0336,00078.4473
00190.1647,00157.4791
00384.7031,00291.1902
00357.8307,00208.8495
00341.4948,00265.8404
00427.8019,00120.6497
00340.5137,00277.2969
00494.4983,00185.1890
00373.6448,00155.7220
00408.4865,00141.5782
00397.5319,00137.4834
00331.5638,00192.2580
00480.6976,00194.1772
00367.7069,00076.2252
00389.8763,00155.6867
00418.4090,00134.6029
00240.7120,00144.5331
00231.4032,00262.8409
00420.8385,00272.8922
00309.4419,00150.0673
00234.4724,00208.5279
00334.3891,00142.6405
00387.8263,00093.9469
00196.7257,00223.9575
00352.0929,00080.8669
00158.2560,00175.5145
00360.9196,00202.0268
00460.7310,00240.4058
00299.7322,00200.3431
00453.1888,00104.8032
00419.4004,00241.2617
00330.1599,00287.7336
00367.2233,00223.6698
00419.2639,00124.2130
00295.9076,00133.7599
00404.6487,00189.0679
00424.8600,00136.6410
00213.7448,00098.1366
00526.3918,00147.3954
00384.7961,00118.4659
00383.0599,00134.0133
00330.7201,00148.0936
00218.3794,00255.8851
00419.8675,00281.5617
00400.0559,00173.2474
00243.0275,00229.4777
00401.2865,00140.0437
00175.5787,00213.7026
00198.2417,00185.4693
00325.6597,00111.1885
00367.8744,00198.9294
00424.0795,00242.9739
00321.0865,00216.4917
00413.1865,00095.0252
00452.3736,00214.7496
00401.5733,00084.0068
00360.0576,00263.8321
00247.3336,00165.3773
00371.4007,00194.7623
00367.4350,00178.0954
00159.3347,00120.3366
00418.6016,00082.8400
00321.1089,00127.2416
00519.2537,00151.1448
00313.4289,00093.0872
00373.2203,00137.4422
00390.6685,00144.1523
00383.8214,00140.3125
00205.3503,00248.3775
00392.3821,00275.5562
00236.0434,00236.5893
00220.6303,00280.2969
00198.5089,00167.6322
00338.1397,00086.6346
00350.6342,00170.5957
00347.5854,00239.5114
00459.7868,00101.8714
00278.8945,00229.7434
00368.5187,00154.9775
00365.1202,00260.1201
00446.8769,00225.5430
00349.2751,00255.3315
00124.5916,00166.5615
00359.7059,00239.2441
00326.3512,00126.7633
00366.0496,00211.7859
00416.0970,00092.5177
00364.3941,00122.5499
00504.3152,00158.9953
00323.0623,00097.9261
00368.1615,00127.3581
00442.2307,00191.3903
00196.0641,00315.6751
00385.0437,00275.0618
00216.0952,00266.7439
00256.4649,00240.3703
00249.5045,00217.5165
00292.9916,00218.6641
00346.1182,00107.5413
00345.7261,00184.2562
00347.4646,00153.0027
00406.4393,00225.5727
00504.0164,00095.7962
00153.2086,00117.2493
00423.8835,00232.3224
00405.1709,00280.1505
00328.8618,00127.1954
00374.5525,00110.6668
00354.9794,00257.5399
00424.0917,00173.7309
00399.0531,00224.9455
00367.7867,00130.5710
00218.4237,00231.4644
00285.9241,00140.1867
00454.0577,00183.4523
00170.8184,00205.6330
00388.2160,00122.6060
00357.3275,00176.9233
00411.7472,00299.6778
00219.3341,00265.5246
00238.1629,00233.9691
00345.5074,00144.3517
00294.5847,00200.3097
00346.7128,00189.3900
00308.2821,00061.3270
00186.8530,00103.1860
00327.4491,00136.2890
00465.8235,00140.4263
00394.7023,00239.8161
00410.0866,00244.8725
00372.4074,00106.3783
00390.5563,00293.3434
00380.6206,00166.1051
00180.5320,00210.6039
00097.7179,00199.8667
00330.1275,00174.2919
00400.0572,00216.1521
00358.7908,00232.8056
00269.9505,00105.3612
00150.7366,00200.4421
00426.9799,00203.9002
00369.0596,00199.6629
00432.3194,00274.2579
00338.9725,00163.0625
00218.9784,00284.2999
00214.3507,00229.2799
00338.3209,00142.7703
00281.9365,00206.7822
00172.5508,00110.2262
00316.4680,00032.6347
00318.9932,00154.3886
00455.6606,00135.2232
00375.9055,00249.5502
00415.2930,00110.6183
00436.2630,00223.3088
00402.8341,00287.4525
00168.9545,00171.3786
00347.3033,00207.6510
00381.9982,00163.4970
00163.6815,00202.3885
00409.9344,00316.5088
00123.0005,00224.2446
00415.1465,00215.3028
00286.7837,00125.4169
00384.4586,00164.3668
00434.9646,00204.2008
00380.8324,00203.7319
00340.9370,00140.0853
00435.2049,00264.8945
00253.0195,00191.6017
00165.0060,00296.7746
00180.4203,00240.4712
00056.3322,00184.5345
00345.5667,00144.4906
00379.1551,00109.6224
00314.6434,00043.3661
00454.1429,00131.2328
00500.7157,00258.4688
00543.8530,00194.8261
00345.1616,00240.5629
00169.5819,00180.3852
00374.7457,00240.1860
00371.7522,00313.4103
00216.6954,00191.8522
00380.2631,00161.7704
00382.4068,00165.9280
00146.5614,00283.6866
00333.8036,00101.2078
00383.4845,00190.2381
00308.9278,00129.9985
00452.0364,00185.5176
00228.8421,00220.6469
00376.2014,00184.3084
00429.0793,00279.1997
00222.3333,00258.2683
00116.0288,00202.6577
00176.2271,00255.1824
00351.7048,00112.2394
00390.0847,00129.6490
00481.4178,00274.7770
00328.0304,00057.0359
00322.1730,00194.5045
00298.3121,00242.8497
00432.1862,00156.3070
00369.0554,00170.8559
00361.6171,00290.6716
00469.5167,00233.8468
00368.6679,00097.6141
00184.7844,00165.5748
00341.0014,00261.8149
00339.7127,00183.8568
00243.3043,00263.2287
00385.5792,00189.4796
00291.7471,00258.0430
00341.6868,00186.4285
00170.7483,00242.1600
00467.8504,00162.2770
00137.6461,00210.0388
00377.0280,00243.4291
00374.5796,00176.8279
00175.9751,00255.8065
00406.8550,00129.0383
00445.8286,00244.4245
00355.8433,00200.3699
00344.3266,00210.5585
00345.4226,00129.5824
00413.1503,00099.6039
00329.7974,00044.9939
00376.9661,00285.3145
00427.2596,00171.6824
00255.9303,00144.9836
00337.4246,00262.0949
00342.2569,00188.5183
00383.7163,00226.9785
00190.2699,00143.3355
00253.7272,00273.3931
00188.2807,00227.4350
00380.8850,00236.9816
00184.4453,00149.8550
00307.5228,00225.5126
00345.3441,00135.1729
00456.7142,00181.4633
00373.9745,00227.5736
00355.5033,00127.5671
00456.6205,00116.7216
00370.1747,00180.7619
00181.0212,00262.9027
00470.5586,00241.9993
00399.5525,00097.6814
00344.0208,00215.2615
00374.9049,00180.3468
00387.0386,00268.9050
00317.8555,00016.6400
00349.4142,00176.0786
00384.5651,00165.7797
00343.0331,00265.9261
00232.8718,00151.7455
00414.4159,00244.9755
00150.9747,00190.2396
00239.1418,00164.6603
00088.0075,00170.5506
00289.3409,00160.7538
00438.3434,00155.5086
00263.0138,00273.0031
00364.0175,00251.5154
00376.7825,00082.7545
00397.1168,00144.4742
00386.3004,00249.9185
00415.7711,00102.7155
00507.2047,00253.5826
00396.6341,00107.8319
00369.3687,00184.4873
00354.4810,00247.9302
00344.8901,00238.1439
00178.7483,00240.3328
00441.3444,00241.5065
00375.8269,00041.7146
00375.8726,00215.4132
00384.8352,00272.2135
00394.2043,00185.4329
00227.7331,00252.8887
00439.6629,00234.5500
00181.2730,00211.7381
00124.6310,00145.3689
00311.5144,00140.7885
00253.2681,00106.4167
00433.3599,00153.6030
00330.2765,00141.7054
00355.1768,00152.7440
00571.1583,00340.6627
00300.6784,00234.1037
00339.7963,00209.5914
00380.4144,00135.2620
00380.0620,00238.8895
00390.6156,00209.7350
00344.2640,00232.4022
00421.0208,00140.0488
00296.2725,00213.0224
00174.4366,00253.5434
00424.5284,00206.7511
00367.4361,00247.9571
00417.9984,00112.3472
00383.0150,00270.9465
00486.2773,00197.1230
00225.0837,00263.5671
00167.5293,00155.6603
00086.9296,00143.1884
00448.0795,00235.6192
00317.7839,00116.9055
00580.7628,00317.2497
00401.7449,00132.0119
00437.2380,00145.7466
00417.4300,00138.5219
00328.8896,00214.8170
00341.9691,00119.4914
00235.8728,00215.0776
00316.6478,00245.4392
00323.4846,00262.2536
00374.3481,00244.5281
00377.5622,00246.4732
00406.3086,00132.6151
00369.5471,00172.2341
00401.6844,00197.0871
00253.8561,00231.8151
00427.2370,00049.6734
00351.8538,00213.2171
00215.8521,00216.9388
00183.0611,00158.5177
00469.3358,00237.5033
00336.0047,00246.0197
00110.2961,00138.2509
00377.0966,00122.7220
00338.5278,00081.4728
00425.5594,00225.6543
00489.3915,00238.3440
00345.9909,00106.8555
00378.8378,00101.4833
00345.2270,00282.4272
00381.0716,00145.6020
00326.5552,00256.7639
00294.5218,00132.6870
00287.6799,00295.9431
00376.6495,00260.9328
00377.8421,00255.4026
00417.5850,00135.8571
00243.0783,00231.1011
00378.2465,00166.6893
00436.1212,00214.2365
00297.8876,00184.2030
00424.3903,00137.7046
00341.9838,00247.6501
00164.8543,00140.8044
00380.3958,00211.4438
00320.9623,00069.6798
00158.7005,00169.3702
00498.9130,00155.2151
00351.7277,00143.0203
00388.4883,00131.4348
00373.4907,00122.5522
00433.5491,00255.4573
00502.1406,00235.0291
00360.9709,00176.8650
00310.0460,00291.4460
00351.7051,00131.8407
00439.2577,00183.5804
00258.7407,00164.1512
00283.5671,00295.2845
00170.1952,00208.9195
00400.5590,00257.1024
00423.8804,00140.6852
00131.2771,00136.0220
00376.6526,00164.2338
00383.1703,00242.6575
00357.4240,00100.6922
00339.9354,00184.3622
00155.0605,00182.4494
00434.5575,00215.3772
00299.6215,00138.8770
00472.1125,00129.4317
00359.2490,00237.5379
00462.1396,00142.2442
00377.7312,00123.3025
00369.3999,00095.4069
00439.7943,00281.6219
00337.3659,00288.1911
00324.1119,00146.8112
00508.5983,00145.1612
00389.8244,00203.8182
00188.2590,00226.7911
00195.8639,00178.0181
00389.1666,00187.6466
00306.7126,00247.3472
00308.1248,00087.2417
00120.7850,00188.8160
00384.1924,00248.6800
00372.7646,00171.6634
00145.9510,00160.9924
00458.3453,00113.8777
00380.1024,00173.8098
00348.4025,00218.5309
00274.0872,00164.0772
00472.4191,00119.2921
00384.8036,00194.2085
00353.0533,00249.5840
00355.3729,00123.8899
00435.4826,00139.7552
00369.0571,00132.1900
00348.2438,00252.8807
00429.1028,00209.2381
00195.3141,00200.3196
00326.7965,00124.6828
00519.6978,00140.4028
00249.9676,00091.1301
00316.7642,00145.0842
00191.9072,00202.6160
00365.6109,00162.9593
00111.6833,00177.9107
00279.8363,00258.7973
00205.1620,00191.4729
00377.1263,00254.1878
00323.6182,00211.6382
00380.5814,00169.1808
00318.5158,00111.5352
00396.6685,00175.1008
00450.7830,00114.6103
00334.0874,00097.2606
00375.0323,00214.8016
00459.7012,00123.0369
00314.4987,00221.7790
00234.2406,00188.7787
00343.0743,00251.8928
00372.9680,00132.4956
00281.8971,00084.2534
00167.3407,00179.2328
00488.9375,00143.3918
00375.7109,00201.3304
00320.5914,00134.1485
00196.7844,00133.0017
00265.0688,00223.2003
00318.1938,00133.2419
00316.0565,00142.8334
00192.4198,00186.2686
00310.7003,00112.7799
00252.1744,00257.9276
00399.1629,00217.0180
00397.8831,00250.7783
00333.1412,00094.3794
00403.9608,00160.4240
00449.5066,00133.7686
00354.3063,00298.6446
00394.8678,00161.1384
00460.5718,00111.9185
00165.9507,00190.8363
00390.8569,00235.1851
00254.2472,00168.4960
00278.0120,00077.1488
00353.3412,00241.4771
00169.0734,00132.5573
00406.3438,00134.9338
00261.1376,00255.3595
00446.3414,00121.4472
00368.0001,00213.1568
00375.6607,00141.4356
00312.5461,00142.6304
00356.7932,00119.4204
00109.4777,00137.5400
00345.7696,00122.4477
00416.7298,00271.2775
00289.6692,00112.7743
00385.7930,00222.7634
00251.2486,00252.8426
00187.0197,00220.2731
00173.6913,00257.1617
00360.0876,00248.0139
00441.4854,00130.1294
00270.7991,00063.1250
00363.3174,00297.8015
00438.4905,00227.3876
00374.0174,00213.3708
00461.6637,00175.4078
00238.6868,00144.6686
00354.6902,00238.2957
00382.9588,00125.8014
00268.0064,00240.1106
00333.6087,00180.2518
00428.2534,00149.6296
00407.3629,00233.9504
00324.0635,00149.6182
00324.9389,00108.4903
00176.2026,00182.8521
00290.5686,00101.3188
00418.2415,00269.8266
00165.4133,00219.9925
00267.7058,00093.1705
00360.9629,00123.8493
00227.9429,00248.3145
00151.7621,00208.4374
00304.8432,00076.2796
00431.4023,00040.4667
00442.2480,00208.1801
00380.5169,00297.9524
00493.1575,00082.2381
00455.6434,00205.4701
00265.9683,00229.0223
00367.5915,00167.2858
00351.6801,00189.6066
00308.0476,00260.7403
00360.6589,00201.2467
00406.1150,00158.5666
00328.8369,00130.6837
00144.7566,00187.4958
00433.4449,00147.7093
00407.3989,00253.9187
00270.0842,00186.4031
00369.2905,00128.4774
00341.3257,00088.2899
00332.9851,00124.8145
00373.3318,00163.4226
00439.0027,00232.7788
00246.0222,00188.8247
00302.4304,00155.8683
00224.6666,00272.9818
00375.1263,00084.7550
00448.5060,00070.6012
00181.2213,00158.3409
00416.1016,00215.2006
00343.3433,00301.2474
00410.8332,00199.4148
00270.6590,00195.7314
00245.5497,00211.6252
00398.9399,00203.0284
00323.0685,00108.2585
00323.7148,00203.0904
00388.6628,00169.6187
00382.7881,00189.0889
00338.5081,00099.3049
00455.8630,00122.6316
00465.5547,00231.4820
00348.0416,00077.9873
00285.9364,00248.3085
00355.3703,00132.1671
00370.1767,00172.4649
00290.8453,00150.2635
00331.1123,00141.3621
00415.8983,00211.6749
00156.2550,00159.1752
00344.3429,00231.9674
00376.3566,00077.0644
00444.2877,00060.0163
00452.0484,00139.8843
00401.6538,00194.5595
00422.5328,00223.0714
00345.7619,00277.2768
00403.0083,00197.6707
00381.9500,00113.5253
00257.9056,00211.6547
00287.4671,00192.2068
00322.6752,00200.5398
00333.2301,00175.1803
00361.3880,00192.0074
00370.6910,00151.3083
00433.2352,00143.9484
00283.6509,00221.7435
00467.9691,00232.8436
00266.4292,00137.4902
00352.6824,00250.9872
00334.5514,00144.3086
00360.8852,00179.1204
00419.2365,00215.4184
00156.4145,00177.2728
00347.5430,00238.2410
00399.2628,00144.4467
00355.2080,00088.7532
00394.8424,00157.8306
00431.0132,00104.7009
00308.9965,00195.5630
00488.3733,00125.4933
00433.9990,00248.2440
00390.2219,00156.3250
00403.0670,00197.1078
00254.6758,00182.1852
00296.5251,00274.6381
00395.1186,00226.9689
00251.3323,00144.9503
00348.3001,00136.1713
00327.7689,00211.3866
00426.8682,00200.8876
00216.1476,00179.9978
00459.4282,00218.5396
00342.5073,00238.8583
00379.9563,00161.5159
00196.4857,00151.0699
00423.3964,00220.4083
00343.6639,00120.1132
00350.2559,00189.1952
00289.7469,00235.2093
00338.0099,00158.2564
00329.1334,00092.5088
00417.9451,00113.8497
00325.3159,00226.2464
00410.1383,00216.2624
00358.6537,00112.9919
00402.3534,00215.6694
00478.5845,00159.2143
00249.6787,00143.0145
00207.5657,00233.0057
00324.5884,00139.6660
00302.4497,00300.8004
00407.0911,00271.9368
00391.5854,00187.5873
00424.6792,00193.3349
00216.6478,00177.7363
00387.2854,00104.9845
00354.7553,00234.0625
00405.2874,00136.7795
00410.4589,00084.9927
00196.9303,00134.9395
00372.2031,00131.3381
00345.1713,00152.2769
00425.5047,00228.6008
00288.2982,00236.5200
00536.6116,00150.3854
00442.2993,00111.6236
00360.2017,00179.0744
00355.1323,00134.5342
00310.4336,00292.1441
00404.7369,00194.5315
00347.7470,00144.4512
00367.0559,00157.2302
00240.0559,00190.3200
00493.6452,00212.5089
00246.8839,00257.9229
00381.2241,00301.5989
00384.2644,00151.9092
00217.9938,00178.4189
00441.0023,00178.7208
00367.0600,00105.8235
00191.7697,00126.2664
00377.3554,00176.8617
00350.0216,00233.2316
00383.4651,00134.5815
00258.5240,00183.8090
00489.9846,00157.3189
00407.5295,00208.6765
00305.7855,00154.5683
00260.8042,00260.8080
00384.7848,00147.6030
00321.2321,00187.5223
00230.2740,00211.7966
00436.9079,00109.7743
00332.7660,00137.4146
00254.6814,00194.2880
00379.3169,00173.9097
00389.2880,00221.1561
00252.5972,00231.0437
00386.1268,00256.1944
00218.5415,00075.3108
00402.5957,00310.0411
00379.1413,00156.2631
00371.1039,00102.8043
00395.8151,00172.1716
00437.1377,00224.8972
00256.1150,00177.2303
00378.9509,00141.8665
00438.0934,00159.5899
00367.3276,00257.0599
00328.0019,00186.5134
00252.4064,00193.5710
00424.9431,00187.0235
00237.7382,00276.6811
00365.4406,00158.8106
00274.3300,00163.6940
00342.9114,00143.6600
00363.6103,00230.8050
00251.8314,00214.0078
00423.9048,00143.0131
00331.3812,00228.8248
00395.9194,00161.1138
00217.9325,00096.7136
00211.8104,00168.8028
00373.9957,00209.2026
00421.7079,00281.5752
00393.9781,00204.9824
00473.6007,00178.6366
00383.2858,00195.9551
00235.3939,00180.4173
00383.0291,00090.9777
00443.2820,00205.2381
00326.3940,00161.9217
00338.4488,00247.7414
00351.1133,00186.6987
00407.8216,00165.1557
00389.8963,00143.6491
00306.5196,00125.2154
00252.4923,00272.8012
00262.0677,00166.3547
00344.0536,00186.0665
00181.4508,00152.0877
00327.7797,00224.4169
00430.0849,00144.0239
00259.2900,00198.5535
00403.8279,00136.0331
00359.3506,00166.5643
00384.4483,00187.8555
00187.4478,00192.7437
00528.7149,00149.1842
00460.7867,00183.8068
00261.9189,00170.6044
00385.7810,00181.4290
