,x,y,z,distance,azimuth,elevation
0000000000,-0000.3539,-0000.8708,00000.3622,00001.0073,00247.8843,00088.3133
0000000001,-0000.3108,-0000.7862,00000.3401,00000.9112,00248.4328,00088.4831
0000000002,-0000.3599,-0000.9293,00000.2654,00001.0314,00248.8284,00088.2116
0000000003,-0000.3916,-0000.9378,00000.2625,00001.0496,00247.3328,00088.1763
0000000004,-0000.2645,-0000.8334,00000.2467,00000.9085,00252.3917,00088.4310
0000000005,-0000.2191,-0000.7535,00000.2464,00000.8224,00253.7894,00088.5920
0000000006,-0000.2023,-0000.6617,00000.2307,00000.7294,00253.0011,00088.7584
0000000007,-0000.1030,-0001.0151,00000.2251,00001.0448,00264.2077,00088.1692
0000000008,-0000.0876,-0000.9872,00000.2174,00001.0147,00264.9319,00088.2215
0000000009,-0000.0578,-0000.9013,00000.2176,00000.9290,00266.3296,00088.3794
0000000010,-0000.0208,-0000.7864,00000.2028,00000.8124,00268.4847,00088.5884
0000000011,00000.0143,-0000.6972,00000.1819,00000.7207,00271.1761,00088.7487
0000000012,00000.0768,-0001.0000,00000.2896,00001.0439,00274.3942,00088.2003
0000000013,00000.0389,-0001.0099,00000.3701,00001.0762,00272.2072,00088.1865
0000000014,00000.1106,-0001.0066,00000.2410,00001.0409,00276.2731,00088.1829
0000000015,00000.1580,-0000.9586,00000.2541,00001.0042,00279.3611,00088.2566
0000000016,00000.0363,-0000.5637,00000.7280,00000.9214,00273.6870,00088.9865
0000000017,-0000.2694,-0000.4356,00000.8115,00000.9596,00238.2630,00089.0810
0000000018,-0000.3672,-0000.7682,00000.5581,00001.0181,00244.4528,00088.4721
0000000019,-0000.1410,-0000.7450,00000.5393,00000.9304,00259.2797,00088.6395
0000000020,-0000.1244,-0000.8893,00000.3107,00000.9502,00262.0382,00088.3887
0000000021,00000.5052,-0000.7438,00000.2925,00000.9455,00304.1840,00088.3867
0000000022,-0000.0305,-0000.3929,00000.6906,00000.7952,00265.5599,00089.2929
0000000023,00000.0303,-0000.4727,00000.6175,00000.7783,00273.6707,00089.1500
0000000024,00000.0148,-0000.5375,00000.6709,00000.8598,00271.5778,00089.0352
0000000025,-0000.0483,-0000.6375,00000.5427,00000.8386,00265.6643,00088.8528
0000000026,00000.2090,-0000.6461,00000.5126,00000.8508,00287.9245,00088.7815
0000000027,-0000.3450,-0000.6623,00000.4623,00000.8783,00242.4838,00088.6601
0000000028,-0000.3012,-0000.7382,00000.2344,00000.8310,00247.8034,00088.5695
0000000029,-0000.3043,-0000.7508,00000.2319,00000.8427,00247.9382,00088.5463
0000000030,00000.1173,-0000.8018,00000.2085,00000.8368,00278.3204,00088.5459
0000000031,-0000.0936,-0000.8225,00000.2162,00000.8555,00263.5058,00088.5147
0000000032,00000.4902,-0000.6576,00000.2368,00000.8537,00306.7030,00088.5283
0000000033,00000.2460,-0000.7705,00000.2349,00000.8422,00287.7059,00088.5487
0000000034,00000.1818,-0000.7744,00000.2243,00000.8265,00283.2126,00088.5727
0000000035,-0000.2735,-0000.3495,00000.7118,00000.8388,00231.9596,00089.2038
0000000036,-0000.2595,-0000.3416,00000.6658,00000.7921,00232.7745,00089.2302
0000000037,-0000.2121,-0000.3698,00000.6595,00000.7853,00240.1660,00089.2350
0000000038,-0000.2178,-0000.4100,00000.6724,00000.8171,00242.0228,00089.1670
0000000039,-0000.0745,-0000.2289,00000.7237,00000.7627,00251.9812,00089.5681
0000000040,-0000.1382,-0000.1922,00000.7858,00000.8207,00234.2700,00089.5752
0000000041,-0000.0472,-0000.0461,00000.7408,00000.7437,00224.2850,00089.8816
0000000042,-0000.2416,-0000.4659,00000.5801,00000.7823,00242.5884,00089.0583
0000000043,-0000.2385,-0000.6118,00000.4186,00000.7787,00248.6992,00088.8218
0000000044,-0000.0878,-0000.6056,00000.4304,00000.7481,00261.7483,00088.9020
0000000045,-0000.1527,-0000.7960,00000.1816,00000.8306,00259.1421,00088.5456
0000000046,00000.0686,-0000.7817,00000.1855,00000.8063,00275.0129,00088.5920
0000000047,00000.1489,-0000.6703,00000.2765,00000.7402,00282.5245,00088.7680
0000000048,00000.1470,-0000.6467,00000.2765,00000.7186,00282.8097,00088.8099
0000000049,00000.4286,-0000.6020,00000.2457,00000.7787,00305.4475,00088.6741
0000000050,00000.3086,-0000.5845,00000.3291,00000.7384,00297.8354,00088.8141
0000000051,00000.3410,-0000.6470,00000.1685,00000.7505,00297.7922,00088.6877
0000000052,00000.4771,-0000.5898,00000.1649,00000.7763,00308.9665,00088.6388
0000000053,-0000.5014,-0000.5558,00000.3513,00000.8269,00227.9496,00088.6568
0000000054,-0000.4162,-0000.5404,00000.3191,00000.7530,00232.4000,00088.7762
0000000055,-0000.4245,-0000.5579,00000.2775,00000.7540,00232.7335,00088.7420
0000000056,-0000.4515,-0000.5109,00000.2534,00000.7274,00228.5311,00088.7766
0000000057,-0000.3899,-0000.4306,00000.5578,00000.8054,00227.8431,00088.9577
0000000058,00000.0569,-0000.1290,00000.6949,00000.7090,00293.7968,00089.7471
0000000059,-0000.1144,-0000.1432,00000.6867,00000.7107,00231.3811,00089.6711
0000000060,-0000.1214,-0000.1272,00000.6804,00000.7028,00226.3493,00089.6845
0000000061,-0000.1792,-0000.1637,00000.6520,00000.6957,00222.4048,00089.5645
0000000062,-0000.2684,-0000.2194,00000.6036,00000.6960,00219.2620,00089.3780
0000000063,-0000.2666,-0000.3407,00000.5287,00000.6831,00231.9485,00089.2238
0000000064,-0000.2866,-0000.3416,00000.5463,00000.7052,00230.0014,00089.2000
0000000065,-0000.2320,-0000.3861,00000.4942,00000.6687,00238.9942,00089.1918
0000000066,-0000.2136,-0000.3941,00000.5034,00000.6741,00241.5395,00089.1956
0000000067,-0000.1630,-0000.3316,00000.6102,00000.7134,00243.8230,00089.3371
0000000068,-0000.2381,-0000.5482,00000.4002,00000.7193,00246.5213,00088.9276
0000000069,-0000.0971,-0000.5974,00000.3817,00000.7156,00260.7672,00088.9139
0000000070,-0000.3677,-0000.5531,00000.2739,00000.7184,00236.3866,00088.8083
0000000071,-0000.2840,-0000.5546,00000.2675,00000.6781,00242.8850,00088.8819
0000000072,-0000.1416,-0000.5997,00000.3069,00000.6884,00256.7116,00088.8944
0000000073,-0000.0076,-0000.6245,00000.3453,00000.7137,00269.3036,00088.8793
0000000074,00000.2132,-0000.5895,00000.3298,00000.7083,00289.8876,00088.8752
0000000075,00000.2009,-0000.5931,00000.3574,00000.7210,00288.7175,00088.8764
0000000076,00000.3277,-0000.5070,00000.3850,00000.7160,00302.8761,00088.9167
0000000077,00000.3004,-0000.4411,00000.4472,00000.6963,00304.2608,00089.0424
0000000078,00000.4730,-0000.5162,00000.1916,00000.7259,00312.4955,00088.7437
0000000079,00000.3914,-0000.5452,00000.1919,00000.6980,00305.6738,00088.7958
0000000080,00000.2643,-0000.6576,00000.1785,00000.7309,00291.8947,00088.7283
0000000081,-0000.5295,00000.0179,00000.7504,00000.9186,00178.0688,00089.0495
0000000082,-0000.4755,-0000.0508,00000.6739,00000.8263,00186.0973,00089.1421
0000000083,-0000.4660,-0000.0610,00000.6587,00000.8091,00187.4579,00089.1568
0000000084,-0000.4426,-0000.0696,00000.6412,00000.7822,00188.9405,00089.1962
0000000085,-0000.4095,-0000.0877,00000.5850,00000.7195,00192.0838,00089.2486
0000000086,-0000.5848,-0000.2388,00000.8533,00001.0616,00202.2114,00088.8667
0000000087,-0000.5597,-0000.2400,00000.8130,00001.0158,00203.2126,00088.9072
0000000088,-0000.5210,-0000.2061,00000.7273,00000.9181,00201.5883,00088.9947
0000000089,-0000.4454,-0000.1898,00000.6598,00000.8184,00203.0795,00089.1312
0000000090,-0000.3603,-0000.1976,00000.5347,00000.6744,00208.7455,00089.2626
0000000091,-0000.7359,00000.2578,00000.7184,00001.0602,00160.6968,00088.6008
0000000092,-0000.7189,00000.1648,00000.6894,00001.0096,00167.0862,00088.6765
0000000093,-0000.6327,00000.1481,00000.6434,00000.9145,00166.8231,00088.8340
0000000094,-0000.5599,00000.1227,00000.6123,00000.8387,00167.6390,00088.9716
0000000095,-0000.5294,00000.1142,00000.6000,00000.8083,00167.8224,00089.0283
0000000096,-0000.8442,00000.3655,00000.5522,00001.0730,00156.5921,00088.3493
0000000097,-0000.7442,00000.3164,00000.5387,00000.9717,00156.9692,00088.5490
0000000098,-0000.6149,00000.2361,00000.4970,00000.8251,00158.9976,00088.8182
0000000099,-0000.7373,-0000.3543,00000.6838,00001.0662,00205.6638,00088.5322
0000000100,-0000.7169,-0000.3530,00000.6609,00001.0370,00206.2174,00088.5662
0000000101,-0000.7034,-0000.3454,00000.6523,00001.0196,00206.1519,00088.5939
0000000102,-0000.6932,-0000.3464,00000.6413,00001.0058,00206.5488,00088.6095
0000000103,-0000.6246,-0000.3380,00000.5790,00000.9163,00208.4172,00088.7257
0000000104,-0000.5596,-0000.3013,00000.5156,00000.8184,00208.2943,00088.8596
0000000105,-0000.5241,-0000.2816,00000.5010,00000.7778,00208.2512,00088.9325
0000000106,-0000.4835,-0000.2754,00000.4767,00000.7327,00209.6680,00089.0015
0000000107,-0000.4701,-0000.2723,00000.4710,00000.7190,00210.0802,00089.0252
0000000108,-0000.7041,-0000.1255,00000.7906,00001.0661,00190.1096,00088.7168
0000000109,-0000.6624,-0000.1117,00000.7581,00001.0129,00189.5742,00088.7947
0000000110,-0000.4612,-0000.1254,00000.5310,00000.7144,00195.2172,00089.1425
0000000111,-0000.8103,00000.0124,00000.6984,00001.0698,00179.1243,00088.5459
0000000112,-0000.7594,00000.0042,00000.6748,00001.0159,00179.6797,00088.6374
0000000113,-0000.6649,00000.0066,00000.6356,00000.9198,00179.4351,00088.8070
0000000114,-0000.5757,-0000.0275,00000.5878,00000.8232,00182.7388,00088.9659
0000000115,-0000.4389,-0000.4107,00000.8741,00001.0609,00223.1008,00088.9215
0000000116,-0000.4086,-0000.3910,00000.8415,00001.0139,00223.7386,00088.9852
0000000117,-0000.4539,-0000.2973,00000.9125,00001.0617,00213.2258,00089.0263
0000000118,-0000.4217,-0000.3071,00000.8657,00001.0107,00216.0658,00089.0640
0000000119,-0000.3904,-0000.2809,00000.7743,00000.9116,00215.7427,00089.1370
0000000120,-0000.3632,-0000.2831,00000.6277,00000.7785,00217.9351,00089.1738
0000000121,-0000.4560,-0000.0951,00000.9531,00001.0608,00191.7835,00089.1641
0000000122,-0000.4624,-0000.1026,00000.9375,00001.0503,00192.5104,00089.1502
0000000123,-0000.4316,-0000.1133,00000.9124,00001.0156,00194.7039,00089.1993
0000000124,-0000.3938,-0000.1486,00000.8107,00000.9135,00200.6794,00089.2447
0000000125,-0000.3917,-0000.1382,00000.7908,00000.8932,00199.4282,00089.2548
0000000126,-0000.3413,-0000.1622,00000.7230,00000.8157,00205.4205,00089.3221
0000000127,-0000.2951,-0000.1699,00000.5825,00000.6747,00209.9255,00089.3891
0000000128,-0000.1971,-0000.1491,00001.0281,00001.0574,00217.1041,00089.5566
0000000129,-0000.1965,-0000.1572,00000.9792,00001.0110,00218.6502,00089.5485
0000000130,-0000.2041,-0000.1656,00000.8736,00000.9123,00219.0479,00089.5285
0000000131,-0000.1700,-0000.1291,00000.7800,00000.8087,00217.2085,00089.6171
0000000132,-0000.2623,00000.0339,00001.0315,00001.0649,00172.6260,00089.5255
0000000133,-0000.2272,00000.0036,00000.7817,00000.8141,00179.1012,00089.5922
0000000134,-0000.0849,-0000.0479,00001.0409,00001.0454,00209.4299,00089.8251
0000000135,-0000.3217,-0000.3180,00000.9607,00001.0619,00224.6703,00089.1884
0000000136,-0000.2702,-0000.3038,00000.9184,00001.0044,00228.3472,00089.2704
0000000137,-0000.2417,-0000.2860,00000.8151,00000.8970,00229.7983,00089.3281
0000000138,-0000.1347,-0000.3485,00000.9939,00001.0618,00248.8726,00089.3297
0000000139,-0000.1310,-0000.2747,00000.9659,00001.0127,00244.4983,00089.4540
0000000140,-0000.6622,-0000.5450,00000.6358,00001.0676,00219.4567,00088.4611
0000000141,-0000.6321,-0000.5210,00000.6005,00001.0156,00219.4972,00088.5302
0000000142,-0000.5807,-0000.4691,00000.5395,00000.9210,00218.9332,00088.6606
0000000143,-0000.5098,-0000.4043,00000.4865,00000.8124,00218.4200,00088.8326
0000000144,-0000.6074,-0000.4855,00000.7308,00001.0671,00218.6326,00088.6047
0000000145,-0000.5637,-0000.4548,00000.7053,00001.0110,00218.8944,00088.7003
0000000146,-0000.5082,-0000.4110,00000.6428,00000.9167,00218.9675,00088.8272
0000000147,-0000.5624,-0000.5637,00000.7138,00001.0694,00225.0653,00088.5712
0000000148,-0000.5373,-0000.5313,00000.6838,00001.0191,00224.6777,00088.6440
0000000149,-0000.4792,-0000.4892,00000.6095,00000.9168,00225.5942,00088.7713
0000000150,-0000.4854,-0000.4737,00000.8229,00001.0663,00224.2972,00088.7831
0000000151,-0000.4522,-0000.4577,00000.7863,00001.0160,00225.3467,00088.8455
0000000152,-0000.3929,-0000.4082,00000.7186,00000.9151,00226.0925,00088.9834
0000000153,-0000.6180,-0000.3456,00000.7988,00001.0674,00209.2141,00088.7295
0000000154,-0000.5674,-0000.3544,00000.7675,00001.0181,00211.9929,00088.7996
0000000155,-0000.4691,-0000.3592,00000.6974,00000.9140,00217.4433,00088.9399
0000000156,-0000.6579,00000.0828,00000.7074,00000.9696,00172.8237,00088.8103
0000000157,-0000.6287,00000.1616,00000.8394,00001.0611,00165.5828,00088.8353
0000000158,-0000.4443,00000.0169,00000.5696,00000.7226,00177.8219,00089.2022
0000000159,-0000.4163,00000.0180,00000.5374,00000.6800,00177.5289,00089.2524
0000000160,-0000.9967,00000.0269,00000.2809,00001.0359,00178.4518,00088.2108
0000000161,-0000.8974,00000.0073,00000.2552,00000.9330,00179.5335,00088.3897
0000000162,-0000.7907,00000.0184,00000.2568,00000.8316,00178.6650,00088.5807
0000000163,-0000.7814,00000.0179,00000.2588,00000.8233,00178.6880,00088.5976
0000000164,-0000.8228,00000.0234,00000.2721,00000.8669,00178.3725,00088.5231
0000000165,-0001.0116,00000.0798,00000.3028,00001.0589,00175.4897,00088.1791
0000000166,-0000.9242,00000.0580,00000.2895,00000.9702,00176.4081,00088.3384
0000000167,-0000.6719,00000.0103,00000.2766,00000.7267,00179.1192,00088.7942
0000000168,-0000.6838,00000.0070,00000.2765,00000.7376,00179.4161,00088.7730
0000000169,-0000.6784,00000.0054,00000.2718,00000.7309,00179.5423,00088.7826
0000000170,-0000.7002,00000.0062,00000.3419,00000.7792,00179.4898,00088.7435
0000000171,-0000.7633,00000.0383,00000.4235,00000.8737,00177.1278,00088.6286
0000000172,-0000.8187,00000.0859,00000.5001,00000.9632,00174.0099,00088.5228
0000000173,-0000.8650,00000.0884,00000.5458,00001.0267,00174.1637,00088.4397
0000000174,-0000.9006,00000.1101,00000.5833,00001.0786,00173.0325,00088.3719
0000000175,-0000.9475,00000.1098,00000.5103,00001.0818,00173.3913,00088.2884
0000000176,-0000.9135,00000.1027,00000.4737,00001.0341,00173.5833,00088.3505
0000000177,-0000.8256,00000.0904,00000.4188,00000.9301,00173.7523,00088.5098
0000000178,-0000.6255,-0000.0293,00000.3371,00000.7111,00182.6817,00088.8765
0000000179,-0000.9363,00000.1963,00000.4344,00001.0507,00168.1599,00088.2833
0000000180,-0000.8443,00000.2408,00000.5580,00001.0403,00164.0789,00088.4246
0000000181,-0000.5708,00000.1375,00000.4153,00000.7191,00166.4550,00088.9466
0000000182,-0000.5674,00000.1337,00000.4536,00000.7386,00166.7458,00088.9540
0000000183,-0000.5577,00000.1003,00000.4502,00000.7237,00169.8043,00088.9833
0000000184,-0000.5838,00000.0738,00000.4307,00000.7292,00172.7930,00088.9442
0000000185,-0000.9642,00000.0303,00000.4599,00001.0687,00178.1988,00088.2689
0000000186,-0000.9863,-0000.1558,00000.4173,00001.0822,00188.9765,00088.2081
0000000187,-0000.9649,-0000.1675,00000.4123,00001.0626,00189.8509,00088.2426
0000000188,-0000.9359,-0000.1640,00000.4093,00001.0345,00189.9378,00088.2951
0000000189,-0000.8785,-0000.1506,00000.4330,00000.9910,00189.7245,00088.4006
0000000190,-0000.0285,00000.6329,00000.8679,00001.0745,00092.5814,00088.8633
0000000191,-0000.8776,-0000.1467,00000.3908,00000.9718,00189.4877,00088.4035
0000000192,-0000.0215,00000.5905,00000.8303,00001.0191,00092.0864,00088.9398
0000000193,-0000.8375,-0000.1331,00000.3790,00000.9289,00189.0286,00088.4783
0000000194,-0000.0324,00000.5308,00000.7507,00000.9199,00093.4892,00089.0459
0000000195,-0000.8101,-0000.1324,00000.3702,00000.9005,00189.2812,00088.5271
0000000196,-0000.0203,00000.4645,00000.6789,00000.8229,00092.5027,00089.1658
0000000197,-0000.7510,-0000.1221,00000.3397,00000.8332,00189.2354,00088.6348
0000000198,-0000.0489,00000.4092,00000.5978,00000.7261,00096.8109,00089.2606
0000000199,-0000.6549,-0000.1278,00000.3044,00000.7335,00191.0432,00088.8027
0000000200,-0000.0561,00000.3967,00000.5771,00000.7026,00098.0544,00089.2812
0000000201,-0000.8664,-0000.2428,00000.5123,00001.0354,00195.6536,00088.3854
0000000202,-0000.1487,00000.4412,00000.9548,00001.0622,00108.6294,00089.1645
0000000203,-0000.8296,-0000.2239,00000.5298,00001.0095,00195.1066,00088.4581
0000000204,-0000.1523,00000.4211,00000.9123,00001.0163,00109.8844,00089.1965
0000000205,-0000.8377,-0000.1921,00000.6251,00001.0627,00192.9145,00088.4578
0000000206,-0000.1234,00000.3830,00000.8298,00000.9222,00107.8532,00089.2780
0000000207,-0000.7979,-0000.1554,00000.6217,00001.0234,00191.0218,00088.5414
0000000208,-0000.1115,00000.3481,00000.7361,00000.8219,00107.7529,00089.3442
0000000209,-0000.7217,-0000.1319,00000.5680,00000.9278,00190.3557,00088.6836
0000000210,-0000.1244,00000.3365,00000.6559,00000.7476,00110.2983,00089.3564
0000000211,-0000.6414,-0000.1233,00000.5000,00000.8226,00190.8835,00088.8280
0000000212,-0000.1245,00000.3290,00000.6281,00000.7199,00110.7242,00089.3689
0000000213,-0000.6242,-0000.1244,00000.4882,00000.8022,00191.2720,00088.8579
0000000214,00000.1285,00000.3679,00000.9654,00001.0411,00070.7440,00089.3007
0000000215,-0000.5601,-0000.1268,00000.4387,00000.7227,00192.7577,00088.9696
0000000216,00000.1194,00000.3706,00000.9402,00001.0176,00072.1455,00089.3015
0000000217,-0000.8069,-0000.1517,00000.6793,00001.0656,00190.6496,00088.5268
0000000218,00000.1236,00000.3315,00000.8461,00000.9170,00069.5520,00089.3652
0000000219,-0000.7373,-0000.1345,00000.6418,00000.9868,00190.3354,00088.6552
0000000220,00000.1393,00000.3191,00000.7857,00000.8594,00066.4208,00089.3753
0000000221,-0000.6093,-0000.0587,00000.5419,00000.8175,00185.5039,00088.9017
0000000222,00000.1314,00000.3062,00000.7432,00000.8145,00066.7781,00089.4021
0000000223,-0000.5317,-0000.0638,00000.4810,00000.7198,00186.8454,00089.0391
0000000224,00000.1344,00000.3055,00000.7169,00000.7907,00066.2470,00089.4012
0000000225,-0000.8301,-0000.0898,00000.6092,00001.0336,00186.1768,00088.5018
0000000226,00000.1461,00000.3024,00000.6342,00000.7177,00064.2075,00089.3973
0000000227,-0000.9251,-0000.1060,00000.4600,00001.0386,00186.5372,00088.3292
0000000228,-0000.4135,00000.4926,00000.8558,00001.0705,00130.0087,00088.8460
0000000229,-0001.0034,-0000.0982,00000.2871,00001.0483,00185.5903,00088.1908
0000000230,-0000.4144,00000.4519,00000.8204,00001.0242,00132.5182,00088.8998
0000000231,-0000.9755,-0000.1065,00000.2882,00001.0227,00186.2288,00088.2392
0000000232,-0000.3845,00000.4176,00000.7277,00000.9229,00132.6423,00088.9815
0000000233,-0001.0033,00000.3023,00000.2936,00001.0882,00163.2348,00088.1196
0000000234,-0000.3901,00000.4054,00000.7084,00000.9046,00133.8920,00088.9905
0000000235,-0000.9648,00000.2646,00000.2925,00001.0423,00164.6639,00088.2047
0000000236,-0000.4034,00000.3589,00000.6185,00000.8210,00138.3412,00089.0313
0000000237,-0000.8145,00000.2618,00000.3122,00000.9108,00162.1807,00088.4648
0000000238,-0000.3892,00000.3241,00000.5540,00000.7506,00140.2158,00089.0912
0000000239,-0000.7391,00000.2441,00000.2938,00000.8320,00161.7249,00088.6033
0000000240,-0000.3685,00000.5184,00000.8563,00001.0666,00125.4112,00088.8588
0000000241,-0000.6547,00000.2040,00000.2694,00000.7367,00162.6968,00088.7696
0000000242,-0000.3381,00000.4911,00000.8289,00001.0210,00124.5457,00088.9303
0000000243,-0000.9434,00000.1705,00000.4078,00001.0418,00169.7543,00088.2797
0000000244,-0000.3167,00000.4360,00000.7476,00000.9216,00125.9912,00089.0331
0000000245,-0000.9479,00000.2053,00000.2969,00001.0143,00167.7795,00088.2596
0000000246,-0000.2856,00000.3648,00000.6782,00000.8213,00128.0595,00089.1688
0000000247,-0000.9943,00000.1771,00000.2551,00001.0417,00169.9037,00088.1876
0000000248,-0000.2597,00000.2953,00000.6011,00000.7183,00131.3302,00089.2943
0000000249,-0000.8867,00000.1369,00000.2698,00000.9369,00171.2236,00088.3900
0000000250,-0000.9055,-0000.3082,00000.3024,00001.0032,00198.7964,00088.2836
0000000251,-0000.1793,00000.3079,00001.0037,00001.0651,00120.2050,00089.3607
0000000252,-0000.9203,-0000.3248,00000.3161,00001.0258,00199.4422,00088.2488
0000000253,-0000.1855,00000.2987,00000.9541,00001.0169,00121.8453,00089.3690
0000000254,-0000.9483,-0000.3302,00000.3319,00001.0576,00199.1950,00088.1980
0000000255,-0000.1913,00000.2770,00000.8536,00000.9176,00124.6304,00089.3960
0000000256,-0000.9646,-0000.3331,00000.3351,00001.0741,00199.0543,00088.1688
0000000257,-0000.1566,00000.2499,00000.7633,00000.8183,00122.0728,00089.4709
0000000258,-0000.8268,-0000.2854,00000.3078,00000.9273,00199.0430,00088.4304
0000000259,-0000.1530,00000.2086,00000.6678,00000.7162,00126.2594,00089.5358
0000000260,-0000.0040,00000.3725,00000.9973,00001.0646,00090.6090,00089.3316
0000000261,-0000.7871,-0000.2678,00000.3010,00000.8842,00198.7873,00088.5081
0000000262,-0000.7300,-0000.2477,00000.3010,00000.8276,00198.7454,00088.6167
0000000263,00000.0057,00000.3533,00000.9534,00001.0168,00089.0748,00089.3660
0000000264,-0000.7117,-0000.2431,00000.2973,00000.8087,00198.8624,00088.6506
0000000265,-0000.0061,00000.3203,00000.8625,00000.9201,00091.0948,00089.4252
0000000266,-0000.6268,-0000.2225,00000.2783,00000.7210,00199.5474,00088.8066
0000000267,-0000.0324,00000.2616,00000.7761,00000.8196,00097.0696,00089.5271
0000000268,-0000.9461,-0000.3824,00000.2654,00001.0544,00202.0087,00088.1687
0000000269,-0000.0501,00000.2060,00000.6560,00000.6894,00103.6643,00089.6197
0000000270,-0000.9181,-0000.3743,00000.2656,00001.0264,00202.1792,00088.2209
0000000271,00000.2460,00000.4162,00000.9496,00001.0657,00059.4129,00089.1324
0000000272,-0000.7962,-0000.5279,00000.2956,00001.0000,00213.5446,00088.2858
0000000273,00000.2413,00000.3853,00000.9104,00001.0176,00057.9489,00089.1843
0000000274,-0000.8180,-0000.5389,00000.3291,00001.0333,00213.3764,00088.2423
0000000275,00000.1898,00000.3460,00000.8332,00000.9219,00061.2612,00089.2919
0000000276,-0000.7117,-0000.4468,00000.3282,00000.9022,00212.1217,00088.4921
0000000277,-0000.0442,00000.2044,00001.0361,00001.0570,00102.1975,00089.6248
0000000278,-0000.6508,-0000.4079,00000.3131,00000.8295,00212.0773,00088.6218
0000000279,-0000.0396,00000.1952,00000.9972,00001.0169,00101.4639,00089.6427
0000000280,-0000.0548,00000.1981,00000.8851,00000.9087,00105.4626,00089.6311
0000000281,-0000.5551,-0000.3674,00000.2861,00000.7245,00213.4979,00088.8056
0000000282,-0000.5153,00000.6165,00000.7203,00001.0790,00129.8913,00088.5583
0000000283,-0000.4546,-0000.4223,00000.3624,00000.7186,00222.8871,00088.8867
0000000284,-0000.4891,00000.5813,00000.6932,00001.0284,00130.0741,00088.6368
0000000285,-0000.4441,-0000.4149,00000.3539,00000.7034,00223.0520,00088.9094
0000000286,-0000.4437,00000.5280,00000.6484,00000.9466,00130.0413,00088.7624
0000000287,-0000.7090,-0000.4923,00000.4648,00000.9804,00214.7741,00088.4511
0000000288,-0000.4391,00000.5122,00000.6304,00000.9234,00130.6052,00088.7894
0000000289,-0000.7856,-0000.5398,00000.4560,00001.0566,00214.4952,00088.2896
0000000290,-0000.6590,-0000.4693,00000.3272,00000.8726,00215.4551,00088.5484
0000000291,-0000.3463,00000.4066,00000.4959,00000.7288,00130.4238,00089.0418
0000000292,-0000.6191,-0000.4461,00000.3095,00000.8234,00215.7791,00088.6308
0000000293,-0000.3387,00000.3944,00000.4757,00000.7047,00130.6567,00089.0672
0000000294,-0000.5275,-0000.4112,00000.2783,00000.7245,00217.9403,00088.7999
0000000295,-0000.2828,00000.7072,00000.7629,00001.0780,00111.7942,00088.6333
0000000296,-0000.7671,-0000.6881,00000.2975,00001.0726,00221.8909,00088.1508
0000000297,-0000.2592,00000.6608,00000.7377,00001.0238,00111.4174,00088.7263
0000000298,-0000.7316,-0000.6662,00000.4104,00001.0712,00222.3177,00088.2244
0000000299,-0000.2388,00000.5927,00000.6737,00000.9286,00111.9476,00088.8535
0000000300,-0000.6719,-0000.6162,00000.4197,00001.0037,00222.5264,00088.3640
0000000301,-0000.1879,00000.4647,00000.5609,00000.7523,00112.0188,00089.1005
0000000302,-0000.6012,-0000.6832,00000.5660,00001.0717,00228.6545,00088.3671
0000000303,-0000.1960,00000.4311,00000.5504,00000.7260,00114.4474,00089.1504
0000000304,-0000.5689,-0000.6440,00000.5475,00001.0189,00228.5432,00088.4580
0000000305,-0000.2532,00000.5074,00000.8733,00001.0412,00116.5182,00088.9825
0000000306,-0000.5266,-0000.5649,00000.4985,00000.9192,00227.0081,00088.6142
0000000307,-0000.2317,00000.4851,00000.8638,00001.0174,00115.5354,00089.0354
0000000308,-0000.6527,-0000.6004,00000.3168,00000.9418,00222.6107,00088.4086
0000000309,-0000.2058,00000.4146,00000.7954,00000.9203,00116.4019,00089.1695
0000000310,-0000.6833,-0000.7077,00000.3579,00001.0468,00226.0084,00088.2347
0000000311,-0000.0374,00000.7476,00000.7697,00001.0736,00092.8651,00088.6568
0000000312,-0000.6842,-0000.6825,00000.3614,00001.0317,00224.9309,00088.2659
0000000313,-0000.0276,00000.7078,00000.7559,00001.0359,00092.2310,00088.7291
0000000314,-0000.5993,-0000.6340,00000.2646,00000.9117,00226.6137,00088.4345
0000000315,-0000.0268,00000.6986,00000.7446,00001.0213,00092.1999,00088.7456
0000000316,-0000.9330,00000.3869,00000.3169,00001.0586,00157.4756,00088.1874
0000000317,-0000.0256,00000.6876,00000.7409,00001.0111,00092.1318,00088.7653
0000000318,-0000.4517,-0000.1534,00000.8099,00000.9399,00198.7588,00089.1441
0000000319,-0000.0399,00000.6336,00000.6765,00000.9277,00093.6010,00088.8609
0000000320,-0000.7774,-0000.2767,00000.4156,00000.9239,00199.5919,00088.5193
0000000321,-0000.0271,00000.5460,00000.6242,00000.8298,00092.8428,00089.0191
0000000322,-0000.8004,-0000.2496,00000.4167,00000.9363,00197.3186,00088.4956
0000000323,-0000.0516,00000.4792,00000.5457,00000.7281,00096.1473,00089.1352
0000000324,-0000.7171,-0000.2008,00000.4459,00000.8680,00195.6426,00088.6637
0000000325,-0000.0612,00000.4198,00000.6338,00000.7626,00098.2888,00089.2389
0000000326,-0000.6299,-0000.2138,00000.5717,00000.8771,00198.7524,00088.8064
0000000327,-0000.1519,00000.5403,00000.9124,00001.0712,00105.7018,00088.9930
0000000328,-0000.6048,-0000.1848,00000.5908,00000.8655,00196.9872,00088.8652
0000000329,-0000.1474,00000.4978,00000.8797,00001.0215,00106.5001,00089.0685
0000000330,-0000.6619,00000.0732,00000.5509,00000.8643,00173.6871,00088.8052
0000000331,-0000.1225,00000.4495,00000.7933,00000.9200,00105.2442,00089.1641
0000000332,-0000.6955,-0000.3462,00000.3587,00000.8557,00206.4627,00088.6059
0000000333,-0000.5520,00000.4524,00000.7943,00001.0679,00140.6681,00088.7194
0000000334,-0000.7804,-0000.2773,00000.2520,00000.8657,00199.5632,00088.5139
0000000335,-0000.5328,00000.4206,00000.7626,00001.0210,00141.7120,00088.7820
0000000336,-0000.7830,-0000.2035,00000.2188,00000.8380,00194.5661,00088.5484
0000000337,-0000.4859,00000.3782,00000.6847,00000.9208,00142.1082,00088.8951
0000000338,-0000.7903,-0000.1755,00000.2214,00000.8393,00192.5176,00088.5474
0000000339,-0000.4235,00000.2230,00000.5673,00000.7422,00152.2310,00089.1412
0000000340,-0000.7863,-0000.1588,00000.2231,00000.8326,00191.4208,00088.5606
0000000341,-0000.4117,00000.2184,00000.5453,00000.7173,00152.0534,00089.1638
0000000342,-0000.2674,-0000.1017,00000.7465,00000.7994,00200.8246,00089.4868
0000000343,-0000.3940,00000.2162,00000.5339,00000.6979,00151.2480,00089.1936
0000000344,-0000.2284,-0000.1423,00000.7182,00000.7670,00211.9292,00089.5171
0000000345,-0000.4116,00000.1914,00000.9633,00001.0649,00155.0671,00089.1855
0000000346,-0000.4142,00000.0441,00000.6205,00000.7473,00173.9170,00089.2527
0000000347,-0000.4056,00000.1834,00000.9161,00001.0185,00155.6697,00089.2013
0000000348,-0000.3593,00000.0052,00000.6742,00000.7640,00179.1655,00089.3553
0000000349,-0000.3711,00000.1624,00000.8255,00000.9195,00156.3636,00089.2733
0000000350,-0000.0935,-0000.0375,00000.7326,00000.7395,00201.8777,00089.8193
0000000351,-0000.2828,00000.1576,00000.7522,00000.8189,00150.8721,00089.4192
0000000352,-0000.6674,-0000.2095,00000.4186,00000.8152,00197.4254,00088.7448
0000000353,-0000.2601,00000.1712,00000.7236,00000.7878,00146.6454,00089.4413
0000000354,-0000.6414,00000.2255,00000.4091,00000.7935,00160.6333,00088.7801
0000000355,-0000.2394,00000.1530,00000.6611,00000.7195,00147.4209,00089.4903
0000000356,-0000.6997,00000.1897,00000.3779,00000.8175,00164.8336,00088.6992
0000000357,-0000.2799,00000.2096,00000.9992,00001.0586,00143.1773,00089.3726
0000000358,-0000.7683,-0000.3738,00000.2573,00000.8923,00205.9416,00088.4668
0000000359,-0000.2963,00000.2071,00000.9571,00001.0231,00145.0441,00089.3514
0000000360,-0000.6779,-0000.4101,00000.2229,00000.8230,00211.1765,00088.5783
0000000361,-0000.3007,00000.2042,00000.9510,00001.0181,00145.8245,00089.3478
0000000362,-0000.6568,-0000.3800,00000.1925,00000.7828,00210.0545,00088.6385
0000000363,-0000.3246,00000.2181,00000.8293,00000.9169,00146.1057,00089.2984
0000000364,-0000.6859,-0000.4121,00000.1724,00000.8185,00210.9958,00088.5642
0000000365,-0000.3322,00000.2058,00000.7717,00000.8651,00148.2208,00089.2988
0000000366,-0000.6195,-0000.4963,00000.2572,00000.8344,00218.7020,00088.5756
0000000367,-0000.3386,00000.1701,00000.7056,00000.8009,00153.3232,00089.3201
0000000368,-0000.7090,00000.2920,00000.2116,00000.7955,00157.6154,00088.6241
0000000369,-0000.3483,00000.1402,00000.6979,00000.7924,00158.0695,00089.3263
0000000370,-0000.3386,-0000.0158,00000.6097,00000.6976,00182.6684,00089.3919
0000000371,-0000.3992,00000.2830,00000.7984,00000.9364,00144.6690,00089.1221
0000000372,-0000.2387,-0000.0255,00000.6447,00000.6880,00186.0918,00089.5693
0000000373,-0000.6537,00000.3550,00000.7679,00001.0691,00151.4962,00088.6653
0000000374,-0000.1281,00000.0312,00000.6992,00000.7115,00166.3154,00089.7635
0000000375,-0000.6205,00000.3323,00000.7262,00001.0113,00151.8308,00088.7371
0000000376,-0000.3025,-0000.0833,00000.6395,00000.7123,00195.4061,00089.4371
0000000377,-0000.5608,00000.3071,00000.6723,00000.9278,00151.2929,00088.8528
0000000378,-0000.3760,00000.0889,00000.5965,00000.7107,00166.6895,00089.3068
0000000379,-0000.4942,00000.2496,00000.5905,00000.8094,00153.2060,00089.0067
0000000380,-0000.4733,00000.0198,00000.5111,00000.6968,00177.6050,00089.1501
0000000381,-0000.4714,00000.1547,00000.5155,00000.7154,00161.8315,00089.1099
0000000382,-0000.4789,-0000.1833,00000.5037,00000.7188,00200.9450,00089.0800
0000000383,-0000.5163,00000.2053,00000.6225,00000.8344,00158.3192,00089.0031
0000000384,-0000.4636,-0000.0915,00000.5365,00000.7149,00191.1622,00089.1522
0000000385,-0000.5898,00000.2969,00000.8453,00001.0726,00153.2783,00088.8152
0000000386,-0000.4515,00000.1777,00000.4852,00000.6862,00158.5122,00089.1294
0000000387,-0000.5609,00000.2793,00000.8040,00001.0193,00153.5245,00088.8757
0000000388,-0000.5454,-0000.2236,00000.3995,00000.7121,00202.2944,00088.9424
0000000389,-0000.4986,00000.5289,00000.7844,00001.0694,00133.3140,00088.6957
0000000390,-0000.5457,-0000.0606,00000.4023,00000.6807,00186.3356,00089.0148
0000000391,-0000.5006,00000.3250,00000.8417,00001.0318,00147.0081,00088.9291
0000000392,-0000.6110,-0000.1961,00000.2845,00000.7019,00197.7971,00088.8487
0000000393,-0000.3497,00000.2272,00000.5874,00000.7204,00146.9950,00089.2517
0000000394,-0000.6172,-0000.3275,00000.2257,00000.7342,00207.9560,00088.7463
0000000395,00000.3761,00000.6390,00000.7713,00001.0699,00059.5219,00088.6695
0000000396,-0000.6241,-0000.3333,00000.1993,00000.7351,00208.1066,00088.7305
0000000397,00000.3535,00000.6054,00000.7521,00001.0282,00059.7206,00088.7421
0000000398,-0000.6264,-0000.1931,00000.2253,00000.6931,00197.1299,00088.8239
0000000399,00000.3371,00000.5683,00000.7309,00000.9853,00059.3232,00088.8143
0000000400,00000.3239,00000.5219,00000.6882,00000.9225,00058.1761,00088.8978
0000000401,00000.2578,00000.4508,00000.6238,00000.8117,00060.2316,00089.0683
0000000402,00000.1754,00000.4126,00000.5831,00000.7355,00066.9762,00089.1955
0000000403,00000.1645,00000.3933,00000.5703,00000.7121,00067.3045,00089.2350
0000000404,00000.1433,00000.5723,00000.8887,00001.0667,00075.9407,00088.9414
0000000405,00000.1246,00000.5438,00000.8556,00001.0214,00077.0993,00088.9990
0000000406,00000.1125,00000.4986,00000.7676,00000.9222,00077.2903,00089.0829
0000000407,00000.0542,00000.1747,00001.0412,00001.0572,00072.7606,00089.6719
0000000408,00000.0499,00000.1618,00000.9977,00001.0120,00072.8584,00089.6961
0000000409,00000.0667,00000.2006,00000.8839,00000.9088,00071.5983,00089.6207
0000000410,00000.0248,00000.2777,00000.6587,00000.7153,00084.8918,00089.4997
0000000411,-0000.0165,00000.3218,00000.6232,00000.7016,00092.9375,00089.4218
0000000412,00000.1451,00000.2236,00001.0330,00001.0668,00057.0224,00089.5218
0000000413,00000.1262,00000.2183,00000.9479,00000.9809,00059.9581,00089.5476
0000000414,00000.0893,00000.2282,00000.7662,00000.8044,00068.6327,00089.5604
0000000415,00000.0939,00000.2493,00000.6411,00000.6943,00069.3496,00089.5221
0000000416,00000.3798,00000.3486,00000.9360,00001.0686,00042.5489,00089.0749
0000000417,00000.3657,00000.3376,00000.8909,00001.0205,00042.7115,00089.1069
0000000418,00000.3361,00000.3036,00000.8061,00000.9246,00042.0963,00089.1873
0000000419,00000.3260,00000.2973,00000.7668,00000.8847,00042.3653,00089.2083
0000000420,00000.3132,00000.2874,00000.6961,00000.8156,00042.5347,00089.2373
0000000421,00000.2596,00000.2503,00000.6361,00000.7312,00043.9618,00089.3530
0000000422,00000.2486,00000.2478,00000.6024,00000.6972,00044.9112,00089.3701
0000000423,00000.2669,00000.1714,00000.9978,00001.0470,00032.7188,00089.4309
0000000424,00000.2214,00000.1145,00000.9776,00001.0089,00027.3504,00089.5528
0000000425,00000.1773,00000.1602,00000.8761,00000.9081,00042.0998,00089.5712
0000000426,00000.0685,00000.1695,00000.6916,00000.7154,00068.0059,00089.6720
0000000427,00000.4397,00000.5339,00000.8162,00001.0698,00050.5241,00088.7589
0000000428,00000.4378,00000.4945,00000.7846,00001.0256,00048.4843,00088.8149
0000000429,00000.3640,00000.4547,00000.7003,00000.9109,00051.3190,00088.9550
0000000430,00000.2015,00000.3955,00000.5637,00000.7175,00063.0045,00089.2036
0000000431,00000.3364,00000.3724,00000.8974,00001.0282,00047.9117,00089.0996
0000000432,00000.3347,00000.3851,00000.8670,00001.0060,00049.0066,00089.0846
0000000433,00000.2520,00000.5420,00000.8604,00001.0476,00065.0609,00088.9276
0000000434,00000.2707,00000.5370,00000.6899,00000.9152,00063.2430,00088.9210
0000000435,00000.2159,00000.5170,00000.6100,00000.8282,00067.3386,00088.9948
0000000436,00000.1742,00000.4538,00000.5428,00000.7286,00068.9934,00089.1279
0000000437,00000.3175,00000.7441,00000.7080,00001.0750,00066.8938,00088.5484
0000000438,00000.3011,00000.7064,00000.6912,00001.0332,00066.9177,00088.6221
0000000439,00000.2535,00000.6594,00000.6562,00000.9642,00068.9735,00088.7324
0000000440,00000.2270,00000.6549,00000.6402,00000.9435,00070.8793,00088.7563
0000000441,00000.2116,00000.6595,00000.6266,00000.9339,00072.2107,00088.7573
0000000442,00000.1544,00000.5882,00000.5564,00000.8243,00075.2941,00088.9089
0000000443,00000.1153,00000.5093,00000.5120,00000.7314,00077.2461,00089.0630
0000000444,00000.0993,00000.4833,00000.5077,00000.7080,00078.3911,00089.1147
0000000445,00000.1152,00000.4900,00000.5677,00000.7588,00076.7688,00089.0968
0000000446,00000.1983,00000.6176,00000.8107,00001.0382,00072.1999,00088.8362
0000000447,00000.1389,00000.5517,00000.6999,00000.9019,00075.8643,00088.9792
0000000448,00000.0011,00000.6878,00000.7707,00001.0330,00089.9068,00088.7659
0000000449,00000.1691,00000.6876,00000.8080,00001.0743,00076.1852,00088.7295
0000000450,00000.3897,00000.2063,00000.9660,00001.0618,00027.8988,00089.2089
0000000451,00000.3488,00000.1633,00000.9401,00001.0160,00025.0844,00089.3091
0000000452,00000.2930,00000.1596,00000.8467,00000.9100,00028.5749,00089.4014
0000000453,00000.3010,00000.1577,00000.7458,00000.8195,00027.6513,00089.3904
0000000454,00000.3053,00000.1760,00000.6803,00000.7661,00029.9617,00089.3676
0000000455,00000.2938,00000.1787,00000.6257,00000.7139,00031.3133,00089.3830
0000000456,00000.4515,00000.1327,00000.8866,00001.0037,00016.3762,00089.1557
0000000457,00000.5167,00000.1630,00000.8667,00001.0221,00017.5072,00089.0279
0000000458,00000.5003,00000.2279,00000.8197,00000.9870,00024.4929,00089.0135
0000000459,00000.4490,00000.2232,00000.7682,00000.9173,00026.4306,00089.1003
0000000460,00000.4083,00000.3257,00000.8824,00001.0254,00038.5817,00089.0628
0000000461,00000.2773,00000.1433,00000.6467,00000.7181,00027.3185,00089.4400
0000000462,00000.4080,00000.0752,00000.8915,00000.9834,00010.4429,00089.2556
0000000463,00000.5517,00000.1973,00000.8295,00001.0156,00019.6763,00088.9487
0000000464,00000.5586,00000.2604,00000.8200,00001.0258,00024.9923,00088.8941
0000000465,00000.5509,00000.3075,00000.8277,00001.0407,00029.1674,00088.8679
0000000466,00000.5403,00000.3057,00000.8159,00001.0252,00029.5005,00088.8861
0000000467,00000.4595,00000.3138,00000.7311,00000.9188,00034.3316,00089.0015
0000000468,00000.3770,00000.2736,00000.6403,00000.7918,00035.9759,00089.1642
0000000469,00000.1349,00000.9785,00000.4035,00001.0669,00082.1475,00088.2276
0000000470,00000.1262,00000.9561,00000.4367,00001.0586,00082.4800,00088.2695
0000000471,00000.1330,00000.9325,00000.4311,00001.0359,00081.8809,00088.3097
0000000472,00000.0817,00000.8130,00000.4016,00000.9104,00084.2616,00088.5339
0000000473,00000.0632,00000.7299,00000.3692,00000.8204,00085.0490,00088.6855
0000000474,00000.0690,00000.6526,00000.3435,00000.7407,00083.9639,00088.8225
0000000475,00000.0467,00000.6500,00000.3646,00000.7467,00085.8875,00088.8307
0000000476,00000.0746,00000.9181,00000.5437,00001.0697,00085.3549,00088.3470
0000000477,00000.0712,00000.8794,00000.5485,00001.0389,00085.3701,00088.4169
0000000478,00000.0760,00000.8468,00000.6003,00001.0408,00084.8743,00088.4744
0000000479,00000.1753,00000.8378,00000.6388,00001.0681,00078.1809,00088.4641
0000000480,00000.1820,00000.8100,00000.6193,00001.0358,00077.3346,00088.5103
0000000481,00000.1792,00000.7947,00000.6460,00001.0397,00077.2923,00088.5383
0000000482,-0000.3049,00000.9946,00000.3466,00001.0965,00107.0437,00088.1332
0000000483,-0000.3537,00000.9537,00000.4012,00001.0934,00110.3467,00088.1748
0000000484,-0000.3479,00000.9433,00000.4013,00001.0826,00110.2432,00088.1958
0000000485,-0000.3315,00000.9071,00000.4012,00001.0458,00110.0731,00088.2669
0000000486,-0000.2844,00000.8246,00000.3572,00000.9426,00109.0317,00088.4348
0000000487,-0000.2615,00000.7434,00000.3036,00000.8445,00109.3809,00088.5860
0000000488,-0000.2399,00000.6517,00000.2699,00000.7451,00110.2103,00088.7539
0000000489,-0000.2407,00000.6454,00000.2674,00000.7389,00110.4530,00088.7640
0000000490,-0000.2443,00000.8683,00000.5977,00001.0821,00105.7113,00088.3814
0000000491,-0000.2427,00000.8260,00000.5701,00001.0325,00106.3727,00088.4552
0000000492,-0000.2091,00000.7291,00000.4898,00000.9029,00106.0006,00088.6391
0000000493,-0000.1989,00000.6659,00000.4444,00000.8249,00106.6343,00088.7531
0000000494,-0000.2002,00000.5877,00000.3925,00000.7345,00108.8126,00088.8860
0000000495,-0000.1753,00000.8217,00000.6817,00001.0819,00102.0430,00088.4924
0000000496,-0000.1832,00000.7806,00000.6511,00001.0329,00103.2076,00088.5612
0000000497,-0000.1477,00000.6750,00000.6023,00000.9166,00102.3447,00088.7601
0000000498,-0000.1366,00000.6055,00000.5463,00000.8269,00102.7097,00088.8862
0000000499,-0000.1239,00000.5308,00000.4768,00000.7241,00103.1407,00089.0221
0000000500,-0000.3057,00000.5894,00000.6269,00000.9131,00117.4110,00088.8087
0000000501,-0000.3381,00000.6034,00000.6340,00000.9383,00119.2647,00088.7590
0000000502,-0000.3604,00000.6984,00000.6908,00001.0464,00117.2966,00088.5898
0000000503,-0000.3618,00000.7217,00000.7051,00001.0718,00116.6231,00088.5514
0000000504,-0000.4133,00000.7425,00000.6726,00001.0837,00119.0995,00088.4751
0000000505,-0000.3077,00000.5643,00000.5261,00000.8306,00118.6006,00088.8468
0000000506,-0000.2749,00000.4820,00000.4670,00000.7252,00119.6981,00089.0045
0000000507,-0000.2678,00000.5573,00000.5167,00000.8058,00115.6699,00088.8906
0000000508,-0000.2812,00000.7927,00000.5975,00001.0317,00109.5304,00088.4907
0000000509,-0000.3866,00000.8179,00000.6019,00001.0866,00115.3009,00088.3766
0000000510,-0000.3528,00000.8201,00000.5247,00001.0356,00113.2744,00088.3979
0000000511,-0000.3177,00000.7235,00000.4851,00000.9272,00113.7103,00088.5822
0000000512,-0000.2862,00000.6397,00000.4557,00000.8359,00114.1047,00088.7426
0000000513,-0000.2518,00000.5145,00000.3836,00000.6894,00116.0723,00088.9722
0000000514,-0000.2369,00000.5162,00000.3962,00000.6925,00114.6561,00088.9809
0000000515,-0000.1291,00000.9647,00000.4523,00001.0733,00097.6218,00088.2534
0000000516,-0000.1557,00000.9352,00000.4248,00001.0389,00099.4511,00088.2988
0000000517,-0000.1553,00000.7064,00000.3334,00000.7964,00102.3963,00088.7022
0000000518,-0000.1301,00000.6471,00000.3106,00000.7294,00101.3664,00088.8157
0000000519,-0000.1538,00000.8874,00000.6022,00001.0834,00099.8348,00088.3839
0000000520,-0000.1370,00000.7486,00000.5454,00000.9363,00100.3706,00088.6344
0000000521,-0000.0883,00000.6483,00000.5161,00000.8334,00097.7585,00088.8259
0000000522,-0000.0660,00000.5325,00000.4370,00000.6920,00097.0702,00089.0373
0000000523,-0000.6224,00000.7701,00000.4422,00001.0844,00128.9454,00088.2231
0000000524,-0000.5848,00000.7443,00000.4323,00001.0406,00128.1547,00088.3014
0000000525,-0000.4927,00000.6213,00000.3804,00000.8794,00128.4158,00088.5772
0000000526,-0000.4746,00000.5691,00000.3601,00000.8239,00129.8272,00088.6704
0000000527,-0000.3986,00000.4808,00000.3420,00000.7121,00129.6613,00088.8794
0000000528,-0000.5711,00000.7635,00000.4889,00001.0715,00126.7948,00088.2890
0000000529,-0000.5149,00000.8166,00000.5015,00001.0879,00122.2332,00088.2677
0000000530,-0000.5419,00000.8132,00000.3755,00001.0468,00123.6797,00088.2465
0000000531,-0000.6207,00000.8360,00000.2983,00001.0832,00126.5928,00088.1314
0000000532,-0000.6144,00000.8338,00000.3026,00001.0790,00126.3847,00088.1414
0000000533,-0000.5937,00000.7956,00000.3060,00001.0387,00126.7305,00088.2187
0000000534,-0000.5353,00000.7118,00000.3112,00000.9434,00126.9425,00088.4019
0000000535,-0000.4567,00000.6294,00000.3152,00000.8391,00125.9679,00088.6046
0000000536,-0000.4479,00000.6242,00000.3159,00000.8307,00125.6635,00088.6214
0000000537,-0000.3880,00000.5520,00000.2981,00000.7377,00125.1008,00088.7893
0000000538,-0000.7558,00000.5069,00000.4872,00001.0323,00146.1497,00088.3670
0000000539,-0000.7543,00000.5132,00000.5083,00001.0444,00145.7693,00088.3629
0000000540,-0000.7599,00000.5484,00000.5231,00001.0732,00144.1835,00088.3184
0000000541,-0000.7203,00000.5436,00000.5042,00001.0337,00142.9589,00088.3807
0000000542,-0000.6339,00000.5022,00000.4720,00000.9364,00141.6150,00088.5488
0000000543,-0000.5685,00000.4406,00000.4263,00000.8361,00142.2237,00088.7094
0000000544,-0000.5045,00000.3692,00000.3805,00000.7318,00143.8018,00088.8783
0000000545,-0000.7873,00000.4728,00000.5538,00001.0725,00149.0118,00088.3520
0000000546,-0000.7607,00000.4557,00000.5375,00001.0370,00149.0751,00088.4087
0000000547,-0000.6745,00000.4197,00000.4782,00000.9273,00148.1089,00088.5745
0000000548,-0000.6019,00000.3722,00000.4437,00000.8353,00148.2678,00088.7302
0000000549,-0000.5319,00000.3136,00000.3961,00000.7335,00149.4754,00088.8922
0000000550,-0000.6568,00000.5346,00000.6634,00001.0758,00140.8524,00088.4804
0000000551,-0000.6306,00000.5008,00000.6315,00001.0233,00141.5446,00088.5550
0000000552,-0000.5412,00000.4499,00000.5363,00000.8848,00140.2631,00088.7371
0000000553,-0000.8252,00000.5608,00000.4149,00001.0806,00145.7994,00088.2096
0000000554,-0000.7625,00000.5619,00000.4407,00001.0447,00143.6128,00088.3003
0000000555,-0000.7325,00000.5814,00000.4507,00001.0381,00141.5590,00088.3219
0000000556,-0000.7621,00000.6092,00000.3371,00001.0323,00141.3619,00088.2491
0000000557,-0000.8119,00000.6465,00000.3068,00001.0822,00141.4682,00088.1376
0000000558,-0000.8326,00000.6581,00000.2719,00001.0955,00141.6748,00088.0956
0000000559,-0000.6660,00000.5851,00000.3189,00000.9421,00138.7039,00088.4092
0000000560,-0000.5848,00000.5260,00000.2960,00000.8404,00138.0295,00088.5887
0000000561,-0000.4975,00000.4657,00000.2792,00000.7364,00136.8897,00088.7773
0000000562,-0000.4603,00000.5101,00000.2670,00000.7371,00132.0664,00088.7671
0000000563,-0000.0471,00001.0355,00000.3569,00001.0963,00092.6061,00088.1399
0000000564,-0000.0180,00000.9669,00000.3238,00001.0199,00091.0674,00088.2646
0000000565,-0000.0013,00000.8677,00000.3023,00000.9188,00090.0863,00088.4430
0000000566,-0000.0010,00000.7801,00000.2843,00000.8303,00090.0770,00088.6002
0000000567,00000.0087,00000.6802,00000.2644,00000.7298,00089.2670,00088.7794
0000000568,-0000.0758,00000.9103,00000.3631,00000.9829,00094.7628,00088.3610
0000000569,-0000.0800,00000.8631,00000.3493,00000.9345,00095.2951,00088.4447
0000000570,-0000.0813,00001.0132,00000.2799,00001.0543,00094.5898,00088.1760
0000000571,-0000.1087,00001.0144,00000.2880,00001.0601,00096.1173,00088.1693
0000000572,-0000.2225,00000.9684,00000.3162,00001.0428,00102.9415,00088.2169
0000000573,-0000.3955,00000.9756,00000.2866,00001.0910,00112.0661,00088.1108
0000000574,-0000.3576,00000.9094,00000.3006,00001.0224,00111.4646,00088.2465
0000000575,-0000.2971,00000.8205,00000.3175,00000.9286,00109.9041,00088.4341
0000000576,-0000.1290,00001.0142,00000.2263,00001.0471,00097.2488,00088.1654
0000000577,-0000.1283,00001.0201,00000.2357,00001.0548,00097.1666,00088.1550
0000000578,-0000.0947,00000.7876,00000.2293,00000.8258,00096.8544,00088.5765
0000000579,-0000.1073,00000.6639,00000.2584,00000.7204,00099.1830,00088.7933
0000000580,00000.4912,00000.8752,00000.3472,00001.0620,00060.6946,00088.1991
0000000581,00000.4744,00000.8506,00000.3426,00001.0324,00060.8508,00088.2523
0000000582,00000.4482,00000.7565,00000.3327,00000.9402,00059.3538,00088.4221
0000000583,00000.4407,00000.6256,00000.3191,00000.8291,00054.8367,00088.6268
0000000584,00000.4022,00000.5424,00000.2946,00000.7367,00053.4391,00088.7884
0000000585,00000.3759,00000.5083,00000.2934,00000.6970,00053.5197,00088.8656
0000000586,00000.5549,00000.8381,00000.4030,00001.0829,00056.4936,00088.1963
0000000587,00000.5289,00000.8070,00000.3967,00001.0432,00056.7592,00088.2687
0000000588,00000.4091,00000.5609,00000.3414,00000.7737,00053.8941,00088.7543
0000000589,00000.4466,00000.8488,00000.4995,00001.0814,00062.2493,00088.2789
0000000590,00000.3695,00000.7182,00000.4054,00000.9037,00062.7733,00088.5508
0000000591,00000.3066,00000.6762,00000.3925,00000.8398,00065.6079,00088.6678
0000000592,00000.2207,00000.5635,00000.3547,00000.7015,00068.6098,00088.9141
0000000593,00000.3065,00000.9532,00000.4332,00001.0910,00072.1754,00088.2032
0000000594,00000.2922,00000.9046,00000.4280,00001.0425,00072.0995,00088.2942
0000000595,00000.2605,00000.7924,00000.4114,00000.9301,00071.8015,00088.5032
0000000596,00000.4104,00000.8743,00000.2860,00001.0072,00064.8565,00088.2669
0000000597,00000.4190,00000.7983,00000.2542,00000.9367,00062.3059,00088.3822
0000000598,00000.4014,00000.6901,00000.2667,00000.8417,00059.8135,00088.5675
0000000599,00000.3238,00000.9205,00000.3091,00001.0236,00070.6193,00088.2490
0000000600,00000.2826,00000.8550,00000.2898,00000.9460,00071.7110,00088.3841
0000000601,00000.3474,00000.9855,00000.3039,00001.0882,00070.5827,00088.1248
0000000602,00000.2299,00000.7629,00000.2857,00000.8465,00073.2284,00088.5702
0000000603,00000.1842,00000.6766,00000.2511,00000.7448,00074.7727,00088.7417
0000000604,00000.4762,00000.9168,00000.3376,00001.0868,00062.5529,00088.1461
0000000605,00000.4019,00000.7856,00000.3146,00000.9368,00062.9104,00088.4165
0000000606,00000.3996,00000.9864,00000.2627,00001.0963,00067.9467,00088.0901
0000000607,00000.3532,00000.9477,00000.2619,00001.0447,00069.5576,00088.1851
0000000608,00000.2530,00000.7643,00000.2388,00000.8398,00071.6875,00088.5554
0000000609,00000.2375,00000.6745,00000.2347,00000.7527,00070.6048,00088.7168
0000000610,00000.2305,00000.6587,00000.2368,00000.7369,00070.7098,00088.7478
0000000611,00000.1071,00001.0136,00000.2610,00001.0521,00083.9673,00088.1709
0000000612,00000.1005,00001.0290,00000.2420,00001.0618,00084.4238,00088.1447
0000000613,00000.0807,00001.0187,00000.2538,00001.0529,00085.4699,00088.1662
0000000614,00000.0972,00000.9775,00000.2756,00001.0202,00084.3199,00088.2373
0000000615,00000.0842,00000.9035,00000.2599,00000.9439,00084.6769,00088.3717
0000000616,00000.1028,00000.7782,00000.2672,00000.8292,00082.4757,00088.5916
0000000617,00000.0826,00000.6587,00000.2500,00000.7093,00082.8546,00088.8089
0000000618,00000.5302,00000.5365,00000.6685,00001.0078,00045.3416,00088.6466
0000000619,00000.3798,00000.4118,00000.5930,00000.8158,00047.3160,00088.9948
0000000620,00000.3369,00000.3643,00000.5334,00000.7285,00047.2427,00089.1097
0000000621,00000.5422,00000.6128,00000.6601,00001.0513,00048.4957,00088.5318
0000000622,00000.4185,00000.5387,00000.6335,00000.9310,00052.1626,00088.7760
0000000623,00000.4177,00000.5197,00000.6166,00000.9081,00051.2093,00088.8037
0000000624,00000.5410,00000.6630,00000.5513,00001.0179,00050.7875,00088.4645
0000000625,00000.5889,00000.6546,00000.5565,00001.0417,00048.0241,00088.4200
0000000626,00000.4310,00000.5027,00000.4917,00000.8248,00049.3897,00088.8119
0000000627,00000.3815,00000.4490,00000.4110,00000.7183,00049.6443,00088.9429
0000000628,00000.4790,00000.7009,00000.6618,00001.0764,00055.6508,00088.4767
0000000629,00000.4268,00000.6763,00000.6239,00001.0143,00057.7462,00088.5650
0000000630,00000.3454,00000.5364,00000.5246,00000.8260,00057.2228,00088.8552
0000000631,00000.2876,00000.4681,00000.4758,00000.7268,00058.4285,00089.0142
0000000632,00000.6565,00000.5278,00000.4886,00000.9738,00038.7970,00088.4884
0000000633,00000.6853,00000.6604,00000.4792,00001.0655,00043.9426,00088.2922
0000000634,00000.6709,00000.6609,00000.4367,00001.0380,00044.5697,00088.3102
0000000635,00000.6196,00000.5824,00000.3941,00000.9372,00043.2255,00088.4741
0000000636,00000.5616,00000.5138,00000.3583,00000.8413,00042.4577,00088.6342
0000000637,00000.4785,00000.4372,00000.3242,00000.7247,00042.4145,00088.8370
0000000638,00000.6203,00000.6715,00000.4037,00000.9994,00047.2709,00088.3595
0000000639,00000.6470,00000.7061,00000.4267,00001.0485,00047.4988,00088.2814
0000000640,00000.5311,00000.6567,00000.4129,00000.9401,00051.0335,00088.4845
0000000641,00000.6305,00000.7959,00000.2853,00001.0547,00051.6135,00088.1779
0000000642,00000.6187,00000.7970,00000.2822,00001.0476,00052.1791,00088.1895
0000000643,00000.5422,00000.7111,00000.3014,00000.9436,00052.6732,00088.3954
0000000644,00000.4768,00000.6255,00000.2844,00000.8364,00052.6803,00088.5887
0000000645,-0000.1844,00000.2022,00000.9362,00000.9753,00132.3701,00089.5090
0000000646,-0000.3022,00000.0953,00000.9619,00001.0127,00162.4922,00089.4314
0000000647,-0000.1476,00000.0853,00000.9258,00000.9414,00149.9808,00089.6941
0000000648,-0000.4546,00000.2017,00000.8686,00001.0009,00156.0795,00089.1077
0000000649,-0000.4850,00000.1069,00000.8932,00001.0220,00167.5708,00089.1090
0000000650,-0000.5025,00000.0642,00000.8802,00001.0156,00172.7191,00089.0910
0000000651,-0000.5093,00000.0555,00000.8870,00001.0243,00173.7842,00089.0807
0000000652,-0000.4854,00000.0506,00000.8899,00001.0150,00174.0470,00089.1243
0000000653,-0000.4553,00000.0463,00000.9111,00001.0196,00174.1935,00089.1789
0000000654,00000.1492,00000.0911,00000.9533,00000.9692,00031.4121,00089.6864
0000000655,00000.2445,00000.0651,00000.9297,00000.9635,00014.9084,00089.5460
0000000656,00000.0534,00000.0564,00000.9407,00000.9439,00046.5683,00089.8605
0000000657,-0000.3710,00000.6935,00000.6055,00000.9926,00118.1431,00088.5887
0000000658,-0000.2253,00000.6632,00000.6142,00000.9316,00108.7641,00088.7432
0000000659,-0000.0857,00000.7186,00000.6162,00000.9505,00096.7976,00088.7014
0000000660,-0000.0055,00000.8079,00000.5263,00000.9642,00090.3915,00088.5503
0000000661,-0000.4224,00000.7699,00000.3379,00000.9409,00118.7539,00088.4242
0000000662,-0000.3421,00000.8868,00000.2581,00000.9849,00111.0917,00088.2943
0000000663,-0000.4569,00000.8180,00000.3373,00000.9958,00119.1877,00088.3186
0000000664,-0000.5822,00000.7888,00000.2344,00001.0081,00126.4319,00088.2407
0000000665,-0000.6586,00000.6268,00000.3097,00000.9605,00136.4167,00088.3686
0000000666,-0000.7458,00000.5675,00000.2113,00000.9607,00142.7300,00088.3183
0000000667,-0000.7824,00000.4329,00000.3299,00000.9531,00151.0459,00088.3956
0000000668,-0000.7722,00000.3748,00000.4202,00000.9557,00154.1091,00088.4598
0000000669,-0000.7441,00000.4033,00000.4007,00000.9364,00151.5418,00088.4813
0000000670,-0000.7570,00000.4481,00000.3401,00000.9431,00149.3762,00088.4215
0000000671,-0000.8381,00000.4900,00000.2743,00001.0088,00149.6877,00088.2580
0000000672,00000.2978,00000.7995,00000.4193,00000.9506,00069.5687,00088.4691
0000000673,00000.5278,00000.4277,00000.6990,00000.9747,00039.0202,00088.7810
0000000674,00000.6278,00000.4170,00000.5754,00000.9483,00033.5938,00088.6475
0000000675,00000.6418,00000.3997,00000.5385,00000.9283,00031.9138,00088.6433
0000000676,00000.5944,00000.3143,00000.5466,00000.8666,00027.8685,00088.7934
0000000677,00000.7175,00000.4036,00000.4740,00000.9499,00029.3599,00088.5228
0000000678,00000.7147,00000.5166,00000.3610,00000.9529,00035.8622,00088.4176
0000000679,00000.7425,00000.4750,00000.3238,00000.9390,00032.6075,00088.4183
0000000680,00000.6133,00000.4570,00000.3828,00000.8553,00036.6921,00088.6275
0000000681,00000.7090,00000.6365,00000.3177,00001.0044,00041.9158,00088.2901
0000000682,-0000.1857,00000.1779,00000.8322,00000.8710,00136.2379,00089.5386
0000000683,-0000.2043,00000.0556,00000.8429,00000.8691,00164.7866,00089.6201
0000000684,-0000.1409,00000.0650,00000.8504,00000.8645,00155.2177,00089.7216
0000000685,-0000.4101,00000.1720,00000.8018,00000.9169,00157.2498,00089.2021
0000000686,-0000.3955,00000.0709,00000.8155,00000.9092,00169.8441,00089.2790
0000000687,-0000.7499,00000.3891,00000.3720,00000.9231,00152.5768,00088.4840
0000000688,-0000.8244,00000.2969,00000.3617,00000.9480,00160.1966,00088.4277
0000000689,-0000.7737,00000.3100,00000.4254,00000.9358,00158.1661,00088.5044
0000000690,-0000.7197,00000.2897,00000.5013,00000.9237,00158.0708,00088.6079
0000000691,-0000.1625,00000.7964,00000.3767,00000.8958,00101.5296,00088.5415
0000000692,-0000.1956,00000.8719,00000.2820,00000.9370,00102.6420,00088.3966
0000000693,-0000.4540,00000.5139,00000.4550,00000.8230,00131.4613,00088.7696
0000000694,-0000.4178,00000.5761,00000.4936,00000.8661,00125.9469,00088.7231
0000000695,-0000.5298,00000.6812,00000.2397,00000.8957,00127.8714,00088.4514
0000000696,-0000.6224,00000.6366,00000.2257,00000.9185,00134.3539,00088.4024
0000000697,-0000.7012,00000.5779,00000.2006,00000.9305,00140.5036,00088.3695
0000000698,-0000.3306,00000.8339,00000.2470,00000.9304,00111.6274,00088.3904
0000000699,-0000.4026,00000.8019,00000.2465,00000.9305,00116.6585,00088.3899
0000000700,00000.1112,00000.6944,00000.5454,00000.8899,00080.9049,00088.7382
0000000701,00000.0024,00000.7148,00000.5625,00000.9096,00089.8104,00088.7174
0000000702,00000.0474,00000.7297,00000.4474,00000.8572,00086.2850,00088.6880
0000000703,00000.1661,00000.6718,00000.5035,00000.8558,00076.1105,00088.7583
0000000704,00000.2241,00000.6653,00000.5075,00000.8663,00071.3866,00088.7403
0000000705,00000.3346,00000.5814,00000.5167,00000.8467,00060.0808,00088.7964
0000000706,00000.3260,00000.7872,00000.2384,00000.8848,00067.5060,00088.4711
0000000707,00000.5760,00000.3514,00000.5606,00000.8772,00031.3869,00088.7894
0000000708,00000.6347,00000.4128,00000.4528,00000.8822,00033.0369,00088.6415
0000000709,00000.5867,00000.3786,00000.4610,00000.8367,00032.8361,00088.7470
0000000710,00000.5804,00000.3982,00000.4379,00000.8290,00034.4570,00088.7371
0000000711,00000.6032,00000.4228,00000.3960,00000.8363,00035.0265,00088.6783
0000000712,00000.6252,00000.4552,00000.3119,00000.8339,00036.0559,00088.6123
0000000713,00000.5841,00000.5523,00000.2736,00000.8491,00043.3969,00088.5576
0000000714,00000.5741,00000.5606,00000.2651,00000.8451,00044.3217,00088.5602
0000000715,00000.5659,00000.6793,00000.2275,00000.9129,00050.2019,00088.4135
0000000716,-0000.0838,00000.1744,00000.7444,00000.7691,00115.6576,00089.6529
0000000717,-0000.1454,00000.1304,00000.7882,00000.8120,00138.1178,00089.6495
0000000718,00000.0425,00000.1307,00000.7722,00000.7843,00072.0000,00089.7535
0000000719,00000.1623,00000.0762,00000.7247,00000.7466,00025.1465,00089.6783
0000000720,00000.3655,00000.1577,00000.6612,00000.7718,00023.3427,00089.2858
0000000721,00000.4385,00000.1277,00000.5914,00000.7473,00016.2356,00089.1805
0000000722,00000.4912,00000.2179,00000.5584,00000.7749,00023.9206,00089.0359
0000000723,-0000.0057,00000.6208,00000.4849,00000.7878,00090.5304,00088.8861
0000000724,00000.0359,00000.6175,00000.4618,00000.7719,00086.6757,00088.8902
0000000725,00000.1303,00000.6122,00000.4351,00000.7623,00077.9879,00088.8769
0000000726,00000.2258,00000.5591,00000.4278,00000.7393,00068.0110,00088.9181
0000000727,00000.3097,00000.5236,00000.4505,00000.7570,00059.3914,00088.9085
0000000728,-0000.2583,00000.4675,00000.5930,00000.7981,00118.9196,00089.0417
0000000729,-0000.4881,00000.3880,00000.5298,00000.8182,00141.5145,00088.8813
0000000730,-0000.3387,00000.6229,00000.4122,00000.8202,00118.5313,00088.7277
0000000731,-0000.3403,00000.6951,00000.3317,00000.8420,00116.0895,00088.6113
0000000732,-0000.2725,00000.7634,00000.2183,00000.8395,00109.6403,00088.5455
0000000733,-0000.2872,00000.7501,00000.2124,00000.8308,00110.9494,00088.5588
0000000734,-0000.4000,00000.7158,00000.1966,00000.8432,00119.1962,00088.5286
0000000735,-0000.4520,00000.6658,00000.1681,00000.8221,00124.1744,00088.5560
0000000736,-0000.5535,00000.6056,00000.2089,00000.8466,00132.4220,00088.5278
0000000737,-0000.6334,00000.5240,00000.1782,00000.8412,00140.4015,00088.5249
0000000738,-0000.6552,00000.4864,00000.2191,00000.8449,00143.4107,00088.5358
0000000739,-0000.6659,00000.4152,00000.1772,00000.8044,00148.0561,00088.5920
0000000740,-0000.6380,00000.3270,00000.1914,00000.7421,00152.8671,00088.7136
0000000741,-0000.6349,00000.3141,00000.2193,00000.7416,00153.6789,00088.7289
0000000742,-0000.6336,00000.3049,00000.2359,00000.7416,00154.3005,00088.7384
0000000743,-0000.5992,00000.3541,00000.2659,00000.7451,00149.4178,00088.7510
0000000744,-0000.5847,00000.3666,00000.2631,00000.7386,00147.9094,00088.7618
0000000745,-0000.5887,00000.3623,00000.2677,00000.7413,00148.3920,00088.7597
0000000746,00000.4619,00000.3940,00000.5278,00000.8045,00040.4614,00088.9107
0000000747,00000.4929,00000.5015,00000.2304,00000.7399,00045.4953,00088.7384
0000000748,00000.4806,00000.5382,00000.1767,00000.7429,00048.2313,00088.7053
0000000749,00000.4677,00000.5254,00000.1859,00000.7276,00048.3262,00088.7378
0000000750,00000.4986,00000.5754,00000.1994,00000.7871,00049.0879,00088.6338
0000000751,00000.3330,00000.6825,00000.1996,00000.7852,00063.9932,00088.6374
0000000752,-0000.1701,00000.1611,00000.6652,00000.7053,00136.5579,00089.5796
0000000753,-0000.0970,00000.1385,00000.6826,00000.7033,00125.0023,00089.6965
0000000754,00000.1198,00000.1261,00000.6837,00000.7055,00046.4583,00089.6879
0000000755,00000.1779,00000.2253,00000.6618,00000.7214,00051.7145,00089.4849
0000000756,-0000.2106,00000.2435,00000.6347,00000.7117,00130.8519,00089.4223
0000000757,-0000.2703,00000.3979,00000.5379,00000.7216,00124.1891,00089.1369
0000000758,00000.0205,00000.6229,00000.3859,00000.7330,00088.1176,00088.8817
0000000759,00000.0189,00000.5949,00000.3890,00000.7110,00088.1787,00088.9321
0000000760,00000.1242,00000.5577,00000.4019,00000.6986,00077.4463,00088.9748
0000000761,00000.1733,00000.5379,00000.4119,00000.6994,00072.1380,00088.9860
0000000762,-0000.0106,00000.5468,00000.4215,00000.6905,00091.1098,00089.0188
0000000763,-0000.2323,00000.5748,00000.3957,00000.7355,00112.0045,00088.8875
0000000764,-0000.3983,00000.3666,00000.4891,00000.7296,00137.3714,00089.0287
0000000765,00000.4393,00000.1963,00000.5342,00000.7189,00024.0764,00089.1367
0000000766,00000.4601,00000.2105,00000.4840,00000.7002,00024.5873,00089.0922
0000000767,00000.5252,00000.2551,00000.4399,00000.7310,00025.9053,00088.9525
0000000768,00000.4707,00000.3351,00000.4478,00000.7310,00035.4504,00088.9633
0000000769,00000.3566,00000.3031,00000.5325,00000.7089,00040.3602,00089.1603
0000000770,00000.4544,00000.3820,00000.4159,00000.7249,00040.0541,00088.9348
0000000771,00000.4789,00000.0798,00000.9212,00001.0413,00009.4588,00089.1289
0000000772,00000.4162,00000.0923,00000.8145,00000.9193,00012.5001,00089.2351
0000000773,00000.3865,00000.0761,00000.7728,00000.8674,00011.1376,00089.2933
0000000774,00000.3244,00000.0641,00000.6673,00000.7448,00011.1797,00089.4067
0000000775,00000.2801,-0000.0863,00001.0115,00001.0531,00342.8750,00089.4742
0000000776,00000.2884,-0000.0726,00000.9648,00001.0096,00345.8639,00089.4664
0000000777,00000.2777,-0000.0450,00000.8660,00000.9105,00350.7913,00089.4953
0000000778,00000.2823,-0000.0252,00000.7641,00000.8150,00354.9066,00089.4915
0000000779,00000.2337,00000.0168,00000.6357,00000.6774,00004.1133,00089.5797
0000000780,00000.2997,00000.1357,00000.5903,00000.6758,00024.3577,00089.4097
0000000781,00000.3132,00000.0003,00001.0179,00001.0650,00000.0529,00089.4381
0000000782,00000.6800,-0000.3495,00000.7417,00001.0652,00332.7981,00088.6281
0000000783,00000.6396,-0000.3364,00000.7195,00001.0197,00332.2599,00088.7033
0000000784,00000.5591,-0000.3037,00000.6778,00000.9297,00331.4893,00088.8583
0000000785,00000.5461,-0000.3000,00000.6736,00000.9176,00331.2173,00088.8821
0000000786,00000.4707,-0000.2558,00000.6063,00000.8090,00331.4783,00089.0389
0000000787,00000.4192,-0000.2175,00000.5347,00000.7134,00332.5757,00089.1525
0000000788,00000.4344,-0000.3852,00000.8685,00001.0447,00318.4345,00088.9583
0000000789,00000.4211,-0000.3673,00000.8425,00001.0110,00318.9080,00088.9973
0000000790,00000.3897,-0000.3107,00000.7659,00000.9138,00321.4340,00089.1058
0000000791,00000.3812,-0000.2847,00000.7225,00000.8651,00323.2487,00089.1464
0000000792,00000.3578,-0000.2573,00000.6732,00000.8047,00324.2856,00089.2093
0000000793,00000.3220,-0000.1501,00000.6070,00000.7033,00335.0148,00089.3626
0000000794,00000.4640,-0000.2076,00000.9335,00001.0629,00335.8911,00089.0879
0000000795,00000.4603,-0000.1823,00000.9068,00001.0331,00338.3894,00089.1117
0000000796,00000.4515,-0000.1600,00000.8928,00001.0132,00340.4828,00089.1405
0000000797,00000.4298,-0000.1388,00000.7919,00000.9116,00342.0992,00089.1896
0000000798,00000.3884,-0000.1027,00000.7122,00000.8177,00345.1846,00089.2791
0000000799,00000.3370,-0000.0395,00000.5817,00000.6734,00353.3188,00089.3913
0000000800,00000.3831,-0000.2410,00000.9607,00001.0620,00327.8313,00089.1880
0000000801,00000.3786,-0000.2129,00000.9196,00001.0170,00330.6486,00089.2207
0000000802,00000.3844,-0000.1987,00000.9088,00001.0066,00332.6682,00089.2236
0000000803,00000.3613,-0000.1355,00000.8283,00000.9138,00339.4366,00089.3077
0000000804,00000.3468,-0000.1071,00000.7311,00000.8163,00342.8316,00089.3487
0000000805,00000.2950,-0000.0404,00000.6127,00000.6813,00352.1932,00089.4657
0000000806,00000.4466,-0000.0797,00000.9320,00001.0365,00349.8808,00089.1861
0000000807,00000.1052,00000.0755,00001.0221,00001.0302,00035.6693,00089.7678
0000000808,00000.1071,00000.0481,00000.9007,00000.9083,00024.2085,00089.7894
0000000809,00000.7762,-0000.2770,00000.6774,00001.0668,00340.3598,00088.5211
0000000810,00000.7451,-0000.2547,00000.6499,00001.0210,00341.1281,00088.5870
0000000811,00000.6927,-0000.2080,00000.5773,00000.9254,00343.2822,00088.7022
0000000812,00000.6185,-0000.1348,00000.5044,00000.8094,00347.7029,00088.8642
0000000813,00000.5328,-0000.1057,00000.4516,00000.7064,00348.7793,00089.0255
0000000814,00000.7410,-0000.1729,00000.7525,00001.0702,00346.8671,00088.6347
0000000815,00000.7190,-0000.1666,00000.7060,00001.0214,00346.9524,00088.6757
0000000816,00000.6589,-0000.1395,00000.6259,00000.9194,00348.0502,00088.7915
0000000817,00000.4938,-0000.0469,00000.4840,00000.6931,00354.5693,00089.1099
0000000818,00000.6291,-0000.0530,00000.8416,00001.0521,00355.1810,00088.8671
0000000819,00000.6045,-0000.0375,00000.8143,00001.0149,00356.4548,00088.9133
0000000820,00000.5634,-0000.0330,00000.7857,00000.9673,00356.6509,00088.9874
0000000821,00000.5132,-0000.0321,00000.7373,00000.8989,00356.4249,00089.0774
0000000822,00000.4497,-0000.0427,00000.6566,00000.7970,00354.5714,00089.1895
0000000823,00000.3811,-0000.0092,00000.6100,00000.7193,00358.6125,00089.3159
0000000824,00000.5899,00000.0579,00000.8077,00001.0018,00005.6103,00088.9365
0000000825,00000.6096,00000.1004,00000.8173,00001.0246,00009.3563,00088.8915
0000000826,00000.5707,00000.1128,00000.7069,00000.9155,00011.1822,00088.9561
0000000827,00000.5083,00000.1059,00000.6319,00000.8179,00011.7736,00089.0684
0000000828,00000.5793,-0000.0620,00000.8738,00001.0503,00353.8942,00088.9546
0000000829,00000.6963,00000.0414,00000.6987,00000.9873,00003.4067,00088.7485
0000000830,00000.5915,-0000.0155,00000.6951,00000.9128,00358.5011,00088.9384
0000000831,00000.5261,-0000.0156,00000.6288,00000.8200,00358.3003,00089.0557
0000000832,00000.4235,00000.0192,00000.5284,00000.6774,00002.6019,00089.2393
0000000833,00000.5950,-0000.2343,00000.6431,00000.9069,00338.5053,00088.8526
0000000834,00000.5124,-0000.1780,00000.5842,00000.7973,00340.8415,00089.0266
0000000835,00000.4423,-0000.1526,00000.5080,00000.6907,00340.9637,00089.1604
0000000836,00000.4884,-0000.1878,00000.5499,00000.7591,00338.9717,00089.0611
0000000837,00000.4648,-0000.1489,00000.4927,00000.6935,00342.2380,00089.1243
0000000838,00000.8492,-0000.1124,00000.6527,00001.0770,00352.4594,00088.4629
0000000839,00000.8152,-0000.0849,00000.6152,00001.0249,00354.0530,00088.5292
0000000840,00000.7435,-0000.0247,00000.5458,00000.9226,00358.1005,00088.6652
0000000841,00000.6755,00000.0034,00000.4771,00000.8270,00000.2898,00088.7879
0000000842,00000.5647,-0000.0128,00000.4513,00000.7230,00358.7017,00088.9866
0000000843,00000.6563,-0000.4122,00000.7276,00001.0630,00327.8696,00088.6094
0000000844,00000.6086,-0000.3984,00000.7143,00001.0195,00326.7896,00088.6948
0000000845,00000.4014,-0000.2949,00000.8837,00001.0144,00323.6987,00089.1063
0000000846,00000.4859,-0000.3734,00000.8264,00001.0288,00322.4583,00088.9004
0000000847,00000.5221,-0000.2550,00000.7154,00000.9216,00333.9739,00088.9574
0000000848,00000.6456,-0000.1534,00000.7955,00001.0359,00346.6347,00088.8094
0000000849,00000.6015,-0000.2042,00000.7942,00001.0170,00341.2515,00088.8602
0000000850,00000.4512,-0000.1013,00000.5412,00000.7119,00347.3443,00089.1704
0000000851,00000.6735,-0000.4949,00000.6329,00001.0484,00323.6902,00088.5003
0000000852,00000.6875,-0000.4706,00000.5790,00001.0146,00325.6084,00088.5049
0000000853,00000.6488,-0000.4189,00000.5451,00000.9453,00327.1496,00088.6143
0000000854,00000.6377,-0000.3974,00000.5178,00000.9126,00328.0724,00088.6517
0000000855,00000.5756,-0000.3517,00000.4758,00000.8254,00328.5706,00088.7896
0000000856,00000.4883,-0000.3046,00000.4511,00000.7313,00328.0465,00088.9673
0000000857,00000.4870,-0000.3006,00000.4455,00000.7253,00328.3176,00088.9731
0000000858,00000.5677,-0000.3762,00000.5018,00000.8459,00326.4638,00088.7780
0000000859,00000.8353,00000.3201,00000.4765,00001.0136,00020.9655,00088.3948
0000000860,00000.8043,00000.4687,00000.5092,00001.0610,00030.2316,00088.3296
0000000861,00000.7714,00000.2242,00000.7161,00001.0762,00016.2083,00088.5584
0000000862,00000.7162,00000.2122,00000.7063,00001.0280,00016.5014,00088.6597
0000000863,00000.6252,00000.1900,00000.6266,00000.9053,00016.9083,00088.8275
0000000864,00000.5598,00000.1822,00000.5778,00000.8249,00018.0270,00088.9437
0000000865,00000.7287,00000.3027,00000.7193,00001.0677,00022.5611,00088.5841
0000000866,00000.6715,00000.3199,00000.7024,00001.0230,00025.4682,00088.6653
0000000867,00000.6654,00000.5592,00000.6444,00001.0820,00040.0401,00088.4403
0000000868,00000.6948,00000.4332,00000.7002,00001.0774,00031.9413,00088.5307
0000000869,00000.8409,00000.2296,00000.6291,00001.0750,00015.2692,00088.4359
0000000870,00000.7872,00000.2273,00000.6130,00001.0233,00016.1047,00088.5298
0000000871,00000.6989,00000.2178,00000.5740,00000.9302,00017.3076,00088.6866
0000000872,00000.6088,00000.1961,00000.5252,00000.8276,00017.8562,00088.8524
0000000873,00000.8423,00000.3355,00000.5716,00001.0718,00021.7204,00088.3731
0000000874,00000.8325,00000.4004,00000.5631,00001.0819,00025.6861,00088.3423
0000000875,00000.9076,00000.1323,00000.5552,00001.0722,00008.2932,00088.3542
0000000876,00000.8479,00000.1340,00000.5424,00001.0155,00008.9780,00088.4596
0000000877,00000.7569,00000.1431,00000.5132,00000.9256,00010.7074,00088.6178
0000000878,00000.7322,00000.1449,00000.4975,00000.8970,00011.1972,00088.6606
0000000879,00000.5782,00000.1587,00000.4060,00000.7241,00015.3500,00088.9241
0000000880,00000.7931,00000.0697,00000.7063,00001.0643,00005.0199,00088.5714
0000000881,00000.8443,00000.0120,00000.6161,00001.0452,00000.8125,00088.4849
0000000882,00000.8176,00000.0123,00000.6044,00001.0168,00000.8599,00088.5328
0000000883,00000.6152,00000.0356,00000.5022,00000.7950,00003.3104,00088.8943
0000000884,00000.5851,00000.0331,00000.4864,00000.7616,00003.2411,00088.9484
0000000885,00000.5362,00000.0529,00000.4559,00000.7058,00005.6388,00089.0333
0000000886,00000.9016,00000.0148,00000.5423,00001.0522,00000.9404,00088.3819
0000000887,00000.8676,-0000.1576,00000.5819,00001.0565,00349.7027,00088.4178
0000000888,00001.0186,-0000.0231,00000.3142,00001.0662,00358.6988,00088.1717
0000000889,00001.0108,-0000.0883,00000.3263,00001.0658,00355.0063,00088.1793
0000000890,00000.9732,-0000.1067,00000.3257,00001.0318,00353.7460,00088.2432
0000000891,00000.8709,-0000.0810,00000.3064,00000.9268,00354.6896,00088.4305
0000000892,00000.7182,-0000.0433,00000.2741,00000.7700,00356.5468,00088.7089
0000000893,00000.6830,-0000.0154,00000.2556,00000.7295,00358.7052,00088.7741
0000000894,00001.0221,00000.0471,00000.3475,00001.0805,00002.6410,00088.1640
0000000895,00000.9658,00000.0626,00000.3370,00001.0248,00003.7058,00088.2633
0000000896,00000.8769,00000.0557,00000.3217,00000.9357,00003.6321,00088.4233
0000000897,00000.7248,00000.0542,00000.2891,00000.7822,00004.2773,00088.6958
0000000898,00000.6720,00000.0454,00000.2782,00000.7287,00003.8655,00088.7915
0000000899,00001.0106,00000.1893,00000.3448,00001.0844,00010.6086,00088.1550
0000000900,00000.9698,00000.1911,00000.3429,00001.0462,00011.1449,00088.2263
0000000901,00000.9691,00000.1944,00000.3344,00001.0435,00011.3436,00088.2263
0000000902,00000.8711,00000.1862,00000.3026,00000.9408,00012.0629,00088.4016
0000000903,00000.7488,00000.1667,00000.2968,00000.8225,00012.5530,00088.6235
0000000904,00000.6588,00000.1467,00000.2828,00000.7318,00012.5517,00088.7890
0000000905,00000.9093,00000.4511,00000.3707,00001.0806,00026.3858,00088.1785
0000000906,00000.8497,00000.4238,00000.3296,00001.0051,00026.5087,00088.2962
0000000907,00000.7782,00000.3648,00000.2878,00000.9064,00025.1121,00088.4577
0000000908,00000.7099,00000.3190,00000.2810,00000.8275,00024.1927,00088.6035
0000000909,00000.6225,00000.2642,00000.2702,00000.7283,00022.9998,00088.7866
0000000910,00000.8604,00000.4221,00000.2222,00000.9838,00026.1328,00088.2803
0000000911,00000.7898,00000.4029,00000.2378,00000.9180,00027.0257,00088.4089
0000000912,00000.8891,00000.5385,00000.3372,00001.0928,00031.1997,00088.1347
0000000913,00000.9251,00000.4225,00000.2869,00001.0567,00024.5448,00088.1750
0000000914,00000.6893,00000.3741,00000.2382,00000.8196,00028.4877,00088.5928
0000000915,00000.6018,00000.3740,00000.2133,00000.7399,00031.8573,00088.7286
0000000916,00000.7800,00000.6442,00000.3226,00001.0618,00039.5544,00088.1847
0000000917,00000.9614,-0000.0436,00000.2653,00000.9983,00357.4025,00088.2730
0000000918,00000.9912,00000.1113,00000.2896,00001.0387,00006.4073,00088.2101
0000000919,00000.9464,00000.3401,00000.3278,00001.0577,00019.7662,00088.1954
0000000920,00000.9384,00000.3344,00000.3100,00001.0433,00019.6130,00088.2124
0000000921,00000.8472,-0000.4203,00000.3112,00000.9956,00333.6122,00088.3030
0000000922,00000.8213,-0000.4600,00000.3114,00000.9915,00330.7500,00088.3108
0000000923,00000.8284,-0000.4445,00000.2730,00000.9790,00331.7848,00088.3130
0000000924,00000.8869,-0000.4652,00000.2761,00001.0389,00332.3243,00088.2028
0000000925,00000.8085,-0000.3892,00000.2628,00000.9350,00334.2927,00088.3899
0000000926,00000.7069,-0000.3453,00000.2408,00000.8228,00333.9692,00088.5883
0000000927,00000.7061,-0000.3448,00000.2383,00000.8211,00333.9707,00088.5900
0000000928,00000.6375,-0000.2959,00000.2154,00000.7351,00335.1057,00088.7389
0000000929,00000.8070,-0000.4971,00000.4879,00001.0660,00328.3659,00088.2992
0000000930,00000.7702,-0000.4816,00000.4797,00001.0272,00327.9838,00088.3701
0000000931,00000.6767,-0000.4506,00000.4428,00000.9258,00326.3434,00088.5412
0000000932,00000.5866,-0000.4287,00000.3961,00000.8275,00323.8365,00088.6963
0000000933,00000.5125,-0000.3666,00000.3540,00000.7228,00324.4220,00088.8693
0000000934,00000.7926,-0000.4489,00000.5647,00001.0717,00330.4725,00088.3655
0000000935,00000.9221,-0000.4408,00000.3217,00001.0715,00334.4505,00088.1660
0000000936,00000.7851,-0000.3737,00000.3220,00000.9272,00334.5463,00088.4397
0000000937,00000.9215,-0000.3115,00000.3903,00001.0481,00341.3251,00088.2545
0000000938,00000.9103,-0000.2992,00000.3871,00001.0334,00341.8028,00088.2806
0000000939,00000.8164,-0000.2629,00000.3729,00000.9352,00342.1483,00088.4610
0000000940,00000.7884,-0000.2597,00000.3651,00000.9068,00341.7669,00088.5105
0000000941,00000.7053,-0000.2562,00000.3472,00000.8268,00340.0390,00088.6535
0000000942,00000.5984,-0000.2166,00000.3263,00000.7151,00340.0989,00088.8581
0000000943,00000.8495,-0000.3537,00000.5473,00001.0706,00337.3951,00088.3488
0000000944,00000.8132,-0000.3348,00000.5352,00001.0295,00337.6214,00088.4220
0000000945,00000.6651,-0000.2249,00000.4393,00000.8283,00341.3193,00088.7402
0000000946,00000.5793,-0000.1983,00000.3856,00000.7237,00341.1044,00088.9013
0000000947,00000.9965,-0000.1835,00000.3283,00001.0651,00349.5673,00088.1817
0000000948,00000.9307,-0000.2892,00000.3090,00001.0224,00342.7393,00088.2512
0000000949,00000.9980,-0000.2880,00000.2975,00001.0805,00343.9054,00088.1360
0000000950,00000.7576,-0000.2207,00000.2734,00000.8351,00343.7594,00088.5840
0000000951,00000.6471,-0000.1971,00000.2683,00000.7277,00343.0644,00088.7862
0000000952,00000.7465,-0000.5891,00000.2910,00000.9944,00321.7201,00088.2936
0000000953,00000.7519,-0000.6570,00000.2793,00001.0369,00318.8538,00088.2082
0000000954,00000.8084,-0000.5722,00000.3483,00001.0499,00324.7092,00088.2226
0000000955,00000.7511,-0000.5493,00000.3615,00000.9982,00323.8215,00088.3303
0000000956,00000.6799,-0000.5093,00000.3462,00000.9173,00323.1626,00088.4757
0000000957,00000.6137,-0000.4563,00000.3248,00000.8308,00323.3677,00088.6278
0000000958,00000.5420,-0000.3897,00000.2987,00000.7314,00324.2826,00088.8021
0000000959,00000.7204,-0000.5589,00000.4843,00001.0324,00322.1950,00088.3639
0000000960,00000.5224,-0000.4222,00000.7636,00001.0170,00321.0527,00088.7947
0000000961,00000.4482,-0000.4828,00000.7895,00001.0283,00312.8678,00088.8180
0000000962,00000.3290,-0000.3521,00000.6300,00000.7931,00313.0601,00089.1354
0000000963,00000.2948,-0000.2905,00000.5657,00000.7009,00315.4142,00089.2574
0000000964,00000.5380,-0000.4952,00000.6719,00000.9930,00317.3687,00088.6880
0000000965,00000.5750,-0000.4276,00000.5821,00000.9232,00323.3663,00088.7143
0000000966,00000.4810,-0000.5200,00000.5715,00000.9101,00312.7665,00088.7290
0000000967,00000.4850,-0000.5637,00000.7090,00001.0274,00310.7062,00088.6658
0000000968,00000.4749,-0000.5724,00000.7187,00001.0343,00309.6844,00088.6654
0000000969,00000.4261,-0000.4235,00000.5450,00000.8112,00315.1738,00088.9220
0000000970,00000.4051,-0000.4006,00000.5343,00000.7811,00315.3213,00088.9777
0000000971,00000.3535,-0000.3458,00000.5065,00000.7079,00315.6294,00089.1126
0000000972,00000.4488,-0000.5993,00000.5533,00000.9310,00306.8288,00088.6565
0000000973,00000.4464,-0000.6103,00000.5308,00000.9238,00306.1804,00088.6432
0000000974,00000.8706,-0000.1353,00000.4222,00000.9770,00351.1677,00088.4190
0000000975,00000.8545,-0000.0596,00000.4767,00000.9803,00356.0076,00088.4630
0000000976,00000.9271,-0000.1085,00000.2659,00000.9706,00353.3273,00088.3250
0000000977,00000.7257,-0000.5097,00000.2890,00000.9327,00324.9182,00088.4088
0000000978,00000.7053,-0000.5438,00000.2706,00000.9308,00322.3710,00088.4019
0000000979,00000.7230,-0000.5339,00000.2388,00000.9299,00323.5558,00088.3873
0000000980,00000.7637,-0000.5137,00000.2263,00000.9478,00326.0751,00088.3484
0000000981,00000.6194,-0000.6130,00000.3090,00000.9246,00315.2953,00088.4362
0000000982,00000.5523,-0000.6220,00000.3902,00000.9188,00311.6036,00088.5074
0000000983,00000.4946,-0000.6445,00000.3888,00000.9006,00307.5077,00088.5423
0000000984,00000.5147,-0000.6818,00000.4302,00000.9565,00307.0509,00088.4671
0000000985,00000.5211,-0000.6768,00000.4578,00000.9691,00307.5925,00088.4674
0000000986,00000.6074,-0000.6391,00000.3766,00000.9588,00313.5411,00088.4179
0000000987,00000.5041,00000.1520,00000.6366,00000.8261,00016.7777,00089.0554
0000000988,00000.5790,00000.0544,00000.5967,00000.8332,00005.3652,00088.9566
0000000989,00000.7610,-0000.1774,00000.3728,00000.8658,00346.8773,00088.5978
0000000990,00000.7652,-0000.0281,00000.3876,00000.8583,00357.8957,00088.6260
0000000991,00000.7655,-0000.1088,00000.2312,00000.8070,00351.9123,00088.6126
0000000992,00000.8206,-0000.1096,00000.2625,00000.8685,00352.3909,00088.5145
0000000993,00000.8348,-0000.2328,00000.2499,00000.9019,00344.4202,00088.4449
0000000994,00000.8002,00000.0100,00000.2515,00000.8388,00000.7157,00088.5641
0000000995,00000.8161,00000.0349,00000.2448,00000.8528,00002.4487,00088.5342
0000000996,00000.8533,00000.1011,00000.2458,00000.8937,00006.7562,00088.4582
0000000997,00000.6988,00000.1639,00000.4168,00000.8300,00013.1978,00088.7120
0000000998,00000.7502,00000.2339,00000.4486,00000.9049,00017.3151,00088.5899
0000000999,00000.8381,00000.2412,00000.2321,00000.9024,00016.0567,00088.4351
0000001000,00000.2506,-0000.0820,00000.7940,00000.8366,00341.8864,00089.5270
0000001001,00000.1543,-0000.1376,00000.7879,00000.8146,00318.2780,00089.6291
0000001002,00000.1644,-0000.1705,00000.7706,00000.8062,00313.9647,00089.5750
0000001003,00000.2075,-0000.2500,00000.7698,00000.8355,00309.6840,00089.4171
0000001004,00000.1860,-0000.2608,00000.7274,00000.7948,00305.4943,00089.4253
0000001005,00000.2289,-0000.3036,00000.7227,00000.8166,00307.0180,00089.3178
0000001006,00000.3006,-0000.4058,00000.7031,00000.8657,00306.5284,00089.0938
0000001007,00000.3452,-0000.4204,00000.6451,00000.8438,00309.3962,00089.0240
0000001008,00000.2574,-0000.4760,00000.6046,00000.8114,00298.4073,00089.0291
0000001009,00000.2618,-0000.4929,00000.6014,00000.8205,00297.9795,00088.9986
0000001010,00000.2892,-0000.4836,00000.6330,00000.8475,00300.8811,00088.9890
0000001011,00000.1869,-0000.1591,00000.7064,00000.7479,00319.5995,00089.5596
0000001012,00000.1583,-0000.0242,00000.7674,00000.7839,00351.2971,00089.7126
0000001013,00000.0931,-0000.0448,00000.7603,00000.7673,00334.2836,00089.8146
0000001014,00000.2368,-0000.3632,00000.6825,00000.8086,00303.1067,00089.2221
0000001015,00000.3552,-0000.4339,00000.5447,00000.7817,00309.3063,00088.9939
0000001016,00000.6811,-0000.1785,00000.3657,00000.7934,00345.3130,00088.7366
0000001017,00000.7011,-0000.0522,00000.3827,00000.8004,00355.7426,00088.7386
0000001018,00000.6576,00000.2285,00000.3741,00000.7903,00019.1595,00088.7508
0000001019,00000.7532,00000.2129,00000.2201,00000.8131,00015.7816,00088.5955
0000001020,00000.7303,00000.1858,00000.1865,00000.7763,00014.2749,00088.6478
0000001021,00000.7391,-0000.2040,00000.2213,00000.7980,00344.5659,00088.6243
0000001022,00000.5799,-0000.5254,00000.2656,00000.8263,00317.8229,00088.5959
0000001023,00000.6142,-0000.4707,00000.2520,00000.8138,00322.5354,00088.6114
0000001024,00000.6203,-0000.4312,00000.3429,00000.8296,00325.1935,00088.6445
0000001025,00000.4216,-0000.5635,00000.4290,00000.8242,00306.8042,00088.7373
0000001026,00000.3961,-0000.5775,00000.3933,00000.8032,00304.4473,00088.7435
0000001027,00000.5130,-0000.5583,00000.2993,00000.8151,00312.5778,00088.6395
0000001028,00000.5091,-0000.5273,00000.3355,00000.8060,00313.9941,00088.6849
0000001029,00000.4996,-0000.3512,00000.3149,00000.6871,00324.8952,00088.9043
0000001030,00000.5220,-0000.2869,00000.3947,00000.7145,00331.2101,00088.9313
0000001031,00000.5597,-0000.3787,00000.2655,00000.7261,00325.9187,00088.7874
0000001032,00000.4965,00000.1139,00000.5038,00000.7164,00012.9209,00089.0861
0000001033,00000.6126,-0000.1588,00000.3146,00000.7067,00345.4659,00088.8645
0000001034,00000.6144,-0000.0392,00000.3361,00000.7014,00356.3539,00088.8953
0000001035,00000.6093,00000.0873,00000.3188,00000.6932,00008.1507,00088.8956
0000001036,00000.5775,00000.2108,00000.3681,00000.7166,00020.0506,00088.8969
0000001037,00000.5253,00000.3631,00000.3325,00000.7200,00034.6563,00088.8542
0000001038,00000.3128,00000.4580,00000.4240,00000.6982,00055.6683,00089.0048
0000001039,00000.6655,-0000.2195,00000.1934,00000.7270,00341.7486,00088.7426
0000001040,00000.6846,-0000.1582,00000.1866,00000.7270,00346.9902,00088.7392
0000001041,00000.2728,-0000.0844,00000.6530,00000.7127,00342.8151,00089.4877
0000001042,00000.2099,-0000.0654,00000.6796,00000.7143,00342.6979,00089.6056
0000001043,00000.2158,-0000.1430,00000.6621,00000.7109,00326.4724,00089.5355
0000001044,00000.0335,00000.0544,00000.7134,00000.7163,00058.3731,00089.8853
0000001045,00000.0387,00000.0423,00000.7141,00000.7164,00047.5476,00089.8973
0000001046,00000.0886,00000.0227,00000.7072,00000.7131,00014.3875,00089.8358
0000001047,00000.2416,-0000.4477,00000.9165,00001.0483,00298.3512,00089.0872
0000001048,00000.1991,-0000.4174,00000.8686,00000.9840,00295.4961,00089.1702
0000001049,00000.1977,-0000.2696,00000.6209,00000.7052,00306.2496,00089.4001
0000001050,00000.0598,-0000.2925,00000.9979,00001.0416,00281.5457,00089.4643
0000001051,00000.0531,-0000.2799,00000.9615,00001.0028,00280.7409,00089.4889
0000001052,00000.0678,-0000.2440,00000.8732,00000.9092,00285.5306,00089.5457
0000001053,00000.0798,-0000.2341,00000.8243,00000.8606,00288.8213,00089.5563
0000001054,00000.0695,-0000.2234,00000.7722,00000.8069,00287.2677,00089.5802
0000001055,00000.0979,-0000.1860,00000.6709,00000.7031,00297.7690,00089.6228
0000001056,00000.1028,-0000.6701,00000.8187,00001.0630,00278.7198,00088.7835
0000001057,00000.0935,-0000.3743,00000.5850,00000.7008,00284.0302,00089.3078
0000001058,00000.0873,-0000.3781,00000.6025,00000.7167,00282.9951,00089.3037
0000001059,00000.0588,-0000.4722,00000.7222,00000.8649,00277.1015,00089.1463
0000001060,00000.0439,-0000.5088,00000.7702,00000.9241,00274.9351,00089.0837
0000001061,00000.0220,-0000.5530,00000.8513,00001.0154,00272.2737,00089.0070
0000001062,00000.1138,-0000.3007,00000.6047,00000.6849,00290.7333,00089.4231
0000001063,00000.1166,-0000.3099,00000.6931,00000.7682,00290.6115,00089.4059
0000001064,00000.1203,-0000.3250,00000.7837,00000.8569,00290.3057,00089.3782
0000001065,00000.0810,-0000.3494,00000.8906,00000.9601,00283.0522,00089.3565
0000001066,00000.1879,-0000.3317,00000.5674,00000.6836,00299.5379,00089.3160
0000001067,00000.1450,-0000.3934,00000.7009,00000.8167,00290.2325,00089.2478
0000001068,00000.1295,-0000.4482,00000.8010,00000.9269,00286.1211,00089.1629
0000001069,00000.1052,-0000.5000,00000.8974,00001.0326,00281.8825,00089.0833
0000001070,00000.1147,-0000.7360,00000.7546,00001.0603,00278.8613,00088.6634
0000001071,00000.1238,-0000.6942,00000.7265,00001.0125,00280.1137,00088.7346
0000001072,00000.1383,-0000.6046,00000.6517,00000.8997,00282.8885,00088.8871
0000001073,00000.1496,-0000.5588,00000.5762,00000.8165,00284.9861,00088.9621
0000001074,00000.1418,-0000.4746,00000.5034,00000.7062,00286.6308,00089.1112
0000001075,00000.1668,-0000.4484,00000.4996,00000.6917,00290.4069,00089.1416
0000001076,00000.1064,-0000.4173,00000.9680,00001.0595,00284.3057,00089.2274
0000001077,00000.1132,-0000.2264,00001.0288,00001.0594,00296.5707,00089.5458
0000001078,00000.1449,-0000.2144,00000.9802,00001.0138,00304.0644,00089.5357
0000001079,00000.0970,-0000.0986,00000.9881,00000.9977,00314.5450,00089.7519
0000001080,00000.0851,-0000.1281,00001.0023,00001.0140,00303.5870,00089.7242
0000001081,00000.0753,-0000.1810,00000.8921,00000.9134,00292.5983,00089.6483
0000001082,00000.4253,-0000.6185,00000.6877,00001.0180,00304.5103,00088.6531
0000001083,00000.3958,-0000.5161,00000.8395,00001.0619,00307.4832,00088.8331
0000001084,00000.3748,-0000.4759,00000.8125,00001.0135,00308.2261,00088.9131
0000001085,00000.2071,-0000.6868,00000.7797,00001.0595,00286.7790,00088.7129
0000001086,00000.1966,-0000.6579,00000.7484,00001.0157,00286.6342,00088.7680
0000001087,-0000.0890,-0000.5864,00000.8655,00001.0492,00261.3655,00088.9358
0000001088,-0000.0830,-0000.5536,00000.8430,00001.0119,00261.4769,00088.9956
0000001089,-0000.0906,-0000.4731,00000.8610,00000.9866,00259.1577,00089.1357
0000001090,-0000.1359,-0000.3943,00000.8068,00000.9082,00250.9845,00089.2518
0000001091,-0000.1635,-0000.3795,00000.7943,00000.8953,00246.6944,00089.2585
0000001092,-0000.1553,-0000.3355,00000.7233,00000.8123,00245.1633,00089.3367
0000001093,-0000.1118,-0000.2849,00000.6378,00000.7074,00248.5686,00089.4509
0000001094,-0000.0861,-0000.1726,00001.0246,00001.0426,00243.4798,00089.6540
0000001095,-0000.0628,-0000.1603,00000.9921,00001.0070,00248.6102,00089.6910
0000001096,-0000.0574,-0000.1827,00000.8937,00000.9140,00252.5492,00089.6563
0000001097,-0000.0293,-0000.1397,00000.6946,00000.7091,00258.1417,00089.7439
0000001098,-0000.0277,-0000.1279,00000.6861,00000.6985,00257.7885,00089.7652
0000001099,-0000.2549,-0000.4112,00000.9444,00001.0611,00238.2026,00089.1320
0000001100,-0000.2404,-0000.3880,00000.9016,00001.0105,00238.2179,00089.1810
0000001101,-0000.0785,-0000.2763,00000.6538,00000.7141,00254.1473,00089.4847
0000001102,-0000.1191,-0000.4225,00000.9634,00001.0587,00254.2632,00089.2123
0000001103,00000.4791,-0000.7142,00000.5833,00001.0392,00303.8577,00088.4568
0000001104,00000.3619,-0000.3979,00000.4270,00000.6868,00312.2913,00089.0349
0000001105,00000.3481,-0000.8093,00000.6062,00001.0694,00293.2762,00088.4192
0000001106,00000.3287,-0000.7280,00000.6147,00001.0080,00294.2990,00088.5667
0000001107,00000.2877,-0000.6533,00000.5789,00000.9191,00293.7674,00088.7191
0000001108,00000.2252,-0000.5617,00000.5337,00000.8069,00291.8486,00088.9142
0000001109,00000.2003,-0000.4860,00000.4921,00000.7201,00292.3994,00089.0567
0000001110,00000.5211,-0000.7965,00000.4786,00001.0654,00303.1951,00088.2920
0000001111,00000.5936,-0000.6704,00000.5325,00001.0418,00311.5237,00088.3933
0000001112,00000.2191,-0000.9619,00000.4285,00001.0755,00282.8328,00088.2298
0000001113,00000.2065,-0000.8952,00000.4246,00001.0121,00282.9873,00088.3515
0000001114,00000.1888,-0000.8418,00000.4153,00000.9575,00282.6416,00088.4519
0000001115,00000.1768,-0000.8069,00000.4071,00000.9209,00282.3615,00088.5177
0000001116,00000.1371,-0000.7041,00000.3798,00000.8117,00281.0197,00088.7129
0000001117,00000.1012,-0000.5809,00000.3615,00000.6916,00279.8844,00088.9421
0000001118,00000.1403,-0000.8313,00000.5816,00001.0242,00279.5810,00088.4872
0000001119,00000.1330,-0000.7719,00000.5887,00000.9798,00279.7761,00088.5946
0000001120,00000.1087,-0000.6880,00000.5746,00000.9030,00278.9800,00088.7502
0000001121,00000.0690,-0000.6014,00000.5142,00000.7943,00276.5429,00088.9139
0000001122,00000.3776,-0000.8009,00000.6037,00001.0717,00295.2447,00088.4111
0000001123,00000.3621,-0000.7627,00000.5351,00000.9996,00295.3981,00088.4850
0000001124,00000.3183,-0000.6922,00000.5043,00000.9136,00294.6929,00088.6330
0000001125,00000.2622,-0000.8459,00000.5905,00001.0644,00287.2185,00088.4109
0000001126,00000.2615,-0000.7764,00000.5700,00000.9980,00288.6148,00088.5299
0000001127,00000.5917,-0000.7848,00000.4141,00001.0665,00307.0145,00088.2364
0000001128,00000.3931,-0000.4970,00000.3166,00000.7084,00308.3434,00088.8629
0000001129,00000.5607,-0000.8484,00000.3360,00001.0710,00303.4592,00088.1752
0000001130,00000.3487,-0000.5352,00000.3389,00000.7232,00303.0877,00088.8538
0000001131,00000.6430,-0000.8209,00000.2831,00001.0805,00308.0709,00088.1287
0000001132,00000.6112,-0000.7290,00000.2550,00000.9849,00309.9746,00088.2930
0000001133,00000.5456,-0000.6998,00000.2566,00000.9237,00307.9420,00088.4078
0000001134,00000.3754,-0000.7608,00000.3930,00000.9350,00296.2641,00088.4776
0000001135,00000.3607,-0000.9468,00000.3365,00001.0675,00290.8557,00088.1820
0000001136,00000.2897,-0000.9660,00000.3614,00001.0713,00286.6929,00088.1902
0000001137,00000.2966,-0000.9273,00000.3327,00001.0288,00287.7363,00088.2530
0000001138,00000.2673,-0000.8142,00000.3211,00000.9151,00288.1718,00088.4623
0000001139,00000.2780,-0000.7601,00000.3000,00000.8632,00290.0868,00088.5477
0000001140,00000.2800,-0000.7142,00000.2739,00000.8146,00291.4084,00088.6234
0000001141,00000.2927,-0000.6044,00000.2238,00000.7079,00295.8390,00088.7951
0000001142,00000.3967,-0000.8898,00000.2755,00001.0124,00294.0318,00088.2518
0000001143,00000.3970,-0000.9229,00000.2770,00001.0421,00293.2742,00088.1972
0000001144,00000.3409,-0000.8318,00000.2446,00000.9317,00292.2859,00088.3868
0000001145,00000.1074,-0001.0221,00000.3127,00001.0742,00275.9959,00088.1558
0000001146,00000.0899,-0000.9741,00000.3105,00001.0263,00275.2759,00088.2447
0000001147,00000.0728,-0000.8630,00000.2998,00000.9165,00274.8201,00088.4460
0000001148,00000.0666,-0000.7732,00000.2863,00000.8272,00274.9243,00088.6075
0000001149,00000.0738,-0000.6707,00000.2660,00000.7253,00276.2798,00088.7893
0000001150,00000.0516,-0000.9105,00000.4984,00001.0392,00273.2444,00088.3636
0000001151,00000.0540,-0000.8793,00000.4939,00001.0100,00273.5130,00088.4192
0000001152,00000.0620,-0000.7850,00000.4760,00000.9201,00274.5147,00088.5870
0000001153,00000.0487,-0000.6887,00000.4402,00000.8188,00274.0443,00088.7611
0000001154,00000.0331,-0000.5859,00000.3868,00000.7028,00273.2377,00088.9470
0000001155,00000.0850,-0000.9013,00000.5223,00001.0451,00275.3887,00088.3755
0000001156,00000.1228,-0000.6473,00000.4541,00000.8001,00280.7389,00088.8179
0000001157,-0000.0209,-0000.8170,00000.6566,00001.0483,00268.5334,00088.5336
0000001158,00000.0181,-0000.6966,00000.7181,00001.0006,00271.4912,00088.7496
0000001159,-0000.0094,-0000.7317,00000.7075,00001.0178,00269.2677,00088.6870
0000001160,00000.0329,-0000.6849,00000.6103,00000.9180,00272.7522,00088.7696
0000001161,00000.0485,-0000.5940,00000.5499,00000.8109,00274.6718,00088.9307
0000001162,00000.0496,-0000.5129,00000.4918,00000.7123,00275.5281,00089.0754
0000001163,-0000.0489,-0000.7133,00000.7846,00001.0615,00266.0807,00088.7171
0000001164,-0000.0155,-0000.6612,00000.7582,00001.0062,00268.6585,00088.8132
0000001165,-0000.0684,-0000.5155,00000.7273,00000.8940,00262.4378,00089.0670
0000001166,-0000.0808,-0000.4698,00000.6779,00000.8288,00260.2460,00089.1447
0000001167,-0000.0865,-0000.4515,00000.6524,00000.7981,00259.1523,00089.1752
0000001168,-0000.0901,-0000.3687,00000.5730,00000.6873,00256.2653,00089.3190
0000001169,-0000.2681,-0000.5705,00000.8584,00001.0650,00244.8308,00088.8690
0000001170,-0000.5038,-0000.8090,00000.3916,00001.0303,00238.0859,00088.2899
0000001171,-0000.5057,-0000.7592,00000.4670,00001.0248,00236.3350,00088.3631
0000001172,-0000.4405,-0000.6447,00000.4474,00000.8999,00235.6593,00088.5990
0000001173,-0000.4259,-0000.5971,00000.4405,00000.8555,00234.4975,00088.6840
0000001174,-0000.4081,-0000.5737,00000.4302,00000.8251,00234.5758,00088.7367
0000001175,-0000.3490,-0000.4794,00000.3974,00000.7138,00233.9431,00088.9360
0000001176,-0000.4364,-0000.6523,00000.7097,00001.0581,00236.2165,00088.5917
0000001177,-0000.4204,-0000.6236,00000.6865,00001.0183,00236.0180,00088.6505
0000001178,-0000.3802,-0000.5430,00000.6129,00000.9028,00235.0001,00088.8106
0000001179,-0000.3532,-0000.4796,00000.5379,00000.8026,00233.6274,00088.9313
0000001180,-0000.3344,-0000.4303,00000.4729,00000.7215,00232.1505,00089.0222
0000001181,-0000.3692,-0000.4818,00000.5040,00000.7889,00232.5372,00088.9109
0000001182,-0000.4069,-0000.7828,00000.6033,00001.0688,00242.5326,00088.4170
0000001183,-0000.3757,-0000.7483,00000.5809,00001.0190,00243.3415,00088.4976
0000001184,-0000.2775,-0000.5138,00000.4550,00000.7403,00241.6268,00088.9522
0000001185,-0000.2628,-0000.4981,00000.4443,00000.7173,00242.1813,00088.9896
0000001186,-0000.2887,-0000.8241,00000.6067,00001.0633,00250.6943,00088.4331
0000001187,-0000.2682,-0000.7858,00000.5948,00001.0214,00251.1569,00088.5101
0000001188,-0000.2625,-0000.7396,00000.5695,00000.9697,00250.4622,00088.5918
0000001189,-0000.2663,-0000.6868,00000.5424,00000.9148,00248.8093,00088.6782
0000001190,-0000.1979,-0000.5822,00000.4445,00000.7587,00251.2206,00088.8967
0000001191,-0000.2971,-0000.7405,00000.7039,00001.0640,00248.1422,00088.5683
0000001192,-0000.1908,-0000.5880,00000.5404,00000.8211,00252.0254,00088.8907
0000001193,-0000.1801,-0000.5818,00000.5293,00000.8069,00252.8015,00088.9072
0000001194,-0000.1304,-0000.5059,00000.4412,00000.6838,00255.5428,00089.0626
0000001195,-0000.1855,-0000.6499,00000.8129,00001.0572,00254.0738,00088.7873
0000001196,-0000.1859,-0000.6133,00000.7799,00001.0095,00253.1387,00088.8500
0000001197,-0000.1625,-0000.5548,00000.7084,00000.9143,00253.6792,00088.9628
0000001198,-0000.0658,-0000.4896,00000.6438,00000.8115,00262.3429,00089.1137
0000001199,-0000.0474,-0000.4095,00000.5840,00000.7148,00263.3909,00089.2603
0000001200,-0000.0395,-0000.4099,00000.5737,00000.7062,00264.5018,00089.2612
0000001201,-0000.0968,-0000.7145,00000.7392,00001.0326,00262.2876,00088.7063
0000001202,-0000.1670,-0000.6742,00000.7306,00001.0080,00256.0878,00088.7538
0000001203,00000.0103,-0000.4258,00000.5324,00000.6818,00271.3904,00089.2358
0000001204,-0000.5125,-0000.8768,00000.3157,00001.0635,00239.6945,00088.1775
0000001205,-0000.4812,-0000.8465,00000.3067,00001.0209,00240.3855,00088.2527
0000001206,-0000.4346,-0000.7667,00000.2968,00000.9300,00240.4541,00088.4185
0000001207,-0000.4008,-0000.6712,00000.2677,00000.8263,00239.1548,00088.5973
0000001208,-0000.3551,-0000.5823,00000.2332,00000.7208,00238.6203,00088.7762
0000001209,-0000.2354,-0000.9667,00000.2860,00001.0352,00256.3156,00088.2147
0000001210,-0000.2053,-0000.9527,00000.2972,00001.0189,00257.8376,00088.2511
0000001211,-0000.1841,-0000.8023,00000.2803,00000.8696,00257.0766,00088.5230
0000001212,-0000.1680,-0000.7644,00000.2680,00000.8273,00257.6039,00088.5956
0000001213,-0000.1473,-0000.6629,00000.2348,00000.7185,00257.4763,00088.7815
0000001214,-0000.0902,-0001.0113,00000.3461,00001.0727,00264.9060,00088.1780
0000001215,-0000.0509,-0000.9499,00000.3326,00001.0077,00266.9353,00088.2930
0000001216,-0000.0305,-0000.7856,00000.3225,00000.8498,00267.7737,00088.5892
0000001217,-0000.0432,-0000.7418,00000.3298,00000.8129,00266.6656,00088.6668
0000001218,00000.0055,-0000.6506,00000.2841,00000.7100,00270.4855,00088.8325
0000001219,-0000.0230,-0000.8929,00000.2837,00000.9372,00268.5219,00088.3972
0000001220,-0000.1818,-0000.9482,00000.4165,00001.0515,00259.1488,00088.2675
0000001221,-0000.1719,-0000.9182,00000.4167,00001.0229,00259.3930,00088.3237
0000001222,-0000.1718,-0000.7948,00000.4253,00000.9176,00257.8029,00088.5409
0000001223,-0000.1580,-0000.7028,00000.3975,00000.8227,00257.3324,00088.7075
0000001224,-0000.1481,-0000.6014,00000.3476,00000.7102,00256.1642,00088.8886
0000001225,-0000.3059,-0000.8656,00000.5381,00001.0642,00250.5358,00088.3526
0000001226,-0000.2423,-0000.7250,00000.5085,00000.9181,00251.5176,00088.6283
0000001227,-0000.2916,-0000.9420,00000.3598,00001.0497,00252.8000,00088.2304
0000001228,-0000.2693,-0000.9212,00000.3657,00001.0271,00253.7027,00088.2777
0000001229,-0000.2139,-0000.8313,00000.3376,00000.9224,00255.5694,00088.4596
0000001230,-0000.1749,-0000.7244,00000.3131,00000.8083,00256.4225,00088.6629
0000001231,-0000.1670,-0000.6332,00000.2851,00000.7142,00255.2280,00088.8250
0000001232,-0000.3401,-0000.9138,00000.3547,00001.0375,00249.5833,00088.2504
min,-0001.0116,-0001.0221,00000.1649,00000.6687,00000.0529,00088.0901
max,00001.0221,00001.0355,00001.0412,00001.0965,00358.7052,00089.8973
mean,00000.0064,00000.0096,00000.5330,00000.9003,00180.0784,00088.8011
std,00000.4938,00000.5022,00000.2165,00000.1284,00104.5862,00000.3999
