,x,y,z,distance,azimuth,elevation
0000000000,-0000.6777,00000.3723,00000.6429,00001.0056,00151.2208,00088.5593
0000000001,-0000.7995,00000.4957,00000.3722,00001.0116,00148.1995,00088.2473
0000000002,-0000.9016,00000.4456,00000.2409,00001.0341,00153.6985,00088.1261
0000000003,-0000.8773,00000.2443,00000.4373,00001.0102,00164.4382,00088.3031
0000000004,-0000.9678,00000.0980,00000.2446,00001.0030,00174.2185,00088.1874
0000000005,-0000.9387,00000.2878,00000.2058,00001.0032,00162.9579,00088.1705
0000000006,-0000.9780,00000.0176,00000.2848,00001.0188,00178.9685,00088.1773
0000000007,-0000.9210,-0000.0615,00000.4529,00001.0281,00183.8213,00088.2802
0000000008,-0000.9223,-0000.0703,00000.4187,00001.0153,00184.3611,00088.2766
0000000009,-0000.7815,-0000.4377,00000.4002,00000.9810,00209.2545,00088.3311
0000000010,-0000.9195,-0000.3719,00000.2747,00001.0293,00202.0224,00088.1517
0000000011,-0000.9118,-0000.4243,00000.2039,00001.0262,00204.9534,00088.1261
0000000012,-0000.7025,-0000.4749,00000.5059,00000.9874,00214.0608,00088.4200
0000000013,-0000.6355,-0000.4623,00000.6101,00000.9948,00216.0347,00088.5359
0000000014,-0000.5202,-0000.4588,00000.7208,00001.0003,00221.4073,00088.7076
0000000015,-0000.5859,-0000.5311,00000.6064,00000.9965,00222.1943,00088.5266
0000000016,-0000.0760,-0000.1101,00000.9137,00000.9234,00235.3812,00089.7507
0000000017,-0000.3748,-0000.4996,00000.7719,00000.9929,00233.1268,00088.8363
0000000018,-0000.3632,-0000.5655,00000.7563,00001.0118,00237.2871,00088.7477
0000000019,-0000.3081,-0000.4447,00000.8304,00000.9911,00235.2849,00088.9920
0000000020,-0000.4711,-0000.6599,00000.5640,00000.9876,00234.4776,00088.4894
0000000021,-0000.4119,-0000.6357,00000.6344,00000.9880,00237.0599,00088.5888
0000000022,-0000.3548,00000.2865,00000.7330,00000.8633,00141.0781,00089.1503
0000000023,-0000.2976,00000.3274,00000.7301,00000.8537,00132.2670,00089.1758
0000000024,-0000.2329,00000.3825,00000.7227,00000.8502,00121.3418,00089.1656
0000000025,-0000.1275,00000.1558,00000.7389,00000.7658,00129.3051,00089.6250
0000000026,-0000.0851,00000.2082,00000.8362,00000.8659,00112.2300,00089.5810
0000000027,-0000.1047,00000.2207,00000.8401,00000.8749,00115.3714,00089.5448
0000000028,-0000.1124,00000.2465,00000.8715,00000.9126,00114.5202,00089.4953
0000000029,-0000.0923,00000.1323,00000.9256,00000.9396,00124.9031,00089.6995
0000000030,-0000.0790,00000.4165,00000.7902,00000.8967,00100.7351,00089.2103
0000000031,-0000.1287,00000.4685,00000.7685,00000.9092,00105.3641,00089.0949
0000000032,-0000.2930,00000.3820,00000.8216,00000.9523,00127.4841,00089.1030
0000000033,-0000.1928,00000.2456,00000.9777,00001.0264,00128.1361,00089.4184
0000000034,-0000.0550,00000.2447,00000.9192,00000.9528,00102.6660,00089.5328
0000000035,-0000.0356,00000.4119,00000.8432,00000.9391,00094.9337,00089.2297
0000000036,-0000.3538,00000.4916,00000.7333,00000.9511,00125.7395,00088.8716
0000000037,-0000.2319,00000.5738,00000.6816,00000.9207,00112.0053,00088.8470
0000000038,-0000.3008,-0000.1303,00000.8038,00000.8681,00203.4251,00089.3892
0000000039,-0000.0708,-0000.2290,00000.9098,00000.9409,00252.8245,00089.5534
0000000040,-0000.0253,-0000.2107,00000.8380,00000.8644,00263.1625,00089.6046
0000000041,-0000.0874,-0000.1198,00000.8742,00000.8867,00233.9038,00089.7237
0000000042,-0000.0494,-0000.0220,00000.8819,00000.8835,00203.9718,00089.8992
0000000043,-0000.1133,00000.1463,00001.0070,00001.0238,00127.7626,00089.6552
0000000044,-0000.4109,-0000.5072,00000.5999,00000.8866,00230.9838,00088.7838
0000000045,-0000.2335,-0000.5439,00000.7015,00000.9179,00246.7639,00088.8972
0000000046,-0000.1989,-0000.5209,00000.7053,00000.8991,00249.1007,00088.9612
0000000047,-0000.0835,-0000.4234,00000.7468,00000.8625,00258.8424,00089.1959
0000000048,-0000.3816,-0000.4851,00000.6580,00000.9021,00231.8130,00088.8501
0000000049,-0000.2256,-0000.5377,00000.6830,00000.8981,00247.2355,00088.9136
0000000050,-0000.2604,-0000.4353,00000.6592,00000.8318,00239.1074,00089.0550
0000000051,-0000.4989,-0000.5257,00000.5523,00000.9112,00226.4984,00088.6497
0000000052,-0000.4820,-0000.6886,00000.4145,00000.9372,00235.0090,00088.4339
0000000053,-0000.4059,-0000.6953,00000.4082,00000.9026,00239.7258,00088.5000
0000000054,-0000.3673,-0000.6674,00000.3850,00000.8536,00241.1758,00088.5805
0000000055,-0000.3576,-0000.6110,00000.4474,00000.8375,00239.6601,00088.6809
0000000056,-0000.4941,-0000.5000,00000.4379,00000.8282,00225.3417,00088.6903
0000000057,-0000.5033,-0000.4764,00000.4280,00000.8146,00223.4272,00088.7088
0000000058,-0000.5601,-0000.4211,00000.5783,00000.9086,00216.9361,00088.6944
0000000059,-0000.5192,-0000.1877,00000.6983,00000.8902,00199.8803,00088.9714
0000000060,-0000.6897,-0000.4571,00000.3324,00000.8917,00213.5328,00088.4583
0000000061,-0000.6660,-0000.4291,00000.4455,00000.9089,00212.7912,00088.5239
0000000062,-0000.6112,-0000.3692,00000.4032,00000.8200,00211.1332,00088.6696
0000000063,-0000.6376,-0000.2970,00000.4379,00000.8286,00204.9733,00088.6894
0000000064,-0000.6646,-0000.1154,00000.4518,00000.8119,00189.8501,00088.7432
0000000065,-0000.6791,-0000.1520,00000.4257,00000.8158,00192.6138,00088.7034
0000000066,-0000.6737,-0000.1975,00000.4445,00000.8309,00196.3420,00088.6920
0000000067,-0000.8062,-0000.3431,00000.2961,00000.9249,00203.0537,00088.3674
0000000068,-0000.8013,-0000.4351,00000.1907,00000.9316,00208.4990,00088.3010
0000000069,-0000.7489,-0000.4150,00000.2895,00000.9038,00208.9942,00088.4047
0000000070,-0000.8836,00000.0580,00000.1955,00000.9068,00176.2434,00088.3501
0000000071,-0000.8007,00000.0345,00000.2213,00000.8315,00177.5351,00088.5067
0000000072,-0000.7614,-0000.1630,00000.2922,00000.8317,00192.0854,00088.5492
0000000073,-0000.7322,00000.0028,00000.2861,00000.7861,00179.7790,00088.6358
0000000074,-0000.4715,00000.2414,00000.5385,00000.7553,00152.8820,00089.0131
0000000075,-0000.4322,00000.3792,00000.5405,00000.7892,00138.7334,00088.9287
0000000076,-0000.4537,00000.2749,00000.4793,00000.7150,00148.7862,00089.0116
0000000077,-0000.4544,00000.2666,00000.4559,00000.6967,00149.5982,00089.0184
0000000078,-0000.5650,00000.3338,00000.5899,00000.8823,00149.4263,00088.7774
0000000079,-0000.3749,00000.4071,00000.6172,00000.8289,00132.6397,00088.9689
0000000080,-0000.3107,00000.4086,00000.6143,00000.8006,00127.2482,00089.0436
0000000081,-0000.4073,00000.3368,00000.6283,00000.8210,00140.4104,00089.0154
0000000082,-0000.4128,00000.2673,00000.6219,00000.7928,00147.0749,00089.0838
0000000083,-0000.3836,00000.4670,00000.5151,00000.7941,00129.4050,00088.8740
0000000084,-0000.4076,00000.4704,00000.5424,00000.8256,00130.9057,00088.8403
0000000085,-0000.5157,00000.5027,00000.4501,00000.8493,00135.7307,00088.6581
0000000086,-0000.5436,00000.5366,00000.4098,00000.8668,00135.3741,00088.5768
0000000087,-0000.5682,00000.5205,00000.3834,00000.8607,00137.5078,00088.5643
0000000088,-0000.6678,00000.3095,00000.4693,00000.8730,00155.1332,00088.6286
0000000089,-0000.6088,00000.5333,00000.2265,00000.8404,00138.7828,00088.4920
0000000090,-0000.6251,00000.4956,00000.2320,00000.8308,00141.5934,00088.5136
0000000091,-0000.6841,00000.4305,00000.2299,00000.8404,00147.8196,00088.4940
0000000092,-0000.6992,00000.3484,00000.2233,00000.8125,00153.5145,00088.5445
0000000093,-0000.7780,00000.2730,00000.2665,00000.8665,00160.6662,00088.4638
0000000094,-0000.7510,00000.1704,00000.3681,00000.8535,00167.2150,00088.5652
0000000095,-0000.7344,00000.0910,00000.5304,00000.9105,00172.9349,00088.6212
0000000096,-0000.8140,-0000.0358,00000.3461,00000.8852,00182.5191,00088.4819
0000000097,-0000.1506,-0000.0496,00000.7740,00000.7901,00198.2417,00089.7046
0000000098,-0000.1722,00000.1166,00000.7563,00000.7844,00145.9013,00089.6125
0000000099,-0000.4140,-0000.4058,00000.5031,00000.7676,00224.4269,00088.9198
0000000100,-0000.2969,-0000.5258,00000.5140,00000.7929,00240.5519,00088.8750
0000000101,-0000.2424,-0000.4846,00000.5375,00000.7632,00243.4259,00088.9905
0000000102,-0000.2619,-0000.4333,00000.5968,00000.7826,00238.8458,00089.0567
0000000103,-0000.2280,-0000.1468,00000.7170,00000.7666,00212.7717,00089.4947
0000000104,-0000.0559,00000.0978,00000.6788,00000.6881,00119.7548,00089.7901
0000000105,-0000.0530,00000.1150,00000.7138,00000.7249,00114.7485,00089.7640
0000000106,-0000.3269,00000.2516,00000.5953,00000.7243,00142.4142,00089.2315
0000000107,-0000.3315,00000.2766,00000.5635,00000.7098,00140.1581,00089.1957
0000000108,-0000.3217,00000.3770,00000.5054,00000.7078,00130.4718,00089.0766
0000000109,-0000.2616,00000.3652,00000.5183,00000.6859,00125.6160,00089.1630
0000000110,-0000.5010,00000.3478,00000.4151,00000.7378,00145.2319,00088.8637
0000000111,-0000.5084,00000.3394,00000.4030,00000.7322,00146.2731,00088.8610
0000000112,-0000.4830,00000.4133,00000.3205,00000.7119,00139.4479,00088.8157
0000000113,-0000.4112,00000.4396,00000.3254,00000.6843,00133.0939,00088.8785
0000000114,-0000.5768,00000.3994,00000.3540,00000.7858,00145.3027,00088.6929
0000000115,-0000.6897,00000.1750,00000.3640,00000.7993,00165.7635,00088.6742
0000000116,-0000.5971,-0000.1701,00000.5171,00000.8080,00195.9006,00088.8433
0000000117,-0000.5964,-0000.3406,00000.4125,00000.8011,00209.7291,00088.7204
0000000118,-0000.4600,-0000.3970,00000.5303,00000.8065,00220.7961,00088.8678
0000000119,-0000.5985,-0000.5502,00000.2978,00000.8658,00222.5906,00088.4852
0000000120,-0000.5708,-0000.5578,00000.2361,00000.8323,00224.3380,00088.5129
0000000121,-0000.5189,-0000.5322,00000.2190,00000.7749,00225.7245,00088.6151
0000000122,-0000.5295,-0000.5003,00000.2328,00000.7647,00223.3798,00088.6428
0000000123,-0000.6786,-0000.2793,00000.3632,00000.8188,00202.3703,00088.6328
0000000124,-0000.7159,-0000.3339,00000.2569,00000.8307,00205.0047,00088.5281
0000000125,-0000.8011,-0000.2464,00000.2307,00000.8693,00197.0948,00088.4383
0000000126,-0000.8512,00000.0109,00000.3669,00000.9269,00179.2663,00088.4139
0000000127,-0000.6954,00000.1954,00000.3064,00000.7846,00164.3064,00088.6543
0000000128,00000.0288,00000.4288,00000.9490,00001.0417,00086.1532,00089.1993
0000000129,00000.0322,00000.4091,00000.9054,00000.9941,00085.5063,00089.2354
0000000130,00000.0056,00000.3677,00000.8109,00000.8904,00089.1200,00089.3150
0000000131,-0000.0111,00000.3324,00000.7155,00000.7890,00091.9171,00089.3803
0000000132,-0000.0515,00000.3122,00000.5891,00000.6688,00099.3716,00089.4104
0000000133,-0000.0022,00000.3783,00000.6922,00000.7888,00090.3321,00089.2951
0000000134,-0000.2223,00000.5066,00000.8803,00001.0397,00113.6870,00088.9693
0000000135,-0000.2001,00000.4857,00000.7118,00000.8846,00112.3920,00089.0213
0000000136,-0000.1964,00000.4345,00000.6426,00000.8002,00114.3287,00089.1117
0000000137,00000.0277,00000.3275,00000.6098,00000.6927,00085.1661,00089.3876
0000000138,00000.1741,00000.6046,00000.8412,00001.0505,00073.9372,00088.8278
0000000139,00000.1629,00000.5863,00000.7988,00001.0042,00074.4753,00088.8663
0000000140,00000.1293,00000.5430,00000.7112,00000.9041,00076.6075,00088.9600
0000000141,00000.1534,00000.4759,00000.6206,00000.7970,00072.1358,00089.0684
0000000142,00000.0904,00000.4240,00000.5456,00000.6969,00077.9651,00089.1923
0000000143,00000.0741,00000.4163,00000.5282,00000.6766,00079.9129,00089.2123
0000000144,00000.3104,00000.3148,00000.9402,00001.0390,00045.3963,00089.1764
0000000145,00000.2945,00000.3008,00000.9024,00000.9957,00045.6131,00089.2157
0000000146,00000.2857,00000.2740,00000.8013,00000.8937,00043.8004,00089.2626
0000000147,00000.2204,00000.2929,00000.7333,00000.8198,00053.0389,00089.3171
0000000148,00000.1996,00000.3030,00000.7066,00000.7943,00056.6228,00089.3241
0000000149,00000.1270,00000.3138,00000.6044,00000.6927,00067.9598,00089.3693
0000000150,00000.0481,00000.5988,00000.8601,00001.0491,00085.4064,00088.8809
0000000151,00000.0544,00000.5634,00000.8297,00001.0043,00084.4876,00088.9455
0000000152,00000.0270,00000.4853,00000.7569,00000.8995,00086.8172,00089.0945
0000000153,00000.0237,00000.3919,00000.6827,00000.7875,00086.5419,00089.2686
0000000154,-0000.1246,00000.5818,00000.7389,00000.9486,00102.0867,00088.8915
0000000155,-0000.0873,00000.3526,00000.9325,00001.0007,00103.9040,00089.3233
0000000156,00000.1507,00000.7611,00000.7246,00001.0616,00078.7986,00088.5543
0000000157,00000.1555,00000.7036,00000.7027,00001.0065,00077.5373,00088.6575
0000000158,00000.1536,00000.6340,00000.6782,00000.9410,00076.3782,00088.7846
0000000159,00000.1453,00000.6109,00000.6635,00000.9135,00076.6232,00088.8300
0000000160,00000.1411,00000.6001,00000.6598,00000.9030,00076.7674,00088.8514
0000000161,00000.1195,00000.5117,00000.6110,00000.8059,00076.8568,00089.0210
0000000162,-0000.2278,00000.6079,00000.8082,00001.0366,00110.5433,00088.7905
0000000163,-0000.2097,00000.5325,00000.6841,00000.8919,00111.4978,00088.9337
0000000164,-0000.1771,00000.4727,00000.6028,00000.7863,00110.5412,00089.0594
0000000165,-0000.1783,00000.4077,00000.5359,00000.6966,00113.6209,00089.1709
0000000166,00000.1483,00000.6668,00000.8009,00001.0527,00077.4629,00088.7273
0000000167,00000.0240,00000.4184,00000.5567,00000.6969,00086.7135,00089.2192
0000000168,-0000.4465,00000.5501,00000.7842,00001.0569,00129.0646,00088.6800
0000000169,-0000.3671,00000.5032,00000.6681,00000.9134,00126.1116,00088.8396
0000000170,-0000.2691,00000.4914,00000.8370,00001.0072,00118.7072,00088.9562
0000000171,-0000.2738,00000.3202,00000.5552,00000.6969,00130.5401,00089.2151
0000000172,00000.0365,00000.8517,00000.6304,00001.0603,00087.5429,00088.4116
0000000173,00000.0406,00000.8099,00000.6113,00001.0156,00087.1326,00088.4890
0000000174,-0000.0034,00000.7344,00000.5565,00000.9214,00090.2683,00088.6317
0000000175,-0000.0108,00000.7075,00000.5425,00000.8916,00090.8755,00088.6816
0000000176,-0000.0054,00000.6060,00000.5334,00000.8073,00090.5096,00088.8709
0000000177,00000.0094,00000.5056,00000.4733,00000.6926,00088.9354,00089.0579
0000000178,-0000.1389,00000.3993,00000.5465,00000.6909,00109.1786,00089.2125
0000000179,00000.0501,00000.8036,00000.6735,00001.0497,00086.4296,00088.4999
0000000180,-0000.0268,00000.4783,00000.4766,00000.6758,00093.2075,00089.1074
0000000181,-0000.2062,00000.7257,00000.7469,00001.0616,00105.8583,00088.5943
0000000182,-0000.1886,00000.6835,00000.7158,00001.0075,00105.4267,00088.6790
0000000183,-0000.1166,00000.5877,00000.6705,00000.8992,00101.2168,00088.8837
0000000184,-0000.0920,00000.5023,00000.6174,00000.8013,00100.3749,00089.0486
0000000185,-0000.1311,00000.6231,00000.7885,00001.0135,00101.8821,00088.8136
0000000186,-0000.4923,00000.6131,00000.7049,00001.0560,00128.7643,00088.5350
0000000187,-0000.4786,00000.6101,00000.7125,00001.0531,00128.1125,00088.5552
0000000188,-0000.4659,00000.6020,00000.6652,00001.0109,00127.7352,00088.5816
0000000189,-0000.3914,00000.3030,00000.4829,00000.6915,00142.2547,00089.0779
0000000190,00000.4467,00000.3811,00000.8664,00001.0466,00040.4651,00088.9060
0000000191,00000.4268,00000.3458,00000.8514,00001.0132,00039.0135,00088.9767
0000000192,00000.4256,00000.3374,00000.8386,00000.9991,00038.4110,00088.9881
0000000193,00000.3814,00000.2585,00000.7598,00000.8886,00034.1335,00089.1416
0000000194,00000.3395,00000.2296,00000.6761,00000.7907,00034.0682,00089.2364
0000000195,00000.2937,00000.1937,00000.5954,00000.6916,00033.4047,00089.3445
0000000196,00000.3136,00000.2712,00000.6483,00000.7695,00040.8542,00089.2276
0000000197,00000.3552,00000.2974,00000.7236,00000.8592,00039.9393,00089.1368
0000000198,00000.3958,00000.3307,00000.8021,00000.9536,00039.8770,00089.0391
0000000199,00000.3752,00000.5170,00000.8351,00001.0513,00054.0316,00088.8099
0000000200,00000.3286,00000.4976,00000.7994,00000.9973,00056.5644,00088.8890
0000000201,00000.2696,00000.4410,00000.7238,00000.8894,00058.5614,00089.0371
0000000202,00000.2338,00000.3935,00000.6448,00000.7907,00059.2858,00089.1473
0000000203,00000.1328,00000.1771,00001.0145,00001.0384,00053.1254,00089.5876
0000000204,00000.1566,00000.1697,00000.9749,00001.0019,00047.3041,00089.5697
0000000205,00000.1709,00000.1783,00000.9617,00000.9929,00046.2076,00089.5399
0000000206,00000.2078,00000.1874,00000.8486,00000.8935,00042.0517,00089.4786
0000000207,00000.1844,00000.1699,00000.7498,00000.7907,00042.6527,00089.5328
0000000208,00000.1444,00000.1537,00000.6552,00000.6883,00046.8050,00089.6071
0000000209,00000.3113,00000.4027,00000.9073,00001.0403,00052.2949,00089.0517
0000000210,00000.2665,00000.3972,00000.8756,00000.9977,00056.1444,00089.1089
0000000211,00000.1218,00000.2624,00000.6307,00000.6938,00065.0948,00089.4611
0000000212,00000.1092,00000.2566,00000.6672,00000.7232,00066.9525,00089.4804
0000000213,00000.1303,00000.2707,00000.7419,00000.8004,00064.2949,00089.4402
0000000214,00000.0257,00000.2782,00000.7077,00000.7609,00084.7298,00089.4795
0000000215,-0000.0040,00000.2463,00000.6272,00000.6739,00090.9255,00089.5411
0000000216,00000.0475,00000.2043,00000.9598,00000.9825,00076.9084,00089.6092
0000000217,00000.0223,00000.1956,00000.8421,00000.8648,00083.4982,00089.6332
0000000218,-0000.0550,00000.3456,00000.9470,00001.0096,00099.0363,00089.3480
0000000219,00000.1113,00000.2768,00000.9942,00001.0380,00068.0993,00089.4443
0000000220,00000.0855,00000.2751,00000.9506,00000.9932,00072.7441,00089.4633
0000000221,00000.6662,00000.3842,00000.7241,00001.0563,00029.9707,00088.5672
0000000222,00000.6482,00000.3927,00000.7156,00001.0423,00031.2088,00088.5879
0000000223,00000.5966,00000.4035,00000.6919,00000.9988,00034.0700,00088.6580
0000000224,00000.5168,00000.4046,00000.6292,00000.9092,00038.0542,00088.7772
0000000225,00000.4455,00000.3579,00000.5837,00000.8169,00038.7778,00088.9353
0000000226,00000.4066,00000.3296,00000.5560,00000.7636,00039.0298,00089.0248
0000000227,00000.3439,00000.2751,00000.5049,00000.6700,00038.6625,00089.1795
0000000228,00000.5226,00000.3627,00000.8370,00001.0513,00034.7623,00088.8147
0000000229,00000.4877,00000.3765,00000.7874,00000.9998,00037.6643,00088.8521
0000000230,00000.4463,00000.4042,00000.7441,00000.9572,00042.1657,00088.8783
0000000231,00000.2412,00000.2999,00000.5840,00000.6994,00051.1964,00089.2829
0000000232,00000.4689,00000.5662,00000.7539,00001.0530,00050.3671,00088.6303
0000000233,00000.3633,00000.4740,00000.6753,00000.9015,00052.5355,00088.8873
0000000234,00000.2699,00000.3585,00000.5344,00000.6978,00053.0227,00089.1640
0000000235,00000.3226,00000.3957,00000.5805,00000.7730,00050.8118,00089.0489
0000000236,00000.5992,00000.6294,00000.6069,00001.0600,00046.4082,00088.3807
0000000237,00000.5521,00000.5163,00000.6442,00000.9931,00043.0814,00088.5917
0000000238,00000.4638,00000.6018,00000.7259,00001.0508,00052.3799,00088.5843
0000000239,00000.4142,00000.5548,00000.6100,00000.9228,00053.2550,00088.7101
0000000240,00000.3620,00000.5727,00000.5893,00000.8980,00057.7038,00088.7376
0000000241,00000.2589,00000.5321,00000.5294,00000.7939,00064.0498,00088.8976
0000000242,00000.2281,00000.5184,00000.5073,00000.7604,00066.2520,00088.9449
0000000243,00000.2011,00000.4907,00000.4718,00000.7099,00067.7142,00089.0119
0000000244,00000.1829,00000.6814,00000.7335,00001.0177,00074.9770,00088.6855
0000000245,00000.2071,00000.5644,00000.6097,00000.8562,00069.8517,00088.8800
0000000246,-0000.0783,00000.9261,00000.5091,00001.0597,00094.8297,00088.2682
0000000247,00000.0138,00000.7465,00000.5261,00000.9134,00088.9405,00088.6088
0000000248,00000.0296,00000.6503,00000.4624,00000.7985,00087.3914,00088.7872
0000000249,00000.0129,00000.5680,00000.4087,00000.6999,00088.7008,00088.9414
0000000250,-0000.1299,00000.8001,00000.6414,00001.0336,00099.2243,00088.4897
0000000251,-0000.1764,00000.6807,00000.5677,00000.9038,00104.5306,00088.6898
0000000252,-0000.1586,00000.5797,00000.5124,00000.7897,00105.2999,00088.8803
0000000253,-0000.1349,00000.5026,00000.4819,00000.7093,00105.0218,00089.0304
0000000254,-0000.6097,00000.7083,00000.4213,00001.0252,00130.7221,00088.2586
0000000255,-0000.6072,00000.7409,00000.4306,00001.0503,00129.3364,00088.2150
0000000256,-0000.5972,00000.7876,00000.4233,00001.0752,00127.1708,00088.1582
0000000257,-0000.5513,00000.7593,00000.3993,00001.0197,00125.9825,00088.2517
0000000258,-0000.4907,00000.7005,00000.3582,00000.9272,00125.0112,00088.4064
0000000259,-0000.4360,00000.6287,00000.3265,00000.8319,00124.7369,00088.5745
0000000260,-0000.4105,00000.5406,00000.2937,00000.7396,00127.2092,00088.7354
0000000261,-0000.3714,00000.5387,00000.3194,00000.7281,00124.5883,00088.7809
0000000262,-0000.3297,00000.7157,00000.6839,00001.0434,00114.7331,00088.5318
0000000263,-0000.3334,00000.6914,00000.6636,00001.0147,00115.7421,00088.5698
0000000264,-0000.3159,00000.6358,00000.5747,00000.9134,00116.4166,00088.6772
0000000265,-0000.3017,00000.5705,00000.4927,00000.8120,00117.8701,00088.7976
0000000266,-0000.3019,00000.5397,00000.4705,00000.7771,00119.2195,00088.8478
0000000267,-0000.2999,00000.4875,00000.4228,00000.7116,00121.5978,00088.9337
0000000268,-0000.3036,00000.5112,00000.4220,00000.7291,00120.7052,00088.8922
0000000269,-0000.4248,00000.8454,00000.2973,00000.9918,00116.6796,00088.2371
0000000270,-0000.4603,00000.8792,00000.3182,00001.0422,00117.6354,00088.1508
0000000271,-0000.4822,00000.9021,00000.3000,00001.0659,00118.1267,00088.0941
0000000272,-0000.4095,00000.7734,00000.2624,00000.9136,00117.8981,00088.3694
0000000273,-0000.3604,00000.6927,00000.2559,00000.8218,00117.4877,00088.5450
0000000274,-0000.3325,00000.5799,00000.2063,00000.6996,00119.8329,00088.7546
0000000275,-0000.3476,00000.6188,00000.2169,00000.7421,00119.3244,00088.6777
0000000276,-0000.4222,00000.8126,00000.5340,00001.0600,00117.4574,00088.2937
0000000277,-0000.2721,00000.4710,00000.4242,00000.6898,00120.0095,00088.9865
0000000278,-0000.4252,00000.7287,00000.6539,00001.0674,00120.2648,00088.4280
0000000279,-0000.3501,00000.6431,00000.5363,00000.9076,00118.5615,00088.6358
0000000280,-0000.6314,00000.8388,00000.2853,00001.0880,00126.9711,00088.0436
0000000281,-0000.6318,00000.8293,00000.2793,00001.0793,00127.2992,00088.0574
0000000282,-0000.6150,00000.7849,00000.2746,00001.0343,00128.0816,00088.1420
0000000283,-0000.5658,00000.7008,00000.2582,00000.9370,00128.9144,00088.3218
0000000284,-0000.4884,00000.6162,00000.2428,00000.8229,00128.3991,00088.5350
0000000285,-0000.4383,00000.5330,00000.2181,00000.7237,00129.4288,00088.7143
0000000286,00000.0458,00001.0415,00000.3029,00001.0856,00087.4812,00088.0574
0000000287,00000.0380,00000.9928,00000.2929,00001.0358,00087.8091,00088.1487
0000000288,00000.0245,00000.9358,00000.2762,00000.9760,00088.4986,00088.2558
0000000289,00000.0136,00000.8453,00000.2571,00000.8836,00089.0754,00088.4249
0000000290,00000.0159,00000.7946,00000.2510,00000.8335,00088.8545,00088.5191
0000000291,00000.0564,00000.7833,00000.2500,00000.8241,00085.8828,00088.5368
0000000292,00000.0018,00000.6825,00000.2468,00000.7258,00089.8467,00088.7283
0000000293,-0000.0660,00000.7721,00000.3200,00000.8384,00094.8871,00088.5562
0000000294,-0000.1352,00000.7906,00000.3076,00000.8591,00099.7064,00088.5055
0000000295,-0000.1442,00000.8807,00000.3311,00000.9518,00099.2977,00088.3373
0000000296,-0000.1457,00000.9800,00000.3668,00001.0565,00098.4546,00088.1539
0000000297,-0000.1293,00000.7462,00000.2943,00000.8124,00099.8301,00088.5890
0000000298,-0000.1319,00000.6547,00000.2605,00000.7169,00101.3899,00088.7556
0000000299,-0000.1423,00000.7317,00000.2768,00000.7952,00101.0058,00088.6111
0000000300,-0000.2193,00000.8693,00000.5616,00001.0579,00104.1564,00088.3296
0000000301,-0000.2234,00000.8169,00000.5448,00001.0070,00105.2976,00088.4220
0000000302,-0000.2115,00000.7429,00000.4878,00000.9136,00105.8933,00088.5607
0000000303,-0000.1811,00000.6535,00000.4131,00000.7940,00105.4859,00088.7365
0000000304,-0000.1737,00000.5948,00000.3691,00000.7212,00106.2763,00088.8455
0000000305,-0000.1714,00000.8146,00000.2131,00000.8593,00101.8846,00088.4489
0000000306,-0000.1442,00000.6794,00000.2135,00000.7266,00101.9850,00088.7059
0000000307,-0000.2393,00000.9671,00000.4108,00001.0776,00103.8986,00088.1437
0000000308,-0000.0183,00001.0150,00000.3714,00001.0810,00091.0303,00088.1083
0000000309,00000.0812,00000.9774,00000.4076,00001.0621,00085.2490,00088.1725
0000000310,00000.0789,00000.9214,00000.4084,00001.0109,00085.1028,00088.2769
0000000311,00000.0881,00000.8311,00000.3797,00000.9179,00083.9470,00088.4429
0000000312,00000.0556,00000.7244,00000.3155,00000.7921,00085.6083,00088.6463
0000000313,00000.0470,00000.6378,00000.2828,00000.6992,00085.7861,00088.8085
0000000314,-0000.0382,00000.8311,00000.5608,00001.0033,00092.6302,00088.4499
0000000315,-0000.0749,00000.9308,00000.4777,00001.0489,00094.5982,00088.2601
0000000316,-0000.0996,00000.9176,00000.4465,00001.0253,00096.1933,00088.2803
0000000317,-0000.0602,00000.8367,00000.4100,00000.9337,00094.1166,00088.4370
0000000318,-0000.0555,00000.8238,00000.4044,00000.9194,00093.8562,00088.4615
0000000319,-0000.0427,00000.7273,00000.3535,00000.8098,00093.3572,00088.6426
0000000320,-0000.1799,00001.0248,00000.2179,00001.0630,00099.9577,00088.0612
0000000321,-0000.2057,00001.0055,00000.2332,00001.0525,00101.5643,00088.0876
0000000322,-0000.2016,00000.9949,00000.2400,00001.0431,00101.4567,00088.1085
0000000323,-0000.2390,00000.7682,00000.2252,00000.8354,00107.2796,00088.5011
0000000324,-0000.4594,00000.9186,00000.2401,00001.0548,00116.5701,00088.0862
0000000325,-0000.4489,00000.8870,00000.1955,00001.0132,00116.8428,00088.1476
0000000326,-0000.4217,00000.7846,00000.2044,00000.9139,00118.2606,00088.3403
0000000327,00000.4631,00000.7046,00000.4932,00000.9768,00056.6841,00088.4290
0000000328,00000.4425,00000.6691,00000.4416,00000.9157,00056.5208,00088.5054
0000000329,00000.5082,00000.6841,00000.4946,00000.9854,00053.3928,00088.4120
0000000330,00000.5521,00000.7197,00000.5078,00001.0395,00052.5060,00088.3099
0000000331,00000.4635,00000.6250,00000.4554,00000.9016,00053.4376,00088.5502
0000000332,00000.3934,00000.5770,00000.4197,00000.8148,00055.7174,00088.6989
0000000333,00000.2986,00000.5048,00000.3832,00000.7006,00059.3913,00088.9073
0000000334,00000.4133,00000.5522,00000.5624,00000.8899,00053.1861,00088.7150
0000000335,00000.2584,00000.4206,00000.4806,00000.6890,00058.4300,00089.0803
0000000336,00000.3850,00000.7882,00000.5815,00001.0524,00063.9657,00088.3656
0000000337,00000.3503,00000.7543,00000.5801,00001.0140,00065.0883,00088.4504
0000000338,00000.2499,00000.6417,00000.5397,00000.8749,00068.7207,00088.7170
0000000339,00000.2111,00000.5870,00000.5030,00000.8014,00070.2243,00088.8377
0000000340,00000.1482,00000.5326,00000.4352,00000.7036,00074.4514,00088.9700
0000000341,00000.2972,00000.7169,00000.7097,00001.0516,00067.4845,00088.5541
0000000342,00000.3624,00000.7967,00000.5654,00001.0420,00065.5381,00088.3692
0000000343,00000.4143,00000.9009,00000.4160,00001.0753,00065.3006,00088.1524
0000000344,00000.3984,00000.8422,00000.4248,00001.0239,00064.6849,00088.2640
0000000345,00000.3227,00000.7456,00000.4036,00000.9072,00066.5991,00088.4863
0000000346,00000.2813,00000.6603,00000.3840,00000.8140,00066.9232,00088.6627
0000000347,00000.2473,00000.5815,00000.3376,00000.7165,00066.9625,00088.8226
0000000348,00000.5756,00000.5333,00000.4491,00000.9041,00042.8148,00088.5380
0000000349,00000.4599,00000.4896,00000.4274,00000.7962,00046.7919,00088.7484
0000000350,00000.3767,00000.4628,00000.3925,00000.7143,00050.8570,00088.8881
0000000351,00000.4947,00000.7224,00000.3516,00000.9435,00055.5981,00088.3686
0000000352,00000.3295,00000.9009,00000.4526,00001.0607,00069.9106,00088.2126
0000000353,00000.2648,00000.8824,00000.4499,00001.0253,00073.2974,00088.2835
0000000354,00000.2040,00000.8009,00000.4135,00000.9242,00075.7074,00088.4600
0000000355,00000.1940,00000.7886,00000.4079,00000.9088,00076.1824,00088.4869
0000000356,00000.2644,00000.8161,00000.5943,00001.0436,00072.0505,00088.4017
0000000357,00000.2708,00000.8105,00000.5579,00001.0206,00071.5232,00088.4077
0000000358,00000.1340,00000.6433,00000.4763,00000.8116,00078.2353,00088.7758
0000000359,00000.6135,00000.8016,00000.3275,00001.0612,00052.5691,00088.1191
0000000360,00000.5816,00000.7752,00000.2913,00001.0120,00053.1176,00088.1942
0000000361,00000.5096,00000.7070,00000.2702,00000.9124,00054.2177,00088.3762
0000000362,00000.4512,00000.6392,00000.2402,00000.8185,00054.7832,00088.5422
0000000363,00000.5382,00000.8947,00000.2661,00001.0775,00058.9705,00088.0544
0000000364,00000.5159,00000.8579,00000.2396,00001.0294,00058.9782,00088.1346
0000000365,00000.4721,00000.7656,00000.2394,00000.9307,00058.3395,00088.3241
0000000366,00000.4381,00000.6515,00000.2284,00000.8176,00056.0846,00088.5372
0000000367,00000.4818,00000.8158,00000.4051,00001.0304,00059.4336,00088.2347
0000000368,00000.4286,00000.7447,00000.3390,00000.9237,00060.0739,00088.3991
0000000369,00000.3453,00000.6176,00000.2669,00000.7562,00060.7901,00088.6817
0000000370,00000.1845,00001.0391,00000.2439,00001.0832,00079.9307,00088.0334
0000000371,00000.1624,00000.9882,00000.2366,00001.0291,00080.6669,00088.1339
0000000372,00000.1579,00000.9441,00000.2346,00000.9855,00080.5073,00088.2165
0000000373,00000.1437,00000.8724,00000.2422,00000.9168,00080.6459,00088.3525
0000000374,00000.2471,00001.0008,00000.3264,00001.0813,00076.1306,00088.0791
0000000375,00000.2239,00000.9561,00000.3088,00001.0294,00076.8193,00088.1702
0000000376,00000.1480,00000.6934,00000.2003,00000.7367,00077.9538,00088.6791
0000000377,00000.0688,00001.0228,00000.3480,00001.0825,00086.1544,00088.0899
0000000378,00000.6242,00000.8324,00000.2626,00001.0731,00053.1325,00088.0613
0000000379,00000.3519,00000.9927,00000.2150,00001.0750,00070.4812,00088.0374
0000000380,00000.2413,00000.8693,00000.2119,00000.9267,00074.4829,00088.3191
0000000381,00000.2248,00000.7752,00000.1964,00000.8307,00073.8252,00088.4962
0000000382,00000.2587,00000.6682,00000.2023,00000.7446,00068.8325,00088.6649
0000000383,00000.3288,00000.7771,00000.2290,00000.8744,00067.0660,00088.4277
0000000384,00000.4295,00000.8217,00000.3385,00000.9871,00062.4029,00088.2723
0000000385,00000.3609,00000.8727,00000.2331,00000.9728,00067.5319,00088.2403
0000000386,00000.6692,00000.6904,00000.2925,00001.0050,00045.8906,00088.2085
0000000387,00000.5472,00000.7271,00000.2216,00000.9366,00053.0327,00088.3044
0000000388,00000.5910,00000.7066,00000.2270,00000.9487,00050.0898,00088.2836
0000000389,-0000.0436,00000.8799,00000.2152,00000.9068,00092.8370,00088.3586
0000000390,-0000.0871,00000.9552,00000.2255,00000.9853,00095.2097,00088.2128
0000000391,-0000.4921,00000.6300,00000.5029,00000.9444,00127.9942,00088.5105
0000000392,-0000.3709,00000.6272,00000.5614,00000.9198,00120.5953,00088.6424
0000000393,-0000.3129,00000.7075,00000.4833,00000.9121,00113.8565,00088.5587
0000000394,-0000.3022,00000.8332,00000.4567,00000.9971,00109.9324,00088.3485
0000000395,-0000.3281,00000.8660,00000.4216,00001.0175,00110.7473,00088.2745
0000000396,-0000.4628,00000.8760,00000.2591,00001.0241,00117.8471,00088.1539
0000000397,-0000.5786,00000.7660,00000.2453,00000.9908,00127.0658,00088.2113
0000000398,00000.1250,00000.6501,00000.5254,00000.8451,00079.1149,00088.7667
0000000399,-0000.0236,00000.6940,00000.5041,00000.8581,00091.9449,00088.7062
0000000400,00000.1474,00000.8980,00000.2098,00000.9339,00080.6779,00088.3044
0000000401,-0000.2293,00000.7936,00000.4055,00000.9202,00106.1183,00088.4609
0000000402,-0000.1668,00000.8645,00000.1783,00000.8984,00100.9226,00088.3594
0000000403,00000.3856,00000.7477,00000.1743,00000.8591,00062.7200,00088.4326
0000000404,00000.0964,00000.1387,00000.7998,00000.8174,00055.1831,00089.6853
0000000405,-0000.5934,00000.6711,00000.1949,00000.9168,00131.4864,00088.3309
0000000406,-0000.3684,00000.7883,00000.2138,00000.8960,00115.0470,00088.3788
0000000407,-0000.0114,00000.0642,00000.7384,00000.7413,00100.0402,00089.8785
0000000408,00000.0158,00000.0843,00000.7515,00000.7564,00079.4162,00089.8402
0000000409,00000.2886,00000.2718,00000.6802,00000.7873,00043.2873,00089.2613
0000000410,00000.2842,00000.1722,00000.6706,00000.7484,00031.2075,00089.3810
0000000411,00000.3345,00000.1356,00000.6208,00000.7181,00022.0617,00089.3275
0000000412,00000.4081,00000.1961,00000.6093,00000.7591,00025.6675,00089.1565
0000000413,00000.4831,00000.2829,00000.5457,00000.7818,00030.3495,00088.9569
0000000414,00000.5130,00000.3108,00000.5241,00000.7965,00031.2088,00088.8824
0000000415,00000.5493,00000.3494,00000.4856,00000.8121,00032.4593,00088.7871
0000000416,00000.5944,00000.3242,00000.5928,00000.8999,00028.6086,00088.7385
0000000417,00000.6191,00000.2837,00000.3783,00000.7791,00024.6183,00088.7311
0000000418,00000.6586,00000.3092,00000.3038,00000.7885,00025.1498,00088.6443
0000000419,00000.6465,00000.3590,00000.2957,00000.7964,00029.0434,00088.6222
0000000420,00000.6325,00000.4071,00000.3483,00000.8289,00032.7636,00088.5985
0000000421,00000.5493,00000.3901,00000.3608,00000.7642,00035.3866,00088.7447
0000000422,00000.6192,00000.4436,00000.2917,00000.8157,00035.6189,00088.5807
0000000423,00000.6467,00000.4736,00000.3110,00000.8598,00036.2121,00088.5065
0000000424,00000.5571,00000.4694,00000.3532,00000.8096,00040.1169,00088.6426
0000000425,00000.4903,00000.5099,00000.3942,00000.8098,00046.1217,00088.6820
0000000426,00000.5997,00000.1814,00000.3540,00000.7196,00016.8337,00088.8327
0000000427,00000.4622,00000.6447,00000.1491,00000.8071,00054.3589,00088.5220
0000000428,00000.6107,00000.5222,00000.2019,00000.8284,00040.5328,00088.5030
0000000429,00000.1885,00000.7063,00000.3517,00000.8112,00075.0574,00088.6380
0000000430,00000.1574,00000.6586,00000.3564,00000.7652,00076.5547,00088.7384
0000000431,00000.3243,00000.7132,00000.1711,00000.8019,00065.5495,00088.5402
0000000432,-0000.0025,00000.7510,00000.1911,00000.7749,00090.1935,00088.6008
0000000433,-0000.3141,00000.6405,00000.3117,00000.7785,00116.1220,00088.6709
0000000434,-0000.2250,00000.6473,00000.2458,00000.7281,00109.1662,00088.7231
0000000435,-0000.1693,00000.6922,00000.2315,00000.7493,00103.7452,00088.6722
0000000436,-0000.0736,00000.5949,00000.3912,00000.7158,00097.0557,00088.8831
0000000437,-0000.0163,00000.6435,00000.4069,00000.7615,00091.4526,00088.8007
0000000438,-0000.4780,00000.6077,00000.1469,00000.7870,00128.1869,00088.5593
0000000439,-0000.5138,00000.5458,00000.1899,00000.7733,00133.2753,00088.6034
0000000440,-0000.6003,00000.4865,00000.1401,00000.7853,00140.9811,00088.5603
0000000441,-0000.5910,00000.4700,00000.2429,00000.7933,00141.5048,00088.5930
0000000442,-0000.1413,00000.7518,00000.1629,00000.7821,00100.6427,00088.5747
0000000443,-0000.2696,00000.7624,00000.1266,00000.8185,00109.4751,00088.4932
0000000444,00000.1735,00000.7911,00000.1352,00000.8211,00077.6324,00088.4910
0000000445,-0000.1664,00000.1650,00000.6120,00000.6553,00135.2278,00089.5634
0000000446,-0000.2221,00000.2003,00000.6196,00000.6881,00137.9530,00089.4428
0000000447,-0000.3869,00000.4695,00000.3767,00000.7156,00129.4937,00088.8665
0000000448,-0000.2193,00000.5604,00000.3420,00000.6922,00111.3733,00088.8789
0000000449,-0000.0503,00000.6223,00000.3152,00000.6994,00094.6176,00088.8368
0000000450,-0000.1785,00000.5115,00000.4388,00000.6972,00109.2324,00088.9906
0000000451,-0000.1963,00000.6647,00000.1994,00000.7212,00106.4496,00088.7087
0000000452,-0000.2715,00000.6674,00000.1425,00000.7344,00112.1387,00088.6576
0000000453,-0000.4140,00000.5470,00000.1467,00000.7015,00127.1174,00088.7219
0000000454,-0000.4696,00000.4975,00000.1559,00000.7017,00133.3505,00088.7253
0000000455,-0000.2671,00000.5811,00000.2447,00000.6848,00114.6812,00088.8084
0000000456,-0000.5379,00000.4272,00000.2118,00000.7188,00141.5463,00088.7202
0000000457,00000.1039,00000.7185,00000.1502,00000.7413,00081.7734,00088.6474
0000000458,-0000.0383,00000.7202,00000.1498,00000.7366,00093.0468,00088.6562
0000000459,00000.2583,00000.4982,00000.4354,00000.7103,00062.5970,00088.9544
0000000460,00000.1927,00000.5601,00000.3813,00000.7045,00071.0127,00088.8963
0000000461,00000.5190,00000.3110,00000.3477,00000.6979,00030.9291,00088.8726
0000000462,00000.5267,00000.3391,00000.3174,00000.7022,00032.7767,00088.8329
0000000463,00000.5039,00000.3869,00000.2926,00000.6995,00037.5185,00088.8162
0000000464,00000.4281,00000.3203,00000.4052,00000.6708,00036.8008,00089.0040
0000000465,00000.3549,00000.3548,00000.4861,00000.6987,00044.9931,00089.0650
0000000466,00000.2282,00000.2429,00000.5829,00000.6715,00046.7915,00089.3790
0000000467,00000.5169,00000.4638,00000.1861,00000.7190,00041.9022,00088.7061
0000000468,00000.4770,00000.5102,00000.2192,00000.7321,00046.9287,00088.6986
0000000469,00000.4039,00000.5091,00000.3065,00000.7186,00051.5722,00088.7891
0000000470,00000.4339,00000.3897,00000.4035,00000.7092,00041.9228,00088.9134
0000000471,00000.3172,00000.5684,00000.2632,00000.7021,00060.8306,00088.7873
0000000472,00000.4571,-0000.0047,00000.9057,00001.0145,00359.4050,00089.1484
0000000473,00000.4378,-0000.0088,00000.8690,00000.9731,00358.8492,00089.1841
0000000474,00000.4115,-0000.0032,00000.7838,00000.8852,00359.5564,00089.2334
0000000475,00000.3579,00000.0136,00000.6798,00000.7684,00002.1806,00089.3328
0000000476,00000.3132,00000.0379,00000.6011,00000.6789,00006.8954,00089.4122
0000000477,00000.4829,-0000.0008,00000.8459,00000.9740,00359.9088,00089.1003
0000000478,00000.6542,-0000.0282,00000.8153,00001.0457,00357.5311,00088.7800
0000000479,00000.6174,-0000.0319,00000.7738,00000.9904,00357.0385,00088.8482
0000000480,00000.5566,-0000.0177,00000.6892,00000.8860,00358.1767,00088.9626
0000000481,00000.5046,-0000.0009,00000.6232,00000.8018,00359.9007,00089.0599
0000000482,00000.4844,00000.0057,00000.6006,00000.7716,00000.6756,00089.0975
0000000483,00000.5189,00000.1608,00000.8934,00001.0456,00017.2128,00088.9879
0000000484,00000.4941,00000.1639,00000.8421,00000.9900,00018.3478,00089.0302
0000000485,00000.4434,00000.1438,00000.7496,00000.8827,00017.9639,00089.1315
0000000486,00000.2932,00000.0874,00000.9868,00001.0331,00016.5937,00089.4301
0000000487,00000.3007,00000.0858,00000.9381,00000.9889,00015.9226,00089.4173
0000000488,00000.2831,00000.0610,00000.8366,00000.8853,00012.1538,00089.4605
0000000489,00000.2778,00000.0799,00000.8232,00000.8724,00016.0462,00089.4614
0000000490,00000.2434,00000.1015,00000.6317,00000.6845,00022.6338,00089.5086
0000000491,00000.3390,00000.2083,00000.9372,00001.0181,00031.5664,00089.2588
0000000492,00000.3776,00000.1750,00000.9024,00000.9938,00024.8684,00089.2247
0000000493,00000.6897,-0000.3042,00000.7203,00001.0426,00336.1985,00088.5955
0000000494,00000.6453,-0000.3181,00000.6973,00001.0019,00333.7589,00088.6596
0000000495,00000.5482,-0000.3073,00000.6357,00000.8939,00330.7241,00088.8291
0000000496,00000.5360,-0000.3035,00000.6307,00000.8816,00330.4802,00088.8524
0000000497,00000.4912,-0000.2433,00000.5800,00000.7980,00333.6535,00088.9787
0000000498,00000.4814,-0000.2344,00000.5731,00000.7843,00334.0396,00089.0025
0000000499,00000.5144,-0000.2326,00000.6252,00000.8423,00335.6721,00088.9483
0000000500,00000.2702,-0000.2612,00000.9683,00001.0386,00315.9682,00089.2999
0000000501,00000.2573,-0000.2372,00000.9289,00000.9926,00317.3308,00089.3480
0000000502,00000.2556,-0000.1757,00000.8417,00000.8970,00325.4993,00089.4221
0000000503,00000.2533,-0000.1582,00000.8207,00000.8734,00328.0096,00089.4436
0000000504,00000.2376,-0000.0869,00000.7457,00000.7874,00339.9074,00089.5286
0000000505,00000.2433,-0000.0966,00000.7478,00000.7923,00338.3534,00089.5123
0000000506,00000.2624,-0000.2527,00000.7419,00000.8265,00316.0855,00089.3213
0000000507,00000.2563,-0000.2267,00000.7145,00000.7922,00318.5065,00089.3625
0000000508,00000.3244,-0000.2134,00000.6666,00000.7714,00326.6679,00089.2766
0000000509,00000.2868,-0000.1447,00000.5953,00000.6765,00333.2288,00089.4015
0000000510,00000.4931,-0000.0866,00000.9033,00001.0328,00350.0342,00089.0672
0000000511,00000.4665,-0000.0706,00000.8736,00000.9929,00351.3939,00089.1210
0000000512,00000.5973,00000.2733,00000.8194,00001.0502,00024.5867,00088.7762
0000000513,00000.5603,00000.2557,00000.7841,00000.9970,00024.5264,00088.8526
0000000514,00000.4946,00000.2151,00000.7178,00000.8979,00023.5008,00088.9951
0000000515,00000.5053,00000.0012,00000.7116,00000.8728,00000.1319,00089.0585
0000000516,00000.5083,-0000.0366,00000.9027,00001.0367,00355.8823,00089.0505
0000000517,00000.6253,00000.0134,00000.7692,00000.9914,00001.2287,00088.8346
0000000518,00000.6327,00000.0812,00000.7749,00001.0037,00007.3174,00088.8116
0000000519,00000.2434,-0000.1964,00000.9915,00001.0397,00321.1104,00089.4173
0000000520,00000.3465,-0000.1988,00000.9089,00000.9928,00330.1533,00089.2557
0000000521,00000.3564,-0000.1861,00000.9099,00000.9947,00332.4274,00089.2510
0000000522,00000.3329,-0000.1204,00000.8147,00000.8883,00340.1180,00089.3406
0000000523,00000.2728,-0000.0680,00000.6252,00000.6855,00346.0036,00089.4762
0000000524,00000.2618,-0000.3949,00000.9191,00001.0340,00303.5407,00089.1174
0000000525,00000.2507,-0000.3674,00000.8842,00000.9898,00304.3114,00089.1713
0000000526,00000.3436,-0000.3766,00000.8895,00001.0253,00312.3792,00089.0502
0000000527,00000.3438,-0000.3481,00000.8655,00000.9942,00314.6406,00089.0885
0000000528,00000.4975,-0000.2262,00000.8881,00001.0428,00335.5522,00088.9818
0000000529,00000.4679,-0000.2004,00000.8544,00000.9945,00336.8144,00089.0517
0000000530,00000.4171,-0000.1893,00000.7710,00000.8968,00335.5849,00089.1466
0000000531,00000.5103,-0000.3746,00000.8341,00001.0471,00323.7181,00088.8206
0000000532,00000.4798,-0000.3321,00000.8093,00000.9977,00325.3142,00088.9128
0000000533,00000.6473,-0000.3916,00000.7312,00001.0522,00328.8240,00088.5904
0000000534,00000.5699,-0000.4115,00000.7118,00001.0004,00324.1683,00088.6902
0000000535,00000.5006,-0000.3821,00000.6387,00000.8969,00322.6510,00088.8267
0000000536,00000.4665,-0000.3756,00000.6100,00000.8548,00321.1623,00088.8842
0000000537,00000.4439,-0000.3614,00000.5653,00000.8045,00320.8498,00088.9335
0000000538,00000.3944,-0000.3058,00000.4930,00000.7015,00322.2073,00089.0702
0000000539,00000.4114,-0000.3170,00000.5289,00000.7413,00322.3788,00089.0324
0000000540,00000.6896,-0000.2036,00000.7643,00001.0493,00343.5499,00088.6604
0000000541,00000.6507,-0000.1893,00000.7396,00001.0031,00343.7768,00088.7373
0000000542,00000.9394,-0000.0382,00000.4987,00001.0642,00357.6714,00088.2482
0000000543,00000.8865,-0000.0343,00000.4834,00001.0103,00357.7821,00088.3471
0000000544,00000.7905,-0000.0504,00000.4508,00000.9114,00356.3500,00088.5242
0000000545,00000.7311,-0000.0668,00000.4227,00000.8471,00354.7794,00088.6322
0000000546,00000.6869,-0000.0706,00000.3933,00000.7947,00354.1330,00088.7134
0000000547,00000.8502,00000.0403,00000.6211,00001.0537,00002.7113,00088.4140
0000000548,00000.8131,00000.0688,00000.5945,00001.0096,00004.8370,00088.4795
0000000549,00000.6976,00000.0740,00000.5382,00000.8842,00006.0519,00088.6930
0000000550,00000.7693,00000.1572,00000.6923,00001.0468,00011.5498,00088.5370
0000000551,00000.6868,00000.1541,00000.6925,00000.9874,00012.6483,00088.6885
0000000552,00000.6172,00000.1249,00000.6295,00000.8904,00011.4382,00088.8268
0000000553,00000.5133,00000.0806,00000.4898,00000.7140,00008.9275,00089.0320
0000000554,00000.7538,-0000.1205,00000.6716,00001.0167,00350.9140,00088.5778
0000000555,00000.7338,-0000.1261,00000.6552,00000.9918,00350.2491,00088.6127
0000000556,00000.6341,-0000.1038,00000.5775,00000.8639,00350.7023,00088.8029
0000000557,00000.5744,-0000.1076,00000.5420,00000.7970,00349.3864,00088.9111
0000000558,00000.7975,-0000.1197,00000.5245,00000.9620,00351.4618,00088.4975
0000000559,00000.8370,-0000.0563,00000.5784,00001.0189,00356.1501,00088.4370
0000000560,00000.7356,-0000.0835,00000.5154,00000.9021,00353.5253,00088.6206
0000000561,00000.6558,-0000.0779,00000.4685,00000.8098,00353.2245,00088.7695
0000000562,00000.7693,-0000.0775,00000.6757,00001.0268,00354.2465,00088.5594
0000000563,00000.7423,-0000.0540,00000.6671,00000.9995,00355.8385,00088.6133
0000000564,00000.6562,-0000.0599,00000.6037,00000.8936,00354.7841,00088.7724
0000000565,00000.5889,-0000.0571,00000.5267,00000.7921,00354.4620,00088.8977
0000000566,00000.6983,00000.5353,00000.5361,00001.0303,00037.4722,00088.3607
0000000567,00000.6692,00000.5360,00000.5420,00001.0144,00038.6920,00088.4024
0000000568,00000.6957,00000.5717,00000.4169,00000.9923,00039.4098,00088.3221
0000000569,00000.7569,00000.5109,00000.4551,00001.0203,00034.0189,00088.2985
0000000570,00000.8106,00000.3914,00000.4919,00001.0258,00025.7712,00088.3227
0000000571,00000.7873,00000.3906,00000.4792,00001.0010,00026.3887,00088.3624
0000000572,00000.8521,00000.4183,00000.3724,00001.0196,00026.1452,00088.2313
0000000573,00000.7769,00000.3230,00000.5626,00001.0121,00022.5725,00088.4323
0000000574,00000.7542,00000.3210,00000.5761,00001.0018,00023.0570,00088.4728
0000000575,00000.7557,00000.3366,00000.5967,00001.0200,00024.0122,00088.4586
0000000576,00000.6516,00000.3050,00000.5391,00000.8990,00025.0830,00088.6596
0000000577,00000.6763,00000.2529,00000.4732,00000.8633,00020.4992,00088.6547
0000000578,00000.8069,00000.2028,00000.6035,00001.0278,00014.1093,00088.4498
0000000579,00000.9468,00000.2606,00000.4175,00001.0671,00015.3911,00088.1702
0000000580,00000.9028,00000.2490,00000.3998,00001.0183,00015.4180,00088.2550
0000000581,00000.8199,00000.2220,00000.3597,00000.9224,00015.1493,00088.4174
0000000582,00000.7402,00000.1813,00000.3359,00000.8328,00013.7605,00088.5800
0000000583,00000.9210,00000.2372,00000.4820,00001.0662,00014.4453,00088.2279
0000000584,00000.8787,00000.2357,00000.4625,00001.0206,00015.0131,00088.3049
0000000585,00000.9197,00000.4612,00000.3158,00001.0762,00026.6321,00088.0828
0000000586,00000.7795,00000.3606,00000.2932,00000.9076,00024.8280,00088.3997
0000000587,00000.8509,00000.5413,00000.3778,00001.0769,00032.4634,00088.1209
0000000588,00000.8124,00000.5104,00000.3568,00001.0236,00032.1362,00088.2123
0000000589,00000.7821,00000.5840,00000.4472,00001.0737,00036.7488,00088.1812
0000000590,00000.8455,00000.5050,00000.4105,00001.0669,00030.8520,00088.1650
0000000591,00000.6597,00000.3314,00000.3746,00000.8279,00026.6729,00088.6244
0000000592,00000.9528,00000.2677,00000.2715,00001.0263,00015.6959,00088.1559
0000000593,00000.9828,00000.2920,00000.2136,00001.0473,00016.5458,00088.0896
0000000594,00000.8611,00000.2717,00000.1715,00000.9191,00017.5126,00088.3175
0000000595,00000.7745,00000.2680,00000.1451,00000.8323,00019.0835,00088.4729
0000000596,00000.9426,00000.4356,00000.1833,00001.0544,00024.8030,00088.0651
0000000597,00000.9335,00000.4092,00000.1783,00001.0347,00023.6710,00088.1008
0000000598,00000.8412,00000.3701,00000.1805,00000.9365,00023.7486,00088.2877
0000000599,00000.8350,00000.5473,00000.2114,00001.0205,00033.2434,00088.1396
0000000600,00000.8413,00000.6004,00000.2339,00001.0597,00035.5116,00088.0740
0000000601,00000.7823,00000.6445,00000.2400,00001.0416,00039.4823,00088.1114
0000000602,00000.7068,00000.5602,00000.2275,00000.9301,00038.4031,00088.3196
0000000603,00000.6977,00000.5450,00000.2291,00000.9145,00037.9952,00088.3503
0000000604,00000.9423,-0000.0254,00000.2574,00000.9772,00358.4556,00088.2435
0000000605,00001.0453,-0000.0221,00000.2668,00001.0791,00358.7906,00088.0517
0000000606,00000.8141,-0000.0411,00000.2175,00000.8436,00357.1115,00088.4813
0000000607,00000.7381,-0000.0436,00000.2690,00000.7868,00356.6159,00088.6224
0000000608,00000.8672,-0000.0567,00000.2851,00000.9147,00356.2565,00088.3807
0000000609,00000.9557,-0000.0603,00000.2871,00000.9998,00356.3878,00088.2156
0000000610,00001.0192,00000.1105,00000.2770,00001.0620,00006.1901,00088.0897
0000000611,00000.9962,00000.1045,00000.2919,00001.0434,00005.9910,00088.1335
0000000612,00000.9651,00000.0921,00000.2881,00001.0114,00005.4534,00088.1935
0000000613,00000.8662,00000.1016,00000.2746,00000.9144,00006.6864,00088.3749
0000000614,00000.8160,-0000.3111,00000.2982,00000.9228,00339.1322,00088.3729
0000000615,00000.8190,-0000.3257,00000.3169,00000.9366,00338.3114,00088.3577
0000000616,00000.9140,-0000.3523,00000.3190,00001.0302,00338.9178,00088.1748
0000000617,00000.7151,-0000.2843,00000.2862,00000.8211,00338.3181,00088.5661
0000000618,00000.7619,-0000.2605,00000.3607,00000.8823,00341.1242,00088.4998
0000000619,00000.9117,-0000.2616,00000.4751,00001.0608,00343.9917,00088.2327
0000000620,00000.9079,-0000.2167,00000.5092,00001.0633,00346.5786,00088.2608
0000000621,00000.8606,-0000.1961,00000.4991,00001.0140,00347.1636,00088.3555
0000000622,00000.5957,-0000.1049,00000.3637,00000.7058,00350.0123,00088.8731
0000000623,00000.9806,-0000.0884,00000.4109,00001.0669,00354.8469,00088.1654
0000000624,00001.0345,-0000.1112,00000.2778,00001.0769,00353.8661,00088.0612
0000000625,00000.7673,-0000.2661,00000.2927,00000.8632,00340.8713,00088.4869
0000000626,00000.7220,-0000.2483,00000.2827,00000.8142,00341.0181,00088.5774
0000000627,00000.9800,-0000.3317,00000.2944,00001.0757,00341.2992,00088.0721
0000000628,00000.9331,-0000.3130,00000.2852,00001.0247,00341.4593,00088.1661
0000000629,00000.8411,-0000.2925,00000.2603,00000.9278,00340.8220,00088.3407
0000000630,00000.8799,-0000.2330,00000.4177,00001.0015,00345.1677,00088.3040
0000000631,00000.9098,-0000.2394,00000.4102,00001.0263,00345.2561,00088.2471
0000000632,00000.5915,-0000.5516,00000.6754,00001.0537,00316.9987,00088.4931
0000000633,00000.5651,-0000.5096,00000.6390,00000.9937,00317.9549,00088.5821
0000000634,00000.7643,-0000.4278,00000.5279,00001.0227,00330.7619,00088.3680
0000000635,00000.8366,-0000.4330,00000.4676,00001.0517,00332.6382,00088.2447
0000000636,00000.7995,-0000.3564,00000.4758,00000.9963,00335.9742,00088.3691
0000000637,00000.6402,-0000.2567,00000.4226,00000.8089,00338.1521,00088.7149
0000000638,00000.5416,-0000.1903,00000.3951,00000.6969,00340.6389,00088.9305
0000000639,00000.7641,-0000.2577,00000.6702,00001.0485,00341.3618,00088.4975
0000000640,00000.6592,-0000.5658,00000.5866,00001.0482,00319.3608,00088.3813
0000000641,00000.6006,-0000.5835,00000.5512,00001.0025,00315.8267,00088.4398
0000000642,00000.5844,-0000.5903,00000.5120,00000.9758,00314.7128,00088.4524
0000000643,00000.5623,-0000.5067,00000.4898,00000.9016,00317.9739,00088.5897
0000000644,00000.5203,-0000.4446,00000.4349,00000.8109,00319.4873,00088.7250
0000000645,00000.5199,-0000.4691,00000.5617,00000.8977,00317.9393,00088.6953
0000000646,00000.6884,-0000.5693,00000.4399,00000.9957,00320.4063,00088.3356
0000000647,00000.7152,-0000.5879,00000.4431,00001.0264,00320.5764,00088.2749
0000000648,00000.5273,-0000.3386,00000.3871,00000.7365,00327.2935,00088.8325
0000000649,00000.5004,-0000.3083,00000.3777,00000.6987,00328.3682,00088.9049
0000000650,00000.8781,-0000.4941,00000.3362,00001.0621,00330.6357,00088.1226
0000000651,00000.8458,-0000.4634,00000.3278,00001.0186,00331.2827,00088.2029
0000000652,00000.6148,-0000.3260,00000.2938,00000.7553,00332.0635,00088.7035
0000000653,00000.7546,-0000.5048,00000.3583,00000.9760,00326.2198,00088.3085
0000000654,00000.7039,-0000.4759,00000.3522,00000.9198,00325.9364,00088.4169
0000000655,00000.6269,-0000.4609,00000.3576,00000.8563,00323.6793,00088.5502
0000000656,00000.5632,-0000.4383,00000.3377,00000.7895,00322.1107,00088.6704
0000000657,00000.5124,-0000.3880,00000.3181,00000.7171,00322.8659,00088.8026
0000000658,00000.8676,-0000.4431,00000.2581,00001.0078,00332.9465,00088.1848
0000000659,00000.9022,-0000.4496,00000.2272,00001.0332,00333.5112,00088.1218
0000000660,00000.5775,00000.3072,00000.6796,00000.9432,00028.0098,00088.7813
0000000661,00000.6495,-0000.4170,00000.5742,00000.9620,00327.3011,00088.5620
0000000662,00000.6398,-0000.3153,00000.5540,00000.9031,00333.7700,00088.6710
0000000663,00000.6595,-0000.2514,00000.5431,00000.8905,00339.1324,00088.6850
0000000664,00000.7038,-0000.2251,00000.5313,00000.9101,00342.2633,00088.6233
0000000665,00000.1750,00000.0735,00000.9519,00000.9707,00022.7816,00089.6464
0000000666,00000.1418,00000.0110,00000.9803,00000.9906,00004.4529,00089.7350
0000000667,00000.8792,00000.1801,00000.2077,00000.9211,00011.5766,00088.3279
0000000668,00000.9270,00000.1914,00000.2176,00000.9712,00011.6641,00088.2363
0000000669,00000.9402,-0000.1985,00000.2525,00000.9935,00348.0786,00088.2096
0000000670,00000.6915,-0000.4894,00000.3088,00000.9017,00324.7090,00088.4216
0000000671,00000.7934,-0000.6186,00000.2763,00001.0433,00322.0593,00088.1254
0000000672,00000.8569,-0000.5536,00000.2258,00001.0448,00327.1367,00088.0992
0000000673,00000.8373,-0000.5365,00000.1928,00001.0129,00327.3507,00088.1471
0000000674,00000.5355,00000.1294,00000.6571,00000.8575,00013.5814,00088.9736
0000000675,00000.3931,-0000.0979,00000.7576,00000.8591,00346.0079,00089.2453
0000000676,00000.2474,-0000.3057,00000.7897,00000.8823,00308.9801,00089.2673
0000000677,00000.1794,-0000.0284,00000.8441,00000.8634,00350.9932,00089.6616
0000000678,00000.1575,-0000.2296,00000.8056,00000.8523,00304.4476,00089.4813
0000000679,00000.1137,-0000.0913,00000.7977,00000.8110,00321.2332,00089.7282
0000000680,00000.1307,-0000.3297,00000.7146,00000.7978,00291.6232,00089.3393
0000000681,00000.2598,-0000.3531,00000.6666,00000.7979,00306.3456,00089.1832
0000000682,00000.3015,-0000.3759,00000.6440,00000.8044,00308.7294,00089.1022
0000000683,00000.3143,-0000.3888,00000.6411,00000.8130,00308.9503,00089.0686
0000000684,00000.7278,00000.3373,00000.1937,00000.8252,00024.8647,00088.5055
0000000685,00000.7015,00000.4476,00000.1570,00000.8468,00032.5387,00088.4495
0000000686,00000.8106,-0000.3680,00000.2393,00000.9218,00335.5836,00088.3413
0000000687,00000.8615,-0000.1851,00000.2439,00000.9143,00347.8741,00088.3581
0000000688,00000.7479,-0000.5108,00000.1936,00000.9261,00325.6711,00088.3124
0000000689,00000.6847,-0000.5710,00000.1944,00000.9125,00320.1717,00088.3388
0000000690,00000.2264,00000.0263,00000.7003,00000.7365,00006.6207,00089.5754
0000000691,00000.3932,-0000.1055,00000.6604,00000.7758,00344.9753,00089.2415
0000000692,00000.5199,00000.0346,00000.5848,00000.7833,00003.8098,00089.0291
0000000693,00000.6779,00000.0766,00000.4169,00000.7995,00006.4491,00088.7289
0000000694,00000.7765,00000.0663,00000.2607,00000.8218,00004.8771,00088.5479
0000000695,00000.6981,00000.0156,00000.4010,00000.8052,00001.2810,00088.6990
0000000696,00000.6890,00000.0991,00000.4095,00000.8076,00008.1883,00088.7031
0000000697,00000.7598,00000.1928,00000.1815,00000.8046,00014.2387,00088.5395
0000000698,00000.7198,00000.2334,00000.2392,00000.7936,00017.9651,00088.5901
0000000699,00000.6791,00000.4319,00000.1578,00000.8201,00032.4544,00088.5005
0000000700,00000.7409,-0000.1723,00000.1757,00000.7807,00346.9052,00088.5827
0000000701,00000.5823,-0000.4862,00000.2184,00000.7894,00320.1375,00088.5866
0000000702,00000.5930,-0000.4452,00000.2302,00000.7765,00323.1013,00088.6183
0000000703,00000.6526,-0000.2867,00000.3357,00000.7879,00336.2836,00088.6719
0000000704,00000.6862,-0000.3731,00000.1964,00000.8054,00331.4682,00088.5446
0000000705,00000.7047,-0000.2843,00000.1606,00000.7766,00338.0305,00088.5843
0000000706,00000.6453,-0000.4259,00000.1413,00000.7860,00326.5759,00088.5594
0000000707,00000.1127,-0000.0284,00000.7765,00000.7851,00345.8408,00089.7835
0000000708,00000.0728,-0000.0473,00000.7470,00000.7520,00326.9620,00089.8382
0000000709,00000.1438,-0000.2197,00000.7341,00000.7796,00303.2083,00089.5108
0000000710,00000.5715,00000.2479,00000.3316,00000.7058,00023.4514,00088.8393
0000000711,00000.3266,00000.0813,00000.6043,00000.6917,00013.9782,00089.3729
0000000712,00000.4093,-0000.3981,00000.5613,00000.8007,00315.7924,00088.9362
0000000713,00000.3865,-0000.2949,00000.4858,00000.6873,00322.6507,00089.0943
0000000714,00000.3833,-0000.4024,00000.4519,00000.7163,00313.6115,00088.9646
0000000715,00000.3429,-0000.4166,00000.4478,00000.7012,00309.4577,00088.9947
0000000716,00000.5206,-0000.3430,00000.3178,00000.6997,00326.6226,00088.8385
0000000717,00000.4822,-0000.1635,00000.4440,00000.6755,00341.2681,00089.0514
0000000718,00000.6044,-0000.3174,00000.2204,00000.7173,00332.2956,00088.7282
0000000719,00000.6219,-0000.2170,00000.2716,00000.7125,00340.7654,00088.7728
0000000720,00000.4676,-0000.4596,00000.2784,00000.7123,00315.4977,00088.7784
0000000721,00000.4380,-0000.4667,00000.2768,00000.6973,00313.1855,00088.8075
0000000722,00000.4655,-0000.5045,00000.3191,00000.7570,00312.7007,00088.7210
0000000723,00000.1066,-0000.3038,00000.7223,00000.7908,00289.3327,00089.4001
0000000724,00000.1759,-0000.2727,00000.6960,00000.7680,00302.8271,00089.3954
0000000725,00000.1088,-0000.2644,00000.6259,00000.6881,00292.3624,00089.4674
0000000726,00000.1045,-0000.2386,00000.6028,00000.6566,00293.6611,00089.5147
0000000727,00000.1271,-0000.2587,00000.6284,00000.6914,00296.1720,00089.4630
0000000728,00000.1509,-0000.1432,00000.6452,00000.6780,00316.4907,00089.6124
0000000729,00000.1349,-0000.3649,00000.5765,00000.6955,00290.2912,00089.2753
0000000730,00000.1783,-0000.3715,00000.5143,00000.6590,00295.6313,00089.2323
0000000731,00000.2422,-0000.3155,00000.5588,00000.6859,00307.5108,00089.2591
0000000732,00000.2535,-0000.2256,00000.6003,00000.6895,00318.3368,00089.3679
0000000733,-0000.0022,-0000.5875,00000.8542,00001.0367,00269.7817,00088.9055
0000000734,-0000.0146,-0000.5613,00000.8019,00000.9790,00268.5126,00088.9539
0000000735,-0000.0239,-0000.4876,00000.7259,00000.8748,00267.1938,00089.0904
0000000736,-0000.0157,-0000.4343,00000.6304,00000.7657,00267.9240,00089.1903
0000000737,00000.0152,-0000.3728,00000.5359,00000.6530,00272.3368,00089.3050
0000000738,00000.2360,-0000.5006,00000.8515,00001.0156,00295.2436,00088.9689
0000000739,00000.2306,-0000.4993,00000.8276,00000.9936,00294.7921,00088.9754
0000000740,00000.2008,-0000.4392,00000.6832,00000.8366,00294.5719,00089.1003
0000000741,00000.1872,-0000.4121,00000.6358,00000.7804,00294.4286,00089.1567
0000000742,00000.1879,-0000.3993,00000.6108,00000.7535,00295.1973,00089.1778
0000000743,-0000.2778,-0000.6122,00000.7750,00001.0260,00245.5929,00088.7475
0000000744,-0000.1645,-0000.4473,00000.5910,00000.7592,00249.8147,00089.1120
0000000745,-0000.1455,-0000.4128,00000.5469,00000.7005,00250.5897,00089.1845
0000000746,00000.0460,-0000.3373,00000.9746,00001.0323,00277.7625,00089.3657
0000000747,00000.0513,-0000.2550,00000.7329,00000.7777,00281.3788,00089.5153
0000000748,-0000.0917,-0000.5372,00000.8804,00001.0355,00260.3145,00088.9846
0000000749,-0000.0893,-0000.5069,00000.8423,00000.9871,00260.0130,00089.0410
0000000750,00000.2830,-0000.5474,00000.8448,00001.0457,00297.3359,00088.8520
0000000751,00000.2750,-0000.5380,00000.7954,00000.9989,00297.0757,00088.8742
0000000752,-0000.0612,-0000.4242,00000.9424,00001.0353,00261.7969,00089.2014
0000000753,-0000.0568,-0000.4150,00000.8889,00000.9826,00262.2027,00089.2196
0000000754,-0000.0408,-0000.3511,00000.7008,00000.7849,00263.3757,00089.3415
0000000755,-0000.0277,-0000.3149,00000.6114,00000.6883,00264.9713,00089.4111
0000000756,00000.2037,-0000.3051,00000.9732,00001.0400,00303.7339,00089.3165
0000000757,00000.2004,-0000.2897,00000.9227,00000.9876,00304.6686,00089.3437
0000000758,00000.1632,-0000.3737,00000.9479,00001.0319,00293.5867,00089.2402
0000000759,00000.1361,-0000.3996,00000.8847,00000.9803,00288.8040,00089.2135
0000000760,-0000.2748,-0000.3426,00000.9005,00001.0019,00231.2723,00089.1818
0000000761,00000.0352,-0000.7727,00000.7098,00001.0498,00272.6087,00088.5588
0000000762,00000.0580,-0000.7312,00000.6823,00001.0018,00274.5368,00088.6333
0000000763,00000.0780,-0000.6990,00000.6544,00000.9607,00276.3709,00088.6895
0000000764,00000.0861,-0000.6434,00000.6217,00000.8989,00277.6202,00088.7906
0000000765,00000.0799,-0000.6079,00000.6057,00000.8618,00277.4874,00088.8576
0000000766,00000.0808,-0000.5548,00000.5691,00000.7989,00278.2837,00088.9555
0000000767,00000.0496,-0000.4146,00000.5029,00000.6537,00276.8281,00089.2221
0000000768,-0000.0127,-0000.5622,00000.6124,00000.8315,00268.7025,00088.9522
0000000769,00000.2313,-0000.6811,00000.7286,00001.0238,00288.7582,00088.6599
0000000770,00000.2272,-0000.6363,00000.6883,00000.9645,00289.6467,00088.7412
0000000771,00000.2122,-0000.5805,00000.6373,00000.8878,00290.0833,00088.8485
0000000772,00000.1580,-0000.4669,00000.5684,00000.7524,00288.6907,00089.0817
0000000773,00000.1496,-0000.6285,00000.8041,00001.0315,00283.3899,00088.7963
0000000774,-0000.1125,-0000.5791,00000.7623,00000.9639,00259.0110,00088.9008
0000000775,-0000.0321,-0000.6662,00000.7535,00001.0063,00267.2425,00088.7572
0000000776,-0000.0150,-0000.5132,00000.5833,00000.7771,00268.3293,00089.0435
0000000777,-0000.4554,-0000.5919,00000.7406,00001.0518,00232.4231,00088.6085
0000000778,-0000.2328,-0000.3632,00000.5362,00000.6882,00237.3417,00089.1963
0000000779,00000.4647,-0000.7195,00000.5895,00001.0397,00302.8577,00088.4041
0000000780,00000.4071,-0000.6925,00000.5656,00000.9824,00300.4504,00088.5033
0000000781,00000.3380,-0000.6095,00000.5046,00000.8605,00299.0116,00088.7014
0000000782,00000.3053,-0000.5553,00000.4648,00000.7859,00298.8054,00088.8194
0000000783,00000.2747,-0000.5046,00000.4265,00000.7156,00298.5588,00088.9295
0000000784,00000.2712,-0000.4812,00000.4068,00000.6860,00299.3997,00088.9709
0000000785,00000.2622,-0000.4866,00000.4095,00000.6879,00298.3159,00088.9702
0000000786,00000.2980,-0000.6118,00000.4981,00000.8433,00295.9660,00088.7320
0000000787,00000.3081,-0000.6845,00000.5398,00000.9246,00294.2353,00088.6015
0000000788,00000.4679,-0000.6218,00000.6723,00001.0284,00306.9630,00088.5500
0000000789,00000.4236,-0000.6045,00000.6774,00001.0018,00305.0207,00088.6247
0000000790,00000.3416,-0000.5590,00000.6194,00000.9016,00301.4334,00088.7795
0000000791,00000.2840,-0000.4843,00000.5729,00000.8021,00300.3916,00088.9540
0000000792,00000.2396,-0000.4251,00000.5022,00000.7003,00299.4088,00089.0909
0000000793,00000.4666,-0000.5813,00000.7350,00001.0469,00308.7518,00088.6111
0000000794,00000.4976,-0000.5183,00000.6977,00001.0015,00313.8322,00088.6613
0000000795,00000.1818,-0000.9491,00000.4437,00001.0633,00280.8411,00088.1994
0000000796,00000.1953,-0000.8537,00000.5689,00001.0443,00282.8871,00088.3683
0000000797,00000.2260,-0000.7802,00000.6018,00001.0109,00286.1552,00088.4865
0000000798,00000.1687,-0000.5851,00000.4883,00000.7805,00286.0790,00088.8655
0000000799,00000.2176,-0000.7194,00000.7316,00001.0489,00286.8299,00088.5997
0000000800,00000.1854,-0000.4620,00000.4828,00000.6935,00291.8709,00089.0725
0000000801,00000.3767,-0000.7158,00000.6065,00001.0110,00297.7543,00088.4930
0000000802,00000.5018,-0000.7685,00000.4826,00001.0370,00303.1420,00088.2898
0000000803,00000.5340,-0000.7604,00000.4146,00001.0175,00305.0758,00088.2686
0000000804,00000.4855,-0000.6638,00000.3816,00000.9067,00306.1820,00088.4676
0000000805,00000.4171,-0000.5941,00000.3633,00000.8117,00305.0691,00088.6475
0000000806,00000.3553,-0000.5047,00000.3048,00000.6884,00305.1494,00088.8500
0000000807,00000.3613,-0000.6776,00000.4257,00000.8780,00298.0674,00088.5692
0000000808,00000.3727,-0000.7253,00000.4530,00000.9328,00297.1951,00088.4807
0000000809,00000.6309,-0000.6186,00000.5292,00001.0300,00315.5621,00088.3536
0000000810,00000.5232,-0000.5907,00000.4555,00000.9111,00311.5299,00088.5298
0000000811,-0000.3684,-0000.7064,00000.5808,00000.9859,00242.4533,00088.5156
0000000812,-0000.3233,-0000.6282,00000.5678,00000.9064,00242.7680,00088.6837
0000000813,-0000.2175,-0000.5387,00000.5201,00000.7798,00248.0112,00088.9175
0000000814,-0000.1531,-0000.4635,00000.4522,00000.6655,00251.7204,00089.0905
0000000815,-0000.1443,-0000.4515,00000.4603,00000.6607,00252.2736,00089.1170
0000000816,-0000.2240,-0000.6919,00000.6882,00001.0013,00252.0617,00088.6450
0000000817,-0000.2235,-0000.7318,00000.5693,00000.9538,00253.0189,00088.5743
0000000818,-0000.2159,-0000.6990,00000.5016,00000.8870,00252.8344,00088.6368
0000000819,-0000.2117,-0000.6336,00000.4540,00000.8077,00251.5243,00088.7553
0000000820,-0000.1662,-0000.5594,00000.3987,00000.7068,00253.4489,00088.9128
0000000821,-0000.2731,-0000.7602,00000.4571,00000.9282,00250.2405,00088.4949
0000000822,-0000.2926,-0000.8448,00000.5007,00001.0247,00250.8971,00088.3341
0000000823,-0000.3015,-0000.8629,00000.5097,00001.0466,00250.7420,00088.2969
0000000824,-0000.3047,-0000.7867,00000.5730,00001.0198,00248.8294,00088.4281
0000000825,-0000.2152,-0000.6533,00000.5886,00000.9053,00251.7640,00088.7185
0000000826,-0000.1791,-0000.5615,00000.5436,00000.8018,00252.3047,00088.9019
0000000827,00000.0914,-0000.6248,00000.6529,00000.9084,00278.3210,00088.8234
0000000828,-0000.0004,-0000.8265,00000.6214,00001.0341,00269.9727,00088.4600
0000000829,00000.0239,-0000.8080,00000.5939,00001.0031,00271.6925,00088.4939
0000000830,00000.0638,-0000.7064,00000.5319,00000.8866,00275.1644,00088.6785
0000000831,00000.0678,-0000.6274,00000.4843,00000.7954,00276.1720,00088.8243
0000000832,00000.0900,-0000.5361,00000.4128,00000.6826,00279.5256,00088.9872
0000000833,-0000.0021,-0000.7641,00000.4317,00000.8776,00269.8414,00088.5763
0000000834,-0000.0082,-0000.8413,00000.4466,00000.9525,00269.4411,00088.4324
0000000835,-0000.0219,-0000.8987,00000.5049,00001.0311,00268.6021,00088.3249
0000000836,-0000.0398,-0000.9508,00000.4417,00001.0492,00267.6018,00088.2268
0000000837,-0000.0199,-0000.7306,00000.3579,00000.8138,00268.4374,00088.6382
0000000838,-0000.0055,-0000.6432,00000.3143,00000.7159,00269.5145,00088.8016
0000000839,-0000.0351,-0000.7288,00000.5160,00000.8936,00267.2463,00088.6406
0000000840,-0000.0531,-0000.7774,00000.5702,00000.9655,00266.0906,00088.5481
0000000841,-0000.0509,-0000.8092,00000.6162,00001.0184,00266.4012,00088.4893
0000000842,-0000.1700,-0000.7035,00000.7592,00001.0489,00256.4151,00088.6515
0000000843,00000.3335,-0000.8385,00000.5386,00001.0509,00291.6914,00088.3186
0000000844,00000.2634,-0000.6461,00000.3996,00000.8041,00292.1822,00088.7000
0000000845,00000.2307,-0000.5491,00000.3385,00000.6851,00292.7904,00088.8903
0000000846,-0000.4766,-0000.7196,00000.5943,00001.0480,00236.4856,00088.3917
0000000847,-0000.3239,-0000.5537,00000.4670,00000.7935,00239.6701,00088.8048
0000000848,-0000.2715,-0000.4939,00000.4245,00000.7056,00241.1987,00088.9500
0000000849,-0000.4501,-0000.8079,00000.4737,00001.0391,00240.8779,00088.2767
0000000850,-0000.0597,-0000.9781,00000.2665,00001.0155,00266.5058,00088.1741
0000000851,-0000.0353,-0001.0396,00000.2463,00001.0689,00268.0532,00088.0618
0000000852,-0000.0384,-0000.8697,00000.2316,00000.9009,00267.4717,00088.3779
0000000853,-0000.0447,-0000.8189,00000.2511,00000.8577,00266.8739,00088.4720
0000000854,-0000.0357,-0000.7825,00000.2443,00000.8205,00267.3889,00088.5405
0000000855,-0000.0096,-0000.7197,00000.1964,00000.7460,00269.2393,00088.6590
0000000856,00000.5114,-0000.7901,00000.2537,00000.9747,00302.9133,00088.2464
0000000857,00000.4728,-0000.7288,00000.2608,00000.9070,00302.9720,00088.3814
0000000858,00000.5935,-0000.8530,00000.2658,00001.0727,00304.8314,00088.0636
0000000859,00000.4360,-0000.6477,00000.2541,00000.8211,00303.9467,00088.5453
0000000860,00000.4109,-0000.5828,00000.2377,00000.7517,00305.1894,00088.6714
0000000861,00000.4006,-0000.5516,00000.2274,00000.7186,00305.9941,00088.7299
0000000862,00000.6625,-0000.7746,00000.3203,00001.0684,00310.5405,00088.1007
0000000863,00000.6060,-0000.7893,00000.1775,00001.0108,00307.5144,00088.1458
0000000864,00000.6919,-0000.7026,00000.2258,00001.0116,00314.5601,00088.1626
0000000865,00000.4734,-0000.8847,00000.3743,00001.0710,00298.1520,00088.1302
0000000866,00000.4252,-0000.8580,00000.3499,00001.0195,00296.3618,00088.2156
0000000867,00000.3974,-0000.7635,00000.3193,00000.9180,00297.4949,00088.3963
0000000868,00000.2411,-0000.8444,00000.3903,00000.9609,00285.9384,00088.3638
0000000869,00000.1593,-0000.8945,00000.3898,00000.9886,00280.0977,00088.3071
0000000870,00000.1450,-0000.8114,00000.3708,00000.9038,00280.1288,00088.4643
0000000871,00000.1284,-0000.7116,00000.3391,00000.7987,00280.2250,00088.6527
0000000872,00000.2410,-0000.8941,00000.4602,00001.0340,00285.0862,00088.2746
0000000873,00000.2077,-0000.7796,00000.3876,00000.8951,00284.9196,00088.4967
0000000874,00000.2040,-0000.6901,00000.3466,00000.7987,00286.4673,00088.6592
0000000875,00000.1974,-0000.6058,00000.3105,00000.7088,00288.0475,00088.8129
0000000876,00000.0590,-0000.9065,00000.3300,00000.9665,00273.7214,00088.3074
0000000877,00000.0986,-0000.9633,00000.2543,00001.0012,00275.8471,00088.1957
0000000878,00000.0856,-0000.8671,00000.2333,00000.9020,00275.6345,00088.3764
0000000879,00000.0921,-0001.0020,00000.2507,00001.0370,00275.2537,00088.1250
0000000880,00000.0791,-0000.7756,00000.2393,00000.8155,00275.8219,00088.5474
0000000881,00000.2411,-0000.9447,00000.2616,00001.0095,00284.3195,00088.1832
0000000882,00000.2641,-0001.0170,00000.2362,00001.0769,00284.5573,00088.0422
0000000883,00000.2493,-0000.8580,00000.2231,00000.9209,00286.1988,00088.3352
0000000884,00000.2348,-0000.7523,00000.2030,00000.8138,00287.3333,00088.5317
0000000885,00000.6095,-0000.8070,00000.2550,00001.0430,00307.0618,00088.1155
0000000886,00000.4218,-0000.8773,00000.2035,00000.9945,00295.6774,00088.1862
0000000887,00000.4276,-0000.9548,00000.1806,00001.0617,00294.1223,00088.0506
0000000888,00000.1876,-0000.9523,00000.1857,00000.9882,00281.1452,00088.1914
0000000889,00000.1871,-0000.8837,00000.1601,00000.9174,00281.9570,00088.3169
0000000890,-0000.5376,-0000.7842,00000.3200,00001.0032,00235.5710,00088.2284
0000000891,-0000.5053,-0000.8733,00000.3007,00001.0528,00239.9475,00088.1199
0000000892,-0000.3725,-0000.9105,00000.3716,00001.0516,00247.7529,00088.1669
0000000893,-0000.3701,-0000.8809,00000.3596,00001.0209,00247.2090,00088.2196
0000000894,-0000.3201,-0000.7815,00000.3344,00000.9083,00247.7245,00088.4265
0000000895,-0000.2991,-0000.7447,00000.3265,00000.8664,00248.1198,00088.5047
0000000896,-0000.2737,-0000.7126,00000.3076,00000.8230,00248.9857,00088.5778
0000000897,-0000.2317,-0000.6219,00000.2446,00000.7073,00249.5657,00088.7636
0000000898,-0000.2994,-0000.9449,00000.4052,00001.0709,00252.4180,00088.1530
0000000899,-0000.2820,-0000.9024,00000.3799,00001.0189,00252.6458,00088.2384
0000000900,-0000.1546,-0000.6795,00000.2926,00000.7558,00257.1803,00088.7017
0000000901,-0000.1963,-0000.9590,00000.2850,00001.0196,00258.4341,00088.1760
0000000902,-0000.2076,-0000.9718,00000.2835,00001.0333,00257.9408,00088.1484
0000000903,-0000.1513,-0000.8766,00000.2586,00000.9264,00260.2079,00088.3425
0000000904,-0000.1216,-0000.7489,00000.2447,00000.7971,00260.7760,00088.5865
0000000905,-0000.1770,-0000.9297,00000.4387,00001.0432,00259.2209,00088.2365
0000000906,-0000.1794,-0000.8645,00000.4457,00000.9890,00258.2733,00088.3549
0000000907,-0000.6002,-0000.8137,00000.2313,00001.0372,00233.5848,00088.1160
0000000908,-0000.4088,-0000.8106,00000.2182,00000.9338,00243.2371,00088.3083
0000000909,-0000.4160,-0000.8143,00000.2256,00000.9419,00242.9424,00088.2962
0000000910,-0000.4018,-0000.9358,00000.2370,00001.0456,00246.7645,00088.1023
0000000911,-0000.3501,-0000.9268,00000.2563,00001.0233,00249.3037,00088.1540
0000000912,-0000.3480,-0000.9417,00000.2774,00001.0416,00249.7155,00088.1293
0000000913,-0000.2094,-0001.0036,00000.2156,00001.0476,00258.2149,00088.0898
0000000914,-0000.0868,-0001.0045,00000.2228,00001.0325,00265.0609,00088.1214
0000000915,00000.1068,-0000.0717,00000.8841,00000.8934,00326.1320,00089.7603
0000000916,00000.5348,-0000.6961,00000.3172,00000.9334,00307.5349,00088.3643
0000000917,-0000.5616,-0000.6235,00000.3228,00000.8991,00227.9896,00088.4365
0000000918,-0000.5259,-0000.6949,00000.2339,00000.9023,00232.8840,00088.3763
0000000919,-0000.5675,-0000.7150,00000.2364,00000.9430,00231.5614,00088.2991
0000000920,00000.0169,-0000.6069,00000.6013,00000.8544,00271.5960,00088.8689
0000000921,00000.2375,-0000.6774,00000.4568,00000.8508,00289.3206,00088.6625
0000000922,00000.5040,-0000.6493,00000.2746,00000.8666,00307.8153,00088.4685
0000000923,00000.5630,-0000.6382,00000.2002,00000.8743,00311.4144,00088.4143
0000000924,-0000.0874,-0000.7974,00000.3359,00000.8697,00263.7475,00088.5053
0000000925,00000.3142,-0000.7667,00000.2093,00000.8546,00292.2815,00088.4562
0000000926,-0000.2401,-0000.8541,00000.2571,00000.9237,00254.2961,00088.3469
0000000927,-0000.1366,-0000.8948,00000.1877,00000.9245,00261.3189,00088.3134
0000000928,-0000.4578,-0000.6151,00000.3042,00000.8249,00233.3380,00088.5713
0000000929,-0000.5052,-0000.6583,00000.2002,00000.8537,00232.4994,00088.4538
0000000930,-0000.0383,-0000.5165,00000.4988,00000.7190,00265.7611,00089.0351
0000000931,-0000.0493,-0000.5529,00000.4443,00000.7110,00264.8996,00088.9658
0000000932,00000.2076,-0000.6446,00000.3810,00000.7770,00287.8555,00088.7383
0000000933,00000.5050,-0000.6298,00000.1866,00000.8285,00308.7280,00088.4959
0000000934,00000.3363,-0000.6508,00000.1953,00000.7582,00297.3269,00088.6351
0000000935,00000.2928,-0000.7211,00000.1667,00000.7959,00292.0968,00088.5500
0000000936,00000.1359,-0000.7893,00000.1652,00000.8177,00279.7696,00088.5078
0000000937,-0000.1121,-0000.7882,00000.1758,00000.8153,00261.9085,00088.5166
0000000938,-0000.5026,-0000.5263,00000.3179,00000.7941,00226.3208,00088.6442
0000000939,-0000.3281,-0000.6778,00000.3179,00000.8174,00244.1722,00088.5970
0000000940,-0000.2828,-0000.6123,00000.3866,00000.7774,00245.2099,00088.7433
0000000941,-0000.4829,-0000.4906,00000.2376,00000.7282,00225.4547,00088.7175
0000000942,-0000.4932,-0000.4714,00000.2293,00000.7198,00223.7058,00088.7287
0000000943,-0000.4269,-0000.6133,00000.2294,00000.7817,00235.1571,00088.6077
0000000944,-0000.5864,-0000.3912,00000.2612,00000.7517,00213.7100,00088.6866
0000000945,-0000.5533,-0000.4628,00000.2127,00000.7521,00219.9096,00088.6559
0000000946,-0000.4801,-0000.5845,00000.1779,00000.7770,00230.6007,00088.5907
0000000947,-0000.3177,-0000.7243,00000.1980,00000.8153,00246.3118,00088.5264
0000000948,-0000.2573,-0000.6965,00000.1989,00000.7687,00249.7201,00088.6166
0000000949,-0000.0309,-0000.2042,00000.6223,00000.6557,00261.3950,00089.6153
0000000950,-0000.0859,-0000.1868,00000.6468,00000.6787,00245.2960,00089.6169
0000000951,-0000.3360,-0000.2103,00000.5389,00000.6690,00212.0399,00089.2615
0000000952,-0000.0850,-0000.4512,00000.4778,00000.6626,00259.3244,00089.1447
0000000953,-0000.2260,-0000.4475,00000.4619,00000.6817,00243.2058,00089.0659
0000000954,-0000.4061,-0000.3133,00000.4734,00000.6979,00217.6503,00089.0445
0000000955,-0000.3928,-0000.3862,00000.4485,00000.7103,00224.5160,00088.9737
0000000956,00000.1691,-0000.5835,00000.3713,00000.7120,00286.1600,00088.8682
0000000957,00000.0374,-0000.5339,00000.4432,00000.6948,00274.0071,00089.0029
0000000958,00000.0401,-0000.5403,00000.4328,00000.6935,00274.2404,00088.9905
0000000959,-0000.0961,-0000.5684,00000.3615,00000.6804,00260.4069,00088.9260
0000000960,-0000.4342,00000.0244,00000.9438,00001.0392,00176.7808,00089.1897
0000000961,-0000.3368,-0000.4544,00000.3869,00000.6853,00233.4523,00088.9463
0000000962,-0000.4161,00000.0104,00000.9051,00000.9963,00178.5631,00089.2245
0000000963,-0000.3824,-0000.4977,00000.3251,00000.7069,00232.4672,00088.8306
0000000964,-0000.4223,00000.0131,00000.7861,00000.8924,00178.2298,00089.2129
0000000965,-0000.4738,-0000.3632,00000.3913,00000.7138,00217.4686,00088.8877
0000000966,-0000.3874,00000.0032,00000.6960,00000.7966,00179.5258,00089.2782
0000000967,-0000.3413,-0000.5373,00000.3015,00000.7043,00237.5720,00088.8141
0000000968,-0000.3701,00000.0034,00000.6299,00000.7306,00179.4781,00089.3104
0000000969,-0000.2899,-0000.5404,00000.2877,00000.6774,00241.7838,00088.8574
0000000970,-0000.4845,-0000.3491,00000.8028,00001.0005,00215.7768,00088.8873
0000000971,-0000.4484,-0000.3475,00000.7662,00000.9534,00217.7719,00088.9431
0000000972,-0000.4259,-0000.3330,00000.7117,00000.8938,00218.0240,00088.9927
0000000973,-0000.3954,-0000.3398,00000.6474,00000.8312,00220.6720,00089.0287
0000000974,-0000.3814,-0000.3344,00000.6188,00000.8001,00221.2447,00089.0550
0000000975,-0000.3139,-0000.3265,00000.5367,00000.7023,00226.1254,00089.1561
0000000976,-0000.4898,-0000.2202,00000.8973,00001.0458,00204.2122,00088.9995
0000000977,-0000.4627,-0000.2206,00000.8553,00000.9971,00205.4949,00089.0450
0000000978,-0000.4265,-0000.2129,00000.7593,00000.8966,00206.5298,00089.1119
0000000979,-0000.3785,-0000.2010,00000.6559,00000.7835,00207.9751,00089.2016
0000000980,-0000.4059,-0000.2286,00000.6077,00000.7657,00209.3893,00089.1321
0000000981,-0000.5097,00000.1429,00000.8593,00001.0092,00164.3362,00089.0138
0000000982,-0000.5083,00000.1363,00000.8500,00000.9997,00164.9955,00089.0195
0000000983,-0000.4534,00000.1144,00000.7469,00000.8811,00165.8440,00089.1289
0000000984,-0000.4236,00000.0972,00000.6703,00000.7988,00167.0696,00089.1903
0000000985,-0000.4452,-0000.3514,00000.8740,00001.0419,00218.2830,00088.9433
0000000986,-0000.3705,-0000.3032,00000.6336,00000.7941,00219.2944,00089.1082
0000000987,-0000.1832,-0000.1638,00000.9818,00001.0121,00221.7993,00089.5421
0000000988,-0000.1771,-0000.1660,00000.9532,00000.9836,00223.1549,00089.5478
0000000989,-0000.1675,-0000.1652,00000.8603,00000.8918,00224.5899,00089.5617
0000000990,-0000.1722,-0000.1703,00000.7594,00000.7971,00224.6713,00089.5488
0000000991,-0000.1698,-0000.1790,00000.7509,00000.7904,00226.5125,00089.5404
0000000992,-0000.5270,-0000.1720,00000.8769,00001.0374,00198.0737,00088.9672
0000000993,-0000.5015,-0000.1658,00000.8478,00000.9989,00198.3002,00089.0160
0000000994,-0000.4297,-0000.1390,00000.7536,00000.8786,00197.9212,00089.1586
0000000995,-0000.3779,-0000.1352,00000.6906,00000.7987,00199.6917,00089.2523
0000000996,-0000.3309,-0000.1227,00000.6342,00000.7258,00200.3401,00089.3426
0000000997,-0000.3807,-0000.1441,00000.5692,00000.6997,00200.7278,00089.2417
0000000998,-0000.4026,-0000.1491,00000.5924,00000.7316,00200.3215,00089.2002
0000000999,-0000.6133,00000.2819,00000.7720,00001.0255,00155.3170,00088.7424
0000001000,-0000.6009,00000.2786,00000.7375,00000.9913,00155.1220,00088.7659
0000001001,-0000.5154,00000.2357,00000.6534,00000.8649,00155.4295,00088.9441
0000001002,-0000.4940,00000.2266,00000.5958,00000.8064,00155.3622,00088.9875
0000001003,-0000.7157,00000.0664,00000.7641,00001.0490,00174.6957,00088.6609
0000001004,-0000.6707,00000.0670,00000.6776,00000.9558,00174.2911,00088.7442
0000001005,-0000.6204,00000.0551,00000.6032,00000.8670,00174.9281,00088.8397
0000001006,-0000.5365,00000.0683,00000.5916,00000.8016,00172.7482,00088.9923
0000001007,-0000.2342,00000.2032,00000.9655,00001.0141,00139.0500,00089.4223
0000001008,-0000.2256,00000.1963,00000.9180,00000.9655,00138.9817,00089.4429
0000001009,-0000.2240,00000.1785,00000.8050,00000.8544,00141.4590,00089.4664
0000001010,-0000.2463,00000.1643,00000.7380,00000.7952,00146.2927,00089.4484
0000001011,-0000.2374,00000.1376,00000.6945,00000.7467,00149.8924,00089.4888
0000001012,-0000.2307,-0000.3096,00000.9688,00001.0429,00233.3144,00089.2806
0000001013,-0000.1949,-0000.3006,00000.9212,00000.9884,00237.0401,00089.3326
0000001014,-0000.1794,-0000.2849,00000.7560,00000.8276,00237.8090,00089.3727
0000001015,-0000.1812,-0000.2920,00000.6914,00000.7721,00238.1821,00089.3598
0000001016,-0000.1590,-0000.2848,00000.5940,00000.6776,00240.8246,00089.3923
0000001017,-0000.3422,-0000.3009,00000.9117,00001.0192,00221.3282,00089.1510
0000001018,-0000.3445,-0000.2938,00000.8804,00000.9900,00220.4631,00089.1565
0000001019,-0000.3078,-0000.2675,00000.7806,00000.8807,00220.9952,00089.2402
0000001020,-0000.2512,-0000.2315,00000.7161,00000.7934,00222.6587,00089.3635
0000001021,-0000.3394,-0000.0731,00000.9432,00001.0051,00192.1624,00089.3531
0000001022,-0000.3277,-0000.0791,00000.9176,00000.9776,00193.5754,00089.3719
0000001023,-0000.0873,00000.0104,00001.0012,00001.0051,00173.2100,00089.8362
0000001024,-0000.0648,-0000.0018,00000.9674,00000.9696,00181.6186,00089.8793
0000001025,-0000.0667,-0000.0404,00000.7744,00000.7783,00211.1902,00089.8548
0000001026,-0000.0716,-0000.0388,00000.7904,00000.7946,00208.4546,00089.8482
0000001027,-0000.0907,-0000.0014,00000.9097,00000.9142,00180.8814,00089.8311
0000001028,-0000.3106,00000.0115,00000.9737,00001.0222,00177.8765,00089.4209
0000001029,-0000.3173,00000.0180,00000.9411,00000.9933,00176.7596,00089.4079
0000001030,-0000.2465,00000.0622,00000.8563,00000.8933,00165.8336,00089.5263
0000001031,-0000.2268,00000.0603,00000.7594,00000.7948,00165.1149,00089.5627
0000001032,-0000.3126,00000.4232,00000.9037,00001.0457,00126.4557,00089.0197
0000001033,-0000.3926,00000.3677,00000.8854,00001.0360,00136.8715,00088.9978
0000001034,-0000.3643,00000.3529,00000.8896,00001.0240,00135.9129,00089.0551
0000001035,-0000.2975,00000.3222,00000.8480,00000.9546,00132.7239,00089.1830
0000001036,-0000.2825,00000.2860,00000.7880,00000.8846,00134.6488,00089.2511
0000001037,-0000.1990,00000.2600,00000.6719,00000.7474,00127.4310,00089.3900
0000001038,-0000.1595,00000.2423,00000.6077,00000.6734,00123.3653,00089.4595
0000001039,-0000.3263,00000.1932,00000.9301,00001.0044,00149.3682,00089.2935
0000001040,-0000.3465,00000.2037,00000.8745,00000.9625,00149.5504,00089.2512
0000001041,-0000.3634,00000.1462,00000.7177,00000.8176,00158.0853,00089.2703
0000001042,-0000.4456,00000.3737,00000.8191,00001.0046,00140.0150,00088.9164
0000001043,-0000.5675,00000.3287,00000.7766,00001.0165,00149.9190,00088.7780
0000001044,-0000.6256,00000.0228,00000.8446,00001.0513,00177.9092,00088.8337
0000001045,-0000.5860,-0000.0080,00000.8032,00000.9943,00180.7819,00088.9081
0000001046,-0000.5228,-0000.0497,00000.7218,00000.8927,00185.4322,00089.0216
0000001047,-0000.5170,-0000.0105,00000.6296,00000.8148,00181.1633,00089.0365
0000001048,-0000.9869,00000.0840,00000.3357,00001.0458,00175.1339,00088.1545
0000001049,-0000.8884,00000.0740,00000.3587,00000.9610,00175.2373,00088.3389
0000001050,-0000.8610,00000.0769,00000.3152,00000.9201,00174.8948,00088.3894
0000001051,-0000.7280,00000.0479,00000.2940,00000.7866,00176.2347,00088.6407
0000001052,-0000.9097,00000.3829,00000.3837,00001.0590,00157.1738,00088.1608
0000001053,-0000.8780,00000.3595,00000.3575,00001.0139,00157.7306,00088.2322
0000001054,-0000.7545,00000.3326,00000.3502,00000.8958,00156.2127,00088.4637
0000001055,-0000.7056,00000.3143,00000.3432,00000.8452,00155.9872,00088.5608
0000001056,-0000.6466,00000.2846,00000.3322,00000.7807,00156.2440,00088.6837
0000001057,-0000.7897,00000.1497,00000.6030,00001.0048,00169.2659,00088.5024
0000001058,-0000.7005,00000.1482,00000.5451,00000.8999,00168.0563,00088.6660
0000001059,-0000.5930,00000.1412,00000.4865,00000.7799,00166.6018,00088.8643
0000001060,-0000.6139,00000.1607,00000.4788,00000.7949,00165.3288,00088.8178
0000001061,-0000.6721,00000.1922,00000.5100,00000.8653,00164.0438,00088.6976
0000001062,-0000.7121,00000.1991,00000.5541,00000.9240,00164.3829,00088.6223
0000001063,-0000.8027,00000.2609,00000.6065,00001.0394,00161.9940,00088.4273
0000001064,-0000.8984,-0000.1261,00000.4682,00001.0209,00187.9902,00088.3096
0000001065,-0000.9401,-0000.1391,00000.4782,00001.0639,00188.4159,00088.2292
0000001066,-0000.7924,-0000.1292,00000.4284,00000.9100,00189.2622,00088.5041
0000001067,-0000.7009,-0000.1171,00000.3935,00000.8123,00189.4882,00088.6760
0000001068,-0000.7920,-0000.0973,00000.6572,00001.0338,00187.0005,00088.5132
0000001069,-0000.7451,-0000.0926,00000.6358,00000.9838,00187.0853,00088.6011
0000001070,-0000.6784,-0000.0827,00000.5810,00000.8970,00186.9475,00088.7267
0000001071,-0000.7953,-0000.0605,00000.6201,00001.0103,00184.3527,00088.5140
0000001072,-0000.7168,-0000.0433,00000.5648,00000.9136,00183.4561,00088.6620
0000001073,-0000.6093,-0000.0229,00000.4971,00000.7867,00182.1570,00088.8640
0000001074,-0000.6355,-0000.0771,00000.7833,00001.0116,00186.9169,00088.8073
0000001075,-0000.5815,-0000.0707,00000.7428,00000.9459,00186.9349,00088.9087
0000001076,-0000.6800,-0000.3661,00000.6771,00001.0271,00208.2995,00088.5611
0000001077,-0000.6613,-0000.3594,00000.6642,00001.0038,00208.5233,00088.5977
0000001078,-0000.6119,-0000.3035,00000.5901,00000.9026,00206.3847,00088.7274
0000001079,-0000.5509,-0000.2675,00000.5312,00000.8107,00205.8950,00088.8590
0000001080,-0000.4735,-0000.1031,00000.6277,00000.7930,00192.2838,00089.0971
0000001081,-0000.8058,-0000.1800,00000.6086,00001.0257,00192.5924,00088.4616
0000001082,-0000.7538,-0000.1703,00000.5609,00000.9549,00192.7331,00088.5600
0000001083,-0000.7771,-0000.1760,00000.6665,00001.0388,00192.7601,00088.5154
0000001084,-0000.5781,00000.1399,00000.6476,00000.8793,00166.3990,00088.8919
0000001085,-0000.6613,00000.1981,00000.7166,00000.9950,00163.3273,00088.7138
0000001086,-0000.6799,00000.2115,00000.7265,00001.0173,00162.7179,00088.6732
0000001087,-0000.8236,00000.0213,00000.6183,00001.0301,00178.5163,00088.4649
0000001088,-0000.7407,00000.0122,00000.6215,00000.9669,00179.0578,00088.6198
0000001089,-0000.8190,-0000.0348,00000.6732,00001.0608,00182.4307,00088.4726
0000001090,-0000.9708,00000.0134,00000.4460,00001.0684,00179.2075,00088.1910
0000001091,-0000.9990,-0000.0036,00000.3376,00001.0545,00180.2040,00088.1385
0000001092,-0001.0179,-0000.0384,00000.2936,00001.0601,00182.1582,00088.1019
0000001093,-0001.0413,-0000.0982,00000.2761,00001.0817,00185.3877,00088.0511
0000001094,-0001.0148,-0000.2061,00000.3190,00001.0836,00191.4813,00088.0704
0000001095,-0000.9216,-0000.2719,00000.4724,00001.0707,00196.4400,00088.2096
0000001096,-0000.5509,-0000.4705,00000.7524,00001.0445,00220.4967,00088.6502
0000001097,-0000.5368,-0000.4299,00000.7555,00001.0216,00218.6878,00088.7186
0000001098,-0000.5279,-0000.2437,00000.7596,00000.9566,00204.7836,00088.9167
0000001099,-0000.5935,-0000.1621,00000.8092,00001.0166,00195.2754,00088.8537
0000001100,-0000.6267,-0000.5106,00000.6786,00001.0554,00219.1718,00088.4938
0000001101,-0000.5878,-0000.5226,00000.6594,00001.0264,00221.6382,00088.5345
0000001102,-0000.6419,-0000.6089,00000.5816,00001.0588,00223.4895,00088.3514
0000001103,-0000.6470,-0000.6293,00000.5583,00001.0613,00224.2040,00088.3182
0000001104,-0000.7626,-0000.4690,00000.5131,00001.0319,00211.5905,00088.3318
0000001105,-0000.7794,-0000.4306,00000.5470,00001.0450,00208.9185,00088.3410
0000001106,-0000.7913,-0000.3857,00000.5134,00001.0191,00205.9831,00088.3597
0000001107,-0000.8325,-0000.3891,00000.4518,00001.0240,00205.0487,00088.2878
0000001108,-0000.8551,-0000.4057,00000.4144,00001.0332,00205.3820,00088.2365
0000001109,-0000.8221,-0000.5094,00000.3617,00001.0326,00211.7836,00088.1979
0000001110,-0000.7855,-0000.5566,00000.3574,00001.0268,00215.3207,00088.2063
0000001111,-0000.6398,-0000.6617,00000.4443,00001.0221,00225.9647,00088.2849
0000001112,-0000.6682,-0000.7392,00000.3574,00001.0586,00227.8881,00088.1434
0000001113,-0000.6314,-0000.7471,00000.2556,00001.0110,00229.7996,00088.1773
0000001114,-0000.7202,-0000.6834,00000.2597,00001.0262,00223.4992,00088.1500
0000001115,-0000.7057,-0000.5905,00000.2923,00000.9655,00219.9235,00088.2854
0000001116,-0000.7677,-0000.6321,00000.3127,00001.0424,00219.4640,00088.1470
0000001117,-0000.7589,-0000.6381,00000.3930,00001.0666,00220.0577,00088.1525
0000001118,-0000.8269,-0000.2794,00000.3415,00000.9373,00198.6691,00088.3737
0000001119,-0000.7999,-0000.2831,00000.3437,00000.9155,00199.4893,00088.4189
0000001120,-0000.9539,-0000.3123,00000.2964,00001.0465,00198.1289,00088.1298
0000001121,-0000.9375,-0000.3410,00000.2817,00001.0366,00199.9859,00088.1412
0000001122,-0000.9519,-0000.4076,00000.2565,00001.0668,00203.1818,00088.0705
0000001123,-0000.7182,00000.4001,00000.5613,00000.9955,00150.8765,00088.4681
0000001124,-0000.5878,00000.3785,00000.5404,00000.8836,00147.2231,00088.6975
0000001125,-0000.5246,00000.3439,00000.5210,00000.8155,00146.7552,00088.8312
0000001126,-0000.6279,00000.4681,00000.6184,00000.9979,00143.2972,00088.5407
0000001127,-0000.6491,00000.4936,00000.6180,00001.0232,00142.7512,00088.4806
0000001128,-0000.6769,00000.5136,00000.6116,00001.0469,00142.8071,00088.4168
0000001129,-0000.6236,00000.5099,00000.4956,00000.9457,00140.7248,00088.4992
0000001130,-0000.6859,00000.5153,00000.4042,00000.9483,00143.0840,00088.4016
0000001131,-0000.6737,00000.4810,00000.4031,00000.9207,00144.4746,00088.4576
0000001132,-0000.7141,00000.4438,00000.6280,00001.0494,00148.1395,00088.4335
0000001133,-0000.6811,00000.3275,00000.7339,00001.0534,00154.3214,00088.5920
0000001134,-0000.7933,00000.5232,00000.4969,00001.0723,00146.5921,00088.2293
0000001135,-0000.7341,00000.6202,00000.4374,00001.0559,00139.8094,00088.2093
0000001136,-0000.8472,00000.2467,00000.4692,00000.9994,00163.7624,00088.3558
0000001137,-0000.9586,00000.1781,00000.4250,00001.0636,00169.4752,00088.1833
0000001138,-0000.9000,00000.2742,00000.4683,00001.0509,00163.0537,00088.2470
0000001139,-0000.9270,00000.2837,00000.4272,00001.0594,00162.9841,00088.1936
0000001140,-0000.9318,00000.2203,00000.3848,00001.0319,00166.6980,00088.2159
0000001141,-0000.4532,00000.3446,00000.8048,00000.9858,00142.7496,00088.9393
0000001142,-0000.4966,00000.3130,00000.8596,00001.0409,00147.7831,00088.9063
0000001143,-0000.9745,00000.2681,00000.2715,00001.0466,00164.6159,00088.1166
0000001144,-0000.9023,00000.4608,00000.2582,00001.0455,00152.9448,00088.1122
0000001145,-0000.8428,00000.5219,00000.2790,00001.0298,00148.2294,00088.1529
0000001146,-0000.8073,00000.5893,00000.2900,00001.0408,00143.8706,00088.1375
0000001147,-0000.7712,00000.6389,00000.2790,00001.0396,00140.3637,00088.1339
0000001148,-0000.7721,00000.6834,00000.2776,00001.0678,00138.4869,00088.0788
0000001149,-0000.6002,00000.5500,00000.5774,00000.9980,00137.4969,00088.4832
0000001150,-0000.4153,00000.5315,00000.6789,00000.9570,00128.0004,00088.7433
0000001151,-0000.5448,00000.4326,00000.7100,00000.9940,00141.5516,00088.7039
min,-0001.0413,-0001.0396,00000.1266,00000.6530,00000.1319,00088.0334
max,00001.0453,00001.0415,00001.0145,00001.0880,00359.9088,00089.8992
mean,00000.0150,00000.0165,00000.5145,00000.8978,00180.1202,00088.7369
std,00000.4917,00000.5163,00000.2181,00000.1224,00104.3266,00000.4132
