,x,y,z,distance,azimuth,elevation
0000000000,-0000.7782,-0000.3852,00000.2411,00000.9012,00206.3359,00088.4068
0000000001,-0000.8304,-0000.3609,00000.2530,00000.9401,00203.4902,00088.3388
0000000002,-0000.9603,00000.1975,00000.3513,00001.0415,00168.3815,00088.2011
0000000003,-0000.9881,00000.1369,00000.3560,00001.0592,00172.1094,00088.1697
0000000004,-0000.9668,00000.0619,00000.3676,00001.0361,00176.3342,00088.2226
0000000005,-0000.8565,00000.0615,00000.3287,00000.9195,00175.8954,00088.4245
0000000006,-0000.7812,00000.0408,00000.3082,00000.8408,00177.0136,00088.5648
0000000007,-0000.6718,-0000.0038,00000.2740,00000.7256,00180.3248,00088.7674
0000000008,-0000.8341,00000.2222,00000.3457,00000.9298,00165.0801,00088.4163
0000000009,-0000.9244,00000.3120,00000.2916,00001.0182,00161.3514,00088.2100
0000000010,-0000.9501,00000.3398,00000.2967,00001.0517,00160.3224,00088.1487
0000000011,-0000.7784,00000.2040,00000.2570,00000.8447,00165.3125,00088.5236
0000000012,-0000.6838,00000.1476,00000.2501,00000.7429,00167.8157,00088.7166
0000000013,-0000.6617,00000.1322,00000.2429,00000.7171,00168.6978,00088.7621
0000000014,-0000.8624,00000.3355,00000.4824,00001.0435,00158.7402,00088.3022
0000000015,-0000.8131,00000.3923,00000.5157,00001.0397,00154.2440,00088.3436
0000000016,-0000.7955,00000.3821,00000.5291,00001.0290,00154.3456,00088.3808
0000000017,-0000.6657,00000.3066,00000.5545,00000.9191,00155.2738,00088.6553
0000000018,-0000.4969,00000.0707,00000.4818,00000.6958,00171.8979,00089.0792
0000000019,-0000.5493,00000.1109,00000.5658,00000.7963,00168.5851,00088.9720
0000000020,-0000.7729,00000.2678,00000.6476,00001.0433,00160.8868,00088.4992
0000000021,-0000.8111,00000.2106,00000.5694,00001.0131,00165.4459,00088.4625
0000000022,-0000.6305,00000.1262,00000.4000,00000.7573,00168.6817,00088.8203
0000000023,-0000.6080,00000.1186,00000.3798,00000.7266,00168.9586,00088.8636
0000000024,-0000.9958,00000.1365,00000.2199,00001.0289,00172.1971,00088.1558
0000000025,-0000.9452,00000.3213,00000.3281,00001.0508,00161.2283,00088.1683
0000000026,-0001.0228,00000.2648,00000.2855,00001.0944,00165.4844,00088.0615
0000000027,-0000.5003,00000.4151,00000.6385,00000.9112,00140.3202,00088.8074
0000000028,-0000.4686,00000.4305,00000.6218,00000.8897,00137.4261,00088.8325
0000000029,-0000.5213,00000.4689,00000.6896,00000.9835,00138.0265,00088.7136
0000000030,-0000.5481,00000.4968,00000.7228,00001.0343,00137.8116,00088.6427
0000000031,-0000.5655,00000.5011,00000.6869,00001.0211,00138.4522,00088.6138
0000000032,-0000.5078,00000.3920,00000.5277,00000.8306,00142.3335,00088.8231
0000000033,-0000.4499,00000.3370,00000.4578,00000.7249,00143.1628,00088.9688
0000000034,-0000.6933,00000.5114,00000.5995,00001.0496,00143.5840,00088.4193
0000000035,-0000.7028,00000.4522,00000.6135,00001.0368,00147.2411,00088.4666
0000000036,-0000.5854,00000.2339,00000.4781,00000.7912,00158.2211,00088.8436
0000000037,-0000.5532,00000.1746,00000.4081,00000.7093,00162.4858,00088.9357
0000000038,-0000.7757,00000.4374,00000.4670,00001.0056,00150.5852,00088.3661
0000000039,-0000.7286,00000.3307,00000.4681,00000.9270,00155.5859,00088.5320
0000000040,-0000.6867,00000.4080,00000.6644,00001.0390,00149.2834,00088.5344
0000000041,-0000.4883,00000.1880,00000.4954,00000.7206,00158.9393,00089.0400
0000000042,-0000.8482,00000.4503,00000.3286,00001.0150,00152.0387,00088.2380
0000000043,-0000.8270,00000.5111,00000.3592,00001.0364,00148.2805,00088.2162
0000000044,-0000.7949,00000.5848,00000.3612,00001.0509,00143.6570,00088.1893
0000000045,-0000.8057,00000.6196,00000.3663,00001.0804,00142.4417,00088.1351
0000000046,-0000.7099,00000.5180,00000.3336,00000.9400,00143.8820,00088.3876
0000000047,-0000.6384,00000.4692,00000.2866,00000.8425,00143.6834,00088.5465
0000000048,-0000.5603,00000.4207,00000.2379,00000.7399,00143.0982,00088.7146
0000000049,-0000.7979,00000.5504,00000.3998,00001.0486,00145.4004,00088.2214
0000000050,-0000.7102,00000.4663,00000.3795,00000.9305,00146.7093,00088.4413
0000000051,-0000.6379,00000.3804,00000.3508,00000.8214,00149.1885,00088.6373
0000000052,-0000.5728,00000.3336,00000.3295,00000.7402,00149.7861,00088.7839
0000000053,-0000.8993,00000.4353,00000.2812,00001.0380,00154.1714,00088.1668
0000000054,-0000.9167,00000.4483,00000.2766,00001.0573,00153.9410,00088.1276
0000000055,-0000.9380,00000.4513,00000.3114,00001.0865,00154.3061,00088.0902
0000000056,-0000.8069,00000.3625,00000.3047,00000.9356,00155.8080,00088.3770
0000000057,-0000.7292,00000.2954,00000.2705,00000.8319,00157.9490,00088.5566
0000000058,-0000.6579,00000.2479,00000.2501,00000.7462,00159.3537,00088.7102
0000000059,-0000.7582,00000.5638,00000.3758,00001.0168,00143.3672,00088.2665
0000000060,-0000.7550,00000.6252,00000.3068,00001.0271,00140.3743,00088.2015
0000000061,-0000.5763,00000.5744,00000.6007,00001.0114,00135.0929,00088.5071
0000000062,-0000.5608,00000.5762,00000.6583,00001.0392,00134.2248,00088.5249
0000000063,-0000.5043,00000.4968,00000.5949,00000.9247,00135.4289,00088.7012
0000000064,-0000.4778,00000.4453,00000.5161,00000.8324,00137.0197,00088.8018
0000000065,-0000.4204,00000.3957,00000.4485,00000.7311,00136.7306,00088.9408
0000000066,-0000.6759,00000.5788,00000.3259,00000.9477,00139.4237,00088.3673
0000000067,-0000.6196,00000.5035,00000.2698,00000.8427,00140.8982,00088.5352
0000000068,-0000.5552,00000.4479,00000.2285,00000.7491,00141.1068,00088.6913
0000000069,-0000.5575,00000.6160,00000.3722,00000.9103,00132.1439,00088.4757
0000000070,-0000.5590,00000.6376,00000.4261,00000.9490,00131.2431,00088.4443
0000000071,-0000.5700,00000.6959,00000.3904,00000.9806,00129.3220,00088.3496
0000000072,-0000.6234,00000.7139,00000.4480,00001.0483,00131.1312,00088.2611
0000000073,-0000.5331,00000.5253,00000.3884,00000.8432,00135.4225,00088.6270
0000000074,-0000.4606,00000.4589,00000.3533,00000.7400,00135.1031,00088.8072
0000000075,-0000.6362,-0000.3526,00000.6246,00000.9588,00208.9974,00088.6654
0000000076,-0000.6588,-0000.4346,00000.5794,00000.9791,00213.4108,00088.5520
0000000077,-0000.6048,-0000.2183,00000.6419,00000.9086,00199.8433,00088.8203
0000000078,-0000.5880,-0000.1620,00000.6405,00000.8844,00195.4006,00088.8811
0000000079,-0000.4366,-0000.1543,00000.6640,00000.8095,00199.4624,00089.1506
0000000080,-0000.5505,-0000.1452,00000.7815,00000.9669,00194.7819,00088.9556
0000000081,-0000.7294,-0000.5608,00000.2941,00000.9659,00217.5578,00088.3119
0000000082,-0000.7491,-0000.5856,00000.1984,00000.9713,00218.0186,00088.2555
0000000083,-0000.6182,00000.4622,00000.5563,00000.9515,00143.2186,00088.5838
0000000084,-0000.6176,00000.4571,00000.5320,00000.9345,00143.4972,00088.5903
0000000085,-0000.3462,00000.4443,00000.7124,00000.9082,00127.9274,00088.9666
0000000086,-0000.3332,00000.4429,00000.7454,00000.9288,00126.9596,00088.9832
0000000087,-0000.4004,00000.5294,00000.6458,00000.9261,00127.0995,00088.7822
0000000088,-0000.1895,00000.3279,00000.8220,00000.9050,00120.0228,00089.3052
0000000089,-0000.2410,00000.3619,00000.8142,00000.9230,00123.6621,00089.2023
0000000090,-0000.7104,-0000.4507,00000.2471,00000.8769,00212.3922,00088.4564
0000000091,-0000.6738,-0000.5028,00000.2345,00000.8728,00216.7342,00088.4575
0000000092,-0000.6062,-0000.5304,00000.2806,00000.8530,00221.1871,00088.5221
0000000093,-0000.5693,-0000.4554,00000.3867,00000.8252,00218.6595,00088.6625
0000000094,-0000.5660,-0000.4476,00000.3998,00000.8250,00218.3380,00088.6761
0000000095,-0000.9007,-0000.0048,00000.2113,00000.9252,00180.3037,00088.3474
0000000096,-0000.8706,-0000.0605,00000.2147,00000.8988,00183.9743,00088.3988
0000000097,-0000.8259,-0000.1772,00000.2362,00000.8771,00192.1096,00088.4502
0000000098,-0000.8303,-0000.2067,00000.2254,00000.8849,00193.9779,00088.4301
0000000099,-0000.7570,00000.0860,00000.4161,00000.8681,00173.5192,00088.6023
0000000100,-0000.6362,00000.1916,00000.5203,00000.8439,00163.2422,00088.7810
0000000101,-0000.6982,00000.2170,00000.3997,00000.8332,00162.7348,00088.6587
0000000102,-0000.8172,00000.1617,00000.2540,00000.8709,00168.8090,00088.4716
0000000103,-0000.7793,00000.1968,00000.2140,00000.8318,00165.8301,00088.5253
0000000104,-0000.7464,00000.2029,00000.1954,00000.7978,00164.7936,00088.5809
0000000105,-0000.8329,00000.2485,00000.1993,00000.8918,00163.3886,00088.4053
0000000106,-0000.7635,00000.3336,00000.2138,00000.8602,00156.3945,00088.4713
0000000107,-0000.5168,00000.6121,00000.3280,00000.8656,00130.1751,00088.5303
0000000108,-0000.5714,00000.6483,00000.2089,00000.8890,00131.3950,00088.4145
0000000109,-0000.5714,00000.6272,00000.2006,00000.8718,00132.3337,00088.4434
0000000110,-0000.7035,00000.5613,00000.2056,00000.9231,00141.4169,00088.3488
0000000111,-0000.5849,-0000.1785,00000.5204,00000.8030,00196.9744,00088.8781
0000000112,-0000.6121,-0000.1562,00000.4989,00000.8049,00194.3155,00088.8411
0000000113,-0000.7656,-0000.1130,00000.2373,00000.8094,00188.3962,00088.5802
0000000114,-0000.7635,-0000.1273,00000.2384,00000.8099,00189.4666,00088.5799
0000000115,-0000.8011,00000.0376,00000.2290,00000.8340,00177.3112,00088.5287
0000000116,-0000.7854,-0000.2032,00000.2163,00000.8396,00194.5082,00088.5115
0000000117,-0000.4302,-0000.3762,00000.4366,00000.7192,00221.1656,00088.9515
0000000118,-0000.4457,-0000.2700,00000.4751,00000.7052,00211.2009,00089.0440
0000000119,-0000.5809,-0000.2585,00000.3440,00000.7229,00203.9865,00088.8335
0000000120,-0000.5489,-0000.1725,00000.3660,00000.6819,00197.4463,00088.9445
0000000121,-0000.5911,-0000.1141,00000.3599,00000.7014,00190.9260,00088.8955
0000000122,-0000.3901,-0000.1114,00000.5855,00000.7123,00195.9334,00089.2558
0000000123,-0000.3970,-0000.1466,00000.5725,00000.7120,00200.2680,00089.2237
0000000124,-0000.3758,-0000.4035,00000.4427,00000.7071,00227.0354,00088.9884
0000000125,-0000.3573,-0000.1900,00000.5801,00000.7073,00208.0061,00089.2577
0000000126,-0000.6716,00000.0118,00000.2964,00000.7342,00178.9955,00088.7676
0000000127,-0000.5249,-0000.0795,00000.4180,00000.6757,00188.6129,00089.0260
0000000128,-0000.5153,00000.0153,00000.4976,00000.7165,00178.3003,00089.0542
0000000129,-0000.5788,00000.2867,00000.3519,00000.7356,00153.6454,00088.8150
0000000130,-0000.5650,00000.2796,00000.3494,00000.7208,00153.6728,00088.8434
0000000131,-0000.4906,00000.3380,00000.3669,00000.6997,00145.4353,00088.9069
0000000132,-0000.6644,00000.2300,00000.1392,00000.7167,00160.9063,00088.7102
0000000133,-0000.6789,00000.1572,00000.1454,00000.7119,00166.9627,00088.7214
0000000134,-0000.6480,-0000.1022,00000.2279,00000.6945,00188.9663,00088.7965
0000000135,-0000.2081,00000.1105,00000.6474,00000.6889,00152.0346,00089.5678
0000000136,00000.0085,00000.6838,00000.8214,00001.0688,00089.2885,00088.7454
0000000137,00000.0190,00000.6377,00000.7993,00001.0227,00088.2904,00088.8295
0000000138,00000.0319,00000.6058,00000.6920,00000.9203,00086.9868,00088.8871
0000000139,00000.0423,00000.6930,00000.6843,00000.9749,00086.5061,00088.7262
0000000140,00000.0506,00000.7735,00000.6359,00001.0026,00086.2604,00088.5779
0000000141,00000.0623,00000.7939,00000.6662,00001.0383,00085.5102,00088.5389
0000000142,00000.0666,00000.8039,00000.6753,00001.0520,00085.2642,00088.5201
0000000143,00000.0297,00000.6704,00000.6370,00000.9253,00087.4630,00088.7688
0000000144,00000.0020,00000.5970,00000.5647,00000.8218,00089.8092,00088.9047
0000000145,00000.0016,00000.4488,00000.5069,00000.6770,00089.7983,00089.1767
0000000146,00000.0123,00000.4921,00000.5342,00000.7264,00088.5664,00089.0970
0000000147,00000.0494,00000.5975,00000.8521,00001.0419,00085.2768,00088.9001
0000000148,00000.0531,00000.5708,00000.8368,00001.0143,00084.6864,00088.9483
0000000149,00000.0518,00000.4957,00000.7539,00000.9037,00084.0381,00089.0856
0000000150,00000.0388,00000.4586,00000.6654,00000.8091,00085.1697,00089.1557
0000000151,00000.0101,00000.4062,00000.5868,00000.7138,00088.5822,00089.2546
0000000152,00000.1182,00000.6127,00000.8625,00001.0646,00079.0816,00088.8552
0000000153,00000.2388,00000.5245,00000.8117,00000.9954,00065.5206,00088.9427
0000000154,00000.2144,00000.4860,00000.7260,00000.8996,00066.2001,00089.0255
0000000155,00000.1948,00000.4651,00000.6934,00000.8574,00067.2744,00089.0748
0000000156,00000.1532,00000.4293,00000.6158,00000.7661,00070.3632,00089.1639
0000000157,00000.1515,00000.3847,00000.5874,00000.7184,00068.5011,00089.2415
0000000158,00000.2130,00000.4856,00000.8786,00001.0262,00066.3198,00089.0271
0000000159,00000.0475,00000.3422,00000.6207,00000.7104,00082.0916,00089.3663
0000000160,-0000.1930,00000.5970,00000.7707,00000.9938,00107.9206,00088.8490
0000000161,-0000.1908,00000.5929,00000.7444,00000.9706,00107.8379,00088.8574
0000000162,-0000.1774,00000.5522,00000.7129,00000.9190,00107.8098,00088.9359
0000000163,-0000.1861,00000.5388,00000.6841,00000.8905,00109.0519,00088.9543
0000000164,-0000.1856,00000.4836,00000.6377,00000.8216,00110.9930,00089.0498
0000000165,-0000.1807,00000.4117,00000.5524,00000.7122,00113.6923,00089.1752
0000000166,-0000.1828,00000.4029,00000.5418,00000.6995,00114.4084,00089.1883
0000000167,-0000.1205,00000.4832,00000.9321,00001.0568,00104.0048,00089.0863
0000000168,-0000.0118,00000.3655,00000.8730,00000.9465,00091.8462,00089.3291
0000000169,-0000.0022,00000.3522,00000.9551,00001.0179,00090.3592,00089.3539
0000000170,-0000.0156,00000.3325,00000.8499,00000.9128,00092.6809,00089.3894
0000000171,-0000.0447,00000.2874,00000.7152,00000.7721,00098.8442,00089.4664
0000000172,-0000.0584,00000.2586,00000.6612,00000.7124,00102.7266,00089.5137
0000000173,00000.1573,00000.3792,00000.9712,00001.0544,00067.4700,00089.2469
0000000174,00000.0682,00000.3042,00000.8033,00000.8616,00077.3568,00089.4282
0000000175,00000.0183,00000.2614,00000.6448,00000.6961,00086.0034,00089.5193
0000000176,-0000.0066,00000.1646,00001.0241,00001.0373,00092.3081,00089.6978
0000000177,00000.0612,00000.3456,00000.8881,00000.9550,00079.9505,00089.3561
0000000178,00000.1227,00000.4694,00000.8164,00000.9496,00075.3550,00089.1100
0000000179,00000.1628,00000.4729,00000.9123,00001.0404,00071.0035,00089.0826
0000000180,00000.3359,00000.5756,00000.7160,00000.9782,00059.7317,00088.7772
0000000181,00000.1404,00000.8238,00000.6546,00001.0615,00080.3276,00088.4668
0000000182,-0000.1378,00000.7244,00000.6139,00000.9595,00100.7697,00088.6472
0000000183,-0000.1803,00000.7684,00000.6950,00001.0517,00103.2078,00088.5518
0000000184,-0000.1945,00000.6813,00000.6028,00000.9303,00105.9354,00088.7001
0000000185,-0000.2020,00000.6043,00000.5305,00000.8291,00108.4819,00088.8310
0000000186,-0000.2034,00000.5695,00000.5022,00000.7861,00109.6530,00088.8905
0000000187,-0000.2049,00000.5269,00000.4671,00000.7333,00111.2522,00088.9628
0000000188,-0000.1530,00000.5918,00000.6657,00000.9038,00104.4981,00088.8785
0000000189,-0000.1319,00000.6150,00000.7438,00000.9741,00102.1037,00088.8460
0000000190,-0000.1957,00000.3282,00000.7062,00000.8029,00120.8064,00089.2989
0000000191,-0000.1573,00000.5331,00000.8818,00001.0424,00106.4361,00088.9804
0000000192,-0000.0127,00000.6924,00000.7765,00001.0405,00091.0487,00088.7295
0000000193,-0000.1961,00000.6834,00000.7718,00001.0494,00106.0101,00088.6956
0000000194,-0000.2226,00000.4998,00000.6103,00000.8196,00114.0114,00088.9963
0000000195,-0000.2383,00000.4468,00000.5488,00000.7467,00118.0740,00089.0710
0000000196,00000.4642,00000.6590,00000.7072,00001.0724,00054.8428,00088.5211
0000000197,00000.4918,00000.6459,00000.6929,00001.0673,00052.7134,00088.5105
0000000198,00000.2381,00000.4823,00000.5593,00000.7760,00063.7264,00089.0132
0000000199,00000.1847,00000.4506,00000.5075,00000.7034,00067.7110,00089.1065
0000000200,00000.2866,00000.5087,00000.8673,00001.0455,00060.6012,00088.9289
0000000201,00000.1890,00000.6989,00000.6848,00000.9965,00074.8631,00088.6718
0000000202,00000.1831,00000.6357,00000.6418,00000.9217,00073.9308,00088.7864
0000000203,00000.3279,00000.6297,00000.7705,00001.0477,00062.4948,00088.6974
0000000204,00000.3061,00000.6142,00000.7490,00001.0158,00063.5138,00088.7410
0000000205,-0000.2871,00000.7816,00000.6807,00001.0755,00110.1716,00088.4722
0000000206,-0000.2869,00000.7467,00000.6549,00001.0338,00111.0191,00088.5324
0000000207,-0000.3541,00000.6869,00000.6673,00001.0210,00117.2705,00088.5823
0000000208,-0000.3970,00000.6784,00000.6872,00001.0440,00120.3389,00088.5579
0000000209,-0000.3100,00000.6544,00000.5807,00000.9282,00115.3471,00088.6715
0000000210,-0000.3220,00000.5656,00000.4939,00000.8170,00119.6535,00088.8059
0000000211,-0000.3085,00000.4887,00000.4425,00000.7279,00122.2618,00088.9397
0000000212,-0000.3283,00000.5274,00000.8142,00001.0241,00121.9009,00088.8604
0000000213,00000.1323,00000.8879,00000.5260,00001.0405,00081.5258,00088.3529
0000000214,00000.0532,00000.9335,00000.4362,00001.0317,00086.7355,00088.2845
0000000215,00000.0209,00000.9174,00000.4295,00001.0131,00088.6952,00088.3164
0000000216,00000.0003,00000.8435,00000.4046,00000.9355,00089.9763,00088.4525
0000000217,-0000.0203,00000.7414,00000.3801,00000.8334,00091.5662,00088.6394
0000000218,-0000.0275,00000.6485,00000.3444,00000.7348,00092.4257,00088.8091
0000000219,00000.0092,00000.6414,00000.4029,00000.7575,00089.1753,00088.8232
0000000220,00000.0814,00000.7565,00000.4585,00000.8884,00083.8592,00088.6040
0000000221,00000.1083,00000.7855,00000.4726,00000.9231,00082.1504,00088.5451
0000000222,00000.1892,00000.8136,00000.4916,00000.9692,00076.9114,00088.4675
0000000223,00000.2980,00000.8144,00000.5214,00001.0119,00069.9017,00088.4089
0000000224,00000.2826,00000.8653,00000.4592,00001.0196,00071.9166,00088.3298
0000000225,00000.2840,00000.8964,00000.4594,00001.0465,00072.4205,00088.2747
0000000226,00000.2204,00000.8011,00000.4273,00000.9344,00074.6152,00088.4755
0000000227,00000.1737,00000.7354,00000.3884,00000.8496,00076.7081,00088.6136
0000000228,00000.1636,00000.7209,00000.3784,00000.8305,00077.2166,00088.6437
0000000229,00000.2642,00000.7264,00000.5531,00000.9505,00070.0113,00088.5818
0000000230,00000.2979,00000.8198,00000.5926,00001.0545,00070.0314,00088.3996
0000000231,00000.3235,00000.9169,00000.4868,00001.0873,00070.5640,00088.2161
0000000232,00000.1422,00000.8783,00000.5399,00001.0408,00080.8050,00088.3675
0000000233,00000.0483,00000.6028,00000.4153,00000.7336,00085.4199,00088.8905
0000000234,00000.0907,00000.6129,00000.4853,00000.7870,00081.5794,00088.8634
0000000235,00000.4620,00000.7510,00000.5499,00001.0391,00058.4018,00088.3823
0000000236,00000.4731,00000.7526,00000.5153,00001.0275,00057.8439,00088.3690
0000000237,00000.4586,00000.7964,00000.4661,00001.0305,00060.0624,00088.3138
0000000238,00000.4228,00000.8605,00000.3958,00001.0372,00063.8360,00088.2409
0000000239,00000.3878,00000.9114,00000.3531,00001.0515,00066.9527,00088.1827
0000000240,00000.4877,00000.8726,00000.3788,00001.0690,00060.8018,00088.1658
0000000241,00000.5923,00000.7775,00000.4297,00001.0677,00052.7016,00088.2067
0000000242,00000.5622,00000.8610,00000.3314,00001.0803,00056.8582,00088.1133
0000000243,00000.2611,00000.9745,00000.3459,00001.0665,00075.0022,00088.1490
0000000244,00000.3230,00000.9539,00000.2745,00001.0438,00071.2950,00088.1522
0000000245,00000.3424,00000.9526,00000.2598,00001.0451,00070.2292,00088.1427
0000000246,00000.3582,00000.9570,00000.2553,00001.0533,00069.4780,00088.1251
0000000247,00000.0451,00001.0212,00000.3891,00001.0937,00087.4714,00088.1245
0000000248,00000.0444,00000.9958,00000.3310,00001.0503,00087.4489,00088.1711
0000000249,00000.0498,00000.9335,00000.4776,00001.0498,00086.9485,00088.2849
0000000250,00000.1373,00000.9790,00000.4017,00001.0671,00082.0191,00088.1861
0000000251,00000.0917,00001.0269,00000.2550,00001.0621,00084.8956,00088.1083
0000000252,00000.0562,00001.0388,00000.2381,00001.0672,00086.9010,00088.0912
0000000253,-0000.0188,00001.0176,00000.2660,00001.0520,00091.0576,00088.1326
0000000254,-0000.1563,00001.0270,00000.2980,00001.0808,00098.6509,00088.0939
0000000255,-0000.1824,00000.9934,00000.2910,00001.0511,00100.4026,00088.1469
0000000256,-0000.1744,00000.9634,00000.4101,00001.0615,00100.2620,00088.2036
0000000257,-0000.1404,00000.9030,00000.5554,00001.0693,00098.8365,00088.3234
0000000258,-0000.1759,00000.8868,00000.5310,00001.0485,00101.2189,00088.3412
0000000259,-0000.1783,00000.8661,00000.5476,00001.0400,00101.6309,00088.3777
0000000260,-0000.3573,00000.9082,00000.4920,00001.0929,00111.4764,00088.2094
0000000261,-0000.4523,00000.7969,00000.5177,00001.0524,00119.5765,00088.3189
0000000262,-0000.4436,00000.7833,00000.5112,00001.0352,00119.5207,00088.3484
0000000263,-0000.4358,00000.8951,00000.4367,00001.0872,00115.9605,00088.1733
0000000264,-0000.3435,00000.9615,00000.3764,00001.0882,00109.6571,00088.1266
0000000265,-0000.2710,00000.9820,00000.3461,00001.0759,00105.4293,00088.1309
0000000266,-0000.4582,00000.8741,00000.4627,00001.0900,00117.6646,00088.1892
0000000267,-0000.4904,00000.8832,00000.3416,00001.0664,00119.0404,00088.1464
0000000268,-0000.0721,00000.8601,00000.4369,00000.9674,00094.7947,00088.4164
0000000269,-0000.0753,00000.8342,00000.4122,00000.9335,00095.1592,00088.4633
0000000270,-0000.0935,00000.8066,00000.5055,00000.9565,00096.6134,00088.5102
0000000271,-0000.2038,00000.8473,00000.3581,00000.9421,00103.5267,00088.4011
0000000272,-0000.2954,00000.8187,00000.3782,00000.9490,00109.8402,00088.4031
0000000273,-0000.3507,00000.8850,00000.3692,00001.0210,00111.6142,00088.2534
0000000274,-0000.3961,00000.7931,00000.4117,00000.9774,00116.5398,00088.3736
0000000275,-0000.4164,00000.7286,00000.4110,00000.9344,00119.7502,00088.4604
0000000276,-0000.4738,00000.8393,00000.3799,00001.0360,00119.4480,00088.2316
0000000277,-0000.4983,00000.8490,00000.3341,00001.0395,00120.4124,00088.1938
0000000278,-0000.2458,00000.9227,00000.3254,00001.0088,00104.9158,00088.2480
0000000279,-0000.3668,00000.9035,00000.2530,00001.0074,00112.0979,00088.2108
0000000280,00000.1036,00000.9767,00000.2533,00001.0143,00083.9475,00088.1980
0000000281,00000.1118,00000.9896,00000.2164,00001.0191,00083.5544,00088.1728
0000000282,00000.4410,00000.7818,00000.3173,00000.9520,00060.5751,00088.3532
0000000283,00000.1249,00000.6736,00000.5433,00000.8743,00079.4968,00088.7432
0000000284,-0000.0130,00000.7600,00000.5077,00000.9141,00090.9767,00088.6054
0000000285,-0000.1784,00000.7268,00000.5018,00000.9010,00103.7879,00088.6270
0000000286,-0000.3336,00000.7965,00000.3904,00000.9477,00112.7228,00088.4157
0000000287,-0000.3409,00000.8086,00000.3177,00000.9332,00112.8612,00088.3901
0000000288,-0000.1928,00000.8328,00000.2713,00000.8969,00103.0324,00088.4316
0000000289,-0000.0526,00000.8583,00000.2490,00000.8952,00093.5097,00088.4223
0000000290,-0000.0354,00000.8647,00000.2605,00000.9038,00092.3447,00088.4121
0000000291,00000.0389,00000.8510,00000.2496,00000.8877,00087.3824,00088.4370
0000000292,00000.1715,00000.8924,00000.1901,00000.9284,00079.1209,00088.3327
0000000293,00000.6237,00000.0265,00000.8402,00001.0467,00002.4295,00088.8548
0000000294,00000.5667,-0000.0262,00000.8264,00001.0024,00357.3523,00088.9592
0000000295,00000.1791,00000.8702,00000.1990,00000.9104,00078.3679,00088.3700
0000000296,00000.4806,-0000.0459,00000.8755,00000.9998,00354.5437,00089.1142
0000000297,00000.3572,00000.7584,00000.2337,00000.8702,00064.7812,00088.4620
0000000298,00000.4481,-0000.0500,00000.8905,00000.9981,00353.6365,00089.1728
0000000299,00000.3266,00000.7236,00000.3532,00000.8690,00065.7105,00088.5434
0000000300,00000.4029,-0000.0621,00000.9120,00000.9990,00351.2432,00089.2522
0000000301,00000.3686,00000.6457,00000.4005,00000.8445,00060.2842,00088.6359
0000000302,00000.2833,-0000.0580,00000.9007,00000.9460,00348.4316,00089.4696
0000000303,00000.3869,00000.6296,00000.4093,00000.8448,00058.4311,00088.6442
0000000304,00000.2676,-0000.0705,00000.9856,00001.0237,00345.2496,00089.4923
0000000305,00000.3569,00000.7318,00000.2307,00000.8462,00063.9985,00088.5062
0000000306,00000.2758,-0000.0682,00000.9607,00001.0019,00346.1208,00089.4788
0000000307,00000.3473,00000.7493,00000.2088,00000.8519,00065.1293,00088.4847
0000000308,00000.4590,00000.6807,00000.2151,00000.8487,00056.0085,00088.4937
0000000309,00000.2935,-0000.0434,00000.8434,00000.8941,00351.5864,00089.4558
0000000310,00000.4720,00000.6778,00000.1828,00000.8459,00055.1488,00088.4847
0000000311,00000.2997,-0000.0066,00000.7977,00000.8521,00358.7291,00089.4501
0000000312,00000.6492,-0000.0445,00000.8294,00001.0542,00356.0745,00088.8062
0000000313,00000.1953,00000.5629,00000.4637,00000.7550,00070.8684,00088.9069
0000000314,-0000.0511,00000.6230,00000.4920,00000.7955,00094.6904,00088.8533
0000000315,00000.5993,-0000.0584,00000.7895,00000.9929,00354.4323,00088.8954
0000000316,-0000.0962,00000.5141,00000.5819,00000.7824,00100.5944,00089.0405
0000000317,00000.5160,-0000.0415,00000.7298,00000.8948,00355.3997,00089.0503
0000000318,-0000.2248,00000.7662,00000.2739,00000.8442,00106.3489,00088.5350
0000000319,00000.4533,-0000.0181,00000.6646,00000.8047,00357.7088,00089.1677
0000000320,-0000.2339,00000.7481,00000.2553,00000.8244,00107.3621,00088.5619
0000000321,00000.5442,00000.1050,00000.8907,00001.0491,00010.9220,00088.9832
0000000322,-0000.2802,00000.6907,00000.2768,00000.7951,00112.0797,00088.6324
0000000323,00000.5138,00000.1169,00000.8538,00001.0033,00012.8136,00089.0334
0000000324,-0000.3329,00000.6451,00000.2988,00000.7850,00117.2935,00088.6681
0000000325,00000.4837,00000.2012,00000.7503,00000.9151,00022.5888,00089.0388
0000000326,-0000.3857,00000.6116,00000.3977,00000.8252,00122.2358,00088.6734
0000000327,00000.4769,00000.2033,00000.7400,00000.9036,00023.0906,00089.0488
0000000328,-0000.3047,00000.6277,00000.4298,00000.8195,00115.8972,00088.7199
0000000329,00000.4249,00000.2269,00000.6505,00000.8094,00028.1019,00089.1164
0000000330,-0000.2046,00000.6414,00000.4422,00000.8055,00107.6894,00088.7649
0000000331,00000.4107,00000.2289,00000.6366,00000.7914,00029.1294,00089.1374
0000000332,-0000.0951,00000.6794,00000.3857,00000.7870,00097.9663,00088.7415
0000000333,00000.3769,00000.2389,00000.5784,00000.7305,00032.3691,00089.1815
0000000334,-0000.0865,00000.7614,00000.2710,00000.8128,00096.4795,00088.5941
0000000335,00000.3536,00000.2343,00000.5582,00000.7011,00033.5331,00089.2218
0000000336,-0000.0469,00000.7915,00000.2229,00000.8236,00093.3935,00088.5454
0000000337,00000.3406,00000.2266,00000.5758,00000.7064,00033.6368,00089.2495
0000000338,00000.0093,00000.7784,00000.2332,00000.8127,00089.3158,00088.5717
0000000339,00000.4157,00000.2199,00000.9142,00001.0281,00027.8748,00089.1372
0000000340,00000.0800,00000.7233,00000.2418,00000.7669,00083.6879,00088.6648
0000000341,00000.2566,00000.0729,00000.7334,00000.7804,00015.8564,00089.5107
0000000342,00000.1684,00000.7616,00000.2642,00000.8235,00077.5348,00088.5690
0000000343,00000.2479,00000.0686,00000.7182,00000.7628,00015.4692,00089.5282
0000000344,00000.2639,00000.7669,00000.2350,00000.8444,00071.0127,00088.5119
0000000345,00000.2276,00000.0779,00000.6574,00000.7001,00018.9037,00089.5586
0000000346,00000.1446,00000.7382,00000.3469,00000.8284,00078.9156,00088.6198
0000000347,00000.1996,00000.0430,00000.9748,00000.9960,00012.1634,00089.6255
0000000348,00000.2992,00000.6464,00000.3896,00000.8119,00065.1655,00088.6931
0000000349,00000.1322,00000.0205,00000.8810,00000.8911,00008.8063,00089.7545
0000000350,-0000.4345,00000.4309,00000.5580,00000.8282,00135.2362,00088.8773
0000000351,00000.1533,-0000.0027,00001.0004,00001.0121,00358.9992,00089.7187
0000000352,-0000.4454,00000.6306,00000.2750,00000.8196,00125.2347,00088.5835
0000000353,00000.1542,00000.0141,00000.7841,00000.7992,00005.2307,00089.7160
0000000354,-0000.3657,00000.6770,00000.2225,00000.8009,00118.3768,00088.5884
0000000355,00000.1506,00000.0511,00000.6535,00000.6726,00018.7504,00089.7083
0000000356,-0000.5315,00000.4780,00000.3673,00000.8037,00138.0319,00088.6886
0000000357,00000.5255,-0000.3085,00000.8535,00001.0486,00329.5857,00088.8822
0000000358,00000.4872,-0000.3022,00000.8204,00001.0009,00328.1907,00088.9482
0000000359,-0000.0794,00000.1035,00000.6746,00000.6871,00127.4803,00089.7607
0000000360,00000.4779,-0000.3123,00000.7905,00000.9751,00326.8316,00088.9527
0000000361,-0000.0335,00000.0618,00000.6836,00000.6872,00118.5001,00089.8710
0000000362,00000.4338,-0000.2679,00000.7411,00000.8996,00328.2972,00089.0647
0000000363,-0000.1619,00000.3460,00000.6061,00000.7164,00115.0694,00089.2992
0000000364,-0000.2593,00000.3317,00000.5564,00000.6978,00128.0184,00089.2275
0000000365,00000.3695,-0000.2125,00000.6689,00000.7932,00330.0988,00089.2180
0000000366,-0000.0992,00000.4331,00000.5302,00000.6918,00102.8974,00089.1849
0000000367,00000.3222,-0000.1711,00000.5915,00000.6950,00332.0280,00089.3308
0000000368,00000.1027,00000.5112,00000.4465,00000.6865,00078.6461,00089.0434
0000000369,00000.8239,-0000.0270,00000.6682,00001.0611,00358.1255,00088.4876
0000000370,00000.7799,-0000.0140,00000.6391,00001.0084,00358.9730,00088.5689
0000000371,-0000.0432,00000.7129,00000.2308,00000.7506,00093.4684,00088.6896
0000000372,-0000.1049,00000.6931,00000.2476,00000.7435,00098.6089,00088.7139
0000000373,00000.7450,-0000.0074,00000.6143,00000.9656,00359.4288,00088.6331
0000000374,-0000.3660,00000.5920,00000.2517,00000.7401,00121.7229,00088.7231
0000000375,00000.6954,00000.0039,00000.5923,00000.9135,00000.3192,00088.7241
0000000376,00000.5560,00000.3568,00000.8294,00001.0604,00032.6867,00088.7880
0000000377,-0000.2719,00000.5815,00000.3245,00000.7193,00115.0561,00088.8223
0000000378,00000.5280,00000.3421,00000.7890,00001.0091,00032.9376,00088.8458
0000000379,-0000.1986,00000.5031,00000.4786,00000.7222,00111.5433,00089.0078
0000000380,00000.4632,00000.3051,00000.7212,00000.9098,00033.3713,00088.9825
0000000381,-0000.1049,00000.5046,00000.4771,00000.7024,00101.7414,00089.0544
0000000382,00000.3327,00000.3036,00000.5735,00000.7292,00042.3835,00089.1737
0000000383,-0000.1136,00000.5960,00000.4125,00000.7336,00100.7878,00088.8870
0000000384,00000.3234,00000.3039,00000.5619,00000.7160,00043.2160,00089.1859
0000000385,-0000.1548,00000.6598,00000.3110,00000.7457,00103.2073,00088.7567
0000000386,-0000.1809,00000.6456,00000.2967,00000.7332,00105.6564,00088.7700
0000000387,00000.3438,00000.2955,00000.9523,00001.0547,00040.6790,00089.1683
0000000388,00000.3152,00000.2852,00000.9074,00001.0020,00042.1383,00089.2202
0000000389,-0000.1879,00000.5740,00000.3893,00000.7186,00108.1218,00088.8920
0000000390,00000.2844,00000.2680,00000.8117,00000.9009,00043.2989,00089.2830
0000000391,00000.3917,00000.5606,00000.2791,00000.7387,00055.0572,00088.7452
0000000392,00000.2439,00000.2758,00000.7205,00000.8091,00048.5048,00089.3246
0000000393,00000.2783,00000.5788,00000.2901,00000.7047,00064.3214,00088.8218
0000000394,00000.2391,00000.5600,00000.3937,00000.7251,00066.8774,00088.8829
0000000395,00000.1899,00000.2553,00000.6319,00000.7075,00053.3559,00089.4163
0000000396,00000.2631,00000.4059,00000.4675,00000.6728,00057.0469,00089.1125
0000000397,00000.1806,00000.2517,00000.6087,00000.6830,00054.3412,00089.4317
0000000398,00000.2581,00000.0887,00001.0169,00001.0529,00018.9729,00089.4994
0000000399,00000.3185,00000.5081,00000.3917,00000.7163,00057.9217,00088.8998
0000000400,00000.2865,00000.6184,00000.2765,00000.7355,00065.1384,00088.7496
0000000401,00000.2600,00000.1182,00000.9586,00001.0003,00024.4497,00089.4760
0000000402,00000.2093,00000.6063,00000.2852,00000.7019,00070.9557,00088.8233
0000000403,00000.2235,00000.1218,00000.8686,00000.9051,00028.5940,00089.5331
0000000404,00000.3448,00000.6153,00000.2158,00000.7376,00060.7367,00088.7060
0000000405,00000.1883,00000.1413,00000.7665,00000.8018,00036.8882,00089.5681
0000000406,00000.1540,00000.6157,00000.3160,00000.7090,00075.9573,00088.8355
0000000407,00000.1544,00000.1531,00000.6692,00000.7036,00044.7548,00089.6012
0000000408,00000.0132,00000.5601,00000.4294,00000.7059,00088.6456,00088.9722
0000000409,00000.3798,-0000.1198,00000.9638,00001.0428,00342.4962,00089.2694
0000000410,00000.2788,-0000.0846,00000.8453,00000.8941,00343.1265,00089.4656
0000000411,00000.2411,-0000.0484,00000.7125,00000.7538,00348.6522,00089.5490
0000000412,00000.2425,-0000.0202,00000.6477,00000.6919,00355.2470,00089.5537
0000000413,00000.2380,-0000.0293,00000.6512,00000.6939,00352.9928,00089.5601
0000000414,00000.4403,00000.0451,00000.9509,00001.0489,00005.8432,00089.1881
0000000415,00000.3329,00000.0691,00000.7294,00000.8048,00011.7263,00089.3762
0000000416,00000.2545,00000.0488,00000.9704,00001.0044,00010.8646,00089.5246
0000000417,00000.2995,00000.0820,00000.8536,00000.9084,00015.3143,00089.4304
0000000418,00000.2955,00000.0765,00000.8420,00000.8956,00014.5198,00089.4401
0000000419,00000.6631,00000.4259,00000.7154,00001.0644,00032.7108,00088.5541
0000000420,00000.6227,00000.4195,00000.6886,00001.0187,00033.9723,00088.6225
0000000421,00000.5404,00000.4037,00000.6177,00000.9147,00036.7557,00088.7625
0000000422,00000.4650,00000.3836,00000.5545,00000.8191,00039.5212,00088.8941
0000000423,00000.4059,00000.3235,00000.4766,00000.7047,00038.5542,00089.0477
0000000424,00000.4432,-0000.2848,00000.7314,00000.9014,00327.2778,00089.0335
0000000425,00000.3046,-0000.2759,00000.9573,00001.0418,00317.8320,00089.2460
0000000426,00000.2838,-0000.2512,00000.9210,00000.9960,00318.4784,00089.3047
0000000427,00000.2659,-0000.2223,00000.8222,00000.8923,00320.0943,00089.3642
0000000428,00000.2492,-0000.1758,00000.7301,00000.7912,00324.7927,00089.4406
0000000429,00000.2656,-0000.1654,00000.6229,00000.6971,00328.0928,00089.4260
0000000430,00000.4740,-0000.3338,00000.8456,00001.0252,00324.8481,00088.9364
0000000431,00000.5754,-0000.2591,00000.8044,00001.0223,00335.7610,00088.8424
0000000432,00000.4004,-0000.1535,00000.6287,00000.7611,00339.0198,00089.2133
0000000433,00000.3677,-0000.0955,00000.5479,00000.6667,00345.4431,00089.3031
0000000434,00000.3710,-0000.1241,00000.5914,00000.7091,00341.4984,00089.2824
0000000435,00000.4745,-0000.0593,00000.9268,00001.0429,00352.8805,00089.1228
0000000436,00000.4136,-0000.0535,00000.8024,00000.9043,00352.6269,00089.2349
0000000437,00000.9948,00000.0514,00000.3927,00001.0707,00002.9574,00088.1723
0000000438,00000.9439,00000.0535,00000.3773,00001.0180,00003.2449,00088.2653
0000000439,00000.8526,00000.0626,00000.3531,00000.9250,00004.1987,00088.4315
0000000440,00000.7490,00000.0693,00000.3284,00000.8208,00005.2894,00088.6200
0000000441,00000.6493,00000.0732,00000.3018,00000.7198,00006.4320,00088.8012
0000000442,00000.6034,00000.0670,00000.2924,00000.6739,00006.3402,00088.8862
0000000443,00000.6515,00000.0548,00000.3247,00000.7300,00004.8096,00088.8004
0000000444,00000.7374,00000.0516,00000.3638,00000.8239,00004.0021,00088.6438
0000000445,00000.9397,00000.2208,00000.4547,00001.0670,00013.2213,00088.2290
0000000446,00000.8553,00000.1977,00000.5105,00001.0155,00013.0159,00088.3893
0000000447,00000.7455,00000.1478,00000.5083,00000.9143,00011.2104,00088.6056
0000000448,00000.6466,00000.1490,00000.4618,00000.8084,00012.9738,00088.7826
0000000449,00000.6236,00000.1516,00000.4514,00000.7846,00013.6668,00088.8225
0000000450,00000.5534,00000.1502,00000.4051,00000.7021,00015.1831,00088.9479
0000000451,00000.8233,00000.1523,00000.6596,00001.0659,00010.4792,00088.4638
0000000452,00000.8041,00000.1570,00000.6748,00001.0614,00011.0508,00088.4969
0000000453,00000.7535,00000.1547,00000.6637,00001.0159,00011.6046,00088.5888
0000000454,00000.6540,00000.1230,00000.6143,00000.9057,00010.6553,00088.7792
0000000455,00000.5775,00000.1140,00000.5558,00000.8096,00011.1693,00088.9200
0000000456,00000.4905,00000.0979,00000.4599,00000.6794,00011.2827,00089.0825
0000000457,00000.6846,00000.1033,00000.7129,00000.9938,00008.5804,00088.7298
0000000458,00000.6974,00000.1016,00000.7895,00001.0583,00008.2893,00088.7070
0000000459,00000.6023,00000.1369,00000.6685,00000.9102,00012.8039,00088.8668
0000000460,00000.4439,00000.1415,00000.4924,00000.6779,00017.6847,00089.1453
0000000461,00000.7247,-0000.0635,00000.5498,00000.9119,00354.9929,00088.6653
0000000462,00000.6315,-0000.0388,00000.5093,00000.8123,00356.4811,00088.8392
0000000463,00000.5467,-0000.0212,00000.4536,00000.7107,00357.7806,00088.9963
0000000464,00000.5321,-0000.0124,00000.4434,00000.6927,00358.6606,00089.0236
0000000465,00000.7054,-0000.0081,00000.7609,00001.0376,00359.3396,00088.7057
0000000466,00000.5730,00000.0414,00000.5567,00000.7999,00004.1293,00088.9461
0000000467,00000.6206,-0000.2546,00000.6995,00000.9692,00337.6984,00088.7693
0000000468,00000.5300,-0000.2507,00000.7539,00000.9550,00334.6883,00088.9244
0000000469,00000.6673,-0000.2498,00000.7595,00001.0415,00339.4779,00088.6927
0000000470,00000.6310,-0000.1952,00000.6874,00000.9533,00342.8080,00088.7882
0000000471,00000.6072,-0000.1663,00000.6517,00000.9061,00344.6817,00088.8450
0000000472,00000.5538,-0000.1285,00000.5424,00000.7858,00346.9370,00088.9570
0000000473,00000.8870,-0000.0655,00000.5296,00001.0352,00355.7793,00088.3681
0000000474,00000.7005,-0000.1951,00000.7024,00001.0110,00344.4359,00088.6659
0000000475,00000.5035,-0000.0681,00000.5269,00000.7320,00352.2994,00089.0678
0000000476,00000.4818,-0000.0590,00000.5131,00000.7063,00353.0231,00089.1095
0000000477,00000.7768,00000.4581,00000.5008,00001.0315,00030.5317,00088.3455
0000000478,00000.7589,00000.4391,00000.5225,00001.0207,00030.0545,00088.3913
0000000479,00000.6749,00000.3812,00000.4891,00000.9165,00029.4548,00088.5779
0000000480,00000.5831,00000.3074,00000.4620,00000.8049,00027.7969,00088.7907
0000000481,00000.5006,00000.2613,00000.4264,00000.7076,00027.5615,00088.9641
0000000482,00000.6797,00000.2735,00000.7037,00001.0159,00021.9211,00088.6558
0000000483,00000.6760,00000.2979,00000.7233,00001.0339,00023.7810,00088.6446
0000000484,00000.6060,00000.2638,00000.6332,00000.9153,00023.5242,00088.7874
0000000485,00000.8011,00000.2323,00000.6122,00001.0346,00016.1685,00088.4697
0000000486,00000.7658,00000.2236,00000.6087,00001.0035,00016.2751,00088.5364
0000000487,00000.6805,00000.2127,00000.5754,00000.9162,00017.3575,00088.6919
0000000488,00000.5559,00000.2175,00000.4874,00000.7707,00021.3717,00088.9048
0000000489,00000.4710,00000.2173,00000.4278,00000.6723,00024.7731,00089.0484
0000000490,00000.6602,00000.2349,00000.7970,00001.0613,00019.5891,00088.7144
0000000491,00001.0007,00000.0932,00000.2873,00001.0453,00005.3211,00088.1560
0000000492,00000.9825,00000.0867,00000.2733,00001.0234,00005.0445,00088.1904
0000000493,00000.9334,00000.1123,00000.2503,00000.9729,00006.8574,00088.2750
0000000494,00000.7190,00000.1310,00000.2222,00000.7639,00010.3255,00088.6592
0000000495,00000.4889,00000.2373,00000.7901,00000.9589,00025.8965,00089.0030
0000000496,00000.5096,00000.2499,00000.8466,00001.0192,00026.1280,00088.9588
0000000497,00000.4578,00000.1980,00000.7503,00000.9010,00023.3931,00089.0849
0000000498,00000.4319,00000.2105,00000.7139,00000.8605,00025.9899,00089.1186
0000000499,00000.8245,00000.3795,00000.3033,00000.9570,00024.7142,00088.3346
0000000500,00000.8555,00000.4023,00000.4300,00001.0386,00025.1847,00088.2654
0000000501,00000.8702,00000.4029,00000.4363,00001.0535,00024.8446,00088.2406
0000000502,00000.8436,00000.3996,00000.4318,00001.0285,00025.3457,00088.2873
0000000503,00000.7518,00000.3731,00000.3934,00000.9269,00026.3971,00088.4601
0000000504,00000.7073,00000.3605,00000.3639,00000.8733,00027.0071,00088.5434
0000000505,00000.6611,00000.3502,00000.3447,00000.8237,00027.9074,00088.6274
0000000506,00000.5703,00000.3155,00000.2962,00000.7159,00028.9470,00088.8043
0000000507,00000.6371,00000.3187,00000.3302,00000.7852,00026.5794,00088.6931
0000000508,00000.8751,00000.2982,00000.3747,00000.9975,00018.8184,00088.3038
0000000509,00000.9186,00000.2975,00000.3708,00001.0343,00017.9453,00088.2284
0000000510,00000.8082,00000.3020,00000.3358,00000.9258,00020.4890,00088.4171
0000000511,00000.7758,00000.3026,00000.3286,00000.8952,00021.3073,00088.4723
0000000512,00000.7004,00000.2956,00000.3127,00000.8220,00022.8832,00088.6053
0000000513,00000.6020,00000.2821,00000.2808,00000.7217,00025.1034,00088.7803
0000000514,00000.7961,00000.4126,00000.5302,00001.0417,00027.3988,00088.3549
0000000515,00000.7442,00000.5081,00000.3494,00000.9665,00034.3256,00088.3466
0000000516,00000.7430,00000.5372,00000.4410,00001.0174,00035.8674,00088.3179
0000000517,00000.6169,00000.4799,00000.3943,00000.8754,00037.8800,00088.5661
0000000518,00000.5774,00000.4564,00000.3739,00000.8256,00038.3228,00088.6496
0000000519,00000.4945,00000.4099,00000.3275,00000.7210,00039.6578,00088.8215
0000000520,00000.6793,00000.5610,00000.4743,00001.0005,00039.5500,00088.3836
0000000521,00000.6795,00000.6815,00000.4936,00001.0816,00045.0870,00088.2343
0000000522,00000.6355,00000.6629,00000.4752,00001.0340,00046.2099,00088.3151
0000000523,00000.5707,00000.6043,00000.4250,00000.9335,00046.6370,00088.4750
0000000524,00000.5110,00000.5456,00000.3630,00000.8310,00046.8798,00088.6285
0000000525,00000.4588,00000.4807,00000.3068,00000.7319,00046.3351,00088.7808
0000000526,00000.7571,00000.5218,00000.5324,00001.0625,00034.5761,00088.3130
0000000527,00000.8325,00000.4206,00000.2515,00000.9660,00026.8010,00088.2887
0000000528,00000.7553,00000.4995,00000.2184,00000.9315,00033.4775,00088.3386
0000000529,00000.8634,00000.5412,00000.2449,00001.0480,00032.0809,00088.1304
0000000530,00000.6708,00000.4566,00000.2045,00000.8368,00034.2402,00088.5112
0000000531,00000.5663,00000.4091,00000.1748,00000.7201,00035.8433,00088.7183
0000000532,00000.7996,00000.6332,00000.3139,00001.0671,00038.3750,00088.1287
0000000533,00000.7926,00000.6472,00000.3025,00001.0671,00039.2360,00088.1225
0000000534,00000.7485,00000.6318,00000.2744,00001.0172,00040.1699,00088.2029
0000000535,00000.6839,00000.5884,00000.2485,00000.9358,00040.7099,00088.3447
0000000536,00000.6154,00000.5266,00000.2213,00000.8396,00040.5543,00088.5141
0000000537,00000.8393,00000.5920,00000.2104,00001.0484,00035.1999,00088.1155
0000000538,00000.8170,00000.5858,00000.2230,00001.0298,00035.6419,00088.1553
0000000539,00000.6856,00000.6657,00000.3423,00001.0151,00044.1571,00088.2466
0000000540,00000.6700,00000.7147,00000.3430,00001.0380,00046.8518,00088.2026
0000000541,00000.6694,00000.6568,00000.4748,00001.0511,00044.4540,00088.2794
0000000542,00000.6035,00000.5516,00000.4137,00000.9163,00042.4304,00088.4999
0000000543,00000.5343,00000.5138,00000.3707,00000.8288,00043.8809,00088.6400
0000000544,00000.4694,00000.4537,00000.3252,00000.7293,00044.0279,00088.8024
0000000545,00000.9965,00000.1964,00000.2686,00001.0506,00011.1478,00088.1364
0000000546,00000.9408,00000.3104,00000.2866,00001.0313,00018.2596,00088.1823
0000000547,00000.9605,00000.2924,00000.2566,00001.0363,00016.9325,00088.1577
0000000548,00000.7435,00000.2502,00000.2584,00000.8260,00018.6017,00088.5607
0000000549,00000.6202,00000.2387,00000.2388,00000.7061,00021.0515,00088.7808
0000000550,00000.8022,-0000.3946,00000.5104,00001.0295,00333.8062,00088.3597
0000000551,00000.7995,-0000.3802,00000.5123,00001.0228,00334.5636,00088.3757
0000000552,00000.7925,-0000.3824,00000.5064,00001.0152,00334.2385,00088.3855
0000000553,00000.7708,-0000.3742,00000.5023,00000.9932,00334.1066,00088.4279
0000000554,00000.6879,-0000.3420,00000.4767,00000.9042,00333.5648,00088.5905
0000000555,00000.6184,-0000.2753,00000.4456,00000.8104,00336.0009,00088.7582
0000000556,00000.5404,-0000.2254,00000.4011,00000.7097,00337.3641,00088.9258
0000000557,00000.5289,-0000.1795,00000.3682,00000.6690,00341.2512,00088.9753
0000000558,00000.5712,-0000.1944,00000.3860,00000.7163,00341.2069,00088.8930
0000000559,00000.6567,-0000.2061,00000.4404,00000.8171,00342.5786,00088.7372
0000000560,00000.7347,-0000.2298,00000.4663,00000.9000,00342.6276,00088.5877
0000000561,00000.8258,-0000.2465,00000.6197,00001.0615,00343.3775,00088.4188
0000000562,00000.7811,-0000.2207,00000.5966,00001.0074,00344.2211,00088.5108
0000000563,00000.5374,-0000.1014,00000.4214,00000.6904,00349.3164,00088.9967
0000000564,00000.7030,-0000.3907,00000.6784,00001.0522,00330.9337,00088.5245
0000000565,00000.5980,-0000.3055,00000.6083,00000.9061,00332.9391,00088.7680
0000000566,00000.5301,-0000.2613,00000.5490,00000.8067,00333.7613,00088.9158
0000000567,00000.4703,-0000.1757,00000.4871,00000.6995,00339.5095,00089.0790
0000000568,00000.9246,-0000.1044,00000.4330,00001.0263,00353.5605,00088.2928
0000000569,00000.9247,-0000.0591,00000.4068,00001.0120,00356.3461,00088.2999
0000000570,00000.8305,-0000.0264,00000.3934,00000.9193,00358.1806,00088.4756
0000000571,00000.8227,-0000.2127,00000.4661,00000.9692,00345.5062,00088.4409
0000000572,00000.7685,-0000.1601,00000.4560,00000.9078,00348.2312,00088.5599
0000000573,00000.6917,-0000.1051,00000.4133,00000.8126,00351.3570,00088.7165
0000000574,00000.6110,-0000.0574,00000.3698,00000.7165,00354.6362,00088.8742
0000000575,00000.8759,-0000.1658,00000.2743,00000.9327,00349.2802,00088.3643
0000000576,00000.8629,-0000.1569,00000.2545,00000.9132,00349.6916,00088.3908
0000000577,00000.9259,-0000.2000,00000.2375,00000.9766,00347.8136,00088.2620
0000000578,00000.9633,-0000.2148,00000.2986,00001.0311,00347.4272,00088.1892
0000000579,00000.8196,-0000.1938,00000.3605,00000.9161,00346.6968,00088.4548
0000000580,00000.7229,-0000.1544,00000.3245,00000.8073,00347.9414,00088.6437
0000000581,00000.9130,-0000.1652,00000.4798,00001.0445,00349.7430,00088.2977
0000000582,00000.9777,-0000.3181,00000.2981,00001.0705,00341.9766,00088.1136
0000000583,00000.9266,-0000.2955,00000.2830,00001.0129,00342.3119,00088.2156
0000000584,00000.8525,-0000.2328,00000.2530,00000.9192,00344.7263,00088.3787
0000000585,00000.6568,-0000.1402,00000.2406,00000.7134,00347.9553,00088.7678
0000000586,00001.0124,-0000.1419,00000.2803,00001.0600,00352.0213,00088.1243
0000000587,00000.7704,-0000.0808,00000.2773,00000.8227,00354.0099,00088.5788
0000000588,00000.6598,-0000.1858,00000.3574,00000.7731,00344.2690,00088.7424
0000000589,00000.7356,-0000.3208,00000.3672,00000.8825,00336.4396,00088.5276
0000000590,00000.7701,-0000.3946,00000.3482,00000.9327,00332.8690,00088.4125
0000000591,00000.8747,-0000.4221,00000.3292,00001.0255,00334.2398,00088.2179
0000000592,00000.6636,-0000.3354,00000.3159,00000.8079,00333.1856,00088.6359
0000000593,00000.5664,-0000.2937,00000.2909,00000.7012,00332.5866,00088.8295
0000000594,00000.8240,-0000.5565,00000.3158,00001.0433,00325.9675,00088.1756
0000000595,00000.7755,-0000.5717,00000.3670,00001.0310,00323.6034,00088.2322
0000000596,00000.7649,-0000.5619,00000.3652,00001.0169,00323.6991,00088.2587
0000000597,00000.7542,-0000.5084,00000.3502,00000.9746,00326.0162,00088.3312
0000000598,00000.6992,-0000.4811,00000.3600,00000.9219,00325.4735,00088.4428
0000000599,00000.6903,-0000.4692,00000.3624,00000.9100,00325.7992,00088.4687
0000000600,00000.8731,-0000.4950,00000.2545,00001.0354,00330.4467,00088.1584
0000000601,00000.8448,-0000.4825,00000.2423,00001.0026,00330.2652,00088.2149
0000000602,00000.7642,-0000.4359,00000.2564,00000.9164,00330.3009,00088.3858
0000000603,00000.6908,-0000.3494,00000.2494,00000.8133,00333.1720,00088.5798
0000000604,00000.6035,-0000.2855,00000.2634,00000.7177,00334.6850,00088.7752
0000000605,00000.6469,-0000.4828,00000.5471,00000.9751,00323.2652,00088.5191
0000000606,00000.5946,-0000.4731,00000.6126,00000.9761,00321.4937,00088.6058
0000000607,00000.5892,-0000.5104,00000.6515,00001.0160,00319.0979,00088.5697
0000000608,00000.5995,-0000.5216,00000.6585,00001.0320,00318.9738,00088.5420
0000000609,00000.5072,-0000.3701,00000.6267,00000.8872,00323.8815,00088.8480
0000000610,00000.4603,-0000.3005,00000.5592,00000.7842,00326.8607,00088.9915
0000000611,00000.4493,-0000.2742,00000.5524,00000.7630,00328.6067,00089.0344
0000000612,00000.4125,-0000.2284,00000.5184,00000.7007,00331.0245,00089.1350
0000000613,00000.5250,-0000.4456,00000.7602,00001.0257,00319.6766,00088.7367
0000000614,00000.6280,-0000.5016,00000.6218,00001.0162,00321.3831,00088.5253
0000000615,00000.5948,-0000.4089,00000.5394,00000.9011,00325.4973,00088.6757
0000000616,00000.4521,-0000.2488,00000.4288,00000.6709,00331.1741,00089.0533
0000000617,00000.3645,-0000.3657,00000.9002,00001.0378,00314.8999,00089.0528
0000000618,00000.3903,-0000.3606,00000.8440,00000.9973,00317.2625,00089.0252
0000000619,00000.5363,00000.4672,00000.7581,00001.0395,00041.0605,00088.6950
0000000620,00000.5013,00000.4828,00000.7411,00001.0166,00043.9230,00088.7232
0000000621,00000.4441,00000.4283,00000.6748,00000.9144,00043.9655,00088.8680
0000000622,00000.3785,00000.3939,00000.6079,00000.8173,00046.1443,00088.9978
0000000623,00000.3204,00000.3815,00000.5182,00000.7188,00049.9777,00089.0861
0000000624,00000.4330,00000.3663,00000.8558,00001.0267,00040.2353,00088.9595
0000000625,00000.4239,00000.3736,00000.8417,00001.0138,00041.3908,00088.9634
0000000626,00000.3729,00000.3597,00000.7482,00000.9101,00043.9705,00089.0494
0000000627,00000.2821,00000.3780,00000.5892,00000.7547,00053.2633,00089.1347
0000000628,00000.2261,00000.3393,00000.5368,00000.6741,00056.3217,00089.2520
0000000629,00000.7480,00000.0486,00000.5303,00000.9182,00003.7151,00088.6247
0000000630,00000.7724,00000.0473,00000.5037,00000.9233,00003.5029,00088.5803
0000000631,00000.5431,00000.5611,00000.5369,00000.9477,00045.9319,00088.5672
0000000632,00000.4462,00000.5433,00000.5962,00000.9218,00050.6060,00088.7103
0000000633,00000.2821,00000.4063,00000.7879,00000.9303,00055.2326,00089.0926
0000000634,00000.1851,00000.3118,00000.8515,00000.9255,00059.3028,00089.3347
0000000635,00000.1249,00000.2537,00000.8584,00000.9037,00063.7824,00089.4813
0000000636,00000.0656,00000.2233,00000.8568,00000.8878,00073.6347,00089.5731
0000000637,00000.0435,00000.1872,00000.8897,00000.9102,00076.9267,00089.6475
0000000638,00000.0294,00000.0798,00000.8962,00000.9002,00069.7903,00089.8441
0000000639,00000.0506,00000.0638,00000.9105,00000.9141,00051.5661,00089.8507
0000000640,00000.1858,-0000.2478,00000.7549,00000.8159,00306.8634,00089.4318
0000000641,00000.1631,-0000.2330,00000.8586,00000.9045,00305.0022,00089.4782
0000000642,00000.0906,-0000.1711,00000.8868,00000.9077,00297.8909,00089.6448
0000000643,00000.0752,-0000.1351,00000.8799,00000.8934,00299.1020,00089.7163
0000000644,00000.1597,-0000.2877,00000.7844,00000.8506,00299.0345,00089.3963
0000000645,00000.2521,-0000.3919,00000.7283,00000.8647,00302.7540,00089.1450
0000000646,00000.2979,-0000.4068,00000.7517,00000.9051,00306.2123,00089.0750
0000000647,00000.2837,-0000.3830,00000.7832,00000.9168,00306.5271,00089.1257
0000000648,00000.3312,-0000.3936,00000.7349,00000.8970,00310.0842,00089.0563
0000000649,00000.3589,-0000.4386,00000.6968,00000.8981,00309.2913,00088.9603
0000000650,00000.5034,-0000.4870,00000.5635,00000.8990,00315.9471,00088.7150
0000000651,00000.4055,-0000.5243,00000.5975,00000.8923,00307.7201,00088.7840
0000000652,00000.4076,-0000.5295,00000.6146,00000.9079,00307.5882,00088.7741
0000000653,00000.4262,-0000.5458,00000.6202,00000.9296,00307.9859,00088.7295
0000000654,00000.4471,-0000.5053,00000.6555,00000.9407,00311.5039,00088.7622
0000000655,00000.5030,-0000.6038,00000.5313,00000.9486,00309.7968,00088.5581
0000000656,00000.5927,-0000.6568,00000.3910,00000.9673,00312.0654,00088.3768
0000000657,00000.4731,-0000.6432,00000.5087,00000.9468,00306.3360,00088.5351
0000000658,00000.4307,-0000.1780,00000.6708,00000.8168,00337.5475,00089.1450
0000000659,00000.4672,-0000.0889,00000.6552,00000.8096,00349.2318,00089.1275
0000000660,00000.2105,-0000.1241,00000.8272,00000.8625,00329.4762,00089.5518
0000000661,00000.4496,-0000.4227,00000.5170,00000.8051,00316.7646,00088.8678
0000000662,00000.4921,-0000.4103,00000.4784,00000.7996,00320.1803,00088.8245
0000000663,00000.6030,-0000.4391,00000.3714,00000.8332,00323.9388,00088.6316
0000000664,00000.5646,-0000.4511,00000.3666,00000.8103,00321.3749,00088.6742
0000000665,00000.5137,-0000.4996,00000.3498,00000.7974,00315.7962,00088.6854
0000000666,00000.5449,-0000.5685,00000.3445,00000.8595,00313.7897,00088.5552
0000000667,00000.5157,-0000.5716,00000.3491,00000.8453,00312.0542,00088.5876
0000000668,00000.7113,-0000.3693,00000.2378,00000.8360,00332.5620,00088.5295
0000000669,00000.8807,00000.0379,00000.2704,00000.9221,00002.4620,00088.3826
0000000670,00000.7628,00000.1494,00000.3414,00000.8490,00011.0778,00088.5739
0000000671,00000.8455,00000.2156,00000.2424,00000.9056,00014.3059,00088.3991
0000000672,00000.8328,00000.2272,00000.2254,00000.8922,00015.2594,00088.4162
0000000673,00000.7495,00000.4624,00000.2131,00000.9061,00031.6709,00088.3842
0000000674,00000.5864,00000.6146,00000.3175,00000.9069,00046.3430,00088.4414
0000000675,00000.4777,00000.0698,00000.6333,00000.7963,00008.3127,00089.1143
0000000676,00000.4418,00000.0988,00000.6305,00000.7762,00012.6095,00089.1695
0000000677,00000.2347,-0000.3080,00000.6963,00000.7967,00307.3051,00089.2896
0000000678,00000.1668,-0000.1923,00000.7486,00000.7907,00310.9437,00089.5329
0000000679,00000.1534,-0000.1513,00000.7684,00000.7981,00315.3958,00089.6047
0000000680,00000.1171,-0000.1306,00000.7808,00000.8002,00311.8824,00089.6782
0000000681,00000.2357,-0000.3513,00000.6403,00000.7674,00303.8578,00089.2240
0000000682,00000.2952,-0000.4335,00000.5650,00000.7709,00304.2538,00089.0379
0000000683,00000.3658,-0000.4277,00000.5377,00000.7783,00310.5364,00088.9675
0000000684,00000.2865,-0000.2960,00000.6843,00000.7987,00314.0651,00089.2443
0000000685,00000.2335,00000.3829,00000.6707,00000.8068,00058.6236,00089.1772
0000000686,00000.2109,00000.3917,00000.6899,00000.8208,00061.6952,00089.1839
0000000687,00000.1182,00000.3246,00000.7074,00000.7872,00069.9892,00089.3663
0000000688,00000.0781,00000.2731,00000.7160,00000.7703,00074.0338,00089.4789
0000000689,00000.0566,00000.2200,00000.7338,00000.7682,00075.5638,00089.5832
0000000690,00000.0217,00000.1711,00000.7383,00000.7582,00082.7869,00089.6836
0000000691,00000.0437,00000.0369,00000.7689,00000.7710,00040.1643,00089.8951
0000000692,00000.5428,00000.5908,00000.2378,00000.8368,00047.4251,00088.5280
0000000693,00000.4303,00000.5108,00000.4404,00000.8000,00049.8913,00088.7747
0000000694,00000.3916,00000.5534,00000.4612,00000.8200,00054.7174,00088.7562
0000000695,00000.3532,00000.5393,00000.4975,00000.8143,00056.7780,00088.8174
0000000696,00000.4281,00000.6402,00000.2483,00000.8091,00056.2305,00088.5871
0000000697,00000.3947,00000.6445,00000.2811,00000.8063,00058.5188,00088.6134
0000000698,00000.3095,00000.5981,00000.5050,00000.8418,00062.6391,00088.7645
0000000699,00000.2750,00000.5667,00000.5396,00000.8294,00064.1157,00088.8445
0000000700,00000.7247,00000.1644,00000.3559,00000.8240,00012.7808,00088.6366
0000000701,00000.8020,00000.0208,00000.1847,00000.8233,00001.4866,00088.5281
0000000702,00000.6547,-0000.4250,00000.2112,00000.8086,00327.0128,00088.5679
0000000703,00000.6491,-0000.3724,00000.1510,00000.7635,00330.1555,00088.6270
0000000704,00000.6984,-0000.2680,00000.1732,00000.7678,00339.0052,00088.6276
0000000705,00000.3954,-0000.6426,00000.3078,00000.8149,00301.6063,00088.6157
0000000706,00000.4159,-0000.6408,00000.2735,00000.8114,00302.9868,00088.5984
0000000707,00000.4241,-0000.6515,00000.2640,00000.8210,00303.0646,00088.5737
0000000708,00000.4888,-0000.5834,00000.2717,00000.8081,00309.9550,00088.6037
0000000709,00000.4013,-0000.5763,00000.4050,00000.8107,00304.8512,00088.7115
0000000710,00000.3531,00000.0114,00000.5695,00000.6702,00001.8508,00089.3520
0000000711,00000.3972,00000.0977,00000.5572,00000.6912,00013.8204,00089.2496
0000000712,00000.3902,00000.1035,00000.5507,00000.6828,00014.8534,00089.2595
0000000713,00000.1348,00000.0363,00000.6483,00000.6631,00015.0751,00089.7439
0000000714,00000.0903,-0000.0450,00000.6614,00000.6690,00333.5212,00089.8150
0000000715,00000.1157,-0000.1420,00000.6245,00000.6508,00309.1750,00089.6639
0000000716,00000.1576,-0000.2126,00000.6152,00000.6697,00306.5514,00089.5145
0000000717,00000.2195,-0000.2685,00000.5509,00000.6510,00309.2646,00089.3638
0000000718,00000.2720,-0000.3166,00000.5318,00000.6761,00310.6671,00089.2343
0000000719,00000.2868,-0000.3682,00000.4771,00000.6674,00307.9158,00089.1438
0000000720,00000.3154,-0000.4109,00000.4326,00000.6748,00307.5056,00089.0497
0000000721,00000.3727,-0000.4627,00000.3897,00000.7105,00308.8516,00088.9100
0000000722,00000.4098,-0000.5193,00000.2737,00000.7159,00308.2775,00088.7864
0000000723,00000.4939,-0000.3638,00000.3539,00000.7082,00323.6284,00088.8746
0000000724,00000.4499,-0000.1477,00000.5174,00000.7014,00341.8218,00089.1312
0000000725,00000.1570,-0000.1049,00000.6725,00000.6985,00326.2519,00089.6537
0000000726,00000.1872,-0000.3718,00000.5577,00000.6959,00296.7302,00089.2363
0000000727,00000.1358,00000.2148,00000.6598,00000.7071,00057.7020,00089.5337
0000000728,00000.0734,00000.1577,00000.6568,00000.6794,00065.0273,00089.6809
0000000729,00000.4245,00000.4453,00000.3901,00000.7284,00046.3667,00088.8714
0000000730,00000.5631,00000.1469,00000.3395,00000.6737,00014.6226,00088.9324
0000000731,00000.6963,00000.0600,00000.1781,00000.7212,00004.9276,00088.7179
0000000732,00000.5938,-0000.1540,00000.2927,00000.6797,00345.4658,00088.8745
0000000733,00000.5419,00000.0453,00000.3851,00000.6663,00004.7756,00089.0025
0000000734,00000.6098,-0000.5143,00000.2595,00000.8388,00319.8586,00088.5365
0000000735,00000.5774,-0000.5103,00000.2576,00000.8125,00318.5291,00088.5862
0000000736,00000.5099,-0000.4513,00000.2176,00000.7148,00318.4903,00088.7508
0000000737,00000.5219,-0000.4353,00000.2242,00000.7156,00320.1703,00088.7531
0000000738,00000.5914,-0000.4359,00000.1788,00000.7562,00323.6061,00088.6520
0000000739,00000.5905,-0000.3840,00000.1640,00000.7232,00326.9622,00088.7077
0000000740,00000.6598,-0000.2115,00000.1984,00000.7207,00342.2269,00088.7289
0000000741,00000.6600,-0000.1002,00000.2438,00000.7107,00351.3652,00088.7752
0000000742,00000.0394,-0000.5335,00000.9005,00001.0474,00274.2230,00089.0186
0000000743,00000.0293,-0000.4976,00000.8675,00001.0005,00273.3687,00089.0855
0000000744,00000.0134,-0000.4380,00000.7830,00000.8973,00271.7554,00089.1961
0000000745,00000.0327,-0000.3883,00000.6835,00000.7867,00274.8089,00089.2852
0000000746,00000.0244,-0000.3264,00000.6235,00000.7042,00274.2721,00089.3996
0000000747,00000.0252,-0000.3224,00000.6112,00000.6914,00274.4780,00089.4068
0000000748,00000.2507,-0000.5170,00000.8617,00001.0357,00295.8703,00088.9459
0000000749,00000.0087,-0000.2682,00000.9633,00000.9999,00271.8520,00089.5077
0000000750,00000.0278,-0000.2390,00000.8627,00000.8956,00276.6259,00089.5587
0000000751,-0000.0107,-0000.3142,00000.9963,00001.0447,00268.0412,00089.4233
0000000752,00000.0388,-0000.2557,00000.7588,00000.8017,00278.6280,00089.5256
0000000753,00000.0344,-0000.1681,00000.6622,00000.6840,00281.5688,00089.6853
0000000754,-0000.1308,-0000.7069,00000.7264,00001.0220,00259.5178,00088.6810
0000000755,-0000.1274,-0000.6844,00000.7343,00001.0118,00259.4521,00088.7229
0000000756,-0000.1258,-0000.6340,00000.7502,00000.9902,00258.7769,00088.8142
0000000757,-0000.0753,-0000.5582,00000.6799,00000.8829,00262.3141,00088.9667
0000000758,-0000.0373,-0000.4697,00000.6129,00000.7731,00265.4626,00089.1356
0000000759,00000.0341,-0000.1902,00001.0242,00001.0423,00280.1772,00089.6455
0000000760,00000.1389,-0000.5619,00000.8733,00001.0477,00283.8871,00088.9381
0000000761,00000.1630,-0000.5314,00000.8319,00001.0005,00287.0470,00088.9802
0000000762,00000.1433,-0000.4545,00000.7467,00000.8858,00287.5058,00089.1257
0000000763,00000.1548,-0000.3946,00000.6767,00000.7985,00291.4141,00089.2224
0000000764,00000.2575,-0000.4541,00000.9070,00001.0465,00299.5571,00089.0422
0000000765,00000.1148,-0000.2565,00001.0037,00001.0423,00294.1037,00089.4845
0000000766,-0000.1567,-0000.5282,00000.8935,00001.0497,00253.4729,00088.9891
0000000767,-0000.1464,-0000.4877,00000.8574,00000.9973,00253.2923,00089.0658
0000000768,-0000.1185,-0000.4202,00000.7651,00000.8809,00254.2467,00089.1991
0000000769,-0000.0865,-0000.3716,00000.6834,00000.7827,00256.9026,00089.3001
0000000770,-0000.0830,-0000.3573,00000.6394,00000.7372,00256.9267,00089.3271
0000000771,-0000.0777,-0000.3235,00000.5848,00000.6728,00256.4879,00089.3896
0000000772,-0000.0558,-0000.3637,00000.9753,00001.0424,00261.2771,00089.3249
0000000773,-0000.0869,-0000.3048,00000.8931,00000.9477,00254.0942,00089.4186
0000000774,-0000.1100,-0000.3256,00000.8204,00000.8895,00251.3307,00089.3695
0000000775,00000.1598,-0000.4633,00000.9238,00001.0458,00289.0347,00089.1010
0000000776,-0000.2733,-0000.2391,00000.9371,00001.0050,00221.1830,00089.3339
0000000777,-0000.2399,-0000.2176,00000.8462,00000.9061,00222.2012,00089.4058
0000000778,-0000.1996,-0000.2017,00000.7592,00000.8105,00225.2978,00089.4794
0000000779,-0000.2166,-0000.1922,00000.7481,00000.8022,00221.5898,00089.4688
0000000780,-0000.1949,-0000.1554,00000.6297,00000.6773,00218.5675,00089.5426
0000000781,-0000.4123,-0000.2409,00000.8795,00001.0007,00210.2976,00089.1240
0000000782,-0000.4143,-0000.2397,00000.9421,00001.0567,00210.0525,00089.1220
0000000783,-0000.4210,-0000.2333,00000.9370,00001.0534,00208.9959,00089.1170
0000000784,-0000.3670,-0000.1929,00000.8575,00000.9525,00207.7301,00089.2394
0000000785,-0000.3775,-0000.2367,00000.7700,00000.8896,00212.0842,00089.1826
0000000786,-0000.1345,-0000.1724,00001.0237,00001.0468,00232.0310,00089.5989
0000000787,-0000.1322,-0000.1482,00000.9747,00000.9948,00228.2718,00089.6356
0000000788,-0000.1143,-0000.1385,00000.8850,00000.9031,00230.4796,00089.6706
0000000789,-0000.1059,-0000.1094,00000.7809,00000.7956,00225.9411,00089.7207
0000000790,-0000.1830,-0000.1579,00001.0206,00001.0489,00220.7899,00089.5565
0000000791,-0000.2049,-0000.1372,00000.9703,00001.0011,00213.8077,00089.5476
0000000792,-0000.2015,-0000.0930,00000.8704,00000.8983,00204.7856,00089.5929
0000000793,-0000.1912,-0000.0990,00000.7670,00000.7966,00207.3714,00089.6050
0000000794,-0000.1642,-0000.0783,00000.6578,00000.6825,00205.4916,00089.6664
0000000795,-0000.1615,-0000.1354,00000.6508,00000.6841,00219.9706,00089.6133
0000000796,-0000.1799,-0000.3609,00000.9555,00001.0371,00243.5008,00089.2602
0000000797,-0000.1480,-0000.2611,00000.9256,00000.9731,00240.4517,00089.4493
0000000798,-0000.4854,-0000.3573,00000.8398,00001.0337,00216.3594,00088.8942
0000000799,-0000.4821,-0000.3651,00000.8215,00001.0201,00217.1394,00088.8905
0000000800,-0000.4651,-0000.3632,00000.8218,00001.0117,00217.9848,00088.9175
0000000801,-0000.3669,-0000.4598,00000.8418,00001.0270,00231.4143,00088.9207
0000000802,-0000.3283,-0000.4446,00000.8236,00000.9918,00233.5614,00088.9861
0000000803,-0000.3087,-0000.4116,00000.8051,00000.9555,00233.1292,00089.0560
0000000804,-0000.2972,-0000.3888,00000.7462,00000.8924,00232.6004,00089.1022
0000000805,-0000.2880,-0000.3737,00000.7383,00000.8762,00232.3766,00089.1344
0000000806,-0000.2776,-0000.3064,00000.6739,00000.7906,00227.8238,00089.2414
0000000807,-0000.2310,-0000.2681,00000.6090,00000.7044,00229.2472,00089.3509
0000000808,-0000.2391,-0000.2609,00000.6011,00000.6976,00227.4995,00089.3508
0000000809,-0000.2534,-0000.3295,00000.9349,00001.0232,00232.4425,00089.2375
0000000810,-0000.2295,-0000.3347,00000.8028,00000.8995,00235.5657,00089.2555
0000000811,-0000.1949,-0000.2867,00000.7173,00000.7967,00235.7848,00089.3640
0000000812,-0000.0004,-0000.9341,00000.4948,00001.0571,00269.9726,00088.2861
0000000813,00000.0047,-0000.8950,00000.4757,00001.0136,00270.3023,00088.3578
0000000814,-0000.0332,-0000.7896,00000.4430,00000.9060,00267.5943,00088.5500
0000000815,-0000.0040,-0000.6935,00000.3884,00000.7949,00269.6656,00088.7276
0000000816,00000.0067,-0000.5940,00000.3718,00000.7008,00270.6505,00088.9101
0000000817,-0000.1415,-0000.8779,00000.5431,00001.0420,00260.8430,00088.3685
0000000818,-0000.1276,-0000.8238,00000.5353,00000.9907,00261.1983,00088.4705
0000000819,-0000.0679,-0000.7282,00000.5077,00000.8903,00264.6732,00088.6581
0000000820,-0000.1442,-0000.8695,00000.5658,00001.0474,00260.5821,00088.3829
0000000821,-0000.0610,-0000.6522,00000.4696,00000.8060,00264.6544,00088.7982
0000000822,-0000.0890,-0000.5610,00000.4214,00000.7073,00260.9834,00088.9579
0000000823,00000.2092,-0000.8067,00000.6231,00001.0405,00284.5392,00088.4710
0000000824,00000.2245,-0000.7704,00000.5940,00000.9984,00286.2464,00088.5277
0000000825,00000.2306,-0000.6870,00000.5259,00000.8954,00288.5524,00088.6705
0000000826,00000.2337,-0000.6698,00000.5081,00000.8726,00289.2362,00088.6985
0000000827,00000.2231,-0000.6071,00000.4721,00000.8007,00290.1819,00088.8134
0000000828,00000.2012,-0000.5094,00000.4191,00000.6896,00291.5512,00088.9953
0000000829,00000.0826,-0000.6818,00000.7843,00001.0424,00276.9045,00088.7401
0000000830,00000.0870,-0000.6418,00000.7557,00000.9952,00277.7182,00088.8118
0000000831,00000.1132,-0000.5577,00000.6888,00000.8935,00281.4727,00088.9561
0000000832,00000.1302,-0000.4903,00000.6270,00000.8065,00284.8674,00089.0693
0000000833,00000.1354,-0000.4745,00000.6136,00000.7874,00285.9277,00089.0947
0000000834,00000.1543,-0000.4077,00000.5455,00000.6983,00290.7270,00089.2003
0000000835,00000.2524,-0000.7871,00000.6507,00001.0520,00287.7780,00088.4835
0000000836,00000.2641,-0000.7485,00000.6115,00001.0019,00289.4339,00088.5438
0000000837,00000.2686,-0000.4983,00000.4069,00000.6971,00298.3295,00088.9615
0000000838,00000.1093,-0000.4833,00000.6228,00000.7958,00282.7386,00089.0910
0000000839,00000.0179,-0000.7439,00000.4990,00000.8959,00271.3776,00088.6348
0000000840,00000.0385,-0000.6609,00000.4517,00000.8015,00273.3370,00088.7853
0000000841,00000.0303,-0000.5832,00000.3993,00000.7074,00272.9704,00088.9287
0000000842,-0000.0669,-0000.7730,00000.7003,00001.0452,00265.0531,00088.5765
0000000843,00000.0096,-0000.3729,00000.5773,00000.6873,00271.4774,00089.3156
0000000844,00000.1836,-0000.7284,00000.5912,00000.9559,00284.1467,00088.6218
0000000845,00000.1733,-0000.6103,00000.6302,00000.8943,00285.8475,00088.8361
0000000846,00000.1458,-0000.6918,00000.7179,00001.0076,00281.9040,00088.7029
0000000847,00000.1453,-0000.5428,00000.5718,00000.8017,00284.9836,00088.9691
0000000848,00000.1265,-0000.8260,00000.6418,00001.0537,00278.7068,00088.4668
0000000849,00000.4110,-0000.6493,00000.7085,00001.0452,00302.3340,00088.5902
0000000850,00000.2996,-0000.6263,00000.7830,00001.0465,00295.5679,00088.7262
0000000851,00000.3130,-0000.5876,00000.7509,00001.0035,00298.0421,00088.7787
0000000852,00000.3895,-0000.8723,00000.2884,00000.9979,00294.0588,00088.2472
0000000853,00000.3678,-0000.8933,00000.2500,00000.9979,00292.3813,00088.2275
0000000854,00000.3388,-0000.9134,00000.3197,00001.0253,00290.3514,00088.2126
0000000855,00000.3133,-0000.8011,00000.3006,00000.9112,00291.3623,00088.4218
0000000856,00000.2889,-0000.7061,00000.2714,00000.8097,00292.2552,00088.6003
0000000857,00000.2456,-0000.6167,00000.2536,00000.7106,00291.7156,00088.7822
0000000858,00000.0967,-0000.9950,00000.3142,00001.0479,00275.5495,00088.1658
0000000859,00000.0602,-0000.9503,00000.2852,00000.9940,00273.6275,00088.2530
0000000860,00000.0798,-0000.8505,00000.2978,00000.9047,00275.3591,00088.4327
0000000861,00000.0979,-0000.7535,00000.2661,00000.8051,00277.4047,00088.6059
0000000862,00000.0717,-0000.6247,00000.2689,00000.6839,00276.5483,00088.8464
0000000863,00000.0621,-0000.6578,00000.2815,00000.7182,00275.3951,00088.7879
0000000864,00000.0528,-0000.7012,00000.2905,00000.7609,00274.3029,00088.7098
0000000865,-0000.0050,-0000.9326,00000.4153,00001.0209,00269.6905,00088.2890
0000000866,-0000.0037,-0000.9144,00000.4388,00001.0142,00269.7676,00088.3223
0000000867,00000.0560,-0000.7436,00000.3869,00000.8401,00274.3087,00088.6320
0000000868,00000.2201,-0000.8951,00000.4521,00001.0267,00283.8145,00088.3088
0000000869,00000.2338,-0000.8655,00000.4358,00000.9968,00285.1135,00088.3551
0000000870,00000.2314,-0000.7807,00000.4063,00000.9100,00286.5084,00088.5060
0000000871,00000.2007,-0000.6662,00000.3710,00000.7885,00286.7628,00088.7235
0000000872,00000.1961,-0000.6433,00000.3664,00000.7659,00286.9537,00088.7662
0000000873,00000.1809,-0000.5781,00000.3397,00000.6945,00287.3776,00088.8886
0000000874,00000.1271,-0000.9410,00000.4350,00001.0445,00277.6912,00088.2578
0000000875,00000.1361,-0000.9056,00000.4248,00001.0095,00278.5487,00088.3198
0000000876,00000.1643,-0000.5953,00000.3172,00000.6943,00285.4274,00088.8670
0000000877,00000.2766,-0000.9179,00000.3378,00001.0165,00286.7670,00088.2410
0000000878,00000.4060,-0000.8399,00000.4384,00001.0307,00295.8005,00088.2884
0000000879,00000.3869,-0000.8063,00000.4506,00001.0014,00295.6329,00088.3592
0000000880,00000.3456,-0000.7184,00000.4175,00000.8999,00295.6912,00088.5374
0000000881,00000.3144,-0000.6385,00000.3738,00000.8039,00296.2180,00088.6942
0000000882,00000.2888,-0000.5507,00000.3415,00000.7094,00297.6706,00088.8592
0000000883,00000.2410,-0000.9431,00000.3274,00001.0269,00284.3331,00088.2141
0000000884,00000.3849,-0000.9369,00000.2544,00001.0443,00292.3344,00088.1416
0000000885,00000.4632,-0000.7397,00000.5343,00001.0234,00302.0529,00088.3987
0000000886,00000.4083,-0000.6353,00000.4737,00000.8915,00302.7299,00088.6144
0000000887,00000.5725,-0000.7788,00000.4337,00001.0594,00306.3163,00088.2265
0000000888,00000.5636,-0000.7351,00000.4192,00001.0168,00307.4783,00088.3004
0000000889,00000.5787,-0000.7122,00000.5264,00001.0579,00309.0966,00088.3163
0000000890,00000.6160,-0000.7657,00000.3379,00001.0392,00308.8164,00088.1969
0000000891,00000.6383,-0000.7434,00000.2646,00001.0150,00310.6504,00088.2021
0000000892,00000.7237,-0000.6403,00000.3006,00001.0120,00318.5017,00088.2271
0000000893,00000.4323,-0000.8116,00000.2806,00000.9614,00298.0435,00088.3129
0000000894,00000.3608,-0000.5675,00000.2077,00000.7038,00302.4494,00088.7662
0000000895,00000.6206,-0000.8181,00000.2778,00001.0638,00307.1843,00088.1159
0000000896,00000.5819,-0000.8303,00000.2958,00001.0562,00305.0226,00088.1396
0000000897,00000.6786,-0000.7263,00000.2786,00001.0323,00313.0537,00088.1762
0000000898,-0000.4125,-0000.8590,00000.4226,00001.0424,00244.3483,00088.2516
0000000899,-0000.4050,-0000.8394,00000.4302,00001.0265,00244.2401,00088.2900
0000000900,-0000.3796,-0000.7986,00000.4157,00000.9770,00244.5726,00088.3777
0000000901,-0000.3440,-0000.7512,00000.3906,00000.9139,00245.3953,00088.4841
0000000902,-0000.2683,-0000.6699,00000.3614,00000.8071,00248.1706,00088.6761
0000000903,-0000.3682,-0000.7327,00000.6494,00001.0460,00243.3172,00088.4954
0000000904,-0000.3465,-0000.7029,00000.6244,00001.0020,00243.7583,00088.5622
0000000905,-0000.3016,-0000.6312,00000.5772,00000.9069,00244.4631,00088.7166
0000000906,-0000.2226,-0000.5088,00000.4386,00000.7077,00246.3664,00088.9811
0000000907,-0000.2719,-0000.5219,00000.4570,00000.7451,00242.4863,00088.9204
0000000908,-0000.4323,-0000.6418,00000.6812,00001.0310,00236.0349,00088.5803
0000000909,-0000.2449,-0000.4974,00000.6761,00000.8744,00243.7871,00088.9828
0000000910,-0000.2067,-0000.4606,00000.5743,00000.7647,00245.8269,00089.0738
0000000911,-0000.1781,-0000.4306,00000.4863,00000.6735,00247.5270,00089.1451
0000000912,-0000.1106,-0000.7075,00000.6948,00000.9978,00261.1148,00088.6862
0000000913,-0000.2791,-0000.5652,00000.7983,00001.0172,00243.7241,00088.8436
0000000914,-0000.3000,-0000.5842,00000.7557,00001.0012,00242.8190,00088.7951
0000000915,-0000.1450,-0000.3715,00000.5769,00000.7013,00248.6750,00089.2684
0000000916,-0000.3756,-0000.8812,00000.3517,00001.0205,00246.9125,00088.2424
0000000917,-0000.2596,-0000.6178,00000.2957,00000.7324,00247.2074,00088.7707
0000000918,-0000.2464,-0000.5977,00000.2612,00000.6973,00247.5955,00088.8139
0000000919,-0000.2602,-0000.6517,00000.2527,00000.7458,00248.2359,00088.7126
0000000920,-0000.2798,-0000.7403,00000.2373,00000.8262,00249.2974,00088.5481
0000000921,-0000.3129,-0000.8843,00000.3138,00000.9891,00250.5133,00088.2789
0000000922,-0000.3053,-0000.8681,00000.3400,00000.9810,00250.6244,00088.3116
0000000923,-0000.2760,-0000.8934,00000.4285,00001.0286,00252.8319,00088.2844
0000000924,-0000.2674,-0000.7706,00000.4153,00000.9153,00250.8642,00088.5035
0000000925,-0000.1774,-0000.5838,00000.3239,00000.6908,00253.0959,00088.8806
0000000926,-0000.1968,-0000.6126,00000.3394,00000.7275,00252.1893,00088.8195
0000000927,-0000.2522,-0000.7422,00000.4282,00000.8932,00251.2317,00088.5618
0000000928,-0000.2666,-0000.7861,00000.4548,00000.9465,00251.2650,00088.4770
0000000929,-0000.2918,-0000.8561,00000.5030,00001.0349,00251.1759,00088.3405
0000000930,-0000.2067,-0000.9869,00000.3085,00001.0545,00258.1706,00088.1499
0000000931,-0000.2014,-0000.9497,00000.3038,00001.0173,00258.0268,00088.2187
0000000932,-0000.1818,-0000.8565,00000.2772,00000.9184,00258.0171,00088.3936
0000000933,-0000.1869,-0000.7561,00000.2501,00000.8180,00256.1183,00088.5711
0000000934,-0000.1887,-0000.6521,00000.2255,00000.7153,00253.8596,00088.7545
0000000935,-0000.2470,-0000.9573,00000.3212,00001.0395,00255.5315,00088.1861
0000000936,-0000.0784,-0000.8863,00000.4047,00000.9775,00264.9431,00088.3674
0000000937,-0000.0350,-0001.0017,00000.3088,00001.0487,00268.0006,00088.1610
0000000938,00000.0941,-0001.0175,00000.2122,00001.0437,00275.2814,00088.1250
0000000939,-0000.3570,-0000.7821,00000.3323,00000.9217,00245.4680,00088.4226
0000000940,-0000.3781,-0000.8906,00000.2727,00001.0052,00246.9948,00088.2248
0000000941,-0000.4453,-0000.4774,00000.6639,00000.9311,00226.9912,00088.8022
0000000942,-0000.4435,-0000.4091,00000.6733,00000.9041,00222.6932,00088.8931
0000000943,-0000.3803,-0000.3737,00000.6100,00000.8101,00224.4991,00089.0219
0000000944,-0000.5256,-0000.4062,00000.7205,00000.9800,00217.6988,00088.7813
0000000945,-0000.5656,-0000.4319,00000.7417,00001.0279,00217.3654,00088.6944
0000000946,-0000.3550,-0000.6603,00000.6609,00000.9994,00241.7385,00088.6246
0000000947,-0000.2726,-0000.4986,00000.5758,00000.8089,00241.3278,00088.9575
0000000948,-0000.2880,-0000.5211,00000.5950,00000.8417,00241.0684,00088.9077
0000000949,-0000.4858,-0000.6097,00000.6566,00001.0193,00231.4514,00088.5696
0000000950,-0000.5041,-0000.5753,00000.6516,00001.0048,00228.7711,00088.5967
0000000951,-0000.4642,-0000.4925,00000.6013,00000.9053,00226.6940,00088.7584
0000000952,-0000.2987,-0000.4006,00000.5062,00000.7113,00233.2930,00089.0833
0000000953,-0000.4161,-0000.5097,00000.7779,00001.0189,00230.7731,00088.7929
0000000954,-0000.2827,-0000.3873,00000.6347,00000.7955,00233.8719,00089.1202
0000000955,-0000.2256,-0000.3651,00000.5422,00000.6915,00238.2820,00089.2127
0000000956,-0000.5782,-0000.6757,00000.5822,00001.0629,00229.4475,00088.3684
0000000957,-0000.5237,-0000.7214,00000.4967,00001.0204,00234.0217,00088.3645
0000000958,-0000.5039,-0000.7074,00000.4967,00001.0005,00234.5366,00088.4066
0000000959,-0000.4398,-0000.6179,00000.4738,00000.8943,00234.5593,00088.6085
0000000960,-0000.3568,-0000.5572,00000.4486,00000.7994,00237.3685,00088.7861
0000000961,-0000.4865,-0000.6485,00000.6160,00001.0181,00233.1226,00088.5127
0000000962,-0000.5207,-0000.7051,00000.5005,00001.0094,00233.5516,00088.3918
0000000963,-0000.5383,-0000.7559,00000.4497,00001.0312,00234.5410,00088.2974
0000000964,-0000.4193,-0000.6758,00000.4128,00000.8960,00238.1829,00088.5409
0000000965,-0000.2618,-0000.5347,00000.3667,00000.6992,00243.9141,00088.9079
0000000966,-0000.6497,-0000.7076,00000.3998,00001.0405,00227.4432,00088.2374
0000000967,-0000.6354,-0000.7162,00000.3600,00001.0228,00228.4208,00088.2434
0000000968,-0000.5759,-0000.6253,00000.3249,00000.9101,00227.3540,00088.4403
0000000969,-0000.5003,-0000.5513,00000.2889,00000.7986,00227.7800,00088.6341
0000000970,-0000.3773,-0000.5141,00000.2493,00000.6847,00233.7248,00088.8301
0000000971,-0000.4793,-0000.5026,00000.3143,00000.7623,00226.3582,00088.7259
0000000972,-0000.5280,-0000.5457,00000.3307,00000.8282,00225.9456,00088.6068
0000000973,-0000.5744,-0000.8244,00000.3128,00001.0523,00235.1351,00088.1565
0000000974,-0000.5292,-0000.8015,00000.3146,00001.0106,00236.5638,00088.2378
0000000975,-0000.4751,-0000.7239,00000.2853,00000.9117,00236.7205,00088.4114
0000000976,-0000.3944,-0000.6647,00000.2622,00000.8161,00239.3162,00088.5820
0000000977,-0000.3068,-0000.5688,00000.2175,00000.6819,00241.6605,00088.8143
0000000978,-0000.3846,-0000.9199,00000.2575,00001.0298,00247.3138,00088.1705
0000000979,-0000.3336,-0000.8077,00000.2430,00000.9070,00247.5583,00088.3967
0000000980,-0000.5637,-0000.7350,00000.2506,00000.9596,00232.5132,00088.3005
0000000981,-0000.5972,-0000.6829,00000.2018,00000.9294,00228.8295,00088.3355
0000000982,-0000.6475,-0000.7923,00000.2875,00001.0628,00230.7419,00088.1226
0000000983,00000.0951,-0000.4645,00000.8645,00000.9859,00281.5677,00089.1302
0000000984,-0000.0233,-0000.6381,00000.7054,00000.9515,00267.9065,00088.8285
0000000985,00000.0639,-0000.6945,00000.5978,00000.9185,00275.2551,00088.7206
0000000986,-0000.0116,-0000.8336,00000.2339,00000.8659,00269.1993,00088.4704
0000000987,-0000.0185,-0000.9169,00000.2480,00000.9500,00268.8444,00088.3174
0000000988,-0000.0453,-0000.8441,00000.3260,00000.9060,00266.9312,00088.4491
0000000989,00000.1210,-0000.9282,00000.1852,00000.9542,00277.4300,00088.2826
0000000990,-0000.0736,-0000.7576,00000.4067,00000.8630,00264.4545,00088.6035
0000000991,-0000.1038,-0000.9506,00000.1881,00000.9746,00263.7705,00088.2455
0000000992,-0000.1709,-0000.0505,00000.9175,00000.9347,00196.4555,00089.6731
0000000993,-0000.2511,-0000.0216,00000.8757,00000.9112,00184.9193,00089.5376
0000000994,00000.1105,-0000.3958,00000.7683,00000.8713,00285.5984,00089.2461
0000000995,-0000.0221,-0000.5748,00000.5951,00000.8277,00267.7991,00088.9446
0000000996,-0000.1082,-0000.6326,00000.5556,00000.8489,00260.2955,00088.8225
0000000997,00000.4768,-0000.7112,00000.3172,00000.9131,00303.8409,00088.4290
0000000998,00000.2695,-0000.7892,00000.2541,00000.8718,00288.8514,00088.4700
0000000999,00000.3028,-0000.8085,00000.2121,00000.8890,00290.5327,00088.4160
0000001000,00000.1091,-0000.8540,00000.1991,00000.8837,00277.2793,00088.4204
0000001001,-0000.0813,-0000.8316,00000.2001,00000.8592,00264.4146,00088.4670
0000001002,-0000.0245,-0000.5268,00000.5495,00000.7617,00267.3373,00089.0324
0000001003,-0000.1089,-0000.5855,00000.5260,00000.7946,00259.4622,00088.9074
0000001004,-0000.0763,-0000.2158,00000.7445,00000.7789,00250.5249,00089.5801
0000001005,00000.4747,-0000.6420,00000.1883,00000.8203,00306.4777,00088.5351
0000001006,00000.2488,-0000.7098,00000.2176,00000.7830,00289.3151,00088.6201
0000001007,00000.1083,-0000.7602,00000.1890,00000.7908,00278.1057,00088.5913
0000001008,00000.2677,-0000.7144,00000.1871,00000.7855,00290.5454,00088.6003
0000001009,00000.0304,-0000.7388,00000.2131,00000.7695,00272.3578,00088.6434
0000001010,-0000.0586,-0000.7484,00000.2147,00000.7808,00265.5215,00088.6227
0000001011,-0000.1270,-0000.6950,00000.2926,00000.7647,00259.6458,00088.7039
0000001012,-0000.1109,-0000.7557,00000.1627,00000.7810,00261.6489,00088.5986
0000001013,-0000.3767,-0000.6172,00000.2742,00000.7733,00238.5995,00088.6735
0000001014,-0000.3452,-0000.6859,00000.1754,00000.7877,00243.2835,00088.5912
0000001015,-0000.0083,-0000.4992,00000.4862,00000.6969,00269.0500,00089.0840
0000001016,00000.0397,-0000.4805,00000.4989,00000.6938,00274.7265,00089.1155
0000001017,-0000.0441,-0000.4573,00000.5108,00000.6870,00264.4904,00089.1572
0000001018,00000.1191,-0000.5106,00000.4614,00000.6984,00283.1296,00089.0382
0000001019,00000.1141,-0000.3895,00000.5686,00000.6985,00286.3229,00089.2555
0000001020,-0000.1425,-0000.4429,00000.4662,00000.6586,00252.1630,00089.1465
0000001021,-0000.0728,-0000.6570,00000.2203,00000.6968,00263.6800,00088.7873
0000001022,-0000.0520,-0000.6703,00000.2292,00000.7103,00265.5627,00088.7665
0000001023,-0000.0223,-0000.6824,00000.1948,00000.7100,00268.1243,00088.7474
0000001024,00000.0455,-0000.6770,00000.2054,00000.7089,00273.8465,00088.7552
0000001025,-0000.0676,-0000.6129,00000.3315,00000.7001,00263.7080,00088.8687
0000001026,00000.1771,-0000.6356,00000.2086,00000.6920,00285.5678,00088.7895
0000001027,00000.2493,-0000.6516,00000.1810,00000.7207,00290.9364,00088.7201
0000001028,00000.2941,-0000.5690,00000.2688,00000.6947,00297.3292,00088.8249
0000001029,-0000.0432,-0000.1249,00000.6747,00000.6876,00250.9245,00089.7575
0000001030,-0000.5686,00000.0293,00000.8995,00001.0645,00177.0526,00088.9556
0000001031,-0000.5295,00000.0239,00000.8577,00001.0082,00177.4185,00089.0276
0000001032,-0000.4754,00000.0142,00000.7692,00000.9043,00178.2850,00089.1274
0000001033,-0000.3857,00000.0036,00000.6191,00000.7294,00179.4674,00089.2924
0000001034,-0000.3664,00000.0035,00000.5909,00000.6953,00179.4539,00089.3278
0000001035,-0000.3389,00000.0559,00000.9860,00001.0441,00170.6298,00089.3699
0000001036,-0000.2824,00000.0678,00000.8605,00000.9082,00166.4954,00089.4672
0000001037,-0000.2589,00000.0355,00000.7601,00000.8037,00172.1874,00089.5206
0000001038,-0000.2648,00000.0225,00000.6607,00000.7121,00175.1528,00089.5124
0000001039,-0000.2622,00000.0160,00000.6484,00000.6995,00176.5062,00089.5182
0000001040,-0000.2452,00000.0135,00000.6430,00000.6883,00176.8574,00089.5495
0000001041,-0000.6686,00000.0394,00000.8324,00001.0684,00176.6233,00088.7713
0000001042,-0000.6281,00000.0279,00000.7902,00001.0098,00177.4609,00088.8466
0000001043,-0000.5168,-0000.0031,00000.6568,00000.8358,00180.3445,00089.0519
0000001044,-0000.5026,-0000.0068,00000.6414,00000.8149,00180.7700,00089.0778
0000001045,-0000.4363,-0000.0361,00000.5578,00000.7091,00184.7297,00089.1968
0000001046,-0000.6090,00000.4399,00000.7709,00001.0764,00144.1589,00088.6217
0000001047,-0000.5544,00000.4097,00000.7454,00001.0153,00143.5366,00088.7352
0000001048,-0000.4934,00000.3437,00000.6852,00000.9116,00145.1412,00088.8969
0000001049,-0000.4286,00000.2972,00000.6289,00000.8171,00145.2583,00089.0432
0000001050,-0000.3759,00000.2696,00000.5551,00000.7226,00144.3513,00089.1513
0000001051,-0000.3863,00000.2855,00000.9484,00001.0632,00143.5337,00089.1188
0000001052,-0000.3725,00000.2640,00000.9019,00001.0109,00144.6801,00089.1624
0000001053,-0000.3695,00000.2453,00000.7993,00000.9142,00146.4185,00089.1863
0000001054,-0000.3440,00000.2270,00000.6971,00000.8098,00146.5770,00089.2439
0000001055,-0000.3110,00000.1770,00000.5780,00000.6798,00150.3591,00089.3435
0000001056,-0000.4363,00000.1823,00000.6316,00000.7890,00157.3214,00089.1325
0000001057,-0000.5062,00000.1803,00000.6690,00000.8580,00160.3941,00089.0143
0000001058,-0000.7340,00000.0591,00000.7580,00001.0568,00175.3951,00088.6490
0000001059,-0000.6985,00000.0483,00000.7232,00001.0066,00176.0482,00088.7154
0000001060,-0000.6384,00000.0252,00000.6638,00000.9213,00177.7412,00088.8279
0000001061,-0000.6834,00000.3275,00000.7585,00001.0722,00154.3956,00088.6097
0000001062,-0000.6998,00000.3642,00000.6632,00001.0307,00152.5053,00088.5526
0000001063,-0000.6188,00000.3090,00000.6094,00000.9219,00153.4634,00088.7309
0000001064,-0000.5376,00000.2665,00000.5638,00000.8234,00153.6321,00088.8991
0000001065,-0000.4600,00000.1430,00000.4731,00000.6752,00162.7328,00089.1163
0000001066,-0000.5421,00000.1941,00000.8895,00001.0596,00160.3033,00088.9436
0000001067,-0000.5085,00000.1873,00000.8551,00001.0123,00159.7751,00089.0059
0000001068,-0000.4478,00000.1572,00000.7803,00000.9133,00160.6578,00089.1294
0000001069,-0000.4083,00000.0896,00000.6980,00000.8136,00167.6235,00089.2332
0000001070,-0000.3586,00000.0597,00000.6059,00000.7066,00170.5511,00089.3331
0000001071,-0000.5272,00000.0783,00000.7043,00000.8832,00171.5565,00089.0222
0000001072,-0000.4725,00000.0137,00000.9487,00001.0600,00178.3400,00089.1327
0000001073,-0000.4374,00000.0059,00000.9075,00001.0075,00179.2277,00089.1974
0000001074,-0000.3940,-0000.0031,00000.8156,00000.9058,00180.4479,00089.2771
0000001075,-0000.3126,-0000.0642,00000.6494,00000.7235,00191.6142,00089.4146
0000001076,-0000.2968,-0000.0728,00000.6315,00000.7016,00193.7864,00089.4393
0000001077,-0000.6142,-0000.2831,00000.8178,00001.0612,00204.7450,00088.7593
0000001078,-0000.5024,-0000.2812,00000.6985,00000.9052,00209.2349,00088.9438
0000001079,-0000.4326,-0000.2718,00000.6309,00000.8118,00212.1467,00089.0627
0000001080,-0000.3592,-0000.2677,00000.5479,00000.7078,00216.6975,00089.1781
0000001081,-0000.6224,-0000.0622,00000.8621,00001.0651,00185.7042,00088.8525
0000001082,-0000.5698,-0000.0783,00000.8372,00001.0157,00187.8237,00088.9449
0000001083,-0000.5480,-0000.1323,00000.8456,00001.0163,00193.5715,00088.9658
0000001084,-0000.4549,-0000.1695,00000.7652,00000.9062,00200.4324,00089.1094
0000001085,-0000.3741,-0000.1880,00000.6838,00000.8018,00206.6895,00089.2319
0000001086,-0000.3896,-0000.0542,00000.9319,00001.0115,00187.9268,00089.2783
0000001087,-0000.3565,-0000.1358,00000.8168,00000.9015,00200.8591,00089.3002
0000001088,-0000.1949,-0000.0273,00001.0311,00001.0497,00187.9758,00089.6390
0000001089,-0000.1489,-0000.0072,00000.8839,00000.8964,00182.7784,00089.7265
0000001090,-0000.1342,-0000.0180,00000.7552,00000.7672,00187.6607,00089.7516
0000001091,-0000.1201,-0000.0172,00000.6922,00000.7027,00188.1623,00089.7774
0000001092,-0000.3489,00000.3952,00000.9264,00001.0659,00131.4436,00089.0329
0000001093,-0000.3494,00000.4087,00000.9090,00001.0561,00130.5326,00089.0136
0000001094,-0000.3502,00000.3894,00000.8743,00001.0192,00131.9639,00089.0392
0000001095,-0000.3220,00000.3323,00000.7854,00000.9115,00134.0973,00089.1511
0000001096,-0000.2967,00000.2962,00000.6930,00000.8100,00135.0524,00089.2308
0000001097,-0000.2802,00000.2707,00000.6645,00000.7703,00135.9947,00089.2852
0000001098,-0000.2577,00000.2420,00000.6137,00000.7083,00136.8040,00089.3515
0000001099,-0000.2214,00000.1240,00001.0197,00001.0508,00150.7497,00089.5345
0000001100,-0000.1863,00000.1128,00000.9835,00001.0073,00148.7996,00089.6004
0000001101,-0000.1568,00000.0955,00000.8894,00000.9082,00148.6687,00089.6632
0000001102,-0000.1352,00000.0881,00000.8315,00000.8470,00146.9142,00089.7040
0000001103,-0000.1228,00000.0817,00000.7916,00000.8053,00146.3542,00089.7294
0000001104,-0000.1005,00000.0958,00001.0438,00001.0530,00136.3882,00089.7453
0000001105,-0000.0556,00000.1399,00000.9901,00001.0015,00111.6740,00089.7239
0000001106,-0000.0906,00000.3468,00000.8489,00000.9215,00104.6352,00089.3425
0000001107,-0000.0834,00000.3359,00000.8457,00000.9138,00103.9452,00089.3650
0000001108,-0000.1075,00000.3172,00000.8287,00000.8938,00108.7273,00089.3856
0000001109,-0000.0874,00000.2567,00000.7254,00000.7744,00108.7967,00089.5026
0000001110,-0000.0871,00000.1976,00000.6762,00000.7098,00113.8006,00089.6039
0000001111,-0000.3164,00000.1923,00000.7922,00000.8744,00148.7170,00089.3207
0000001112,-0000.2927,00000.1658,00000.7403,00000.8131,00150.4672,00089.3829
0000001113,-0000.3232,00000.1861,00000.8533,00000.9312,00150.0638,00089.3158
0000001114,-0000.3512,00000.2228,00000.9298,00001.0186,00147.6049,00089.2370
0000001115,-0000.2533,00000.1150,00000.6494,00000.7065,00155.5909,00089.4897
0000001116,-0000.1570,00000.1434,00000.6921,00000.7241,00137.5858,00089.6098
0000001117,-0000.1769,00000.3153,00000.8596,00000.9325,00119.2964,00089.3368
0000001118,-0000.3317,00000.2385,00000.8191,00000.9153,00144.2820,00089.2505
0000001119,-0000.4362,00000.3425,00000.8864,00001.0456,00141.8601,00088.9825
0000001120,-0000.4521,00000.3459,00000.8130,00000.9925,00142.5764,00088.9557
0000001121,-0000.5564,00000.2824,00000.6879,00000.9287,00153.0916,00088.8553
0000001122,-0000.6786,00000.2717,00000.7662,00001.0590,00158.1785,00088.6590
0000001123,-0000.4218,00000.1650,00000.5514,00000.7136,00158.6297,00089.1691
0000001124,-0000.2386,00000.3498,00000.9345,00001.0260,00124.2975,00089.2233
0000001125,-0000.9701,-0000.0200,00000.4328,00001.0625,00181.1833,00088.2196
0000001126,-0000.9557,-0000.0197,00000.4594,00001.0606,00181.1788,00088.2461
0000001127,-0000.8985,-0000.0272,00000.4560,00001.0080,00181.7371,00088.3508
0000001128,-0000.7954,-0000.0303,00000.4324,00000.9059,00182.1782,00088.5396
0000001129,-0000.7139,-0000.0266,00000.4108,00000.8241,00182.1310,00088.6893
0000001130,-0000.6412,-0000.0367,00000.3926,00000.7527,00183.2795,00088.8218
0000001131,-0000.7554,-0000.0214,00000.4803,00000.8954,00181.6229,00088.6135
0000001132,-0000.6922,00000.0253,00000.4739,00000.8393,00177.9031,00088.7292
0000001133,-0000.8073,00000.1023,00000.4834,00000.9465,00172.7784,00088.5071
0000001134,-0000.9170,00000.1358,00000.4968,00001.0517,00171.5736,00088.2992
0000001135,-0000.8482,00000.1456,00000.6354,00001.0698,00170.2592,00088.4210
0000001136,-0000.8009,00000.1263,00000.6340,00001.0293,00171.0362,00088.5124
0000001137,-0000.6746,00000.1153,00000.5643,00000.8871,00170.3049,00088.7443
0000001138,-0000.6230,00000.0962,00000.5319,00000.8248,00171.2265,00088.8435
0000001139,-0000.6098,00000.0779,00000.5183,00000.8040,00172.7179,00088.8722
0000001140,-0000.5951,00000.0426,00000.5017,00000.7795,00175.9075,00088.9054
0000001141,-0000.7833,00000.1939,00000.7005,00001.0686,00166.0957,00088.5195
0000001142,-0000.7713,00000.1566,00000.6553,00001.0241,00168.5251,00088.5561
0000001143,-0000.5576,00000.0948,00000.4425,00000.7181,00170.3507,00088.9623
0000001144,-0000.9175,-0000.2688,00000.4989,00001.0784,00196.3301,00088.2459
0000001145,-0000.8643,-0000.2703,00000.4755,00001.0228,00197.3648,00088.3386
0000001146,-0000.7578,-0000.2635,00000.4335,00000.9119,00199.1730,00088.5280
0000001147,-0000.6695,-0000.2495,00000.4122,00000.8248,00200.4363,00088.6892
0000001148,-0000.5828,-0000.2445,00000.3721,00000.7334,00202.7635,00088.8405
0000001149,-0000.5633,-0000.2400,00000.3596,00000.7101,00203.0765,00088.8766
0000001150,-0000.5260,-0000.2005,00000.4527,00000.7224,00200.8672,00088.9673
0000001151,-0000.6318,-0000.1831,00000.5472,00000.8556,00196.1653,00088.7932
0000001152,-0000.6714,-0000.1863,00000.5618,00000.8950,00195.5048,00088.7217
0000001153,-0000.7267,-0000.1949,00000.5997,00000.9622,00195.0129,00088.6196
0000001154,-0000.7603,-0000.1903,00000.6317,00001.0067,00194.0555,00088.5620
0000001155,-0000.8033,-0000.1923,00000.6580,00001.0560,00193.4603,00088.4846
0000001156,-0000.7425,-0000.1029,00000.7528,00001.0623,00187.8907,00088.6247
0000001157,-0000.7013,-0000.1029,00000.7359,00001.0218,00188.3472,00088.6995
0000001158,-0000.5466,-0000.1644,00000.5761,00000.8110,00196.7436,00088.9529
0000001159,-0000.4384,-0000.1796,00000.4804,00000.6747,00202.2728,00089.1308
0000001160,-0000.4748,-0000.2626,00000.5063,00000.7421,00208.9475,00089.0047
0000001161,-0000.5635,-0000.3180,00000.5456,00000.8464,00209.4402,00088.8129
0000001162,-0000.6336,-0000.3396,00000.5982,00000.9352,00208.1869,00088.6812
0000001163,-0000.7146,-0000.3644,00000.6608,00001.0393,00207.0156,00088.5283
0000001164,-0000.7852,-0000.3984,00000.6103,00001.0713,00206.9019,00088.3845
0000001165,-0000.7337,-0000.3880,00000.5845,00001.0151,00207.8668,00088.4772
0000001166,-0000.6484,-0000.3526,00000.5463,00000.9183,00208.5341,00088.6458
0000001167,-0000.9700,-0000.0981,00000.3573,00001.0383,00185.7725,00088.2112
0000001168,-0000.8787,-0000.0397,00000.3236,00000.9373,00182.5887,00088.3861
0000001169,-0000.7553,-0000.0309,00000.2812,00000.8065,00182.3392,00088.6132
0000001170,-0000.9372,-0000.0708,00000.5164,00001.0724,00184.3174,00088.2755
0000001171,-0000.8785,-0000.0751,00000.5145,00001.0208,00184.8868,00088.3823
0000001172,-0000.8051,-0000.0618,00000.4683,00000.9335,00184.3902,00088.5185
0000001173,-0000.7051,-0000.0825,00000.4184,00000.8240,00186.6758,00088.6975
0000001174,-0000.8251,-0000.0420,00000.5472,00000.9910,00182.9172,00088.4842
0000001175,-0000.8575,-0000.0278,00000.6094,00001.0523,00181.8571,00088.4259
0000001176,-0000.5966,-0000.0399,00000.4033,00000.7213,00183.8286,00088.9030
0000001177,-0001.0103,-0000.0147,00000.2421,00001.0390,00180.8309,00088.1460
0000001178,-0001.0480,00000.0085,00000.2987,00001.0898,00179.5364,00088.0770
0000001179,-0000.9286,-0000.3068,00000.3277,00001.0315,00198.2805,00088.2056
0000001180,-0000.9156,-0000.3117,00000.3467,00001.0274,00198.7987,00088.2255
0000001181,-0000.8866,-0000.3985,00000.3628,00001.0375,00204.2043,00088.2166
0000001182,-0000.7721,-0000.3663,00000.3479,00000.9227,00205.3810,00088.4320
0000001183,-0000.6911,-0000.3485,00000.3013,00000.8306,00206.7588,00088.5799
0000001184,-0000.6755,-0000.3469,00000.2945,00000.8145,00207.1826,00088.6068
0000001185,-0000.5612,-0000.3038,00000.2786,00000.6963,00208.4234,00088.8292
0000001186,-0000.9737,-0000.3216,00000.3278,00001.0765,00198.2794,00088.1186
0000001187,-0000.9601,-0000.3174,00000.3157,00001.0593,00198.2916,00088.1447
0000001188,-0000.9252,-0000.3056,00000.3023,00001.0202,00198.2790,00088.2123
0000001189,-0000.9575,-0000.1365,00000.2830,00001.0078,00188.1141,00088.2254
0000001190,-0001.0213,-0000.1891,00000.2804,00001.0758,00190.4883,00088.0943
0000001191,-0000.8136,-0000.4264,00000.3817,00000.9947,00207.6588,00088.3147
0000001192,-0000.8177,-0000.4847,00000.4018,00001.0320,00210.6564,00088.2559
0000001193,-0000.7191,-0000.4196,00000.3851,00000.9173,00210.2635,00088.4725
0000001194,-0000.5551,-0000.3921,00000.3315,00000.7562,00215.2329,00088.7531
0000001195,-0000.5154,-0000.3827,00000.3205,00000.7175,00216.5935,00088.8223
0000001196,-0000.7513,-0000.5149,00000.5500,00001.0640,00214.4228,00088.3289
0000001197,-0000.7525,-0000.5410,00000.4662,00001.0374,00215.7104,00088.2996
0000001198,-0000.7594,-0000.5738,00000.3788,00001.0244,00217.0767,00088.2537
0000001199,-0000.7569,-0000.5696,00000.3218,00001.0005,00216.9612,00088.2619
0000001200,-0000.8066,-0000.5986,00000.3368,00001.0594,00216.5794,00088.1571
min,-0001.0480,-0001.0175,00000.1392,00000.6508,00000.3192,00088.0615
max,00001.0124,00001.0388,00001.0438,00001.0944,00359.4288,00089.8951
mean,00000.0046,00000.0019,00000.5270,00000.8923,00180.1689,00088.7842
std,00000.4939,00000.4947,00000.2139,00000.1264,00104.6949,00000.4086
