,x,y,z,distance,azimuth,elevation
0000000000,00000.4339,-0000.6381,00000.5685,00000.9584,00304.2131,00088.5602
0000000001,00000.5291,-0000.6223,00000.5927,00001.0092,00310.3739,00088.4757
0000000002,00000.4531,-0000.6777,00000.5509,00000.9840,00303.7660,00088.4787
0000000003,00000.4379,-0000.5311,00000.5141,00000.8591,00309.5046,00088.7156
0000000004,00000.6131,-0000.3515,00000.5063,00000.8694,00330.1722,00088.6812
0000000005,00000.5369,-0000.3054,00000.4660,00000.7738,00330.3725,00088.8474
0000000006,00000.9989,-0000.0690,00000.2530,00001.0327,00356.0505,00088.1315
0000000007,00000.9480,-0000.0625,00000.2412,00000.9802,00356.2303,00088.2271
0000000008,00000.8754,-0000.0686,00000.2275,00000.9071,00355.5202,00088.3614
0000000009,00000.7643,-0000.0604,00000.2104,00000.7951,00355.4843,00088.5693
0000000010,00000.6679,-0000.0462,00000.1962,00000.6976,00356.0458,00088.7508
0000000011,00001.0171,00000.0325,00000.2557,00001.0493,00001.8282,00088.1010
0000000012,00000.9627,00000.0278,00000.2497,00000.9949,00001.6559,00088.2028
0000000013,00000.9227,-0000.0613,00000.4569,00001.0314,00356.2001,00088.2745
0000000014,00000.8651,-0000.0483,00000.4170,00000.9615,00356.8053,00088.3833
0000000015,00000.7996,-0000.0522,00000.3843,00000.8887,00356.2631,00088.5047
0000000016,00000.6900,-0000.0376,00000.3349,00000.7679,00356.8815,00088.7105
0000000017,00000.6060,-0000.0220,00000.2793,00000.6676,00357.9173,00088.8686
0000000018,00000.9551,00000.2093,00000.3770,00001.0480,00012.3626,00088.1753
0000000019,00000.9373,00000.1691,00000.4073,00001.0359,00010.2299,00088.2227
0000000020,00000.8843,00000.1605,00000.3880,00000.9789,00010.2878,00088.3230
0000000021,00000.7788,00000.1418,00000.3351,00000.8596,00010.3226,00088.5229
0000000022,00000.6871,00000.1287,00000.3068,00000.7634,00010.6070,00088.6956
0000000023,00000.5975,00000.1426,00000.2673,00000.6699,00013.4268,00088.8538
0000000024,00000.8776,00000.1353,00000.5327,00001.0355,00008.7612,00088.3430
0000000025,00000.8268,00000.1432,00000.5101,00000.9820,00009.8233,00088.4342
0000000026,00000.6818,00000.1853,00000.3967,00000.8103,00015.2068,00088.6815
0000000027,00000.6565,00000.1849,00000.3809,00000.7812,00015.7337,00088.7274
0000000028,00000.5798,00000.1822,00000.3282,00000.6907,00017.4449,00088.8659
0000000029,00001.0393,00000.1093,00000.2004,00001.0641,00006.0062,00088.0498
0000000030,00000.9569,00000.1186,00000.1982,00000.9844,00007.0630,00088.2007
0000000031,00000.8640,00000.0883,00000.1992,00000.8911,00005.8379,00088.3793
0000000032,00000.7762,00000.0780,00000.1954,00000.8042,00005.7407,00088.5444
0000000033,00000.6586,00000.0805,00000.1884,00000.6897,00006.9669,00088.7620
0000000034,00000.9891,00000.0892,00000.3423,00001.0505,00005.1551,00088.1467
0000000035,00000.9363,00000.1026,00000.3274,00000.9972,00006.2533,00088.2422
0000000036,00000.7294,00000.3891,00000.6148,00001.0302,00028.0819,00088.4574
0000000037,00000.6948,00000.3751,00000.5911,00000.9863,00028.3608,00088.5267
0000000038,00000.4450,00000.2680,00000.4100,00000.6618,00031.0610,00089.0307
0000000039,00000.4279,00000.2780,00000.4000,00000.6484,00033.0117,00089.0480
0000000040,00000.7276,00000.5234,00000.5303,00001.0415,00035.7303,00088.3274
0000000041,00000.6884,00000.5039,00000.5026,00000.9902,00036.2055,00088.4080
0000000042,00000.6153,00000.4522,00000.4456,00000.8841,00036.3134,00088.5752
0000000043,00000.5315,00000.4091,00000.4137,00000.7881,00037.5893,00088.7485
0000000044,00000.9177,00000.3413,00000.3849,00001.0521,00020.4007,00088.1728
0000000045,00000.8560,00000.3209,00000.3688,00000.9857,00020.5518,00088.2942
0000000046,00000.7816,00000.2854,00000.3452,00000.9008,00020.0580,00088.4474
0000000047,00000.6825,00000.2640,00000.3173,00000.7976,00021.1466,00088.6345
0000000048,00000.5820,00000.2543,00000.2877,00000.6972,00023.5996,00088.8150
0000000049,00000.8527,00000.2062,00000.5429,00001.0316,00013.5924,00088.3630
0000000050,00000.8085,00000.2140,00000.5225,00000.9862,00014.8277,00088.4393
0000000051,00000.9209,00000.3578,00000.2506,00001.0193,00021.2349,00088.1563
0000000052,00000.9407,00000.3271,00000.1843,00001.0129,00019.1741,00088.1413
0000000053,00000.9414,00000.4223,00000.2019,00001.0514,00024.1577,00088.0745
0000000054,00000.9210,00000.4053,00000.2307,00001.0323,00023.7554,00088.1223
0000000055,00000.8951,00000.3987,00000.2297,00001.0065,00024.0103,00088.1713
0000000056,00000.8133,00000.3578,00000.2127,00000.9136,00023.7489,00088.3420
0000000057,00000.7027,00000.3194,00000.2084,00000.7995,00024.4411,00088.5597
0000000058,00000.6036,00000.2800,00000.1902,00000.6920,00024.8890,00088.7585
0000000059,00000.8333,00000.4720,00000.3370,00001.0152,00029.5290,00088.2129
0000000060,00000.8183,00000.4592,00000.3349,00000.9963,00029.3007,00088.2489
0000000061,00000.7485,00000.4103,00000.3116,00000.9087,00028.7270,00088.4072
0000000062,00000.6153,00000.3445,00000.2924,00000.7634,00029.2464,00088.6841
0000000063,00000.5131,00000.2995,00000.2666,00000.6512,00030.2718,00088.8915
0000000064,00000.7544,00000.5609,00000.2327,00000.9685,00036.6314,00088.2456
0000000065,00000.8526,00000.5403,00000.3001,00001.0531,00032.3621,00088.1163
0000000066,00000.6942,00000.4881,00000.2486,00000.8843,00035.1124,00088.4164
0000000067,00000.5875,00000.4360,00000.2238,00000.7651,00036.5787,00088.6348
0000000068,00000.5367,00000.4075,00000.2153,00000.7074,00037.2092,00088.7426
0000000069,00000.5666,00000.4221,00000.2304,00000.7432,00036.6894,00088.6816
0000000070,00000.8567,00000.5771,00000.1760,00001.0478,00033.9621,00088.0724
0000000071,00000.8131,00000.5808,00000.1286,00001.0075,00035.5409,00088.1353
0000000072,00000.7260,00000.5402,00000.1169,00000.9125,00036.6499,00088.3113
0000000073,00000.6483,00000.5035,00000.1057,00000.8276,00037.8330,00088.4683
0000000074,00000.5363,00000.4541,00000.1018,00000.7100,00040.2551,00088.6888
0000000075,00000.5512,00000.4613,00000.1234,00000.7292,00039.9272,00088.6589
0000000076,00000.7152,00000.6694,00000.3975,00001.0571,00043.1049,00088.1720
0000000077,00000.6901,00000.6103,00000.3962,00001.0029,00041.4855,00088.2809
0000000078,00000.6080,00000.5488,00000.3647,00000.8966,00042.0717,00088.4716
0000000079,00000.4537,00000.4414,00000.2911,00000.6967,00044.2090,00088.8189
0000000080,00000.4234,00000.4225,00000.2694,00000.6559,00044.9404,00088.8840
0000000081,00000.7585,00000.6776,00000.2776,00001.0543,00041.7777,00088.1020
0000000082,00000.7577,00000.6677,00000.1707,00001.0242,00041.3855,00088.1154
0000000083,00000.6640,00000.5986,00000.1947,00000.9150,00042.0345,00088.3317
0000000084,00000.6411,00000.6767,00000.3864,00001.0090,00046.5457,00088.2606
0000000085,00000.6440,00000.7042,00000.4013,00001.0352,00047.5557,00088.2193
0000000086,00000.5521,00000.6177,00000.3584,00000.9027,00048.2100,00088.4540
0000000087,00000.4939,00000.5490,00000.3069,00000.7997,00048.0218,00088.6220
0000000088,00000.5715,00000.5790,00000.6075,00001.0153,00045.3762,00088.4820
0000000089,00000.5493,00000.5740,00000.5859,00000.9872,00046.2600,00088.5174
0000000090,00000.4561,00000.5333,00000.4864,00000.8538,00049.4625,00088.6905
0000000091,00000.3385,00000.4835,00000.3581,00000.6903,00055.0058,00088.8987
0000000092,00000.6299,00000.6753,00000.2499,00000.9566,00046.9933,00088.2768
0000000093,00000.6512,00000.7959,00000.2769,00001.0650,00050.7105,00088.0809
0000000094,00000.5597,00000.6784,00000.2440,00000.9127,00050.4777,00088.3588
0000000095,00000.4939,00000.6022,00000.2276,00000.8115,00050.6430,00088.5466
0000000096,00000.4126,00000.5520,00000.2041,00000.7188,00053.2197,00088.7140
0000000097,00000.6759,00000.7539,00000.1594,00001.0250,00048.1213,00088.1105
0000000098,00000.6690,00000.7967,00000.2145,00001.0622,00049.9820,00088.0586
0000000099,00000.5708,00000.7074,00000.1899,00000.9285,00051.1004,00088.3039
0000000100,00000.4687,00000.7852,00000.5153,00001.0496,00059.1679,00088.2937
0000000101,00000.4607,00000.7218,00000.4960,00000.9896,00057.4485,00088.4022
0000000102,00000.4161,00000.6492,00000.4525,00000.8941,00057.3470,00088.5611
0000000103,00000.3483,00000.5758,00000.4054,00000.7857,00058.8295,00088.7443
0000000104,00000.3700,00000.7462,00000.5766,00001.0131,00063.6253,00088.4457
0000000105,00000.3331,00000.7091,00000.6065,00000.9908,00064.8351,00088.5381
0000000106,00000.2949,00000.6564,00000.5278,00000.8923,00065.8061,00088.6573
0000000107,00000.2226,00000.6079,00000.4342,00000.7795,00069.8851,00088.7920
0000000108,00000.1877,00000.5841,00000.3520,00000.7074,00072.1859,00088.8552
0000000109,00000.1827,00000.5807,00000.3433,00000.6989,00072.5390,00088.8640
0000000110,00000.1690,00000.5647,00000.4450,00000.7386,00073.3365,00088.9001
0000000111,00000.3345,00000.6030,00000.6909,00000.9762,00060.9806,00088.7132
0000000112,00000.3948,00000.6247,00000.6709,00000.9981,00057.7079,00088.6210
0000000113,00000.3333,00000.6266,00000.5222,00000.8812,00061.9885,00088.6756
0000000114,00000.2223,00000.5169,00000.3861,00000.6824,00066.7281,00088.9501
0000000115,00000.2996,00000.9549,00000.3199,00001.0507,00072.5801,00088.1324
0000000116,00000.2832,00000.9248,00000.3270,00001.0209,00072.9721,00088.1952
0000000117,00000.3878,00000.9338,00000.3341,00001.0649,00067.4482,00088.1130
0000000118,00000.3683,00000.8928,00000.3137,00001.0155,00067.5825,00088.1977
0000000119,00000.3273,00000.8106,00000.2707,00000.9151,00068.0159,00088.3687
0000000120,00000.2676,00000.7413,00000.2409,00000.8241,00070.1549,00088.5294
0000000121,00000.2508,00000.7174,00000.2365,00000.7959,00070.7275,00088.5820
0000000122,00000.2060,00000.6538,00000.2184,00000.7194,00072.5098,00088.7210
0000000123,00000.3443,00000.9131,00000.4208,00001.0627,00069.3408,00088.1789
0000000124,00000.3300,00000.8227,00000.3774,00000.9634,00068.1431,00088.3459
0000000125,00000.2608,00000.7433,00000.2576,00000.8288,00070.6652,00088.5300
0000000126,00000.5042,00000.8706,00000.3553,00001.0670,00059.9204,00088.1226
0000000127,00000.5083,00000.8847,00000.3152,00001.0679,00060.1213,00088.0960
0000000128,00000.4847,00000.8509,00000.2982,00001.0237,00060.3315,00088.1725
0000000129,00000.4324,00000.7657,00000.2586,00000.9166,00060.5462,00088.3590
0000000130,00000.2702,00000.6461,00000.1555,00000.7173,00067.3061,00088.6933
0000000131,00000.4202,00000.9117,00000.1827,00001.0203,00065.2540,00088.1267
0000000132,00000.4277,00000.9314,00000.1912,00001.0426,00065.3353,00088.0873
0000000133,00000.3749,00000.8378,00000.1687,00000.9333,00065.8898,00088.2872
0000000134,00000.3022,00000.7393,00000.1553,00000.8136,00067.7665,00088.5097
0000000135,00000.8357,-0000.3834,00000.4256,00001.0131,00335.3574,00088.2843
0000000136,00000.7875,-0000.3738,00000.4088,00000.9628,00334.6039,00088.3734
0000000137,00000.6963,-0000.3280,00000.3702,00000.8541,00334.7762,00088.5637
0000000138,00000.6170,-0000.2824,00000.3349,00000.7567,00335.4081,00088.7339
0000000139,00000.5339,-0000.2372,00000.3104,00000.6616,00336.0403,00088.9099
0000000140,00000.5071,-0000.1784,00000.3469,00000.6398,00340.6212,00088.9970
0000000141,00000.8414,-0000.1587,00000.5019,00000.9925,00349.3180,00088.4021
0000000142,00000.7799,-0000.1463,00000.5262,00000.9521,00349.3751,00088.5192
0000000143,00000.7672,-0000.1535,00000.5196,00000.9392,00348.6832,00088.5401
0000000144,00000.7062,-0000.1922,00000.4722,00000.8710,00344.7747,00088.6343
0000000145,00000.6330,-0000.1879,00000.4120,00000.7783,00343.4666,00088.7679
0000000146,00000.7902,-0000.2495,00000.6048,00001.0258,00342.4771,00088.4538
0000000147,00000.8784,-0000.4294,00000.2997,00001.0226,00333.9501,00088.1754
0000000148,00000.8645,-0000.4045,00000.2689,00000.9916,00334.9244,00088.2188
0000000149,00000.7600,-0000.3648,00000.2692,00000.8849,00334.3603,00088.4270
0000000150,00000.6691,-0000.3403,00000.2612,00000.7948,00333.0426,00088.5993
0000000151,00000.6478,-0000.3294,00000.2585,00000.7714,00333.0503,00088.6439
0000000152,00000.5712,-0000.2884,00000.2392,00000.6832,00333.2109,00088.8060
0000000153,00000.7275,-0000.3514,00000.3553,00000.8826,00334.2167,00088.4923
0000000154,00000.7478,-0000.3758,00000.3638,00000.9126,00333.3172,00088.4382
0000000155,00000.8478,-0000.4303,00000.3755,00001.0222,00333.0875,00088.2258
0000000156,00000.5608,-0000.2800,00000.3039,00000.6966,00333.4704,00088.8303
0000000157,00000.9036,-0000.2567,00000.3842,00001.0149,00344.1427,00088.2472
0000000158,00000.9041,-0000.2575,00000.3269,00000.9952,00344.1050,00088.2458
0000000159,00000.5801,-0000.1832,00000.2897,00000.6738,00342.4702,00088.8649
0000000160,00000.9671,-0000.3041,00000.2636,00001.0475,00342.5454,00088.1081
0000000161,00000.8277,-0000.2217,00000.2393,00000.8897,00345.0044,00088.4010
0000000162,00000.6648,-0000.1955,00000.2530,00000.7377,00343.6102,00088.7070
0000000163,00001.0055,-0000.1909,00000.1832,00001.0397,00349.2483,00088.0901
0000000164,00000.9776,-0000.1703,00000.1795,00001.0084,00350.1166,00088.1483
0000000165,00000.8535,-0000.1262,00000.2142,00000.8890,00351.5904,00088.3900
0000000166,00000.8385,-0000.5323,00000.3266,00001.0455,00327.5947,00088.1465
0000000167,00000.7562,-0000.4619,00000.2855,00000.9310,00328.5787,00088.3465
0000000168,00000.7270,-0000.4485,00000.2800,00000.8989,00328.3301,00088.4061
0000000169,00000.7577,-0000.5671,00000.4276,00001.0385,00323.1857,00088.2339
0000000170,00000.6274,-0000.4509,00000.4018,00000.8709,00324.2968,00088.5583
0000000171,00000.5526,-0000.3966,00000.3674,00000.7731,00324.3337,00088.7308
0000000172,00000.4533,-0000.3275,00000.3046,00000.6368,00324.1538,00088.9566
0000000173,00000.6428,-0000.4616,00000.2646,00000.8345,00324.3177,00088.5232
0000000174,00000.6041,-0000.4402,00000.2505,00000.7883,00323.9234,00088.6052
0000000175,00000.9530,-0000.3974,00000.2041,00001.0525,00337.3661,00088.0732
0000000176,00000.9074,-0000.3825,00000.2190,00001.0088,00337.1411,00088.1624
0000000177,00000.8878,-0000.3603,00000.2032,00000.9795,00337.9124,00088.2120
0000000178,00000.6240,-0000.2311,00000.1997,00000.6947,00339.6818,00088.7584
0000000179,00000.7078,-0000.6380,00000.2511,00000.9855,00317.9681,00088.2218
0000000180,00000.6617,-0000.5732,00000.2043,00000.8990,00319.1017,00088.3664
0000000181,00000.5320,-0000.3924,00000.2052,00000.6922,00323.5868,00088.7664
0000000182,00000.5193,-0000.3580,00000.2012,00000.6621,00325.4156,00088.8231
0000000183,00000.7283,00000.0200,00000.4894,00000.8777,00001.5744,00088.6405
0000000184,00000.6290,-0000.0536,00000.4270,00000.7621,00355.1282,00088.8221
0000000185,00000.4494,-0000.4319,00000.4037,00000.7426,00316.1372,00088.8370
0000000186,00000.4041,-0000.3611,00000.3479,00000.6440,00318.2166,00088.9888
0000000187,00000.5768,-0000.6704,00000.5036,00001.0177,00310.7061,00088.3497
0000000188,00000.5254,-0000.6909,00000.4552,00000.9801,00307.2484,00088.3803
0000000189,00000.4761,-0000.6227,00000.3938,00000.8773,00307.3993,00088.5372
0000000190,00000.4117,-0000.5369,00000.3558,00000.7644,00307.4797,00088.7375
0000000191,00000.3616,-0000.4650,00000.3229,00000.6718,00307.8722,00088.9008
0000000192,00000.5837,-0000.7210,00000.2853,00000.9705,00308.9955,00088.2689
0000000193,00000.6741,-0000.7216,00000.2897,00001.0291,00313.0529,00088.1573
0000000194,00000.5446,-0000.6458,00000.2669,00000.8860,00310.1383,00088.4236
0000000195,00000.4636,-0000.5624,00000.2528,00000.7714,00309.4990,00088.6400
0000000196,00000.4229,-0000.4879,00000.2305,00000.6856,00310.9231,00088.7952
0000000197,00000.6473,-0000.7264,00000.2035,00000.9940,00311.7037,00088.1843
0000000198,00000.7181,-0000.7111,00000.2645,00001.0447,00315.2784,00088.1141
0000000199,00000.1354,00000.1553,00000.8916,00000.9151,00048.9267,00089.6156
0000000200,00000.0525,00000.0361,00000.8574,00000.8598,00034.5542,00089.8811
0000000201,00000.0373,00000.0323,00000.8517,00000.8531,00040.8938,00089.9081
0000000202,00000.0618,00000.2465,00000.8800,00000.9159,00075.9227,00089.5259
0000000203,00000.1788,00000.4940,00000.8516,00001.0007,00070.1041,00089.0197
0000000204,00000.1593,00000.5676,00000.7759,00000.9744,00074.3272,00088.9000
0000000205,00000.0747,00000.4929,00000.7979,00000.9409,00081.3874,00089.0698
0000000206,00000.2629,00000.6030,00000.7566,00001.0025,00066.4448,00088.7726
0000000207,00000.2496,00000.5902,00000.7382,00000.9775,00067.0776,00088.8044
0000000208,00000.5772,-0000.1069,00000.6399,00000.8684,00349.5100,00088.9047
0000000209,00000.4490,00000.0011,00000.7918,00000.9102,00000.1378,00089.1623
0000000210,00000.7787,-0000.2027,00000.3562,00000.8800,00345.4071,00088.4985
0000000211,00000.7758,-0000.2079,00000.4001,00000.8973,00345.0017,00088.5013
0000000212,00000.8036,00000.2143,00000.3210,00000.8914,00014.9327,00088.4481
0000000213,00000.8236,00000.2535,00000.2843,00000.9074,00017.1100,00088.3920
0000000214,00000.8518,00000.3862,00000.2070,00000.9579,00024.3898,00088.2548
0000000215,00000.4977,00000.7293,00000.3732,00000.9586,00055.6889,00088.3524
0000000216,00000.6017,-0000.5981,00000.3435,00000.9153,00315.1704,00088.4169
0000000217,00000.4113,-0000.5945,00000.3709,00000.8125,00304.6737,00088.6511
0000000218,00000.3334,-0000.6475,00000.3700,00000.8169,00297.2470,00088.6411
0000000219,00000.3742,-0000.6773,00000.3777,00000.8610,00298.9185,00088.5562
0000000220,00000.3431,-0000.5902,00000.3663,00000.7747,00300.1747,00088.7262
0000000221,00000.4625,-0000.6758,00000.3772,00000.9016,00304.3853,00088.4718
0000000222,00000.4517,-0000.7240,00000.2618,00000.8926,00301.9584,00088.4075
0000000223,00000.0690,00000.1727,00000.7280,00000.7514,00068.2159,00089.6531
0000000224,00000.0561,00000.1592,00000.7389,00000.7579,00070.5960,00089.6850
0000000225,00000.1569,00000.4330,00000.7220,00000.8564,00070.0865,00089.1407
0000000226,00000.0941,00000.3723,00000.7731,00000.8633,00075.8196,00089.2835
0000000227,00000.0584,00000.3055,00000.7954,00000.8541,00079.1839,00089.4197
0000000228,00000.2040,00000.5390,00000.6541,00000.8718,00069.2686,00088.9246
0000000229,00000.2464,-0000.0136,00000.7381,00000.7783,00356.8456,00089.5395
0000000230,00000.3529,00000.1533,00000.7415,00000.8354,00023.4843,00089.2821
0000000231,00000.6126,00000.0924,00000.5498,00000.8283,00008.5802,00088.8440
0000000232,00000.6320,00000.2938,00000.4889,00000.8513,00024.9323,00088.6996
0000000233,00000.6986,-0000.0812,00000.4294,00000.8240,00353.3702,00088.6876
0000000234,00000.8707,00000.0449,00000.2132,00000.8975,00002.9546,00088.3732
0000000235,00000.8253,00000.2109,00000.1739,00000.8694,00014.3386,00088.4105
0000000236,00000.8653,00000.2511,00000.1703,00000.9170,00016.1801,00088.3186
0000000237,00000.7675,00000.3917,00000.1935,00000.8831,00027.0374,00088.3921
0000000238,00000.8083,-0000.2914,00000.1818,00000.8782,00340.1771,00088.3967
0000000239,00000.7551,-0000.3891,00000.1988,00000.8724,00332.7361,00088.4149
0000000240,00000.7011,-0000.3658,00000.1611,00000.8070,00332.4490,00088.5244
0000000241,00000.2794,-0000.4658,00000.5299,00000.7589,00300.9593,00088.9864
0000000242,00000.2771,-0000.4897,00000.5454,00000.7836,00299.5093,00088.9501
0000000243,00000.1556,-0000.2130,00000.6895,00000.7382,00306.1490,00089.5077
0000000244,00000.1300,-0000.2243,00000.7189,00000.7642,00300.0863,00089.5163
0000000245,00000.1366,-0000.3300,00000.6778,00000.7661,00292.4868,00089.3337
0000000246,00000.1324,00000.2437,00000.6855,00000.7395,00061.4912,00089.4826
0000000247,00000.1819,00000.4172,00000.6145,00000.7647,00066.4423,00089.1507
0000000248,00000.0930,00000.3007,00000.6798,00000.7492,00072.8216,00089.4128
0000000249,00000.0277,00000.1865,00000.7105,00000.7351,00081.5439,00089.6482
0000000250,00000.2442,00000.4850,00000.5329,00000.7608,00063.2702,00088.9868
0000000251,00000.4326,00000.7002,00000.3405,00000.8908,00058.2912,00088.4641
0000000252,00000.3336,00000.6337,00000.3245,00000.7863,00062.2389,00088.6636
0000000253,00000.3206,00000.6225,00000.3094,00000.7656,00062.7511,00088.6934
0000000254,00000.3489,00000.7154,00000.1481,00000.8096,00063.9993,00088.5148
0000000255,00000.2525,00000.7478,00000.1533,00000.8040,00071.3441,00088.5273
0000000256,00000.4897,00000.3285,00000.3812,00000.7022,00033.8587,00088.8998
0000000257,00000.6299,00000.0217,00000.4529,00000.7761,00001.9753,00088.8239
0000000258,00000.5467,-0000.0040,00000.5429,00000.7705,00359.5759,00088.9799
0000000259,00000.6061,00000.1097,00000.4697,00000.7746,00010.2617,00088.8506
0000000260,00000.7703,00000.2200,00000.1383,00000.8130,00015.9395,00088.5051
0000000261,00000.7215,00000.1983,00000.1591,00000.7650,00015.3720,00088.6038
0000000262,00000.7330,00000.1510,00000.1662,00000.7667,00011.6395,00088.6034
0000000263,00000.7147,00000.0063,00000.1736,00000.7355,00000.5076,00088.6664
0000000264,00000.6886,-0000.1150,00000.1477,00000.7136,00350.5219,00088.6973
0000000265,00000.6786,-0000.1238,00000.1438,00000.7046,00349.6581,00088.7129
0000000266,00000.6590,-0000.1320,00000.1775,00000.6952,00348.6777,00088.7459
0000000267,00000.6436,-0000.1323,00000.2517,00000.7037,00348.3811,00088.7739
0000000268,00000.6277,-0000.1172,00000.2536,00000.6871,00349.4250,00088.8085
0000000269,00000.2197,-0000.3133,00000.5725,00000.6886,00305.0343,00089.2860
0000000270,00000.0413,-0000.0152,00000.7216,00000.7230,00339.8038,00089.9180
0000000271,00000.3835,-0000.6353,00000.2668,00000.7886,00301.1187,00088.6153
0000000272,00000.4316,-0000.6531,00000.1858,00000.8046,00303.4564,00088.5392
0000000273,00000.5507,-0000.5343,00000.1662,00000.7851,00315.8656,00088.5682
0000000274,00000.5724,-0000.4315,00000.1447,00000.7312,00322.9903,00088.6625
0000000275,00000.2285,00000.0941,00000.6075,00000.6559,00022.3813,00089.5389
0000000276,00000.2423,00000.0231,00000.6080,00000.6550,00005.4521,00089.5458
0000000277,00000.1181,00000.2307,00000.5912,00000.6455,00062.8924,00089.5165
0000000278,00000.0984,00000.3350,00000.5401,00000.6431,00073.6324,00089.3486
0000000279,00000.5464,-0000.0282,00000.3775,00000.6647,00357.0449,00088.9791
0000000280,00000.5449,00000.0365,00000.3712,00000.6603,00003.8294,00088.9810
0000000281,00000.4848,00000.0743,00000.3984,00000.6319,00008.7135,00089.0849
0000000282,00000.6999,00000.0063,00000.1276,00000.7114,00000.5171,00088.6940
0000000283,00000.6880,00000.0915,00000.1436,00000.7088,00007.5759,00088.7048
0000000284,00000.6387,00000.1817,00000.1770,00000.6873,00015.8771,00088.7609
0000000285,00000.5049,00000.2411,00000.3361,00000.6527,00025.5227,00088.9560
0000000286,00000.2128,00000.2591,00000.5455,00000.6403,00050.6058,00089.3744
0000000287,-0000.0119,-0000.6688,00000.7214,00000.9838,00268.9828,00088.7519
0000000288,-0000.0052,-0000.6434,00000.6991,00000.9501,00269.5412,00088.7994
0000000289,00000.0107,-0000.5880,00000.6310,00000.8626,00271.0471,00088.9026
0000000290,00000.0365,-0000.5114,00000.5294,00000.7369,00274.0845,00089.0434
0000000291,00000.0960,-0000.4460,00000.4426,00000.6357,00282.1524,00089.1487
0000000292,-0000.2215,-0000.5152,00000.7920,00000.9704,00246.7327,00088.9537
0000000293,-0000.2030,-0000.4776,00000.7269,00000.8931,00246.9737,00089.0318
0000000294,-0000.1763,-0000.4530,00000.6790,00000.8351,00248.7319,00089.0931
0000000295,-0000.0935,-0000.4305,00000.6163,00000.7576,00257.7481,00089.1780
0000000296,-0000.0154,-0000.3907,00000.5576,00000.6811,00267.7430,00089.2704
0000000297,00000.0357,-0000.3747,00000.5292,00000.6494,00275.4442,00089.2978
0000000298,-0000.0190,-0000.4759,00000.6209,00000.7825,00267.7160,00089.1113
0000000299,-0000.0595,-0000.5352,00000.7052,00000.8873,00263.6575,00088.9952
0000000300,-0000.0967,-0000.5868,00000.7514,00000.9582,00260.6458,00088.8904
0000000301,00000.1053,-0000.4546,00000.8847,00001.0002,00283.0424,00089.1294
0000000302,00000.1034,-0000.4387,00000.8382,00000.9517,00283.2581,00089.1590
0000000303,00000.1111,-0000.4208,00000.7360,00000.8550,00284.7903,00089.1880
0000000304,00000.1017,-0000.4049,00000.7150,00000.8279,00284.0994,00089.2211
0000000305,00000.0941,-0000.4932,00000.7388,00000.8933,00280.8026,00089.0632
0000000306,00000.1452,-0000.3818,00000.6149,00000.7383,00290.8170,00089.2378
0000000307,-0000.3253,-0000.5377,00000.7597,00000.9859,00238.8261,00088.8274
0000000308,-0000.2960,-0000.5033,00000.7112,00000.9202,00239.5432,00088.9106
0000000309,-0000.2746,-0000.4771,00000.6679,00000.8655,00240.0795,00088.9729
0000000310,-0000.1174,-0000.4174,00000.4961,00000.6589,00254.2838,00089.1910
0000000311,-0000.2379,-0000.3296,00000.9024,00000.9898,00234.1845,00089.2415
0000000312,-0000.2249,-0000.3327,00000.8378,00000.9291,00235.9370,00089.2508
0000000313,-0000.1877,-0000.3102,00000.7297,00000.8148,00238.8212,00089.3236
0000000314,-0000.1761,-0000.3138,00000.6451,00000.7387,00240.7000,00089.3285
0000000315,-0000.1340,-0000.2986,00000.5519,00000.6416,00245.8329,00089.3893
0000000316,00000.2034,-0000.2989,00000.5493,00000.6576,00304.2380,00089.3255
0000000317,-0000.0031,-0000.3205,00000.9059,00000.9609,00269.4541,00089.4020
0000000318,00000.0165,-0000.3126,00000.8740,00000.9283,00273.0297,00089.4159
0000000319,00000.0463,-0000.2876,00000.7842,00000.8366,00279.1373,00089.4566
0000000320,00000.1004,-0000.2940,00000.6805,00000.7480,00288.8567,00089.4204
0000000321,-0000.0676,-0000.6156,00000.7959,00001.0085,00263.7350,00088.8444
0000000322,00000.1083,-0000.4633,00000.4788,00000.6750,00283.1613,00089.1122
0000000323,00000.1120,-0000.4470,00000.4400,00000.6371,00284.0700,00089.1401
0000000324,00000.1734,-0000.4809,00000.8640,00001.0039,00289.8307,00089.0462
0000000325,00000.1171,-0000.1836,00000.6100,00000.6477,00302.5206,00089.5937
0000000326,-0000.0891,-0000.3201,00000.8841,00000.9444,00254.4366,00089.3801
0000000327,-0000.1286,-0000.4540,00000.8729,00000.9923,00254.1843,00089.1196
0000000328,-0000.1102,-0000.3960,00000.7481,00000.8536,00254.4451,00089.2331
0000000329,-0000.0967,-0000.3453,00000.6641,00000.7547,00254.3537,00089.3310
0000000330,-0000.0704,-0000.3405,00000.5547,00000.6546,00258.3198,00089.3513
0000000331,-0000.1929,-0000.3953,00000.8778,00000.9818,00243.9880,00089.1793
0000000332,00000.0397,-0000.5163,00000.8552,00000.9998,00274.3990,00089.0338
0000000333,-0000.0462,-0000.2468,00000.6381,00000.6857,00259.3928,00089.5315
0000000334,-0000.0288,-0000.2301,00000.6001,00000.6433,00262.8668,00089.5673
0000000335,-0000.1862,-0000.1611,00000.9682,00000.9990,00220.8724,00089.5406
0000000336,-0000.1484,-0000.1590,00000.9266,00000.9517,00226.9681,00089.5941
0000000337,-0000.1378,-0000.1894,00000.7990,00000.8326,00233.9602,00089.5630
0000000338,-0000.1380,-0000.1973,00000.6903,00000.7311,00235.0269,00089.5507
0000000339,-0000.1433,-0000.2130,00000.6013,00000.6538,00236.0632,00089.5211
0000000340,-0000.2972,-0000.4051,00000.5789,00000.7665,00233.7335,00089.0625
0000000341,-0000.2513,-0000.3586,00000.4868,00000.6548,00234.9849,00089.1829
0000000342,-0000.4957,-0000.3778,00000.7963,00001.0112,00217.3109,00088.8371
0000000343,-0000.4288,-0000.3580,00000.7558,00000.9398,00219.8594,00088.9578
0000000344,-0000.3294,-0000.3223,00000.6751,00000.8174,00224.3759,00089.1401
0000000345,-0000.2960,-0000.3172,00000.6298,00000.7648,00226.9825,00089.1904
0000000346,-0000.4303,-0000.3280,00000.8532,00001.0103,00217.3122,00088.9905
0000000347,-0000.3989,-0000.3092,00000.8238,00000.9661,00217.7809,00089.0583
0000000348,-0000.3554,-0000.2986,00000.7791,00000.9069,00220.0369,00089.1339
0000000349,-0000.2379,-0000.2393,00000.6200,00000.7059,00225.1770,00089.3704
0000000350,-0000.2792,-0000.3303,00000.9037,00001.0019,00229.7893,00089.1931
0000000351,-0000.2329,-0000.2838,00000.7955,00000.8761,00230.6241,00089.3150
0000000352,-0000.0164,-0000.1520,00000.9680,00000.9800,00263.8433,00089.7147
0000000353,-0000.0618,-0000.1182,00000.8331,00000.8437,00242.3723,00089.7512
0000000354,-0000.0336,-0000.1196,00000.7394,00000.7497,00254.3220,00089.7683
0000000355,-0000.0326,-0000.1182,00000.6321,00000.6439,00254.5660,00089.7713
0000000356,-0000.5841,-0000.5417,00000.6379,00001.0206,00222.8422,00088.5134
0000000357,-0000.5879,-0000.5120,00000.6334,00001.0045,00221.0520,00088.5453
0000000358,-0000.5786,-0000.4986,00000.6248,00000.9868,00220.7512,00088.5747
0000000359,-0000.5583,-0000.4969,00000.6202,00000.9712,00221.6698,00088.6053
0000000360,-0000.4969,-0000.4793,00000.5888,00000.9073,00223.9647,00088.7118
0000000361,-0000.4645,-0000.4776,00000.5784,00000.8823,00225.7957,00088.7569
0000000362,-0000.4048,-0000.4800,00000.5568,00000.8393,00229.8593,00088.8283
0000000363,-0000.3634,-0000.4533,00000.5235,00000.7821,00231.2817,00088.9159
0000000364,-0000.3054,-0000.4020,00000.4517,00000.6774,00232.7725,00089.0579
0000000365,-0000.5259,-0000.4257,00000.7426,00001.0046,00218.9916,00088.7376
0000000366,-0000.3498,-0000.3831,00000.5623,00000.7651,00227.5962,00089.0320
0000000367,-0000.4979,-0000.3609,00000.7871,00000.9988,00215.9366,00088.8526
0000000368,-0000.5055,-0000.3626,00000.7429,00000.9690,00215.6546,00088.8392
0000000369,-0000.2482,-0000.2980,00000.4927,00000.6270,00230.2041,00089.2764
0000000370,-0000.2869,-0000.7177,00000.6736,00001.0252,00248.2066,00088.5578
0000000371,-0000.2787,-0000.6961,00000.6518,00000.9935,00248.1775,00088.6008
0000000372,-0000.2726,-0000.6852,00000.6384,00000.9754,00248.3094,00088.6240
0000000373,-0000.2695,-0000.6638,00000.6239,00000.9500,00247.9052,00088.6631
0000000374,-0000.2173,-0000.6025,00000.5891,00000.8702,00250.1633,00088.8049
0000000375,-0000.1728,-0000.5208,00000.5289,00000.7622,00251.6447,00088.9761
0000000376,-0000.1475,-0000.4376,00000.4676,00000.6572,00251.3765,00089.1383
0000000377,-0000.1674,-0000.5264,00000.4921,00000.7397,00252.3568,00088.9694
0000000378,-0000.1272,-0000.4906,00000.4428,00000.6730,00255.4651,00089.0544
0000000379,-0000.4211,-0000.5992,00000.6853,00001.0030,00234.8999,00088.6335
0000000380,-0000.3999,-0000.5784,00000.6645,00000.9674,00235.3407,00088.6879
0000000381,-0000.1363,-0000.4668,00000.5154,00000.7086,00253.7253,00089.0927
0000000382,-0000.1012,-0000.4128,00000.4592,00000.6257,00256.2310,00089.2069
0000000383,-0000.0110,-0000.9066,00000.4320,00001.0043,00269.3078,00088.3081
0000000384,-0000.0068,-0000.8519,00000.4177,00000.9488,00269.5403,00088.4102
0000000385,00000.0054,-0000.7650,00000.3719,00000.8506,00270.4080,00088.5726
0000000386,00000.0009,-0000.7131,00000.3449,00000.7921,00270.0757,00088.6694
0000000387,-0000.0022,-0000.5977,00000.2961,00000.6670,00269.7883,00088.8848
0000000388,-0000.0531,-0000.8887,00000.3752,00000.9661,00266.5821,00088.3387
0000000389,-0000.0695,-0000.9548,00000.3891,00001.0334,00265.8344,00088.2136
0000000390,-0000.1634,-0000.8364,00000.5346,00001.0060,00258.9429,00088.4098
0000000391,-0000.1464,-0000.7837,00000.5119,00000.9475,00259.4198,00088.5123
0000000392,-0000.1330,-0000.7299,00000.4788,00000.8830,00259.6731,00088.6156
0000000393,-0000.1090,-0000.6374,00000.4201,00000.7711,00260.2985,00088.7935
0000000394,-0000.0661,-0000.5522,00000.3583,00000.6616,00263.1755,00088.9623
0000000395,-0000.1461,-0000.5846,00000.3924,00000.7190,00255.9635,00088.8757
0000000396,-0000.1975,-0000.6575,00000.4044,00000.7967,00253.2839,00088.7190
0000000397,-0000.2707,-0000.7814,00000.4550,00000.9439,00250.8900,00088.4568
0000000398,-0000.3059,-0000.8364,00000.4760,00001.0098,00249.9105,00088.3382
0000000399,00000.0777,-0000.8383,00000.5790,00001.0218,00275.2956,00088.4290
0000000400,00000.0960,-0000.8065,00000.5459,00000.9786,00276.7914,00088.4844
0000000401,00000.1000,-0000.7111,00000.4886,00000.8686,00278.0049,00088.6600
0000000402,00000.0911,-0000.6271,00000.4296,00000.7656,00278.2653,00088.8176
0000000403,00000.0852,-0000.5553,00000.3794,00000.6779,00278.7206,00088.9517
0000000404,00000.0861,-0000.5218,00000.3621,00000.6409,00279.3719,00089.0133
0000000405,00000.3896,-0000.7759,00000.4826,00000.9934,00296.6642,00088.3798
0000000406,00000.3808,-0000.7625,00000.4672,00000.9720,00296.5380,00088.4096
0000000407,00000.3147,-0000.6236,00000.3631,00000.7873,00296.7796,00088.6965
0000000408,00000.2902,-0000.5270,00000.3244,00000.6835,00298.8380,00088.8775
0000000409,00000.1067,-0000.7169,00000.6765,00000.9915,00278.4685,00088.6475
0000000410,00000.1303,-0000.6607,00000.6351,00000.9256,00281.1548,00088.7435
0000000411,00000.1300,-0000.5775,00000.5656,00000.8187,00282.6890,00088.8955
0000000412,00000.1242,-0000.5302,00000.5056,00000.7431,00283.1798,00088.9839
0000000413,-0000.0931,-0000.7490,00000.6585,00001.0017,00262.9150,00088.5916
0000000414,-0000.0623,-0000.7405,00000.6119,00000.9626,00265.1876,00088.6133
0000000415,-0000.0314,-0000.6520,00000.5464,00000.8512,00267.2420,00088.7820
0000000416,-0000.0110,-0000.5941,00000.4937,00000.7725,00268.9409,00088.8914
0000000417,00000.0449,-0000.5080,00000.4149,00000.6574,00275.0519,00089.0485
0000000418,-0000.1868,-0000.6950,00000.5119,00000.8831,00254.9559,00088.6572
0000000419,-0000.1106,-0000.7211,00000.6746,00000.9937,00261.2776,00088.6387
0000000420,00000.3330,-0000.7403,00000.5880,00001.0023,00294.2193,00088.4853
0000000421,00000.2835,-0000.6374,00000.6848,00000.9775,00293.9775,00088.6983
0000000422,00000.2700,-0000.3730,00000.4527,00000.6457,00305.9019,00089.1409
0000000423,00000.4977,-0000.8903,00000.2428,00001.0485,00299.2051,00088.0965
0000000424,00000.4693,-0000.8483,00000.2259,00000.9954,00298.9523,00088.1910
0000000425,00000.3419,-0000.5796,00000.1583,00000.6913,00300.5356,00088.7444
0000000426,00000.5448,-0000.8169,00000.3174,00001.0319,00303.6992,00088.1677
0000000427,00000.3198,-0000.5531,00000.2445,00000.6841,00300.0385,00088.8078
0000000428,00000.5977,-0000.7906,00000.2253,00001.0164,00307.0878,00088.1505
0000000429,00000.5472,-0000.6979,00000.1913,00000.9072,00308.0966,00088.3451
0000000430,00000.2911,-0000.9420,00000.2282,00001.0120,00287.1709,00088.1601
0000000431,00000.2896,-0000.9191,00000.2234,00000.9892,00287.4884,00088.2018
0000000432,00000.2755,-0000.8157,00000.2001,00000.8839,00288.6619,00088.3934
0000000433,00000.2700,-0000.7489,00000.1963,00000.8200,00289.8270,00088.5144
0000000434,00000.2694,-0000.7235,00000.1935,00000.7959,00290.4211,00088.5595
0000000435,00000.2767,-0000.6137,00000.1705,00000.6944,00294.2683,00088.7439
0000000436,00000.2147,-0000.9159,00000.3397,00001.0002,00283.1930,00088.2445
0000000437,00000.2023,-0000.9842,00000.3044,00001.0498,00281.6147,00088.1250
0000000438,00000.2164,-0000.8038,00000.2821,00000.8789,00285.0700,00088.4466
0000000439,00000.2139,-0000.7176,00000.2557,00000.7913,00286.5998,00088.6026
0000000440,00000.2206,-0000.6230,00000.2237,00000.6978,00289.5000,00088.7667
0000000441,00000.2088,-0000.9035,00000.4403,00001.0265,00283.0101,00088.2696
0000000442,00000.2041,-0000.8697,00000.4321,00000.9923,00283.2105,00088.3330
0000000443,00000.2051,-0000.7371,00000.3945,00000.8608,00285.5535,00088.5724
0000000444,00000.1962,-0000.6387,00000.3358,00000.7478,00287.0724,00088.7533
0000000445,00000.1957,-0000.5489,00000.2823,00000.6475,00289.6231,00088.9127
0000000446,00000.2980,-0000.8868,00000.4401,00001.0339,00288.5771,00088.2543
0000000447,00000.2740,-0000.8803,00000.4567,00001.0289,00287.2869,00088.2795
0000000448,00000.3626,-0000.8616,00000.3762,00001.0077,00292.8224,00088.2556
0000000449,00000.3584,-0000.8654,00000.3380,00000.9958,00292.4949,00088.2521
0000000450,-0000.0350,-0000.8389,00000.2722,00000.8827,00267.6123,00088.4332
0000000451,-0000.0570,-0000.7438,00000.2423,00000.7844,00265.6216,00088.6079
0000000452,-0000.0641,-0000.6538,00000.2478,00000.7021,00264.4040,00088.7743
0000000453,-0000.0158,-0000.9723,00000.2569,00001.0058,00269.0705,00088.1853
0000000454,-0000.0235,-0001.0156,00000.2110,00001.0376,00268.6747,00088.1042
0000000455,00000.0914,-0001.0304,00000.2086,00001.0552,00275.0695,00088.0696
0000000456,00000.0992,-0000.9543,00000.2133,00000.9829,00275.9359,00088.2096
0000000457,00000.0746,-0000.8710,00000.2103,00000.8991,00274.8965,00088.3688
0000000458,00000.0675,-0000.7751,00000.1861,00000.8000,00274.9743,00088.5482
0000000459,00000.0945,-0000.6655,00000.1644,00000.6920,00278.0822,00088.7457
0000000460,-0000.2021,-0000.9599,00000.2457,00001.0113,00258.1084,00088.1694
0000000461,-0000.1950,-0001.0113,00000.2300,00001.0553,00259.0853,00088.0780
0000000462,-0000.1666,-0000.8395,00000.2323,00000.8868,00258.7722,00088.4029
0000000463,-0000.1411,-0000.7225,00000.2169,00000.7674,00258.9500,00088.6264
0000000464,-0000.1316,-0000.6558,00000.2203,00000.7042,00258.6505,00088.7520
0000000465,-0000.2019,-0000.9103,00000.4315,00001.0274,00257.4920,00088.2600
0000000466,-0000.1418,-0000.5853,00000.3274,00000.6855,00256.3814,00088.8764
0000000467,-0000.5831,-0000.8167,00000.3195,00001.0531,00234.4714,00088.1273
0000000468,-0000.6080,-0000.7788,00000.2958,00001.0313,00232.0184,00088.1563
0000000469,-0000.5958,-0000.7595,00000.2925,00001.0087,00231.8856,00088.1986
0000000470,-0000.5459,-0000.6539,00000.2771,00000.8957,00230.1440,00088.4106
0000000471,-0000.4741,-0000.5959,00000.2561,00000.8034,00231.4909,00088.5791
0000000472,-0000.4349,-0000.5528,00000.2446,00000.7447,00231.8076,00088.6875
0000000473,-0000.4036,-0000.5295,00000.2315,00000.7049,00232.6865,00088.7577
0000000474,-0000.5041,-0000.7170,00000.4505,00000.9855,00234.8892,00088.3644
0000000475,-0000.5001,-0000.6985,00000.5361,00001.0126,00234.3965,00088.3970
0000000476,-0000.4492,-0000.5807,00000.4657,00000.8694,00232.2760,00088.6302
0000000477,-0000.4211,-0000.5233,00000.4232,00000.7938,00231.1771,00088.7468
0000000478,-0000.3735,-0000.4730,00000.3669,00000.7056,00231.7055,00088.8755
0000000479,-0000.3639,-0000.4629,00000.3573,00000.6888,00231.8314,00088.9013
0000000480,-0000.4443,-0000.8507,00000.3543,00001.0231,00242.4228,00088.2090
0000000481,-0000.4358,-0000.8186,00000.3518,00000.9918,00241.9696,00088.2695
0000000482,-0000.4269,-0000.7937,00000.3468,00000.9656,00241.7285,00088.3182
0000000483,-0000.4009,-0000.7307,00000.3331,00000.8975,00241.2489,00088.4448
0000000484,-0000.4126,-0000.8202,00000.4852,00001.0384,00243.2952,00088.2868
0000000485,-0000.3715,-0000.7630,00000.4732,00000.9716,00244.0366,00088.4164
0000000486,-0000.3329,-0000.6869,00000.4499,00000.8860,00244.1428,00088.5756
0000000487,-0000.3248,-0000.6550,00000.4374,00000.8519,00243.6237,00088.6358
0000000488,-0000.2626,-0000.9709,00000.2853,00001.0455,00254.8650,00088.1230
0000000489,-0000.2521,-0000.9379,00000.2789,00001.0105,00254.9583,00088.1876
0000000490,-0000.2334,-0000.8896,00000.2762,00000.9603,00255.2970,00088.2837
0000000491,-0000.2103,-0000.8292,00000.2665,00000.8960,00255.7661,00088.4036
0000000492,-0000.1750,-0000.7303,00000.2426,00000.7892,00256.5243,00088.5986
0000000493,-0000.2936,-0000.8935,00000.4335,00001.0356,00251.8068,00088.2449
0000000494,-0000.0999,-0000.9595,00000.1926,00000.9837,00264.0559,00088.1998
0000000495,-0000.1665,-0000.9870,00000.2059,00001.0219,00260.4267,00088.1320
0000000496,-0000.1271,-0000.6464,00000.2096,00000.6913,00258.8731,00088.7707
0000000497,-0000.4764,-0000.9231,00000.1924,00001.0565,00242.7019,00088.0615
0000000498,-0000.4549,-0000.8569,00000.1982,00000.9902,00242.0356,00088.1896
0000000499,-0000.4423,-0000.8352,00000.1988,00000.9658,00242.0973,00088.2364
0000000500,-0000.4177,-0000.7802,00000.2038,00000.9081,00241.8383,00088.3487
0000000501,-0000.3522,-0000.6926,00000.2040,00000.8033,00243.0471,00088.5501
0000000502,-0000.2906,-0000.5903,00000.2030,00000.6886,00243.7914,00088.7723
0000000503,-0000.6262,-0000.8280,00000.2585,00001.0698,00232.8990,00088.0628
0000000504,-0000.6837,-0000.6579,00000.3574,00001.0139,00223.8956,00088.2294
0000000505,-0000.6802,-0000.6685,00000.3518,00001.0165,00224.4999,00088.2203
0000000506,-0000.5631,-0000.5726,00000.3043,00000.8588,00225.4825,00088.5015
0000000507,-0000.4951,-0000.5154,00000.2844,00000.7692,00226.1521,00088.6665
0000000508,-0000.4372,-0000.4757,00000.2645,00000.6982,00227.4185,00088.7944
0000000509,-0000.5933,-0000.6785,00000.4494,00001.0072,00228.8328,00088.3180
0000000510,-0000.6059,-0000.6448,00000.4635,00000.9989,00226.7827,00088.3489
0000000511,-0000.6296,-0000.5790,00000.5236,00001.0029,00222.6070,00088.4039
0000000512,-0000.6711,-0000.5035,00000.5308,00000.9928,00216.8805,00088.4345
0000000513,-0000.5837,-0000.4681,00000.4527,00000.8745,00218.7318,00088.6039
0000000514,-0000.4168,-0000.4125,00000.3407,00000.6782,00224.7016,00088.9059
0000000515,-0000.7304,-0000.6868,00000.2874,00001.0430,00223.2354,00088.1290
0000000516,-0000.7011,-0000.6643,00000.2678,00001.0023,00223.4534,00088.1977
0000000517,-0000.6088,-0000.5792,00000.2634,00000.8807,00223.5731,00088.4319
0000000518,-0000.5477,-0000.5060,00000.2652,00000.7914,00222.7365,00088.6087
0000000519,-0000.6820,-0000.7637,00000.2017,00001.0436,00228.2353,00088.0892
0000000520,-0000.5935,-0000.7403,00000.1882,00000.9673,00231.2817,00088.2293
0000000521,-0000.1954,-0000.6396,00000.5862,00000.8894,00253.0098,00088.7520
0000000522,00000.0626,-0000.8226,00000.4125,00000.9224,00274.3546,00088.4605
0000000523,00000.1502,-0000.9246,00000.1773,00000.9533,00279.2269,00088.2520
0000000524,-0000.1126,-0000.7735,00000.3920,00000.8744,00261.7158,00088.5415
0000000525,-0000.1044,-0000.8069,00000.3856,00000.9004,00262.6259,00088.4817
0000000526,00000.3443,-0000.7046,00000.5072,00000.9339,00296.0417,00088.5367
0000000527,00000.3825,-0000.8090,00000.1755,00000.9120,00295.3065,00088.3300
0000000528,00000.3525,-0000.8665,00000.2035,00000.9573,00292.1381,00088.2543
0000000529,00000.2555,-0000.5645,00000.5457,00000.8257,00294.3542,00088.8438
0000000530,00000.2270,-0000.6557,00000.5146,00000.8639,00289.0982,00088.7053
0000000531,-0000.0500,-0000.5797,00000.5640,00000.8103,00265.0702,00088.9144
0000000532,00000.1282,-0000.7932,00000.3586,00000.8799,00279.1821,00088.5006
0000000533,-0000.0161,-0000.8013,00000.1841,00000.8223,00268.8504,00088.5045
0000000534,00000.0562,-0000.8384,00000.1425,00000.8523,00273.8353,00088.4320
0000000535,-0000.1832,-0000.8115,00000.1743,00000.8500,00257.2763,00088.4476
0000000536,-0000.1817,-0000.8308,00000.1205,00000.8589,00257.6651,00088.4131
0000000537,-0000.2693,-0000.7553,00000.1473,00000.8153,00250.3748,00088.5037
0000000538,-0000.3616,-0000.7420,00000.1632,00000.8414,00244.0215,00088.4597
0000000539,-0000.4319,-0000.7002,00000.1606,00000.8383,00238.3324,00088.4648
0000000540,-0000.4830,-0000.6548,00000.1373,00000.8252,00233.5895,00088.4817
0000000541,-0000.4817,-0000.6550,00000.1308,00000.8235,00233.6669,00088.4829
0000000542,-0000.6616,-0000.5766,00000.1904,00000.8980,00221.0710,00088.3624
0000000543,-0000.5733,-0000.6146,00000.1533,00000.8543,00226.9906,00088.4317
0000000544,-0000.5065,-0000.4591,00000.4874,00000.8395,00222.1884,00088.7245
0000000545,-0000.4385,-0000.3283,00000.5620,00000.7848,00216.8204,00088.9778
0000000546,-0000.3177,-0000.2726,00000.6950,00000.8114,00220.6270,00089.2189
0000000547,-0000.3598,-0000.2187,00000.6835,00000.8028,00211.2984,00089.2144
0000000548,-0000.6791,-0000.4669,00000.3192,00000.8838,00214.5059,00088.4622
0000000549,-0000.6196,-0000.3925,00000.2974,00000.7915,00212.3566,00088.6314
0000000550,-0000.5324,-0000.3588,00000.2683,00000.6959,00213.9780,00088.8020
0000000551,-0000.5403,-0000.3728,00000.3117,00000.7267,00214.6025,00088.7751
0000000552,-0000.4975,-0000.3776,00000.4096,00000.7469,00217.1943,00088.8346
0000000553,-0000.4502,-0000.3006,00000.5090,00000.7431,00213.7294,00088.9900
0000000554,-0000.6253,-0000.4585,00000.1896,00000.7982,00216.2464,00088.5531
0000000555,-0000.6084,-0000.4678,00000.1683,00000.7857,00217.5551,00088.5680
0000000556,-0000.5228,-0000.4786,00000.1309,00000.7208,00222.4753,00088.6775
0000000557,-0000.2024,-0000.5518,00000.4140,00000.7189,00249.8582,00088.9032
0000000558,-0000.2483,-0000.6096,00000.3061,00000.7259,00247.8419,00088.7717
0000000559,-0000.2467,-0000.6414,00000.1483,00000.7031,00248.9604,00088.7176
0000000560,-0000.3399,-0000.6012,00000.1412,00000.7049,00240.5130,00088.7113
0000000561,-0000.3538,-0000.6819,00000.1362,00000.7802,00242.5814,00088.5665
0000000562,00000.1989,-0000.6865,00000.1863,00000.7386,00286.1618,00088.6664
0000000563,00000.0951,-0000.6769,00000.2726,00000.7359,00278.0002,00088.7245
0000000564,00000.1237,-0000.7032,00000.1136,00000.7229,00279.9744,00088.6678
0000000565,00000.2244,-0000.5237,00000.4190,00000.7072,00293.1938,00088.9369
0000000566,00000.2923,-0000.6932,00000.1507,00000.7673,00292.8662,00088.5962
0000000567,00000.1219,-0000.3451,00000.5296,00000.6438,00289.4579,00089.3172
0000000568,00000.0759,-0000.3201,00000.5569,00000.6468,00283.3484,00089.3862
0000000569,-0000.2351,-0000.5166,00000.3830,00000.6847,00245.5268,00088.9410
0000000570,-0000.0263,-0000.6446,00000.2032,00000.6764,00267.6623,00088.7962
0000000571,-0000.1582,-0000.6164,00000.2123,00000.6709,00255.6063,00088.8125
0000000572,-0000.2458,-0000.5894,00000.2647,00000.6913,00247.3631,00088.8084
0000000573,00000.1870,-0000.5600,00000.2983,00000.6615,00288.4677,00088.8984
0000000574,00000.2011,-0000.5397,00000.3561,00000.6771,00290.4409,00088.9254
0000000575,00000.1918,-0000.6377,00000.1586,00000.6846,00286.7396,00088.7574
0000000576,-0000.3341,-0000.2161,00000.5392,00000.6701,00212.8945,00089.2576
0000000577,-0000.3695,-0000.3292,00000.4345,00000.6586,00221.6944,00089.0766
0000000578,-0000.4147,-0000.3187,00000.4186,00000.6699,00217.5471,00089.0241
0000000579,-0000.4556,-0000.3645,00000.3664,00000.6890,00218.6621,00088.9113
0000000580,-0000.6867,00000.0771,00000.7652,00001.0310,00173.5961,00088.7106
0000000581,-0000.6493,00000.0749,00000.7354,00000.9839,00173.4160,00088.7805
0000000582,-0000.5791,00000.0626,00000.6598,00000.8801,00173.8262,00088.9131
0000000583,-0000.4974,00000.0407,00000.5854,00000.7693,00175.3223,00089.0688
0000000584,-0000.4864,00000.0343,00000.5713,00000.7511,00175.9615,00089.0902
0000000585,-0000.4146,-0000.0571,00000.4800,00000.6368,00187.8372,00089.2191
0000000586,-0000.4724,-0000.0578,00000.8903,00001.0095,00186.9790,00089.1120
0000000587,-0000.4470,-0000.0677,00000.8148,00000.9318,00188.6064,00089.1565
0000000588,-0000.4321,-0000.1044,00000.7525,00000.8740,00193.5892,00089.1706
0000000589,-0000.4131,-0000.1264,00000.6961,00000.8193,00197.0095,00089.1939
0000000590,-0000.3805,-0000.1447,00000.6359,00000.7551,00200.8222,00089.2404
0000000591,-0000.3392,-0000.1536,00000.5718,00000.6823,00204.3630,00089.3052
0000000592,-0000.3668,-0000.1196,00000.6633,00000.7673,00198.0511,00089.2801
0000000593,-0000.5367,00000.2929,00000.8013,00001.0079,00151.3747,00088.8591
0000000594,-0000.5112,00000.2779,00000.7604,00000.9575,00151.4736,00088.9142
0000000595,-0000.4754,00000.2524,00000.6939,00000.8782,00152.0371,00088.9957
0000000596,-0000.4411,00000.1498,00000.6231,00000.7780,00161.2402,00089.1309
0000000597,-0000.3916,00000.0377,00000.5184,00000.6508,00174.4976,00089.2659
0000000598,-0000.5379,-0000.1301,00000.8542,00001.0178,00193.5986,00088.9674
0000000599,-0000.4044,-0000.1488,00000.5478,00000.6969,00200.2027,00089.1960
0000000600,-0000.3928,-0000.1569,00000.5199,00000.6702,00201.7799,00089.2108
0000000601,-0000.7334,00000.1516,00000.7118,00001.0332,00168.3221,00088.6025
0000000602,-0000.4877,00000.0105,00000.5300,00000.7203,00178.7687,00089.0898
0000000603,-0000.3601,00000.1384,00000.9111,00000.9894,00158.9738,00089.2801
0000000604,-0000.3520,00000.1022,00000.8434,00000.9196,00163.8080,00089.3162
0000000605,-0000.3514,00000.0661,00000.7814,00000.8594,00169.3513,00089.3328
0000000606,-0000.3245,00000.0128,00000.6568,00000.7327,00177.7324,00089.3941
0000000607,-0000.3215,-0000.0267,00000.5720,00000.6567,00184.7508,00089.3981
0000000608,-0000.5588,00000.1833,00000.8414,00001.0266,00161.8368,00088.9026
0000000609,-0000.5222,00000.1396,00000.7984,00000.9642,00165.0293,00088.9913
0000000610,-0000.4660,00000.1001,00000.7237,00000.8665,00167.8715,00089.1106
0000000611,-0000.4300,00000.0557,00000.6691,00000.7974,00172.6255,00089.1909
0000000612,-0000.6747,-0000.0903,00000.7694,00001.0273,00187.6209,00088.7298
0000000613,-0000.6306,-0000.0808,00000.7402,00000.9757,00187.3020,00088.8137
0000000614,-0000.5791,-0000.0701,00000.6576,00000.8791,00186.8987,00088.9116
0000000615,-0000.6274,-0000.0127,00000.8074,00001.0226,00181.1641,00088.8290
0000000616,-0000.5934,-0000.0266,00000.7364,00000.9461,00182.5712,00088.8916
0000000617,-0000.3380,-0000.1809,00000.8872,00000.9665,00208.1522,00089.2847
0000000618,-0000.3494,-0000.1380,00000.8855,00000.9619,00201.5440,00089.2991
0000000619,-0000.3585,-0000.1495,00000.7675,00000.8602,00202.6424,00089.2753
0000000620,-0000.2837,00000.0372,00000.9640,00001.0055,00172.5356,00089.4661
0000000621,-0000.2764,00000.0301,00000.9053,00000.9470,00173.7904,00089.4813
0000000622,-0000.2784,00000.0481,00000.8057,00000.8537,00170.1968,00089.4729
0000000623,-0000.2609,00000.0331,00000.7054,00000.7529,00172.7721,00089.5093
0000000624,-0000.2444,-0000.0029,00000.6150,00000.6618,00180.6870,00089.5440
0000000625,-0000.2968,00000.2878,00000.8876,00000.9792,00135.8828,00089.2287
0000000626,-0000.2860,00000.2887,00000.8764,00000.9660,00134.7250,00089.2418
0000000627,-0000.2720,00000.2239,00000.7853,00000.8607,00140.5471,00089.3426
0000000628,-0000.2451,00000.1531,00000.6626,00000.7229,00147.9981,00089.4608
0000000629,-0000.2505,00000.1483,00000.6531,00000.7151,00149.3737,00089.4569
0000000630,-0000.2233,00000.1150,00000.5975,00000.6481,00152.7534,00089.5313
0000000631,-0000.2261,00000.0979,00000.5840,00000.6339,00156.5883,00089.5402
0000000632,-0000.1607,00000.0212,00000.9907,00001.0039,00172.4679,00089.6976
0000000633,-0000.1631,00000.0037,00000.9312,00000.9454,00178.7091,00089.6957
0000000634,-0000.1327,-0000.0010,00000.8312,00000.8418,00180.4149,00089.7523
0000000635,-0000.1177,00000.0003,00000.7448,00000.7541,00179.8781,00089.7804
0000000636,-0000.0929,00000.0831,00000.6891,00000.7003,00138.2063,00089.7674
0000000637,-0000.1566,00000.1598,00000.9072,00000.9344,00134.4076,00089.5825
0000000638,-0000.1241,00000.2789,00000.9625,00001.0097,00113.9887,00089.4305
0000000639,-0000.1029,00000.2618,00000.9163,00000.9585,00111.4464,00089.4751
0000000640,-0000.1411,00000.1988,00000.8227,00000.8581,00125.3613,00089.5451
0000000641,-0000.1266,00000.1832,00000.7934,00000.8240,00124.6414,00089.5845
0000000642,-0000.1068,00000.1249,00000.6320,00000.6530,00130.5329,00089.6934
0000000643,-0000.1208,00000.1038,00000.9602,00000.9734,00139.3163,00089.7028
0000000644,-0000.3123,00000.1987,00000.9028,00000.9757,00147.5341,00089.3094
0000000645,-0000.2738,00000.1177,00000.8090,00000.8621,00156.7349,00089.4440
0000000646,-0000.1127,00000.3861,00000.9049,00000.9903,00106.2667,00089.2496
0000000647,-0000.1412,00000.1688,00000.6504,00000.6866,00129.9111,00089.5894
0000000648,-0000.6630,00000.5205,00000.6144,00001.0431,00141.8658,00088.4270
0000000649,-0000.6323,00000.4915,00000.5925,00000.9962,00142.1391,00088.5056
0000000650,-0000.5822,00000.4124,00000.5396,00000.8945,00144.6915,00088.6687
0000000651,-0000.5219,00000.3431,00000.4974,00000.7984,00146.6811,00088.8345
0000000652,-0000.4499,00000.2747,00000.4467,00000.6910,00148.5869,00089.0164
0000000653,-0000.4425,00000.2644,00000.4407,00000.6782,00149.1438,00089.0382
0000000654,-0000.7700,00000.3973,00000.5981,00001.0528,00152.7106,00088.3832
0000000655,-0000.7253,00000.3727,00000.5753,00000.9980,00152.8038,00088.4784
0000000656,-0000.6807,00000.3247,00000.5408,00000.9281,00154.5007,00088.5927
0000000657,-0000.6597,00000.2722,00000.5259,00000.8865,00157.5799,00088.6683
0000000658,-0000.7716,00000.3087,00000.5907,00001.0196,00158.1924,00088.4492
0000000659,-0000.7495,00000.3350,00000.5990,00001.0163,00155.9202,00088.4680
0000000660,-0000.5381,00000.2031,00000.5206,00000.7758,00159.3226,00088.9268
0000000661,-0000.4987,00000.1608,00000.4620,00000.6986,00162.1228,00089.0223
0000000662,-0000.4915,00000.1451,00000.4488,00000.6812,00163.5473,00089.0438
0000000663,-0000.4598,00000.1306,00000.4471,00000.6545,00164.1432,00089.1082
0000000664,-0000.5408,00000.3389,00000.7927,00001.0177,00147.9228,00088.8091
0000000665,-0000.5263,00000.2933,00000.7313,00000.9476,00150.8681,00088.8756
0000000666,-0000.4024,00000.1068,00000.5189,00000.6653,00165.1433,00089.2231
0000000667,-0000.5964,00000.3073,00000.7702,00001.0215,00152.7411,00088.7480
0000000668,-0000.5915,00000.2520,00000.7251,00000.9691,00156.9259,00088.8003
0000000669,-0000.5177,00000.1372,00000.6228,00000.8215,00165.1546,00089.0006
0000000670,-0000.4691,00000.0632,00000.4861,00000.6785,00172.3286,00089.1169
0000000671,-0000.8226,-0000.0682,00000.6352,00001.0415,00184.7387,00088.4598
0000000672,-0000.7729,-0000.0732,00000.6034,00000.9832,00185.4080,00088.5514
0000000673,-0000.7375,-0000.0721,00000.5895,00000.9469,00185.5837,00088.6173
0000000674,-0000.6876,-0000.0747,00000.5646,00000.8928,00186.2036,00088.7093
0000000675,-0000.5900,-0000.0966,00000.5030,00000.7813,00189.2975,00088.8844
0000000676,-0000.4997,-0000.1321,00000.4452,00000.6822,00194.8074,00089.0356
0000000677,-0000.8333,-0000.2423,00000.5763,00001.0417,00196.2102,00088.3806
0000000678,-0000.8012,-0000.2310,00000.5498,00000.9988,00196.0842,00088.4441
0000000679,-0000.7233,-0000.2028,00000.4855,00000.8944,00195.6608,00088.5982
0000000680,-0000.6483,-0000.1647,00000.4275,00000.7939,00194.2539,00088.7518
0000000681,-0000.5663,-0000.1545,00000.3745,00000.6963,00195.2614,00088.9047
0000000682,-0000.7623,-0000.1541,00000.6879,00001.0383,00191.4312,00088.5489
0000000683,-0000.5108,-0000.1623,00000.4509,00000.7004,00197.6287,00088.9999
0000000684,-0000.4600,-0000.1640,00000.4152,00000.6410,00199.6232,00089.0887
0000000685,-0000.7551,00000.0211,00000.7036,00001.0323,00178.4011,00088.5905
0000000686,-0000.7195,-0000.0204,00000.6506,00000.9703,00181.6216,00088.6568
0000000687,-0000.6572,-0000.0422,00000.5789,00000.8768,00183.6708,00088.7713
0000000688,-0000.7176,-0000.4066,00000.5905,00001.0144,00209.5350,00088.4610
0000000689,-0000.7611,-0000.3395,00000.6101,00001.0329,00204.0408,00088.4448
0000000690,-0000.7345,-0000.3384,00000.5764,00000.9931,00204.7376,00088.4910
0000000691,-0000.6598,-0000.3222,00000.4877,00000.8815,00206.0273,00088.6298
0000000692,-0000.5852,-0000.3175,00000.4325,00000.7940,00208.4789,00088.7577
0000000693,-0000.6406,-0000.2809,00000.7061,00000.9939,00203.6789,00088.6947
0000000694,-0000.6259,-0000.2763,00000.7070,00000.9839,00203.8157,00088.7233
0000000695,-0000.5788,-0000.2685,00000.6356,00000.9006,00204.8889,00088.8094
0000000696,-0000.5730,-0000.2671,00000.6206,00000.8859,00204.9929,00088.8204
0000000697,-0000.9684,00000.0927,00000.2814,00001.0127,00174.5324,00088.1846
0000000698,-0001.0079,00000.1038,00000.2781,00001.0507,00174.1198,00088.1092
0000000699,-0000.8726,00000.0780,00000.2351,00000.9071,00174.8948,00088.3652
0000000700,-0000.7901,00000.0678,00000.2279,00000.8251,00175.0949,00088.5203
0000000701,-0000.9437,00000.1400,00000.4246,00001.0443,00171.5616,00088.2196
0000000702,-0000.8934,00000.1242,00000.4192,00000.9946,00172.0872,00088.3169
0000000703,-0000.8142,00000.0986,00000.3861,00000.9065,00173.0953,00088.4696
0000000704,-0000.8227,00000.0227,00000.3456,00000.8926,00178.4168,00088.4643
0000000705,-0000.7176,00000.0603,00000.3560,00000.8034,00175.1990,00088.6562
0000000706,-0000.9138,00000.0408,00000.3787,00000.9900,00177.4431,00088.2931
0000000707,-0000.9912,-0000.0007,00000.3715,00001.0585,00180.0409,00088.1503
0000000708,-0000.9561,-0000.0089,00000.3573,00001.0207,00180.5347,00088.2158
0000000709,-0000.8585,-0000.0031,00000.3270,00000.9186,00180.2071,00088.3981
0000000710,-0000.6659,-0000.0165,00000.2648,00000.7168,00181.4193,00088.7572
0000000711,-0000.6784,-0000.0311,00000.2567,00000.7260,00182.6252,00088.7328
0000000712,-0000.8742,00000.0238,00000.5372,00001.0264,00178.4423,00088.3680
0000000713,-0000.8184,00000.0513,00000.5703,00000.9988,00176.4101,00088.4698
0000000714,-0000.6113,00000.0216,00000.4247,00000.7446,00177.9798,00088.8587
0000000715,-0000.5522,-0000.0123,00000.3610,00000.6598,00181.2786,00088.9695
0000000716,-0000.6152,00000.0195,00000.4151,00000.7424,00178.1887,00088.8515
0000000717,-0000.9388,-0000.1593,00000.4061,00001.0352,00189.6293,00088.2231
0000000718,-0000.9363,-0000.2097,00000.3883,00001.0351,00192.6212,00088.2095
0000000719,-0000.8948,-0000.2212,00000.3936,00001.0023,00193.8873,00088.2800
0000000720,-0000.8465,-0000.2196,00000.3773,00000.9524,00194.5448,00088.3681
0000000721,-0000.7863,-0000.2016,00000.3469,00000.8827,00194.3786,00088.4854
0000000722,-0000.7534,-0000.1990,00000.3300,00000.8462,00194.7960,00088.5460
0000000723,-0000.7079,-0000.1880,00000.3112,00000.7958,00194.8728,00088.6333
0000000724,-0000.6093,-0000.1838,00000.2667,00000.6901,00196.7869,00088.8124
0000000725,-0000.7312,-0000.0666,00000.4687,00000.8711,00185.2068,00088.6299
0000000726,-0000.6797,-0000.0895,00000.4038,00000.7957,00187.5019,00088.7207
0000000727,-0000.8421,-0000.5529,00000.3048,00001.0525,00213.2847,00088.1200
0000000728,-0000.7945,-0000.5526,00000.2872,00001.0095,00214.8190,00088.1940
0000000729,-0000.7084,-0000.4828,00000.2566,00000.8949,00214.2765,00088.4002
0000000730,-0000.5421,-0000.3948,00000.2154,00000.7044,00216.0689,00088.7487
0000000731,-0000.8372,-0000.4161,00000.4676,00001.0453,00206.4251,00088.2554
0000000732,-0000.7960,-0000.3988,00000.4536,00000.9992,00206.6097,00088.3386
0000000733,-0000.9928,-0000.3181,00000.2591,00001.0742,00197.7665,00088.0545
0000000734,-0000.9672,-0000.3584,00000.2725,00001.0668,00200.3297,00088.0751
0000000735,-0000.8721,-0000.3384,00000.2714,00000.9740,00201.2082,00088.2544
0000000736,-0000.8232,-0000.3143,00000.2634,00000.9197,00200.8941,00088.3557
0000000737,-0000.7221,-0000.2762,00000.2418,00000.8100,00200.9340,00088.5574
0000000738,-0000.6249,-0000.2411,00000.2097,00000.7018,00201.0932,00088.7502
0000000739,-0000.9093,-0000.2857,00000.4385,00001.0492,00197.4418,00088.2214
0000000740,-0000.9474,-0000.4503,00000.2417,00001.0764,00205.4214,00088.0425
0000000741,-0000.8807,-0000.4603,00000.1813,00001.0101,00207.5924,00088.1456
0000000742,-0000.8043,-0000.4045,00000.1890,00000.9199,00206.6963,00088.3200
0000000743,-0000.7213,-0000.3578,00000.1829,00000.8257,00206.3829,00088.4975
0000000744,-0000.5901,-0000.3078,00000.1718,00000.6874,00207.5486,00088.7581
0000000745,-0001.0187,00000.0423,00000.2375,00001.0469,00177.6204,00088.0974
0000000746,-0000.9871,00000.0463,00000.2397,00001.0168,00177.3172,00088.1560
0000000747,-0000.6708,00000.0315,00000.2096,00000.7035,00177.3153,00088.7470
0000000748,-0000.9196,00000.0175,00000.4866,00001.0405,00178.9110,00088.2837
0000000749,-0000.6355,-0000.0634,00000.3251,00000.7166,00185.6974,00088.8083
0000000750,-0000.6048,-0000.0724,00000.3120,00000.6843,00186.8251,00088.8635
0000000751,-0001.0288,-0000.1633,00000.2551,00001.0724,00189.0216,00088.0561
0000000752,-0000.9294,-0000.1806,00000.2286,00000.9740,00190.9953,00088.2333
0000000753,-0000.8711,-0000.1853,00000.2158,00000.9164,00192.0062,00088.3381
0000000754,-0000.7818,-0000.1403,00000.2020,00000.8195,00190.1745,00088.5179
0000000755,-0000.6918,-0000.1330,00000.1792,00000.7269,00190.8857,00088.6855
0000000756,-0000.7430,00000.6416,00000.2056,00001.0029,00139.1884,00088.1682
0000000757,-0000.7181,00000.5686,00000.1929,00000.9360,00141.6309,00088.2908
0000000758,-0000.7151,00000.5233,00000.1916,00000.9066,00143.8050,00088.3465
0000000759,-0000.6294,00000.4975,00000.1819,00000.8226,00141.6774,00088.5030
0000000760,-0000.5914,00000.4863,00000.1778,00000.7860,00140.5683,00088.5713
0000000761,-0000.5644,00000.4700,00000.1765,00000.7554,00140.2161,00088.6295
0000000762,-0000.5427,00000.4531,00000.1738,00000.7281,00140.1418,00088.6807
0000000763,-0000.8736,00000.5580,00000.2871,00001.0756,00147.4345,00088.0656
0000000764,-0000.8196,00000.5487,00000.2786,00001.0249,00146.1969,00088.1595
0000000765,-0000.5712,00000.3987,00000.2224,00000.7312,00145.0873,00088.7003
0000000766,-0000.7921,00000.5081,00000.4864,00001.0594,00147.3212,00088.2438
0000000767,-0000.7681,00000.5015,00000.4787,00001.0348,00146.8584,00088.2881
0000000768,-0000.7376,00000.4797,00000.4684,00000.9967,00146.9635,00088.3582
0000000769,-0000.6635,00000.4351,00000.4211,00000.8982,00146.7414,00088.5194
0000000770,-0000.5930,00000.4022,00000.3774,00000.8099,00145.8537,00088.6629
0000000771,-0000.5064,00000.3467,00000.3110,00000.6880,00145.6049,00088.8548
0000000772,-0000.6657,00000.3615,00000.4478,00000.8800,00151.4933,00088.5865
0000000773,-0000.6062,00000.3192,00000.3964,00000.7915,00152.2355,00088.7216
0000000774,-0000.5345,00000.2659,00000.3349,00000.6845,00153.5467,00088.8861
0000000775,-0000.9022,00000.4606,00000.3290,00001.0650,00152.9540,00088.1097
0000000776,-0000.9008,00000.4179,00000.2890,00001.0342,00155.1154,00088.1469
0000000777,-0000.7907,00000.3595,00000.2784,00000.9121,00155.5522,00088.3792
0000000778,-0000.6856,00000.3096,00000.2616,00000.7965,00155.6992,00088.5963
0000000779,-0000.6072,00000.2626,00000.2206,00000.6974,00156.6158,00088.7655
0000000780,-0000.8886,00000.3559,00000.4706,00001.0667,00158.1765,00088.2137
0000000781,-0000.8444,00000.3181,00000.4595,00001.0126,00159.3564,00088.3162
0000000782,-0000.7728,00000.2434,00000.4179,00000.9116,00162.5171,00088.4882
0000000783,-0000.6946,00000.1735,00000.3734,00000.8074,00165.9767,00088.6641
0000000784,-0000.6356,00000.1992,00000.2879,00000.7257,00162.5975,00088.7570
0000000785,-0000.7535,00000.2841,00000.3263,00000.8689,00159.3438,00088.4973
0000000786,-0000.9720,00000.3080,00000.3301,00001.0718,00162.4164,00088.0971
0000000787,-0000.9348,00000.2864,00000.3122,00001.0263,00162.9672,00088.1755
0000000788,-0000.8329,00000.2469,00000.2873,00000.9150,00163.4910,00088.3789
0000000789,-0000.7619,00000.1829,00000.2687,00000.8284,00166.4999,00088.5378
0000000790,-0000.6696,00000.1322,00000.2374,00000.7227,00168.8319,00088.7264
0000000791,-0000.9594,00000.3347,00000.2475,00001.0458,00160.7691,00088.1039
0000000792,-0000.9518,00000.2915,00000.2132,00001.0180,00162.9697,00088.1424
0000000793,-0000.6723,00000.2209,00000.1869,00000.7319,00161.8135,00088.6796
0000000794,-0001.0283,00000.1547,00000.2639,00001.0729,00171.4437,00088.0594
0000000795,-0000.9849,00000.1851,00000.2279,00001.0278,00169.3543,00088.1298
0000000796,-0000.9535,00000.4647,00000.2488,00001.0895,00154.0162,00088.0205
0000000797,-0000.5826,00000.2699,00000.2236,00000.6799,00155.1466,00088.8019
0000000798,-0000.7763,00000.5835,00000.3204,00001.0226,00143.0703,00088.1878
0000000799,-0000.7452,00000.6625,00000.3021,00001.0419,00138.3593,00088.1393
0000000800,-0000.6723,00000.5511,00000.2682,00000.9097,00140.6597,00088.3779
0000000801,-0000.8571,00000.6040,00000.1996,00001.0673,00144.8275,00088.0433
0000000802,-0000.8416,00000.5852,00000.1942,00001.0433,00145.1868,00088.0871
0000000803,-0000.5646,00000.3746,00000.1817,00000.7015,00146.4359,00088.7357
0000000804,-0000.2151,00000.1252,00000.8826,00000.9170,00149.7960,00089.5357
0000000805,-0000.2523,-0000.0663,00000.8944,00000.9317,00194.7228,00089.5132
0000000806,-0000.7649,00000.2836,00000.4420,00000.9278,00159.6543,00088.4778
0000000807,-0000.7489,00000.1495,00000.4876,00000.9061,00168.7138,00088.5749
0000000808,-0000.6966,00000.2061,00000.5293,00000.8988,00163.5213,00088.6445
0000000809,-0000.6947,00000.2429,00000.6127,00000.9576,00160.7282,00088.6267
0000000810,-0000.7756,00000.5381,00000.3833,00001.0188,00145.2457,00088.2384
0000000811,-0000.7912,00000.4656,00000.1742,00000.9344,00149.5250,00088.2869
0000000812,-0000.9115,00000.4595,00000.1924,00001.0388,00153.2489,00088.0950
0000000813,-0000.8819,-0000.2649,00000.2736,00000.9606,00196.7197,00088.2817
0000000814,-0000.8821,-0000.3250,00000.1815,00000.9574,00200.2278,00088.2458
0000000815,-0000.1474,-0000.0873,00000.7408,00000.7603,00210.6231,00089.6803
0000000816,-0000.2481,00000.2125,00000.6892,00000.7627,00139.4127,00089.3906
0000000817,-0000.3828,00000.1228,00000.7508,00000.8517,00162.2155,00089.2498
0000000818,-0000.5109,-0000.2274,00000.6384,00000.8486,00203.9914,00088.9566
0000000819,-0000.5065,-0000.4084,00000.5828,00000.8735,00218.8763,00088.7859
0000000820,-0000.9154,00000.0446,00000.1825,00000.9345,00177.2103,00088.2897
0000000821,-0000.9035,00000.0941,00000.1935,00000.9288,00174.0539,00088.3049
0000000822,-0000.8718,00000.2635,00000.1638,00000.9254,00163.1796,00088.3005
0000000823,-0000.8776,-0000.1636,00000.1847,00000.9116,00190.5609,00088.3342
0000000824,-0000.8539,-0000.2469,00000.2037,00000.9119,00196.1253,00088.3414
0000000825,-0000.7126,00000.4780,00000.3053,00000.9108,00146.1472,00088.3988
0000000826,-0000.4629,00000.2998,00000.6487,00000.8514,00147.0695,00088.9710
0000000827,-0000.4026,00000.3359,00000.6427,00000.8295,00140.1613,00089.0216
0000000828,-0000.3654,00000.3212,00000.5842,00000.7603,00138.6796,00089.0922
0000000829,-0000.3774,00000.2991,00000.5349,00000.7197,00141.6032,00089.1016
0000000830,-0000.5134,00000.2873,00000.4625,00000.7483,00150.7668,00088.9023
0000000831,-0000.3369,00000.2576,00000.6348,00000.7634,00142.5966,00089.2088
0000000832,-0000.1460,-0000.1287,00000.6667,00000.6945,00221.4010,00089.6369
0000000833,-0000.7619,00000.0674,00000.1410,00000.7778,00174.9436,00088.5728
0000000834,-0000.8009,-0000.0875,00000.1544,00000.8203,00186.2354,00088.4967
0000000835,-0000.7627,00000.3119,00000.1708,00000.8416,00157.7594,00088.4623
0000000836,-0000.7608,00000.3379,00000.1117,00000.8399,00156.0547,00088.4466
0000000837,-0000.7971,00000.2005,00000.1194,00000.8306,00165.8842,00088.4662
0000000838,-0000.4220,00000.3998,00000.5000,00000.7667,00136.5486,00088.9154
0000000839,-0000.6578,00000.2156,00000.4062,00000.8026,00161.8547,00088.7084
0000000840,-0000.6275,00000.3624,00000.3475,00000.8036,00149.9933,00088.6480
0000000841,-0000.2879,-0000.1143,00000.5874,00000.6640,00201.6508,00089.4221
0000000842,-0000.2139,-0000.0661,00000.5889,00000.6300,00197.1603,00089.5822
0000000843,-0000.1042,-0000.0019,00000.6348,00000.6433,00181.0629,00089.8056
0000000844,-0000.2288,-0000.1595,00000.5994,00000.6611,00214.8921,00089.4796
0000000845,-0000.3570,-0000.0725,00000.5246,00000.6387,00191.4732,00089.3203
0000000846,-0000.4154,-0000.2010,00000.4608,00000.6521,00205.8185,00089.1391
0000000847,-0000.5118,-0000.0242,00000.4399,00000.6753,00182.7075,00089.0440
0000000848,-0000.3148,00000.2461,00000.5296,00000.6634,00141.9761,00089.2545
0000000849,-0000.2619,00000.2471,00000.5354,00000.6451,00136.6657,00089.3283
0000000850,-0000.2184,00000.1542,00000.5743,00000.6335,00144.7713,00089.5011
0000000851,-0000.3554,00000.3217,00000.4902,00000.6857,00137.8439,00089.1055
0000000852,-0000.4164,00000.2806,00000.4656,00000.6848,00146.0317,00089.0631
0000000853,-0000.5499,00000.1808,00000.3349,00000.6688,00161.8010,00088.9199
0000000854,-0000.6061,00000.0691,00000.3425,00000.6996,00173.4958,00088.8617
0000000855,00000.0410,00000.6006,00000.7728,00000.9796,00086.0922,00088.8767
0000000856,00000.0190,00000.5329,00000.6920,00000.8736,00087.9580,00089.0050
0000000857,-0000.0130,00000.4719,00000.5913,00000.7567,00091.5810,00089.1192
0000000858,-0000.0611,00000.3653,00000.5109,00000.6310,00099.4963,00089.3089
0000000859,00000.0674,00000.6069,00000.8049,00001.0103,00083.6652,00088.8606
0000000860,-0000.0267,00000.3877,00000.9146,00000.9937,00093.9392,00089.2748
0000000861,-0000.0316,00000.3631,00000.8389,00000.9147,00094.9714,00089.3199
0000000862,-0000.0561,00000.3557,00000.7791,00000.8583,00098.9695,00089.3281
0000000863,-0000.0735,00000.3293,00000.6871,00000.7655,00102.5832,00089.3704
0000000864,-0000.1073,00000.2841,00000.5881,00000.6619,00110.6917,00089.4333
0000000865,-0000.1324,00000.2709,00000.5584,00000.6346,00116.0506,00089.4373
0000000866,00000.0138,00000.4842,00000.8705,00000.9962,00088.3688,00089.0962
0000000867,-0000.1088,00000.3486,00000.5339,00000.6468,00107.3381,00089.3186
0000000868,-0000.0955,00000.3760,00000.5730,00000.6920,00104.2458,00089.2762
0000000869,00000.1820,00000.8168,00000.6155,00001.0388,00077.4376,00088.4385
0000000870,00000.1681,00000.7805,00000.5958,00000.9962,00077.8454,00088.5101
0000000871,00000.1086,00000.6846,00000.5554,00000.8882,00080.9888,00088.7066
0000000872,00000.0568,00000.5939,00000.5204,00000.7917,00084.5356,00088.8867
0000000873,00000.0393,00000.5839,00000.5094,00000.7759,00086.1506,00088.9079
0000000874,-0000.0292,00000.5207,00000.4511,00000.6896,00093.2131,00089.0269
0000000875,-0000.0427,00000.4863,00000.4440,00000.6599,00095.0168,00089.0891
0000000876,-0000.2078,00000.6903,00000.7412,00001.0340,00106.7509,00088.6549
0000000877,-0000.1969,00000.6445,00000.7173,00000.9842,00106.9916,00088.7426
0000000878,-0000.1809,00000.5732,00000.6485,00000.8842,00107.5160,00088.8784
0000000879,-0000.1748,00000.4985,00000.5828,00000.7866,00109.3189,00089.0144
0000000880,-0000.1854,00000.4367,00000.4970,00000.6871,00113.0011,00089.1148
0000000881,-0000.1961,00000.4077,00000.5210,00000.6900,00115.6907,00089.1558
0000000882,00000.0328,00000.6520,00000.7579,00001.0003,00087.1225,00088.7818
0000000883,00000.0118,00000.6480,00000.7351,00000.9800,00088.9609,00088.7906
0000000884,-0000.0140,00000.6246,00000.7028,00000.9404,00091.2854,00088.8342
0000000885,-0000.0346,00000.5802,00000.6600,00000.8795,00093.4116,00088.9155
0000000886,-0000.0752,00000.5042,00000.5834,00000.7747,00098.4875,00089.0488
0000000887,00000.0142,00000.7363,00000.7028,00001.0180,00088.8941,00088.6259
0000000888,-0000.0950,00000.6621,00000.5914,00000.8928,00098.1691,00088.7520
0000000889,-0000.1113,00000.5792,00000.5106,00000.7801,00100.8724,00088.8995
0000000890,-0000.1236,00000.5129,00000.4510,00000.6941,00103.5533,00089.0155
0000000891,-0000.2140,00000.8115,00000.6289,00001.0487,00104.7744,00088.4339
0000000892,-0000.2015,00000.7708,00000.5992,00000.9969,00104.6516,00088.5134
0000000893,-0000.2125,00000.6683,00000.4818,00000.8508,00107.6364,00088.6915
0000000894,-0000.2312,00000.6322,00000.4425,00000.8056,00110.0896,00088.7438
0000000895,-0000.2503,00000.5427,00000.3753,00000.7057,00114.7615,00088.8849
0000000896,-0000.3424,00000.7462,00000.6482,00001.0460,00114.6492,00088.4680
0000000897,-0000.3431,00000.7026,00000.6218,00000.9990,00116.0319,00088.5410
0000000898,-0000.3149,00000.5711,00000.5012,00000.8225,00118.8723,00088.7831
0000000899,-0000.3119,00000.5496,00000.4886,00000.7988,00119.5737,00088.8208
0000000900,-0000.3237,00000.5080,00000.4005,00000.7234,00122.5059,00088.8760
0000000901,-0000.3275,00000.4776,00000.3573,00000.6805,00124.4371,00088.9194
0000000902,-0000.4623,00000.6037,00000.7134,00001.0427,00127.4411,00088.5811
0000000903,-0000.4266,00000.5829,00000.6773,00000.9902,00126.1971,00088.6522
0000000904,-0000.3437,00000.3964,00000.4077,00000.6644,00130.9276,00089.0212
0000000905,-0000.4754,00000.5940,00000.6254,00000.9848,00128.6697,00088.5804
0000000906,-0000.4395,00000.5307,00000.5680,00000.8930,00129.6288,00088.7143
0000000907,-0000.4230,00000.4644,00000.4784,00000.7896,00132.3289,00088.8279
0000000908,-0000.5108,00000.4848,00000.7564,00001.0335,00136.4996,00088.6859
0000000909,-0000.4937,00000.4605,00000.7201,00000.9871,00136.9924,00088.7402
0000000910,-0000.4534,00000.4244,00000.6343,00000.8877,00136.8929,00088.8412
0000000911,-0000.3614,00000.4633,00000.8385,00001.0239,00127.9550,00088.9036
0000000912,-0000.3869,00000.4462,00000.7819,00000.9799,00130.9267,00088.8980
0000000913,-0000.2891,00000.5054,00000.8136,00001.0005,00119.7670,00088.9135
0000000914,-0000.2851,00000.4996,00000.7892,00000.9766,00119.7162,00088.9267
0000000915,-0000.2970,00000.4525,00000.6903,00000.8772,00123.2806,00088.9900
0000000916,-0000.2659,00000.3663,00000.6245,00000.7713,00125.9759,00089.1555
0000000917,-0000.1775,00000.5016,00000.8663,00001.0167,00109.4882,00089.0071
0000000918,-0000.1735,00000.4785,00000.8293,00000.9730,00109.9349,00089.0503
0000000919,-0000.1927,00000.4422,00000.7144,00000.8620,00113.5491,00089.0999
0000000920,-0000.1888,00000.4201,00000.6960,00000.8346,00114.2058,00089.1407
0000000921,-0000.2414,00000.3521,00000.5259,00000.6773,00124.4391,00089.2034
0000000922,-0000.2253,00000.3507,00000.8628,00000.9583,00122.7208,00089.2222
0000000923,-0000.1927,00000.4132,00000.8867,00000.9971,00115.0067,00089.1493
0000000924,00000.0277,00000.7231,00000.6736,00000.9887,00087.8102,00088.6497
0000000925,-0000.1522,00000.7120,00000.7289,00001.0303,00102.0636,00088.6414
0000000926,-0000.2292,00000.4523,00000.4065,00000.6499,00116.8784,00089.0539
0000000927,00000.0016,00000.9574,00000.3867,00001.0325,00089.9018,00088.2134
0000000928,-0000.0230,00000.9751,00000.4134,00001.0593,00091.3512,00088.1799
0000000929,-0000.0254,00000.9134,00000.3970,00000.9963,00091.5959,00088.2949
0000000930,00000.0105,00000.8038,00000.3660,00000.8833,00089.2483,00088.5000
0000000931,00000.0038,00000.7278,00000.3262,00000.7975,00089.7012,00088.6420
0000000932,-0000.0465,00000.8712,00000.5735,00001.0441,00093.0569,00088.3720
0000000933,-0000.0852,00000.6546,00000.5267,00000.8445,00097.4123,00088.7683
0000000934,00000.1355,00000.9145,00000.5050,00001.0534,00081.5719,00088.2748
0000000935,00000.1093,00000.8819,00000.4835,00001.0116,00082.9335,00088.3418
0000000936,00000.1027,00000.8758,00000.4908,00001.0092,00083.3098,00088.3545
0000000937,00000.0994,00000.7977,00000.4225,00000.9081,00082.8979,00088.5000
0000000938,00000.0845,00000.7433,00000.3918,00000.8445,00083.5134,00088.6041
0000000939,00000.0578,00000.6605,00000.3580,00000.7535,00085.0026,00088.7628
0000000940,00000.0388,00000.6026,00000.3345,00000.6904,00086.3143,00088.8732
0000000941,00000.1232,00000.7726,00000.4102,00000.8834,00080.9433,00088.5401
0000000942,00000.1692,00000.8516,00000.4588,00000.9820,00078.7606,00088.3799
0000000943,00000.2086,00000.8224,00000.5912,00001.0341,00075.7644,00088.4168
0000000944,00000.0846,00000.8594,00000.5370,00001.0169,00084.3764,00088.3886
0000000945,00000.1213,00001.0192,00000.2786,00001.0635,00083.2106,00088.0847
0000000946,00000.0629,00001.0371,00000.2275,00001.0637,00086.5304,00088.0610
0000000947,00000.0351,00001.0014,00000.2138,00001.0245,00087.9937,00088.1302
0000000948,00000.0216,00000.8646,00000.2202,00000.8924,00088.5657,00088.3862
0000000949,-0000.0129,00000.7655,00000.2195,00000.7965,00090.9670,00088.5713
0000000950,-0000.0211,00000.6762,00000.2107,00000.7086,00091.7897,00088.7376
0000000951,00000.2589,00001.0250,00000.2262,00001.0811,00075.8227,00088.0272
0000000952,00000.2281,00000.9781,00000.2146,00001.0270,00076.8747,00088.1257
0000000953,00000.1995,00000.8842,00000.2142,00000.9314,00077.2875,00088.3086
0000000954,-0000.0903,00000.9580,00000.3765,00001.0333,00095.3847,00088.2044
0000000955,-0000.1237,00001.0004,00000.3267,00001.0597,00097.0495,00088.1189
0000000956,-0000.1740,00000.9407,00000.3617,00001.0227,00100.4788,00088.2148
0000000957,-0000.1435,00000.8321,00000.3440,00000.9118,00099.7854,00088.4243
0000000958,-0000.1170,00000.7238,00000.3235,00000.8014,00099.1795,00088.6319
0000000959,-0000.1194,00000.6375,00000.2726,00000.7035,00100.6116,00088.7898
0000000960,00000.5772,00000.0226,00000.8293,00001.0107,00002.2438,00088.9221
0000000961,-0000.2282,00000.8559,00000.3790,00000.9634,00104.9295,00088.3471
0000000962,00000.5631,00000.0430,00000.7800,00000.9629,00004.3638,00088.9463
0000000963,-0000.2678,00000.9445,00000.4142,00001.0655,00105.8276,00088.1680
0000000964,00000.5169,00000.0759,00000.6918,00000.8669,00008.3559,00089.0253
0000000965,-0000.2504,00000.7659,00000.3237,00000.8684,00108.1013,00088.4964
0000000966,00000.5121,00000.0752,00000.6818,00000.8560,00008.3513,00089.0342
0000000967,-0000.2421,00000.7086,00000.2973,00000.8057,00108.8610,00088.6027
0000000968,00000.4619,00000.0853,00000.6260,00000.7826,00010.4684,00089.1236
0000000969,-0000.2331,00000.6317,00000.2766,00000.7279,00110.2542,00088.7437
0000000970,00000.4500,00000.0895,00000.6100,00000.7633,00011.2558,00089.1440
0000000971,-0000.2305,00000.5773,00000.2599,00000.6738,00111.7642,00088.8401
0000000972,00000.3796,00000.1179,00000.5244,00000.6581,00017.2588,00089.2582
0000000973,-0000.5637,00000.7182,00000.3157,00000.9660,00128.1315,00088.2963
0000000974,00000.6568,00000.1956,00000.7323,00001.0029,00016.5840,00088.7213
0000000975,-0000.5653,00000.7574,00000.3466,00001.0066,00126.7391,00088.2364
0000000976,00000.6312,00000.1846,00000.7066,00000.9653,00016.2987,00088.7728
0000000977,-0000.5905,00000.7137,00000.3553,00000.9921,00129.6014,00088.2714
0000000978,00000.5611,00000.1706,00000.6418,00000.8694,00016.9135,00088.9057
0000000979,-0000.6117,00000.7953,00000.3777,00001.0721,00127.5656,00088.1277
0000000980,00000.4837,00000.1636,00000.5540,00000.7534,00018.6849,00089.0472
0000000981,-0000.5209,00000.6750,00000.3102,00000.9073,00127.6556,00088.4090
0000000982,00000.4242,00000.1680,00000.4874,00000.6677,00021.6071,00089.1487
0000000983,-0000.5063,00000.6588,00000.3023,00000.8841,00127.5441,00088.4496
0000000984,00000.4847,-0000.0538,00000.8165,00000.9511,00353.6681,00089.0900
0000000985,-0000.4765,00000.6110,00000.2734,00000.8216,00127.9483,00088.5542
0000000986,00000.4299,-0000.0062,00000.6978,00000.8196,00359.1750,00089.1977
0000000987,-0000.4352,00000.5240,00000.2341,00000.7203,00129.7091,00088.7289
0000000988,00000.3976,00000.0111,00000.6118,00000.7298,00001.6057,00089.2578
0000000989,-0000.4317,00000.5290,00000.2736,00000.7356,00129.2190,00088.7259
0000000990,00000.3553,00000.0556,00000.5319,00000.6420,00008.8959,00089.3290
0000000991,-0000.4992,00000.7347,00000.5092,00001.0239,00124.1954,00088.3425
0000000992,00000.4860,-0000.1964,00000.8220,00000.9749,00337.9961,00089.0219
0000000993,-0000.4761,00000.6907,00000.4795,00000.9662,00124.5779,00088.4347
0000000994,00000.4470,-0000.1860,00000.7585,00000.8999,00337.4097,00089.0965
0000000995,-0000.4529,00000.6094,00000.4207,00000.8680,00126.6183,00088.5833
0000000996,00000.4204,-0000.1663,00000.7112,00000.8427,00338.4117,00089.1565
0000000997,-0000.5827,00000.7408,00000.4977,00001.0659,00128.1895,00088.2411
0000000998,00000.3806,-0000.1267,00000.6308,00000.7476,00341.5842,00089.2514
0000000999,-0000.4977,00000.6054,00000.3687,00000.8661,00129.4267,00088.5375
0000001000,00000.3425,-0000.0901,00000.5514,00000.6554,00345.2614,00089.3392
0000001001,-0000.5531,00000.6190,00000.6396,00001.0479,00131.7834,00088.4510
0000001002,00000.2480,00000.1066,00000.9625,00000.9997,00023.2559,00089.4963
0000001003,-0000.2318,00000.6470,00000.2335,00000.7258,00109.7115,00088.7176
0000001004,00000.2321,00000.0986,00000.9189,00000.9529,00023.0274,00089.5295
0000001005,-0000.1506,00000.9523,00000.3054,00001.0114,00098.9853,00088.2008
0000001006,00000.2232,00000.0880,00000.8184,00000.8529,00021.5229,00089.5523
0000001007,-0000.0553,00000.8652,00000.5035,00001.0026,00093.6559,00088.3821
0000001008,00000.1919,00000.1102,00000.7189,00000.7522,00029.8798,00089.5871
0000001009,-0000.1450,00000.7384,00000.4509,00000.8772,00101.1078,00088.5959
0000001010,00000.1578,00000.1246,00000.6157,00000.6477,00038.2883,00089.6249
0000001011,-0000.1455,00000.6934,00000.4249,00000.8262,00101.8525,00088.6779
0000001012,00000.3602,-0000.1268,00000.9212,00000.9972,00340.6035,00089.2875
0000001013,-0000.1589,00000.6509,00000.4008,00000.7808,00103.7190,00088.7497
0000001014,00000.3472,-0000.1109,00000.8769,00000.9497,00342.2891,00089.3200
0000001015,-0000.2317,00000.9006,00000.4396,00001.0286,00104.4266,00088.2647
0000001016,00000.3195,-0000.0487,00000.7868,00000.8506,00351.3371,00089.3970
0000001017,-0000.3074,00000.8788,00000.4546,00001.0360,00109.2776,00088.2627
0000001018,00000.3215,-0000.0362,00000.7658,00000.8313,00353.5799,00089.3964
0000001019,-0000.3302,00000.8538,00000.4415,00001.0163,00111.1434,00088.2917
0000001020,00000.2872,00000.0042,00000.6934,00000.7505,00000.8335,00089.4642
0000001021,-0000.3085,00000.7312,00000.3848,00000.8820,00112.8770,00088.5191
0000001022,00000.2238,00000.0375,00000.6061,00000.6472,00009.5178,00089.5766
0000001023,-0000.3389,00000.9936,00000.2614,00001.0819,00108.8326,00088.0409
0000001024,00000.3904,00000.2469,00000.8532,00000.9702,00032.3095,00089.1381
0000001025,-0000.3513,00000.9281,00000.2464,00001.0225,00110.7339,00088.1482
0000001026,00000.3898,00000.2612,00000.8332,00000.9562,00033.8271,00089.1244
0000001027,-0000.3397,00000.8834,00000.2359,00000.9755,00111.0348,00088.2337
0000001028,00000.3423,00000.2870,00000.7362,00000.8611,00039.9816,00089.1665
0000001029,-0000.3308,00000.8114,00000.2267,00000.9051,00112.1807,00088.3648
0000001030,00000.3237,00000.2881,00000.7149,00000.8360,00041.6692,00089.1915
0000001031,-0000.3065,00000.7263,00000.2221,00000.8190,00112.8819,00088.5290
0000001032,00000.2758,00000.2727,00000.6567,00000.7627,00044.6789,00089.2764
0000001033,-0000.2947,00000.6260,00000.2143,00000.7243,00115.2126,00088.7090
0000001034,00000.2219,00000.2734,00000.5797,00000.6782,00050.9444,00089.3430
0000001035,-0000.4807,00000.8754,00000.3428,00001.0559,00118.7737,00088.1364
0000001036,00000.2141,00000.2710,00000.5703,00000.6667,00051.6947,00089.3557
0000001037,-0000.4027,00000.6177,00000.2853,00000.7906,00123.1001,00088.6241
0000001038,00000.4861,00000.2178,00000.8321,00000.9880,00024.1320,00089.0061
0000001039,-0000.3502,00000.5408,00000.2673,00000.6975,00122.9210,00088.7978
0000001040,00000.4677,00000.1899,00000.8167,00000.9601,00022.0947,00089.0582
0000001041,-0000.3844,00000.9730,00000.2716,00001.0809,00111.5589,00088.0477
0000001042,00000.3733,00000.2035,00000.6244,00000.7554,00028.5942,00089.2067
0000001043,-0000.3966,00000.6383,00000.2028,00000.7783,00121.8516,00088.5978
0000001044,00000.3203,00000.2374,00000.5279,00000.6615,00036.5385,00089.2561
0000001045,-0000.4934,00000.8960,00000.2235,00001.0470,00118.8406,00088.0912
0000001046,00000.2695,00000.2708,00000.5061,00000.6341,00045.1401,00089.2872
0000001047,-0000.5220,00000.8321,00000.2284,00001.0085,00122.0998,00088.1670
0000001048,00000.3272,00000.2903,00000.8865,00000.9885,00041.5816,00089.1839
0000001049,-0000.5443,00000.7322,00000.1812,00000.9302,00126.6260,00088.2974
0000001050,00000.2893,00000.2711,00000.8548,00000.9422,00043.1392,00089.2604
0000001051,-0000.6123,00000.7946,00000.2194,00001.0269,00127.6156,00088.1280
0000001052,00000.2842,00000.1945,00000.8593,00000.9257,00034.3891,00089.3575
0000001053,-0000.6313,00000.8781,00000.1751,00001.0956,00125.7155,00087.9817
0000001054,00000.2556,00000.0830,00000.9179,00000.9564,00017.9922,00089.4986
0000001055,-0000.5056,00000.6216,00000.1374,00000.8129,00129.1208,00088.5049
0000001056,00000.4076,00000.1356,00000.9101,00001.0064,00018.4019,00089.1984
0000001057,-0000.4751,00000.5391,00000.1340,00000.7310,00131.3855,00088.6592
0000001058,00000.4203,00000.0786,00000.8985,00000.9950,00010.5978,00089.2022
0000001059,-0000.7701,00000.7508,00000.1862,00001.0915,00135.7300,00087.9929
0000001060,00000.3169,00000.1597,00000.6221,00000.7161,00026.7425,00089.3380
0000001061,-0000.1284,00001.0459,00000.2126,00001.0750,00097.0011,00088.0336
0000001062,00000.3914,-0000.2508,00000.8906,00001.0046,00327.3520,00089.1326
0000001063,-0000.1745,00000.8835,00000.1994,00000.9224,00101.1693,00088.3194
0000001064,00000.3928,-0000.2494,00000.8701,00000.9866,00327.5923,00089.1319
0000001065,-0000.1734,00000.7813,00000.1782,00000.8199,00102.5117,00088.5067
0000001066,00000.3925,-0000.2386,00000.7224,00000.8561,00328.7076,00089.1430
0000001067,-0000.1793,00000.6998,00000.1573,00000.7394,00104.3674,00088.6520
0000001068,00000.1431,00000.0065,00000.9881,00000.9984,00002.5857,00089.7327
0000001069,-0000.1782,00000.6917,00000.1590,00000.7317,00104.4436,00088.6672
0000001070,00000.1511,00000.0336,00000.9387,00000.9514,00012.5433,00089.7111
0000001071,-0000.3997,00000.9580,00000.1934,00001.0559,00112.6448,00088.0628
0000001072,00000.1978,00000.0378,00000.8984,00000.9207,00010.8266,00089.6243
0000001073,-0000.4258,00000.9192,00000.1836,00001.0296,00114.8534,00088.1095
0000001074,00000.2694,-0000.1780,00000.8788,00000.9363,00326.5423,00089.3975
0000001075,-0000.3723,00000.8473,00000.1839,00000.9436,00113.7215,00088.2729
0000001076,00000.2473,-0000.1422,00000.9456,00000.9877,00330.1063,00089.4678
0000001077,00000.0742,00000.7254,00000.3573,00000.8120,00084.1612,00088.6394
0000001078,00000.2468,-0000.0841,00000.7046,00000.7513,00341.1841,00089.5136
0000001079,-0000.1824,00000.8141,00000.4913,00000.9682,00102.6292,00088.4433
0000001080,00000.1719,-0000.0573,00000.6413,00000.6664,00341.5764,00089.6619
0000001081,00000.1792,00000.9358,00000.2251,00000.9790,00079.1597,00088.2220
0000001082,00000.2315,-0000.0785,00000.7446,00000.7837,00341.2659,00089.5440
0000001083,00000.0821,00000.9751,00000.1955,00000.9979,00085.1869,00088.1740
0000001084,00000.3525,00000.4981,00000.8168,00001.0195,00054.7148,00088.8614
0000001085,-0000.0121,00000.9765,00000.2509,00001.0083,00090.7091,00088.1775
0000001086,00000.3372,00000.4883,00000.7672,00000.9699,00055.3691,00088.8928
0000001087,-0000.1495,00001.0151,00000.1670,00001.0395,00098.3808,00088.0853
0000001088,00000.3121,00000.4572,00000.6732,00000.8716,00055.6869,00088.9671
0000001089,00000.1196,00000.5841,00000.5762,00000.8292,00078.4278,00088.8875
0000001090,00000.2779,00000.4217,00000.5845,00000.7725,00056.6120,00089.0577
0000001091,00000.2277,00000.4004,00000.4962,00000.6770,00060.3767,00089.1405
0000001092,00000.3109,00000.6781,00000.3621,00000.8292,00065.3686,00088.6080
0000001093,00000.2500,00000.5029,00000.8481,00001.0172,00063.5683,00088.9521
0000001094,00000.1456,00000.8211,00000.1678,00000.8506,00079.9454,00088.4439
0000001095,00000.2496,00000.4676,00000.8017,00000.9611,00061.9043,00089.0109
0000001096,00000.0401,00000.8577,00000.1148,00000.8663,00087.3244,00088.3978
0000001097,00000.2412,00000.4096,00000.7150,00000.8586,00059.5065,00089.1131
0000001098,00000.0626,00000.8600,00000.1294,00000.8719,00085.8354,00088.3910
0000001099,00000.1678,00000.4224,00000.4829,00000.6631,00068.3337,00089.1520
0000001100,-0000.0698,00000.8723,00000.1128,00000.8823,00094.5774,00088.3671
0000001101,00000.6257,00000.4695,00000.6693,00001.0295,00036.8826,00088.5404
0000001102,-0000.2152,00000.8440,00000.1356,00000.8815,00104.3031,00088.3747
0000001103,00000.5790,00000.4555,00000.6395,00000.9755,00038.1930,00088.6254
0000001104,-0000.4210,00000.8025,00000.1669,00000.9215,00117.6801,00088.3089
0000001105,00000.5128,00000.4259,00000.5684,00000.8760,00039.7110,00088.7561
0000001106,00000.0721,00000.7630,00000.1034,00000.7733,00084.6054,00088.5699
0000001107,00000.4518,00000.4097,00000.4865,00000.7802,00042.1994,00088.8620
0000001108,00000.0926,00000.7545,00000.1315,00000.7714,00082.9992,00088.5816
0000001109,00000.3872,00000.3889,00000.4378,00000.7021,00045.1271,00088.9760
0000001110,00000.0439,00000.7944,00000.1529,00000.8101,00086.8393,00088.5155
0000001111,00000.3732,00000.3861,00000.4195,00000.6814,00045.9744,00088.9981
0000001112,-0000.1156,00000.6822,00000.3843,00000.7915,00099.6207,00088.7090
0000001113,00000.5254,00000.5303,00000.7072,00001.0283,00045.2681,00088.6071
0000001114,00000.0238,00000.2896,00000.5869,00000.6549,00085.3097,00089.4578
0000001115,00000.5041,00000.5192,00000.6600,00000.9794,00045.8422,00088.6497
0000001116,-0000.0069,00000.1443,00000.6327,00000.6490,00092.7212,00089.7305
0000001117,00000.4306,00000.4792,00000.5905,00000.8739,00048.0558,00088.7979
0000001118,-0000.1581,00000.1854,00000.5993,00000.6469,00130.4563,00089.5454
0000001119,00000.3620,00000.4581,00000.5223,00000.7833,00051.6874,00088.9106
0000001120,00000.1201,00000.4954,00000.4010,00000.6486,00076.3774,00089.0488
0000001121,00000.3318,00000.4451,00000.4757,00000.7311,00053.2983,00088.9641
0000001122,00000.0631,00000.4762,00000.4701,00000.6721,00082.4501,00089.1038
0000001123,00000.3042,00000.4258,00000.4312,00000.6781,00054.4563,00089.0236
0000001124,00000.2002,00000.6605,00000.1678,00000.7102,00073.1339,00088.7122
0000001125,00000.4323,00000.4138,00000.8204,00001.0154,00043.7505,00088.8834
0000001126,00000.0380,00000.6446,00000.2991,00000.7116,00086.6233,00088.7952
0000001127,00000.4059,00000.4101,00000.7737,00000.9652,00045.2912,00088.9233
0000001128,00000.0425,00000.6410,00000.2863,00000.7034,00086.2060,00088.8013
0000001129,00000.3644,00000.3779,00000.6880,00000.8654,00046.0424,00089.0205
0000001130,-0000.0760,00000.6169,00000.3034,00000.6916,00097.0240,00088.8403
0000001131,00000.3145,00000.3756,00000.5860,00000.7638,00050.0585,00089.0860
0000001132,-0000.0758,00000.6805,00000.2122,00000.7168,00096.3589,00088.7224
0000001133,00000.2819,00000.3704,00000.4877,00000.6742,00052.7243,00089.1314
0000001134,-0000.1906,00000.6062,00000.3075,00000.7059,00107.4539,00088.8144
0000001135,00000.2368,00000.3302,00000.9201,00001.0059,00054.3552,00089.2418
0000001136,00000.2060,00000.3143,00000.8804,00000.9573,00056.7585,00089.2988
0000001137,00000.1644,00000.2913,00000.7424,00000.8142,00060.5585,00089.3759
0000001138,00000.1460,00000.1395,00000.9735,00000.9942,00043.7059,00089.6232
0000001139,00000.0956,00000.0677,00000.8359,00000.8441,00035.3052,00089.7815
0000001140,00000.0789,00000.0664,00000.7302,00000.7374,00040.0928,00089.8075
0000001141,00000.0751,00000.0439,00000.6396,00000.6455,00030.2939,00089.8378
0000001142,00000.1246,-0000.2721,00000.8310,00000.8832,00294.6147,00089.4417
0000001143,00000.0613,-0000.2028,00000.8567,00000.8825,00286.8185,00089.6046
0000001144,00000.0906,-0000.2287,00000.9312,00000.9631,00291.6158,00089.5411
0000001145,00000.0855,-0000.2231,00000.9605,00000.9897,00290.9615,00089.5542
0000001146,00000.0751,-0000.1118,00000.8191,00000.8301,00303.9077,00089.7487
0000001147,00000.0508,-0000.1124,00000.7403,00000.7505,00294.3226,00089.7699
0000001148,00000.0435,-0000.0802,00000.6392,00000.6456,00298.4899,00089.8297
0000001149,00000.1829,-0000.0087,00000.6783,00000.7025,00357.2627,00089.6584
0000001150,00000.6505,-0000.4718,00000.5470,00000.9721,00324.0488,00088.5004
0000001151,00000.6767,-0000.5120,00000.5749,00001.0249,00322.8867,00088.4166
0000001152,00000.5977,-0000.4827,00000.5571,00000.9490,00321.0789,00088.5664
0000001153,00000.5726,-0000.3631,00000.5461,00000.8706,00327.6186,00088.7349
0000001154,00000.5636,-0000.3152,00000.5387,00000.8410,00330.7851,00088.7951
0000001155,00000.4976,-0000.2462,00000.4985,00000.7461,00333.6783,00088.9641
0000001156,00000.3863,-0000.2113,00000.4465,00000.6271,00331.3288,00089.1784
0000001157,00000.3964,-0000.1962,00000.4353,00000.6206,00333.6681,00089.1748
0000001158,00000.3834,-0000.1440,00000.4656,00000.6201,00339.4189,00089.2358
0000001159,00000.7007,-0000.3998,00000.6021,00001.0066,00330.2946,00088.4947
0000001160,00000.6793,-0000.3632,00000.5812,00000.9650,00331.8688,00088.5626
0000001161,00000.6623,-0000.3288,00000.5668,00000.9317,00333.6005,00088.6202
0000001162,00000.4907,-0000.1547,00000.4653,00000.6938,00342.5003,00089.0399
0000001163,00000.4448,-0000.1285,00000.4293,00000.6314,00343.8864,00089.1362
0000001164,00000.7910,-0000.1218,00000.6140,00001.0087,00351.2440,00088.5066
0000001165,00000.7309,-0000.1057,00000.5739,00000.9353,00351.7690,00088.6220
0000001166,00000.6414,-0000.0884,00000.5431,00000.8451,00352.1522,00088.7919
0000001167,00000.4828,-0000.0233,00000.4392,00000.6531,00357.2411,00089.0981
0000001168,00000.5983,-0000.0591,00000.7770,00000.9824,00354.3559,00088.8782
0000001169,00000.6380,00000.1253,00000.7664,00001.0050,00011.1092,00088.7868
0000001170,00000.4880,00000.1253,00000.5790,00000.7675,00014.4007,00089.0600
0000001171,00000.7048,-0000.1084,00000.7013,00001.0001,00351.2569,00088.6694
0000001172,00000.6085,-0000.0824,00000.5929,00000.8535,00352.2880,00088.8543
0000001173,00000.5164,-0000.0611,00000.5570,00000.7620,00353.2473,00089.0297
0000001174,00000.4417,-0000.0274,00000.4949,00000.6640,00356.4533,00089.1742
0000001175,00000.7335,00000.2458,00000.6745,00001.0263,00018.5258,00088.5566
0000001176,00000.7022,00000.2207,00000.6415,00000.9764,00017.4446,00088.6265
0000001177,00000.6158,00000.2288,00000.5862,00000.8804,00020.3847,00088.7742
0000001178,00000.5998,00000.2334,00000.5737,00000.8622,00021.2639,00088.7990
0000001179,00000.5219,00000.2247,00000.5282,00000.7758,00023.2925,00088.9397
0000001180,00000.6708,00000.3648,00000.6851,00001.0259,00028.5372,00088.5752
0000001181,00000.5122,00000.3322,00000.5681,00000.8339,00032.9654,00088.8608
0000001182,00000.4696,00000.3245,00000.5246,00000.7752,00034.6439,00088.9349
0000001183,00000.3897,00000.2776,00000.4751,00000.6743,00035.4639,00089.1073
0000001184,00000.5473,00000.3367,00000.7862,00001.0154,00031.5964,00088.8010
0000001185,00000.5096,00000.3222,00000.7478,00000.9606,00032.3047,00088.8749
0000001186,00000.7535,00000.0933,00000.6352,00000.9899,00007.0610,00088.5833
0000001187,00000.7209,00000.0507,00000.6526,00000.9738,00004.0239,00088.6515
0000001188,00000.6051,00000.0353,00000.6195,00000.8667,00003.3342,00088.8690
0000001189,00000.4233,00000.0695,00000.4853,00000.6477,00009.3254,00089.1997
0000001190,00000.5936,-0000.4090,00000.6941,00001.0007,00325.4315,00088.6548
0000001191,00000.5732,-0000.3892,00000.6784,00000.9697,00325.8212,00088.7072
0000001192,00000.4982,-0000.3152,00000.6299,00000.8627,00327.6757,00088.9000
0000001193,00000.4332,-0000.2495,00000.5767,00000.7632,00330.0674,00089.0672
0000001194,00000.3356,-0000.1829,00000.4780,00000.6120,00331.4116,00089.2869
0000001195,00000.5400,-0000.3331,00000.7830,00001.0078,00328.3349,00088.8161
0000001196,00000.3771,-0000.2127,00000.6189,00000.7553,00330.5721,00089.1922
0000001197,00000.6560,-0000.2227,00000.7392,00001.0131,00341.2481,00088.7074
0000001198,00000.6111,-0000.2135,00000.7143,00000.9640,00340.7463,00088.7922
0000001199,00000.5425,-0000.1503,00000.6561,00000.8645,00344.5151,00088.9496
0000001200,00000.6649,-0000.3300,00000.6587,00000.9924,00333.6061,00088.6149
0000001201,00000.4847,-0000.2267,00000.5418,00000.7615,00334.9359,00089.0017
0000001202,00000.3925,-0000.4214,00000.8101,00000.9940,00312.9658,00088.9254
0000001203,00000.3517,-0000.4111,00000.7760,00000.9460,00310.5509,00088.9905
0000001204,00000.3358,-0000.3223,00000.6998,00000.8405,00316.1735,00089.1315
0000001205,00000.2689,-0000.2757,00000.6190,00000.7290,00314.2830,00089.2815
0000001206,00000.2396,-0000.2331,00000.5439,00000.6384,00315.7831,00089.3763
0000001207,00000.2274,-0000.2329,00000.5528,00000.6415,00314.3262,00089.3927
0000001208,00000.2732,-0000.4351,00000.7880,00000.9407,00302.1216,00089.0413
0000001209,00000.3317,-0000.4539,00000.7957,00000.9742,00306.1635,00088.9511
0000001210,00000.3236,-0000.4497,00000.7818,00000.9582,00305.7406,00088.9662
0000001211,00000.2731,-0000.3468,00000.8949,00000.9978,00308.2180,00089.1764
0000001212,00000.2735,-0000.3194,00000.8530,00000.9510,00310.5659,00089.2154
0000001213,00000.3320,-0000.2351,00000.7512,00000.8543,00324.7014,00089.2410
0000001214,00000.2378,-0000.2114,00000.6767,00000.7478,00318.3629,00089.4062
0000001215,00000.2854,-0000.5701,00000.6809,00000.9328,00296.5966,00088.8103
0000001216,00000.3233,-0000.4834,00000.6399,00000.8647,00303.7764,00088.9149
0000001217,00000.2441,-0000.4119,00000.5673,00000.7424,00300.6497,00089.1065
0000001218,00000.2144,-0000.3444,00000.5017,00000.6452,00301.9017,00089.2431
0000001219,00000.4404,-0000.5951,00000.6710,00000.9992,00306.5049,00088.6186
0000001220,00000.4363,-0000.5935,00000.6309,00000.9699,00306.3203,00088.6254
0000001221,00000.4241,-0000.5270,00000.5914,00000.8985,00308.8238,00088.7378
0000001222,00000.4135,-0000.4988,00000.5740,00000.8656,00309.6639,00088.7911
0000001223,00000.3939,-0000.4119,00000.5170,00000.7694,00313.7194,00088.9366
0000001224,00000.3430,-0000.3126,00000.4701,00000.6605,00317.6472,00089.1341
0000001225,00000.5538,-0000.4968,00000.6750,00001.0045,00318.1030,00088.6117
0000001226,00000.4718,-0000.4530,00000.6243,00000.9042,00316.1622,00088.7795
min,-0001.0288,-0001.0304,00000.1018,00000.6120,00000.1378,00087.9817
max,00001.0393,00001.0459,00000.9907,00001.0956,00359.5759,00089.9180
mean,-0000.0061,00000.0121,00000.4709,00000.8668,00177.3590,00088.7492
std,00000.4984,00000.5011,00000.2169,00000.1311,00103.8966,00000.4191
