u,v
00382.6233,00215.0014
00340.8314,00194.4200
00388.1297,00114.5849
00376.3009,00168.2644
00372.7476,00159.5492
00355.2575,00172.0659
00360.6247,00239.9437
00370.7585,00229.2213
00384.7289,00203.3868
00362.1759,00149.9373
00348.5385,00130.1989
00365.1743,00223.9147
00374.2834,00225.8773
00326.0826,00205.3687
00373.6854,00185.1432
00390.2186,00181.2974
00348.4516,00161.9679
00357.3318,00163.4500
00345.4356,00255.0042
00302.6408,00210.7383
00308.5309,00196.7752
00293.5268,00175.4510
00332.7477,00180.3309
00335.7404,00158.9400
00255.3465,00169.7003
00270.0763,00172.0089
00264.4355,00193.0133
00260.4051,00199.9866
00264.4993,00208.9678
00314.9887,00262.2812
00314.7484,00243.5684
00343.7109,00229.4268
00322.9402,00202.3976
00323.5702,00150.8494
00319.2824,00227.0954
00339.2056,00216.6270
00260.5465,00159.8300
00272.4473,00140.2145
00284.7669,00161.6092
00279.2124,00168.2323
00246.1769,00194.7445
00260.0843,00200.1938
00267.8086,00204.8688
00253.7760,00215.0483
00296.7673,00246.6247
00295.4144,00249.5913
00307.8906,00235.1952
00287.1468,00223.7618
00261.8435,00206.7991
00282.4034,00259.5867
00292.3468,00258.3568
00242.3640,00272.9073
00249.6457,00260.9573
00296.4817,00284.3830
00248.1550,00198.1132
00254.8706,00187.2686
00295.3240,00163.5610
00282.6893,00175.3557
00280.4930,00169.4346
00278.9852,00212.2742
00278.6166,00209.2483
00285.8559,00194.1116
00262.3492,00220.7593
00234.3985,00189.1785
00351.0568,00243.7848
00291.4153,00172.5646
00335.7890,00192.2240
00335.2669,00172.8475
00338.0713,00170.4872
00299.7720,00148.0980
00299.1226,00217.9008
00291.4485,00226.0922
00299.8731,00217.0213
00285.7891,00195.6387
00246.7625,00210.9322
00293.1738,00230.2189
00264.7531,00173.8942
00301.6975,00257.2137
00322.2581,00207.8778
00275.7822,00163.4498
00255.1938,00146.9097
00357.9792,00227.0458
00353.9019,00228.3658
00362.9698,00231.6313
00376.3112,00166.5917
00357.6081,00168.5509
00346.8999,00166.4754
00339.5177,00154.6643
00244.3874,00178.9408
00246.6843,00189.2098
00295.9971,00175.5511
00264.5788,00170.3269
00330.4045,00229.5579
00296.7098,00221.6087
00336.0222,00206.6670
00316.3891,00232.0412
00338.7521,00202.6895
00304.8050,00277.5688
00297.8145,00235.3710
00318.4164,00227.3962
00312.2708,00134.4984
00314.1529,00137.0123
00302.7722,00135.2502
00237.9891,00161.0930
00271.9999,00119.2661
00244.2749,00139.6672
00185.0536,00205.0116
00196.0623,00186.8988
00255.3055,00169.6273
00256.2762,00165.1581
00240.9007,00144.2978
00230.7579,00157.9268
00234.3096,00161.7243
00238.2292,00168.9230
00260.7755,00140.4818
00352.7052,00268.2129
00302.4032,00250.6880
00299.6172,00270.6273
00296.2888,00259.6030
00281.8913,00260.7248
00278.0992,00243.4680
00275.3149,00228.3595
00246.4039,00216.1436
00208.1277,00175.1722
00198.9622,00149.6442
00236.1593,00211.0476
00279.3359,00242.1864
00298.2741,00239.6357
00293.7140,00224.6844
00284.7336,00208.2249
00260.8196,00217.1148
00260.2054,00241.6601
00251.1877,00233.3378
00279.1328,00230.7595
00260.9866,00230.1670
00350.3263,00212.9757
00367.0267,00202.3988
00399.9467,00174.5522
00379.0535,00205.0535
00363.7159,00160.6380
00331.9498,00152.2189
00340.3310,00178.0228
00357.4131,00169.9297
00353.8387,00167.0519
00361.8018,00204.0871
00361.2075,00210.5315
00303.3041,00201.9411
00350.9999,00255.3621
00334.9720,00212.3684
00324.7094,00166.4071
00317.8917,00153.8430
00334.8159,00165.3044
00353.8338,00192.5518
00307.4480,00227.6069
00297.5047,00252.2108
00308.7503,00257.5155
00286.9186,00189.4583
00240.2464,00283.7151
00266.1039,00259.6918
00267.1066,00144.8235
00412.3837,00248.3664
00347.4748,00175.6152
00297.6275,00192.3177
00392.8566,00337.4696
00373.1371,00279.5258
00372.7070,00229.6440
00376.6711,00248.3675
00398.2740,00219.5853
00373.4584,00213.8317
00357.4750,00219.4271
00396.6061,00195.6270
00385.0113,00182.5580
00381.3520,00149.2599
00392.3543,00186.3743
00395.3918,00168.2241
00341.8339,00300.7387
00365.8415,00283.8801
00394.9099,00272.8265
00327.3652,00152.3715
00283.0539,00189.7019
00381.9502,00224.2168
00366.4355,00195.0894
00352.9641,00185.0293
00328.6723,00250.5066
00360.7645,00229.9333
00377.6583,00179.6186
00407.0730,00149.0245
00292.4195,00180.7221
00288.2171,00182.6853
00328.1411,00193.0631
00367.6635,00188.5410
00403.9256,00184.9088
00251.1040,00178.2995
00298.8023,00249.4016
00348.9514,00216.7381
00418.7814,00198.5797
00379.6570,00169.3078
00279.0049,00264.1595
00264.6514,00171.9817
00299.9601,00198.3259
00326.3705,00226.1469
00325.9247,00228.4727
00289.2382,00215.6048
00277.7120,00189.9963
00323.4167,00196.2133
00282.0536,00184.4557
00295.7244,00153.6183
00303.5484,00155.2919
00205.5148,00170.8749
00225.7483,00216.8492
00254.3117,00135.8778
00248.6680,00221.3748
00316.9456,00191.5043
00271.9499,00202.0960
00267.0026,00288.0856
00307.9144,00191.4232
00357.9271,00213.7554
00310.3824,00178.6801
00327.3357,00197.7528
00375.4606,00225.1698
00323.8669,00195.0847
00340.5053,00275.4759
00336.3646,00189.4162
00302.6174,00218.8619
00309.0985,00237.2144
00286.0997,00181.8814
00262.8695,00182.7502
00251.2379,00201.8198
00339.0226,00149.2587
00275.2483,00265.6352
00302.8047,00268.5203
00289.7739,00217.4077
00240.4644,00189.4140
00303.2850,00143.6685
00296.9559,00194.2295
00281.4108,00144.3290
00256.5069,00155.4947
00322.4794,00146.7645
00236.4516,00188.2462
00322.6576,00212.8704
00280.2840,00157.3963
00406.9982,00153.9422
00406.2007,00148.4910
00313.9769,00197.3886
00360.4261,00236.1182
00391.4499,00176.7258
00284.8112,00211.7835
00299.3496,00198.4919
00247.4323,00227.8891
00275.3936,00238.8117
00242.9062,00165.9976
00431.1970,00206.1024
00337.4037,00147.7144
00338.6686,00137.3324
00307.5297,00172.7587
00321.8167,00169.4488
00315.0205,00168.2203
00299.1349,00146.6338
00279.8071,00167.3461
00288.2073,00161.1993
00288.5616,00161.4268
00297.8040,00132.3702
00311.6971,00131.2649
00308.5520,00175.0327
00350.5650,00150.8533
00355.2586,00143.6912
00342.4125,00150.3862
00315.3091,00170.1729
00301.5608,00176.9006
00328.1761,00203.4871
00322.5119,00268.1867
00332.8393,00171.2106
00356.3893,00154.9467
00379.1653,00178.4325
00280.8488,00127.5273
00307.3761,00200.1166
00310.8414,00197.8020
00268.5673,00113.3064
00243.4704,00161.6404
00335.4354,00164.0688
00289.8620,00160.5562
00292.8595,00155.9025
00293.2907,00186.3933
00339.3681,00180.6765
00351.3141,00183.4200
00301.2147,00175.8804
00250.2350,00185.5906
00385.7097,00239.4478
00390.4519,00239.2457
00385.7056,00259.1116
00374.2889,00223.3667
00290.4745,00185.2621
00367.5688,00238.1163
00386.0037,00218.8194
00390.0538,00214.2587
00376.1805,00222.0146
00322.9062,00214.7146
00333.5258,00161.7121
00329.4687,00154.2482
00331.5833,00147.0620
00315.3763,00152.3154
00372.1334,00265.5678
00375.6415,00268.5744
00413.5885,00247.9234
00412.7557,00238.6471
00344.3395,00243.5921
00337.3083,00209.1270
00354.1689,00227.2692
00367.2783,00212.0115
00374.7720,00206.4279
00353.8053,00147.0060
00377.9900,00272.3998
00398.3046,00251.1063
00399.1916,00198.2141
00348.1866,00217.3404
00370.6581,00175.3579
00281.0732,00190.8634
00366.4862,00261.2359
00358.3409,00257.9120
00376.2472,00229.4950
00313.8207,00198.8597
00369.7305,00271.0021
00303.3685,00168.2021
00313.3199,00155.3054
00406.5092,00234.1693
00266.8815,00203.7682
00359.6078,00230.3229
00378.2098,00217.4335
00421.7027,00225.6122
00445.6053,00218.0654
00309.1270,00149.8827
00364.5026,00239.3380
00374.2563,00282.7352
00380.7204,00213.3882
00377.4173,00206.9398
00317.2073,00247.1057
00332.1077,00229.1512
00348.3210,00260.6585
00388.8094,00209.9821
00428.0793,00195.8521
00377.5748,00207.6025
00387.5957,00189.3128
00398.9612,00192.3118
00362.1158,00180.8270
00343.6292,00157.0080
00351.0177,00162.3980
00387.1880,00197.4709
00372.4512,00169.1662
00370.2031,00184.4394
00344.3170,00147.3842
00410.9502,00257.4244
00478.2103,00242.7778
00383.7055,00254.3818
00411.3544,00266.2417
00332.4190,00274.9503
00357.0732,00242.4305
00337.2604,00201.4014
00336.9653,00203.6156
00331.0952,00216.1730
00304.6687,00239.2249
00336.6207,00229.6317
00351.8974,00231.7250
00380.1727,00229.2073
00407.8728,00201.0967
00406.8900,00171.9859
00331.5915,00253.3437
00320.8216,00178.6551
00355.4399,00239.8988
00353.4568,00226.4059
00376.7241,00166.1655
00337.6915,00204.4678
00370.6949,00212.8454
00390.5057,00234.1036
00402.2275,00233.0938
00414.8858,00223.6794
00387.9043,00194.2411
00372.4108,00142.5118
00358.2992,00133.6922
00361.8208,00125.8792
00364.9499,00276.4776
00372.7190,00259.3803
00366.3332,00193.9137
00367.5029,00180.7812
00402.7853,00204.9011
00390.4366,00201.4980
00414.0958,00209.9435
00420.2758,00203.3305
00424.5567,00181.1049
00342.0710,00165.5958
00323.7539,00164.4043
00306.6653,00192.9020
00315.5615,00192.5627
00326.6515,00189.8541
00350.7497,00181.3811
00331.5519,00165.7021
00270.4685,00212.8053
00271.5117,00185.6268
00260.3868,00196.7019
00210.8067,00192.0403
00401.6641,00153.9471
00399.9524,00160.5754
00369.0899,00178.6989
00364.9013,00168.6889
00360.8462,00104.7151
00354.0828,00097.8509
00358.8007,00196.2357
00358.9772,00192.2855
00336.6723,00181.0960
00284.9059,00194.0907
00312.3770,00183.4281
00304.0341,00161.5054
00348.6372,00146.0276
00355.0119,00138.4917
00263.8319,00213.8339
00299.7856,00205.5350
00337.1775,00199.7361
00321.9199,00174.0119
00302.9108,00197.5957
00325.1309,00240.8273
00323.5679,00226.8873
00367.4052,00291.3600
00284.6465,00212.0061
00244.2650,00179.6668
00358.2265,00251.7630
00319.7934,00246.4549
00337.8242,00190.2653
00375.4157,00253.0653
00307.4053,00172.6120
00302.0725,00226.1544
00323.5728,00200.0095
00375.6638,00243.0218
00383.3547,00237.5393
00392.2575,00199.7587
00363.3238,00219.6055
00356.0096,00232.1226
00349.6997,00209.0434
00185.8905,00180.0937
00343.5916,00245.1583
00340.8846,00203.8360
00302.0108,00173.5399
00285.7169,00172.6789
00276.8216,00189.9895
00290.0740,00180.4614
00320.4323,00181.0029
00295.0506,00180.8000
00259.8412,00177.0466
00249.7531,00191.3302
00195.3543,00202.9310
00306.6510,00202.0770
00293.1623,00217.9297
00345.5685,00193.3322
00298.3112,00186.6840
00299.6460,00179.0546
00363.1627,00161.1304
00343.2582,00341.8556
00315.5372,00284.4586
00321.9685,00267.0949
00336.4518,00265.2535
00271.2148,00192.9252
00297.9379,00149.1129
00304.9326,00292.3630
00388.1127,00317.9866
00321.1864,00236.9502
00372.3317,00192.7297
00327.2620,00155.4519
00324.3161,00207.0213
00323.1476,00176.0156
00376.1874,00201.6575
00409.3763,00195.1260
00412.4126,00181.7149
00369.4955,00177.7743
00405.8053,00200.3248
00409.1128,00205.8849
00399.9691,00200.9016
00394.3297,00209.0103
00393.8026,00195.2724
00446.9559,00240.1580
00482.4541,00242.4958
00420.1532,00195.3338
00408.9827,00201.2298
00357.3000,00240.7133
00365.9144,00235.3691
00375.0865,00222.5766
00396.7887,00211.9243
00374.8827,00230.7580
00404.6562,00179.7935
00420.2657,00178.1482
00407.8971,00200.9701
00387.5368,00306.0277
00401.4189,00283.6184
00421.6260,00289.2561
00430.7275,00280.3798
00391.5903,00208.0314
00373.9417,00193.7281
00379.1868,00339.2025
00361.4866,00280.6918
00393.4159,00185.6856
00373.9844,00328.5453
00388.1303,00291.7511
00394.2645,00277.0945
00387.0086,00230.3123
00370.3071,00178.2903
00385.7740,00215.2165
00358.7167,00270.6927
00368.1248,00237.1032
00364.5687,00224.6721
00393.9389,00212.6700
00403.6714,00194.2944
00375.1285,00180.7219
00295.1450,00255.3405
00294.7604,00235.9524
00369.8795,00299.5096
00389.0193,00266.3661
00406.3500,00221.8645
00396.2461,00154.5042
00328.9104,00269.2964
00351.9218,00222.1622
00364.7601,00166.7478
00403.2046,00205.6536
00378.6761,00230.2704
00328.8614,00258.5318
00320.9556,00268.1374
00386.3085,00249.5008
00324.8254,00272.1006
00329.4487,00215.1135
00427.1229,00253.1756
00309.5984,00162.8697
00329.7986,00250.8368
00303.8220,00252.5279
00295.6331,00211.7190
00287.4882,00212.7100
00431.0214,00183.7984
00424.6723,00257.7122
00328.0771,00211.7748
00290.7333,00200.9502
00407.5732,00219.5614
00369.2851,00234.5804
00411.0960,00212.6280
00359.5151,00257.3726
00399.6315,00254.4747
00425.0060,00231.6858
00427.5040,00227.0595
00453.2515,00155.0009
00412.0730,00182.7795
00377.0471,00196.1673
00372.1961,00204.2865
00290.4317,00216.9951
00287.3693,00178.0839
00414.9422,00187.9180
00408.6294,00198.6554
00389.9590,00162.5817
00381.1024,00171.1101
00357.4444,00166.4692
00325.9134,00169.1161
00457.3473,00132.3096
00405.2390,00161.7011
00412.5857,00111.2407
00410.1997,00207.0194
00428.2748,00204.8465
00376.8848,00161.5303
00365.9185,00187.7863
00319.0026,00212.7038
00343.7534,00203.2843
00402.0428,00225.9704
00293.9716,00213.1509
00291.5191,00169.9758
00412.0286,00186.3797
00297.2007,00203.7571
00277.9984,00200.7439
00343.8716,00130.2818
00341.4123,00190.2445
00352.8368,00157.7791
00413.6523,00156.1140
00311.0223,00162.7251
00331.5008,00167.3615
00279.2409,00244.0545
00423.7921,00183.0183
00401.3100,00128.9993
00388.2608,00177.0915
00423.0166,00150.7840
00383.4741,00251.9646
00378.6110,00236.9934
00358.3027,00216.7106
00367.7380,00224.8780
00362.1411,00217.5002
00346.0412,00167.0669
00384.4108,00264.0593
00370.9032,00266.8001
00362.2027,00238.8578
00338.6223,00228.3862
00320.3546,00215.0443
00290.8001,00184.8653
00320.9775,00200.7716
00352.0875,00242.3740
00362.7310,00217.8485
00352.9512,00215.0817
00350.6741,00201.3047
00300.8864,00158.9841
00363.4698,00227.9841
00327.6559,00189.8759
00316.8509,00177.7877
00376.2278,00263.6734
00380.1502,00206.0507
00341.6940,00222.8577
00358.0450,00237.8609
00367.5420,00244.1172
00365.2691,00224.9321
00322.7416,00173.4157
00360.8891,00219.2333
00390.8781,00220.4423
00414.6800,00217.5104
00389.1758,00216.8622
00379.7036,00251.6316
00347.1293,00270.2707
00359.1444,00255.7669
00334.9230,00249.4028
00332.7477,00227.1133
00379.4572,00267.2104
00382.7906,00269.3232
00412.9043,00239.9748
00306.6178,00264.4165
00322.6496,00241.2059
00312.2828,00241.7074
00330.4557,00219.9096
00312.6122,00219.2256
00423.1171,00287.2061
00414.5938,00263.2470
00383.0157,00229.8385
00401.6775,00223.6889
00405.9054,00203.3401
00391.8015,00169.2290
00381.0718,00117.4778
00360.8886,00254.9438
00338.3032,00252.1408
00297.8264,00257.0908
00285.2841,00232.1873
00297.3783,00189.6008
00321.7204,00262.6986
00415.6647,00299.7236
00437.0857,00224.9801
00399.0844,00233.0325
00383.8289,00228.0321
00378.2262,00194.8959
00325.2395,00283.0173
00316.2136,00222.3410
00300.9813,00209.0285
00447.4423,00218.2925
00341.5284,00170.5036
00313.1113,00229.4987
00331.7840,00235.4655
00343.0280,00207.6087
00363.0649,00180.7753
00407.3166,00159.6690
00402.8578,00155.2492
00384.2295,00260.1202
00385.4963,00261.6343
00389.9460,00254.6356
00390.3768,00253.8257
00358.5957,00268.0396
00336.0042,00239.5621
00388.6013,00199.9729
00361.1505,00160.9663
00350.9095,00150.1848
00351.4646,00162.3335
00368.9434,00254.2934
00433.8888,00261.5579
00361.4808,00167.5641
00444.7017,00243.4411
00479.2253,00241.8127
00423.2676,00185.4223
00359.9113,00167.2045
00356.4813,00249.8568
00374.1765,00251.3214
00376.8501,00243.4739
00363.9930,00229.4712
00339.5838,00196.9419
00305.8428,00183.5755
00396.0674,00184.6427
00395.1788,00188.1729
00398.3892,00211.3245
00395.3690,00192.9364
00382.4605,00175.4336
00371.6559,00168.5172
00264.0511,00191.6843
00248.4413,00164.4893
00268.6562,00224.9463
00273.3300,00218.2271
00295.7073,00214.6162
00268.9261,00187.1096
00244.7460,00189.7949
00272.3593,00198.7559
00302.6985,00210.5701
00272.4539,00201.0876
00262.6644,00121.5681
00265.1381,00118.5250
00326.0295,00169.5309
00311.3765,00173.0311
00310.7097,00203.5154
00282.2454,00251.1838
00319.9861,00212.1709
00332.6721,00225.2180
00302.1713,00238.9311
00335.1208,00221.4751
00366.3938,00206.6031
00364.9415,00148.4874
00330.6038,00203.5490
00325.8211,00224.2989
00294.7264,00283.1393
00316.6335,00272.9848
00371.3557,00251.4217
00352.4833,00150.4246
00346.0910,00195.6841
00338.6126,00222.3375
00327.3530,00220.0041
00369.0605,00189.3254
00318.6519,00175.8256
00282.8071,00181.8183
00282.3534,00280.2376
00248.8434,00231.3178
00277.5159,00220.9970
00301.5800,00217.5257
00326.9818,00221.8575
00322.3678,00213.8452
00319.2943,00200.9886
00336.0387,00170.3263
00320.4122,00210.1282
00328.3309,00209.5586
00278.4545,00179.6917
00294.6279,00199.7654
00313.0910,00218.8051
00291.2399,00176.7348
00243.6976,00209.8841
00244.4260,00197.6950
00271.0029,00294.5945
00281.9097,00287.4449
00304.8845,00253.7570
00325.6943,00246.2580
00330.4736,00193.3977
00329.1819,00149.5853
00311.9845,00217.0056
00336.9317,00309.4851
00309.0006,00297.7462
00354.2822,00271.0373
00345.7780,00242.5877
00274.3538,00206.1143
00426.2349,00269.8453
00400.2462,00259.7365
00344.8514,00155.2130
00370.7274,00208.4677
00316.6235,00180.9388
00312.4753,00165.6017
00321.1897,00245.5345
00304.1196,00233.6612
00293.8371,00227.1132
00296.5699,00167.6035
00314.6661,00159.6268
00320.5397,00156.6479
00331.9068,00189.2924
00311.0921,00177.9753
00337.2794,00161.8519
00341.8749,00149.6607
00352.4592,00147.9495
00359.9354,00148.5634
00391.8802,00229.2643
00415.8548,00218.5556
00372.3506,00183.1505
00328.3136,00216.7764
00343.8146,00204.2436
00371.9156,00188.1963
00443.6975,00180.8060
00382.9910,00149.0233
00384.6112,00131.3965
00415.9607,00185.5515
00390.2928,00181.7785
00380.0288,00162.6785
00369.3107,00272.2041
00390.5870,00256.9173
00392.5132,00212.0665
00397.6915,00198.7251
00339.2777,00144.3357
00286.0251,00159.9559
00299.9327,00128.8778
00302.3349,00162.2278
00308.7517,00172.1038
00297.8708,00116.8939
00292.5712,00134.0213
00304.9632,00199.3503
00329.3273,00168.3014
00379.9757,00120.9412
00289.2141,00173.8889
00258.1539,00146.6458
00306.7933,00202.4924
00327.5151,00194.8365
00315.4123,00130.1033
00383.5259,00244.1262
00397.4783,00224.5191
00332.1901,00225.2247
00339.4724,00176.0172
00286.1976,00244.2206
00225.5698,00217.4265
00274.2928,00201.2438
00250.9889,00240.0808
00275.9900,00241.8936
00293.3103,00142.3460
00294.9226,00275.4051
00305.0067,00273.8703
00315.6576,00163.0155
00329.6479,00193.4609
00345.2010,00210.0563
00277.7771,00216.1535
00322.2120,00154.6517
00278.2871,00217.8029
00305.0202,00270.6081
00297.8507,00234.5425
00280.5224,00273.0049
00322.9468,00205.2266
00410.4476,00197.4763
00351.5580,00212.8657
00210.2400,00158.9685
00220.4265,00167.1271
00369.9052,00309.2401
00345.5186,00315.7610
00271.0846,00275.8474
00381.4640,00236.8844
00355.1257,00265.2894
00332.6603,00190.7280
00387.3227,00203.1639
00387.6914,00196.4960
00313.4929,00205.9183
00315.3809,00175.1585
00308.0319,00165.3026
00317.0791,00158.5944
00348.5938,00178.4927
00296.4807,00198.8901
00249.2799,00218.4019
00317.5280,00198.6089
00315.2866,00221.8824
00302.4653,00217.8243
00398.3001,00159.2335
00381.8536,00183.5721
00426.3751,00188.8166
00293.6113,00169.3109
00283.2683,00157.4696
00321.3051,00202.3037
00263.2317,00164.1904
00275.1572,00175.8149
00341.4164,00178.7327
00356.8323,00155.7314
00405.8771,00118.5416
00350.8711,00172.3497
00359.5352,00142.6379
00432.6267,00135.7686
00372.1269,00128.3961
00356.2287,00171.7057
00363.0335,00146.9657
00377.7552,00235.5576
00380.4878,00205.8272
00355.2668,00161.7748
00319.7287,00159.3071
00392.8980,00205.7966
00352.3766,00212.9371
00393.4617,00228.3654
00368.7141,00208.4031
00343.3679,00196.8797
00314.2784,00192.0993
00299.0259,00160.0830
00373.7936,00238.2723
00313.9268,00182.1349
00311.2973,00153.1832
00374.5484,00268.6859
00369.0990,00255.9146
00341.8363,00234.1532
00326.8114,00216.4872
00331.8205,00214.3060
00300.7641,00184.0560
00315.0835,00163.6960
00371.4957,00284.6111
00346.7066,00274.7543
00338.0877,00224.3224
00294.9451,00222.7015
00259.4535,00138.6197
00266.0916,00167.4650
00370.5382,00252.1104
00384.0713,00255.2742
00373.3857,00235.7332
00397.4505,00210.5947
00324.3603,00196.0244
00350.7945,00287.5366
00369.6508,00224.0006
00357.7235,00185.6133
00349.0136,00127.4904
00414.6050,00260.6006
00368.8484,00251.6262
00311.9804,00230.9769
00315.6480,00201.1637
00296.1751,00181.6344
00418.9844,00283.8808
00425.9279,00293.0374
00393.7028,00222.9301
00356.1937,00185.6102
00275.5174,00181.5116
00268.6210,00154.9166
00301.1973,00231.5276
00288.4234,00249.6115
00262.1463,00190.8645
00366.1034,00222.3857
00333.6872,00173.0419
00292.9401,00191.2868
00292.3203,00239.4276
00257.5903,00240.6454
00272.1468,00195.7060
00284.2349,00178.8303
00295.8736,00175.5515
00336.7662,00245.9103
00357.4296,00250.1996
00365.9244,00217.2856
00267.8010,00179.9592
00328.7712,00226.9334
00348.9001,00231.1874
00396.5334,00230.1438
00387.6620,00221.5632
00307.7848,00169.3383
00314.3247,00254.1461
00279.4765,00273.4391
00382.5654,00264.9690
00324.7566,00231.2336
00279.2068,00163.1601
00309.8974,00271.8411
00345.2150,00144.2253
00369.3276,00166.9210
00390.9131,00174.5019
00378.5563,00141.9745
00326.9331,00165.8611
00397.6964,00167.5846
00349.3282,00173.0118
00362.2990,00181.4663
00358.7603,00182.0405
00350.3434,00170.7556
00371.9994,00165.1915
00352.9914,00139.3480
00329.3622,00142.4144
00295.5485,00174.1144
00278.7820,00196.3181
00352.8716,00199.8409
00275.8000,00104.1531
00323.8253,00313.9890
00314.1867,00282.3540
00313.5780,00236.2024
00310.3681,00197.2430
00333.7030,00174.9843
00330.8995,00135.1272
00345.3588,00203.9956
00354.0763,00197.2574
00359.8826,00218.0021
00326.0444,00152.9285
00305.5545,00154.0116
00298.8865,00117.8607
00327.5081,00178.3200
00310.0833,00176.4290
00223.5163,00149.4753
00368.3169,00154.7171
00294.7143,00220.0305
00400.6865,00167.7810
00311.4970,00209.5618
00375.9694,00147.8215
00341.3156,00179.0954
00371.4211,00137.6344
00325.3424,00173.1784
00309.4717,00129.1815
00290.3269,00141.0371
00299.4522,00136.2113
00297.7705,00128.2204
00278.0531,00143.5589
00317.9199,00242.9309
00367.1494,00163.7849
00306.7244,00209.4583
00383.0544,00161.1265
00339.2635,00171.0292
00379.8788,00148.4867
00311.1111,00153.9246
00355.3156,00155.8405
00324.0378,00170.5000
00320.4024,00151.2523
00327.9568,00172.1703
00377.3878,00194.5863
00334.6371,00178.6341
00364.0127,00155.5055
00315.1154,00140.7650
00352.9393,00112.7573
00235.4656,00177.8088
00318.9834,00101.8598
00272.7330,00144.1672
00333.5656,00205.3380
00280.0554,00148.7769
00333.9972,00198.9174
00298.0811,00140.9958
00335.5467,00205.1487
00306.5945,00166.0490
00331.6817,00227.2495
00334.2260,00146.1958
00305.5257,00176.4024
00337.4175,00129.2586
00293.4163,00180.8232
00341.9471,00143.2066
00297.3005,00174.6595
00286.0914,00255.6147
00309.8765,00150.7026
00224.8739,00126.9471
00258.6299,00218.8820
00366.8236,00162.6978
00270.8203,00190.2304
00342.5360,00161.2609
00285.4594,00254.9336
00297.5016,00155.1304
00292.0635,00249.1113
00368.2955,00283.5186
00286.1092,00255.7065
00339.2913,00160.2189
00289.0597,00257.5358
00345.0886,00167.8853
00293.9123,00245.1577
00371.9643,00183.6591
00258.8659,00202.0440
00341.4038,00234.8685
00299.4261,00232.7174
00311.6449,00191.2063
00304.5216,00239.3770
00320.0790,00175.8750
00323.1381,00205.0807
00340.8486,00169.4437
00324.1022,00190.2041
00299.4826,00121.0013
00286.7585,00174.5026
00275.7015,00147.8311
00273.4269,00163.5663
00315.5681,00168.6576
00270.0804,00161.3438
00297.0184,00155.2514
00375.3225,00227.1539
00314.5228,00132.9282
00372.8405,00252.3331
00256.1689,00225.4069
00368.7663,00212.3339
00224.7591,00151.1031
00308.7762,00172.4546
00385.9525,00296.9187
00225.7278,00186.4378
00277.9041,00203.6925
00290.9771,00158.5728
00265.1909,00127.1325
00274.7613,00182.3984
00304.9264,00202.7579
00256.2277,00206.4605
00301.5927,00225.5447
00255.3699,00260.0566
00320.9486,00112.2682
00278.2655,00231.0378
00310.3343,00158.9228
00313.6189,00273.1095
00370.4067,00214.7604
00299.1210,00226.1717
00379.9422,00228.3396
00281.2269,00254.1389
00387.1779,00194.0700
00303.2665,00278.3727
00370.0694,00204.4400
00341.0701,00239.4973
00362.5605,00186.5991
00327.4580,00232.9688
00328.9980,00184.9901
00323.9498,00215.3833
00393.6852,00179.0204
00312.3952,00217.8035
00390.4461,00176.4191
00392.4167,00243.0498
00424.4552,00153.2619
00355.8931,00280.2383
00343.4306,00182.4870
00346.9996,00237.2093
00274.2768,00219.8270
00356.9171,00215.4216
00293.6556,00184.3143
00352.8826,00149.2019
00280.0286,00178.5807
00302.9554,00200.1015
00297.1828,00180.5219
00287.2281,00210.7129
00273.2458,00193.8327
00289.8539,00236.1581
00304.5742,00181.1039
00294.4450,00233.7220
00332.2986,00191.9614
00279.1314,00190.4699
00273.4444,00184.2403
00288.7231,00241.9683
00237.5197,00236.4813
00300.3427,00257.1450
00238.1556,00262.7174
00300.0885,00256.2286
00185.4959,00167.6027
00285.2386,00277.6907
00294.8509,00211.5798
00307.9409,00198.9244
00292.4876,00226.0640
00290.1813,00213.6958
00310.8898,00236.4546
00336.5162,00186.1165
00275.7083,00204.3028
00342.0188,00202.7281
00260.3003,00181.1823
00348.5397,00216.8986
00253.6533,00183.2685
00342.3134,00189.8844
00345.7528,00201.0772
00301.7341,00150.1368
00347.5734,00193.9577
00292.2461,00179.1349
00295.0875,00197.4060
00246.8915,00194.7487
00238.0058,00227.0895
00297.5284,00143.2462
00225.4892,00210.1090
00299.4609,00154.0764
00205.6477,00191.7271
00244.9449,00118.1692
00254.3123,00190.7959
00338.2933,00135.5781
00267.8581,00196.6292
00290.6355,00144.7413
00322.5799,00182.8857
00250.8785,00168.2077
00280.9754,00182.3226
00252.6978,00183.4712
00218.9684,00190.6447
00264.3779,00157.4064
00331.7911,00221.7917
00290.3488,00253.5780
00290.7986,00244.8844
00344.0068,00262.5022
00338.6681,00291.0108
00354.6206,00241.5717
00370.6170,00197.3062
00435.1725,00235.8064
00408.0107,00272.1004
00378.4482,00288.6597
00388.7264,00281.1426
00389.6670,00256.4171
00375.1400,00267.9146
00364.5635,00224.5447
00274.1418,00214.9913
00292.7159,00174.2515
00283.7148,00154.7771
00302.6564,00159.3115
00306.8528,00178.4724
00316.2584,00175.0131
00337.9269,00174.4791
00319.3831,00174.6681
00307.6916,00149.6174
00296.6256,00171.7637
00337.3291,00229.7673
00350.5267,00236.6911
00348.7385,00238.8810
00364.2587,00205.6653
00370.8148,00186.9070
00371.4304,00255.8953
00388.5727,00233.9457
00395.9542,00216.5037
00357.2569,00187.2042
00366.2155,00250.0995
00379.4895,00242.7499
00303.2332,00205.5825
00337.4381,00313.9054
00366.1707,00247.3525
00361.5134,00208.8217
00368.4334,00203.7880
00375.9855,00287.4086
00366.2820,00267.9670
00370.3286,00238.5272
00364.0960,00233.4364
00318.0190,00243.4264
00396.5124,00251.5005
00347.6354,00249.8084
00327.2753,00229.1948
00335.0421,00152.3126
00360.7790,00209.1121
00385.2631,00197.4887
00370.7163,00270.7493
00349.3246,00279.9104
00354.4214,00237.6976
00289.8713,00210.8413
00291.5090,00228.6164
00305.2823,00219.6215
00351.1226,00217.9674
00374.3499,00198.4270
00348.5741,00170.7995
00355.7995,00257.2306
00377.0410,00208.3839
00367.8375,00273.7303
00379.4666,00263.1151
00378.5125,00253.3473
00333.6026,00233.4683
00369.1880,00211.9452
00417.3564,00204.5174
00367.4011,00209.7848
00324.1845,00176.4482
00324.9865,00152.5498
00338.1384,00178.1203
00340.1059,00170.7604
00453.7918,00215.9504
00363.5733,00209.5751
00341.1071,00234.2953
00386.2821,00234.3818
00364.9402,00203.7505
00294.0164,00177.6595
00291.1789,00205.6446
00446.5348,00197.9960
00327.9415,00175.4464
00317.6466,00192.1510
00350.2345,00161.2449
00444.1007,00153.4104
00340.3676,00196.9648
00373.1329,00241.0277
00387.1100,00243.0477
00356.8272,00243.4246
00368.8357,00200.7724
00372.8767,00268.2475
00395.5476,00256.2889
