u,v
00372.1641,00185.8997
00334.1914,00183.7782
00349.8017,00200.2866
00296.0182,00227.4634
00311.0131,00215.9232
00315.1451,00118.0311
00297.2072,00234.5675
00230.9617,00200.9570
00424.5887,00165.4193
00268.0827,00205.5453
00405.2137,00225.8972
00327.0559,00173.5504
00380.0251,00140.1517
00316.3392,00261.0392
00318.0002,00250.6362
00318.8501,00190.6696
00370.2435,00283.3429
00383.8632,00164.1954
00300.7478,00230.2401
00384.8297,00207.3567
00389.8348,00253.6849
00330.7877,00193.9291
00240.6878,00217.3486
00281.2676,00132.4700
00381.1045,00221.6164
00294.3794,00215.0330
00285.8195,00243.6134
00311.0240,00216.3751
00320.3603,00198.9238
00331.5844,00246.3519
00393.0845,00126.6739
00388.9100,00175.0166
00242.9425,00197.8349
00271.2763,00219.5248
00310.6978,00176.7034
00427.5195,00226.7521
00371.3687,00084.1435
00339.8617,00174.2078
00310.2291,00265.3224
00296.5484,00236.0120
00315.1761,00228.1325
00346.4859,00252.1915
00381.0916,00119.5344
00248.8918,00216.4626
00311.2311,00134.7510
00368.1129,00179.8289
00337.0321,00205.0570
00211.7530,00181.4466
00413.7421,00254.3798
00264.5434,00247.2928
00261.6656,00203.5116
00395.7720,00131.1039
00333.5915,00241.4599
00315.5889,00218.7057
00330.6895,00200.5229
00395.5616,00163.9286
00293.9267,00181.6260
00310.7231,00174.8919
00390.7089,00179.4362
00301.0434,00185.9640
00393.1872,00220.3158
00277.0630,00243.7701
00387.5499,00153.1609
00359.0905,00200.6761
00332.2267,00233.3167
00373.8501,00283.8892
00270.7989,00231.2897
00388.1137,00283.2048
00333.2886,00212.9295
00370.5662,00107.2215
00341.4284,00207.2842
00383.5036,00159.5550
00279.2498,00282.3671
00412.5193,00266.5055
00352.3242,00268.1046
00393.4292,00139.4759
00291.8756,00178.6307
00319.8539,00204.1969
00393.5724,00239.3092
00330.4042,00223.9404
00350.2524,00235.1584
00309.5808,00224.2738
00395.2459,00180.8759
00340.2805,00169.3710
00295.7113,00151.7002
00397.9671,00230.0114
00386.4515,00162.3827
00341.3494,00189.7945
00338.3375,00228.6682
00348.2132,00236.7372
00423.9974,00253.2834
00356.2642,00293.6624
00355.8295,00270.6843
00304.1901,00232.3290
00333.2224,00227.7771
00397.6271,00158.6580
00300.6755,00209.1427
00324.7406,00204.7392
00367.7026,00220.6135
00310.0493,00111.7094
00384.1391,00310.9033
00377.2601,00250.1470
00257.6041,00196.2871
00273.3515,00255.1812
00369.7491,00220.8547
00370.6458,00303.3972
00391.5405,00179.5116
00353.5025,00209.0037
00347.7489,00225.0446
00367.1415,00207.9022
00360.2218,00237.1385
00347.3128,00185.9570
00337.5132,00262.7937
00361.8284,00233.3269
00330.8927,00225.6353
00405.9169,00262.6071
00397.9887,00199.9854
00336.0742,00216.0969
00261.7155,00253.5430
00305.7118,00155.9519
00414.3719,00194.6507
00353.8925,00279.6687
00400.6995,00160.3008
00281.7906,00229.4946
00419.3270,00266.6656
00304.0592,00263.2063
00352.0361,00229.8737
00261.9628,00227.7679
00402.6941,00246.1063
00298.7806,00307.7016
00345.8867,00187.1738
00376.2759,00220.8816
00335.1277,00200.8830
00354.2466,00252.2338
00327.7820,00190.5441
00307.1003,00237.9742
00338.8023,00223.4437
00296.0261,00250.1931
00361.6283,00212.1032
00407.5383,00210.0779
00303.3275,00203.1506
00338.8933,00187.1575
00425.0543,00303.0273
00313.7453,00175.9065
00367.7600,00247.1318
00374.3100,00181.5329
00348.2110,00235.4062
00330.9973,00230.3728
00423.9625,00234.8932
00301.7196,00228.8473
00315.0880,00269.9640
00249.0061,00245.1015
00353.8260,00247.2285
00340.4000,00190.9145
00308.8812,00212.9288
00276.5214,00275.1542
00334.3489,00162.1710
00375.8599,00209.6719
00390.7737,00232.3376
00283.7835,00257.6799
00317.6391,00215.0654
00321.6630,00200.3061
00455.3627,00166.6242
00342.8167,00185.7386
00410.0354,00205.4416
00380.0631,00203.2922
00312.7479,00188.3786
00320.2581,00221.5087
00322.6777,00190.3325
00393.3799,00165.7058
00422.5259,00244.9141
00359.4462,00268.2758
00285.1557,00236.0305
00340.0373,00228.0119
00260.0541,00189.0344
00243.0220,00256.4324
00355.3378,00251.0317
00340.3722,00160.1176
00283.6427,00291.6123
00344.3906,00240.9643
00319.9021,00211.5452
00307.3045,00211.1954
00359.1659,00215.1110
00336.7113,00191.1942
00286.9903,00223.0962
00431.1671,00239.9926
00314.2179,00208.9320
00425.6732,00199.1314
00364.6362,00170.7682
00324.6647,00185.7595
00358.9554,00201.2863
00386.4249,00145.3301
00363.3991,00149.6650
00367.6603,00248.3786
00353.6713,00155.5693
00417.9036,00284.9420
00333.5017,00267.5608
00367.0894,00276.5339
00282.3912,00219.7307
00348.4544,00178.9495
00249.9135,00191.3242
00439.9395,00236.2572
00290.1244,00325.9680
00373.3275,00308.2911
00231.0405,00291.0138
00419.2540,00297.5833
00315.9975,00216.7990
00317.2510,00222.4627
00318.1949,00215.8144
00316.9031,00230.5258
00280.5008,00187.5387
00327.6586,00173.3849
00308.7857,00120.1178
00372.9786,00166.6578
00369.4451,00229.6834
00327.5723,00158.4507
00368.0211,00138.6048
00345.2582,00138.4875
00359.2696,00236.3121
00353.0198,00251.3910
00383.2486,00283.0455
00343.7152,00172.1460
00269.6909,00225.4713
00363.4801,00197.1331
00380.7203,00249.6348
00259.0021,00182.3204
00397.8928,00299.1464
00234.4272,00291.2177
00352.1422,00344.0006
00317.4104,00218.3829
00351.1219,00248.3648
00309.5810,00226.6161
00314.2617,00176.7871
00330.8226,00206.5784
00289.0775,00226.8377
00326.9697,00077.3761
00312.5377,00188.5636
00312.4863,00192.9830
00354.5585,00165.3249
00395.9140,00287.0605
00265.5096,00215.2144
00327.3546,00139.7129
00424.9059,00229.6580
00426.3357,00241.2584
00295.0517,00190.8663
00351.8736,00213.5700
00333.9445,00164.1685
00389.6212,00289.1124
00206.0024,00213.1138
00237.2499,00281.4237
00287.2919,00211.3886
00432.9578,00263.5402
00370.3866,00285.5204
00328.8351,00062.2829
00330.5963,00247.7121
00321.0289,00178.3660
00343.6209,00189.6533
00280.3167,00234.3690
00403.9348,00183.9556
00220.4895,00234.9009
00305.9974,00151.2427
00305.5518,00250.5232
00350.6987,00221.1053
00337.1939,00159.2772
00384.2533,00269.8344
00381.2378,00249.5619
00253.0960,00184.4209
00417.2693,00225.8666
00412.5035,00215.4971
00388.7461,00242.2352
00341.0234,00212.3765
00337.5454,00319.7908
00353.6735,00163.4693
00301.8944,00116.3290
00314.4513,00207.4787
00267.1836,00261.9576
00450.5063,00244.5102
00271.7356,00185.6598
00410.9275,00182.2377
00291.2860,00286.1766
00403.2756,00188.2210
00201.7616,00284.3978
00391.4319,00195.7577
00277.0500,00131.8734
00325.9366,00116.5027
00321.8280,00248.7598
00346.5422,00278.3153
00368.3656,00235.1134
00347.7462,00279.0675
00316.9489,00184.4400
00361.5408,00299.3629
00269.0942,00204.7948
00288.8561,00152.2201
00365.1149,00220.9843
00424.7433,00195.9573
00295.6872,00178.8358
00352.6682,00229.6214
00343.6432,00180.4030
00336.3510,00304.9743
00272.8249,00248.2948
00256.9797,00220.4524
00439.6025,00238.1839
00348.6954,00202.5918
00368.2978,00234.3292
00392.8557,00275.1281
00249.7329,00133.3605
00191.2875,00265.1735
00320.3092,00116.8676
00370.0909,00233.8731
00330.3371,00203.0623
00315.5448,00164.5901
00332.0316,00254.8772
00383.0421,00291.7595
00314.0907,00183.4652
00316.6521,00232.5922
00337.8519,00215.8450
00351.3387,00300.1684
00337.7006,00229.1599
00301.5934,00188.7699
00309.6684,00272.0787
00403.6731,00245.7841
00291.9743,00198.5242
00329.6192,00184.2017
00317.0321,00211.7560
00300.6371,00252.9110
00423.8952,00228.9583
00320.8976,00206.9766
00283.6165,00154.2016
00391.6394,00246.2075
00421.1120,00216.4103
00362.8939,00240.5605
00317.3148,00255.2190
00247.1529,00206.7862
00336.9240,00169.6483
00294.1342,00233.4297
00333.5891,00146.2500
00363.0683,00267.5950
00312.0480,00210.5587
00360.5128,00274.4734
00386.8875,00266.2299
00352.7001,00274.9818
00333.8835,00229.6568
00275.9709,00293.3457
00317.5254,00222.1617
00338.0469,00218.9580
00281.6475,00218.9574
00298.2985,00158.2241
00275.5769,00232.0835
00312.6064,00262.2611
00378.5988,00135.2870
00422.8236,00213.3937
00385.3706,00191.4262
00318.4102,00204.2759
00377.8446,00176.7934
00296.6192,00265.2013
00270.3291,00177.4074
00319.6111,00207.0924
00370.3086,00281.4083
00281.3772,00174.4971
00426.6747,00152.0585
00405.6895,00224.7740
00385.2612,00233.5709
00393.6187,00291.1288
00286.5678,00204.9719
00336.8756,00330.8087
00383.9968,00226.7497
00340.7071,00227.2579
00301.2761,00286.0806
00309.1404,00210.1501
00290.4285,00238.7005
00310.2442,00194.2379
00309.3211,00282.9687
00314.2260,00139.3864
00335.8941,00182.9705
00385.9131,00129.8803
00321.9309,00233.2050
00410.3263,00192.4227
00267.3029,00189.8419
00354.1034,00215.0785
00303.2962,00188.1700
00346.2163,00244.8311
00349.1787,00196.4400
00331.7377,00197.9338
00383.4995,00245.8705
00305.8785,00241.9120
00396.5709,00216.2157
00373.8059,00291.9807
00298.9660,00212.9254
00385.5894,00251.5544
00427.5225,00255.1823
00381.0938,00180.7020
00376.7333,00173.3009
00305.1416,00198.9589
00267.7597,00285.6406
00419.9237,00190.3724
00327.5513,00200.8634
00346.2954,00153.4987
00305.3652,00245.8522
00313.7479,00157.9861
00242.0496,00217.2389
00330.0400,00176.9588
00437.8321,00152.8323
00379.3250,00180.0639
00372.3709,00243.5236
00309.0125,00190.3752
00375.1222,00241.1149
00347.7176,00250.7805
00322.0602,00217.6315
00309.6581,00232.6903
00391.1659,00229.5114
00320.5862,00271.0567
00302.2511,00218.3546
00410.8168,00258.3232
00364.0477,00191.1543
00310.3396,00206.0901
00394.1466,00289.0491
00331.7712,00169.2696
00343.7576,00202.8116
00326.8459,00172.1577
00364.0872,00164.6625
00247.3429,00264.8586
00328.1947,00223.8006
00236.7973,00184.3924
00298.1271,00238.2811
00290.6830,00164.9588
00323.0808,00158.5485
00368.5765,00209.1096
00336.4001,00234.1059
00368.8099,00262.0930
00322.8832,00192.0755
00342.0395,00196.0352
00338.4063,00262.4521
00322.0315,00204.5706
00324.7171,00266.9702
00334.8094,00237.2257
00345.0263,00198.4508
00315.1750,00188.0197
00328.1832,00239.7655
00353.8151,00191.6647
00334.0270,00159.9259
00370.2639,00144.9899
00425.3538,00261.7455
00402.4297,00240.4380
00301.2917,00145.8409
00288.4188,00249.4705
00257.3697,00263.3646
00293.8557,00204.9035
00338.2707,00168.6587
00366.3178,00270.9484
00314.9308,00180.6057
00333.9476,00229.9882
00368.6165,00216.9747
00358.9361,00273.3166
00334.6345,00168.8020
00334.5255,00221.9243
00344.5017,00262.1197
00333.8242,00188.4256
00377.5324,00289.2916
00346.7452,00190.8681
00335.4478,00232.2216
00317.8535,00157.6406
00349.0967,00170.2835
00335.1400,00227.3289
00401.8175,00187.9039
00329.4871,00220.1662
00387.0038,00195.6178
00350.1264,00169.6258
00314.3965,00174.2004
00298.6232,00284.3129
00345.3821,00270.3853
00286.2919,00147.1525
00357.1342,00292.5701
00306.9333,00259.7575
00296.2596,00204.4935
00374.5160,00210.4354
00314.4497,00217.6753
00350.0310,00225.9821
00338.6241,00193.1125
00348.4192,00216.5378
00341.8295,00193.4468
00300.8576,00252.4310
00299.5455,00148.9962
00385.3049,00222.5531
00356.8980,00149.0793
00332.4045,00231.9731
00337.5292,00306.8321
00326.6049,00225.6182
00360.7947,00195.1672
00282.3815,00191.8180
00403.7419,00178.4871
00362.6292,00289.5140
00375.0339,00201.1593
00326.6833,00155.1250
00358.0458,00304.4600
00336.4598,00264.2695
00325.5943,00145.1507
00323.8509,00274.3646
00222.1723,00110.7164
00395.8773,00227.3878
00396.8447,00228.2736
00421.3236,00243.3884
00326.7614,00188.4477
00368.8254,00209.4693
00348.8341,00173.6313
00418.2533,00201.5425
00396.0712,00241.1290
00317.8253,00233.9732
00349.6590,00184.0446
00360.9578,00232.0789
00287.2350,00240.7500
00371.2227,00185.9754
00335.9219,00224.6510
00369.6790,00282.6669
00297.0010,00178.8803
00388.5317,00168.3163
00298.6812,00207.1192
00418.7663,00265.7374
00300.2232,00174.2692
00262.2811,00181.4255
00323.3243,00150.8236
00264.5915,00215.5233
00322.3945,00275.7609
00264.9360,00137.2725
00368.3163,00206.5801
00297.2078,00201.3253
00411.3002,00250.1255
00338.7714,00236.5366
00290.8133,00184.7398
00349.0532,00232.6488
00403.4241,00198.8310
00331.3876,00287.6998
00428.4344,00202.1709
00310.4840,00232.2152
00380.7567,00165.7420
00369.7616,00285.1239
00376.3422,00238.7348
00275.4593,00148.0397
00343.2139,00222.2334
00309.2829,00208.1924
00418.7575,00155.6317
00384.7192,00264.7379
00309.1016,00179.3479
00356.6262,00198.9625
00348.6741,00173.0600
00291.9229,00227.6696
00288.4662,00206.3112
00229.4886,00208.7473
00341.2610,00236.0304
00384.0759,00198.2845
00247.5488,00161.6568
00335.4988,00242.1117
00334.1693,00235.2228
00446.2404,00227.9530
00366.2480,00122.5817
00322.0667,00190.1200
00332.0163,00251.5077
00420.5493,00204.7561
00343.5637,00280.3880
00301.9238,00230.8639
00303.0371,00138.5905
00340.9394,00218.2276
00323.9370,00213.5269
00336.0431,00204.1619
00311.4165,00165.1956
00415.6395,00096.6812
00313.7959,00267.5975
00333.3536,00177.2702
00296.0313,00162.5463
00301.3061,00257.6874
00277.0344,00184.1854
00241.8736,00247.9413
00335.1826,00244.9111
00279.9494,00196.5195
00374.7098,00186.4253
00343.5957,00185.9048
00339.5544,00227.2743
00268.9042,00138.3481
00430.8057,00219.2441
00379.4352,00202.0724
00310.4639,00298.3648
00405.9085,00211.0846
00262.8337,00173.1353
00307.5693,00243.1626
00302.5119,00236.0413
00333.7704,00280.6226
00366.6507,00227.1071
00297.8687,00220.0391
00335.3353,00215.7489
00410.0872,00105.9237
00370.3458,00249.0477
00385.2752,00212.8648
00282.4278,00179.0751
00254.9283,00238.8548
00289.9583,00163.0685
00334.6577,00273.9902
00245.7111,00207.7789
00321.4626,00176.5277
00312.7530,00255.1459
00385.1388,00173.8627
00327.6159,00229.4477
00289.4028,00155.8167
00281.2287,00138.5615
00442.8821,00237.7079
00341.0887,00242.8861
00385.9258,00169.6973
00409.3740,00246.4529
00349.1131,00222.6662
00283.6856,00195.0036
00331.3178,00253.8653
00366.6578,00312.7676
00298.7512,00216.3454
00336.1854,00219.9184
00358.7066,00143.0029
00359.9913,00262.6379
00335.4489,00144.8414
00249.1461,00224.3215
00316.2442,00191.1002
00248.8412,00210.7931
00256.1483,00220.2114
00311.5028,00282.2430
00314.8212,00164.1098
00294.8493,00266.6686
00305.6626,00133.1020
00323.3739,00301.1161
00300.8233,00238.2140
00197.8602,00212.6287
00335.3518,00161.7158
00265.0428,00197.7291
00379.5292,00239.1875
00286.9677,00178.0420
00357.9346,00208.3866
00328.1931,00257.1663
00335.3129,00245.4680
00389.1950,00288.4229
00305.5107,00218.9805
00262.1221,00239.2745
00294.9331,00172.9242
00321.9294,00179.0489
00335.5328,00137.9263
00316.8254,00247.1709
00289.8604,00181.3985
00247.0617,00227.8318
00342.8227,00271.2672
00270.8354,00169.8674
00331.3868,00289.5616
00289.5133,00143.9380
00324.0672,00239.1905
00249.2780,00192.1360
00342.9391,00308.3959
00246.0864,00251.0758
00252.6699,00223.8366
00341.4805,00125.5890
00247.2347,00194.3062
00383.5808,00237.7652
00270.9811,00234.8479
00369.1978,00216.7993
00356.1787,00244.2646
00335.2092,00259.9066
00322.0647,00166.1713
00324.8911,00178.7596
00311.9278,00210.3609
00387.9419,00277.8549
00386.0043,00145.1140
00366.3841,00324.1508
00282.1613,00239.6860
00211.7521,00208.4340
00436.3749,00282.8983
00311.8955,00190.4380
00205.9556,00119.4642
00307.2968,00243.7006
00250.3621,00202.4249
00449.5470,00142.8281
00345.6203,00178.1183
00368.1470,00293.1183
00253.5308,00163.4581
00261.5511,00217.1961
00333.9481,00125.2815
00236.0724,00243.0885
00385.1668,00240.0929
00306.4832,00175.0184
00377.9471,00201.1090
00310.7565,00243.6747
00326.8227,00216.9567
00361.4538,00251.3421
00328.3864,00321.7455
00380.3669,00292.9246
00321.9085,00261.6553
00361.4760,00163.0551
00328.1871,00136.4529
00184.9074,00238.2459
00418.1320,00293.5859
00259.8453,00138.0039
00367.6185,00264.8000
00330.4018,00177.9896
00297.2306,00153.2235
00272.4868,00263.1987
00384.0249,00183.1686
00309.9807,00146.7524
00370.7689,00285.6178
00281.0908,00188.7531
00261.5140,00218.5468
00346.1278,00123.4197
00306.2407,00207.4200
00280.1233,00205.9959
00350.7433,00252.0105
00356.4610,00219.8924
00331.0973,00218.3509
00314.4036,00300.3008
00244.7615,00270.3333
00347.9564,00194.5639
00268.2477,00251.7228
00385.7991,00228.5099
00382.2436,00254.2841
00334.3721,00269.9915
00338.7797,00214.7315
00279.7191,00156.7356
00278.8275,00158.8372
00270.2642,00265.1923
00321.7135,00179.3561
00334.6183,00228.8477
00319.9742,00125.1306
00308.3000,00192.8998
00322.6417,00120.5855
00346.6226,00225.4918
00266.9917,00227.8725
00359.1629,00252.4304
00298.3753,00219.4066
00316.5984,00214.9482
00297.9071,00139.3806
00374.7990,00201.2162
00326.5081,00294.9085
00286.4717,00236.7091
00352.7937,00224.7802
00307.5561,00255.0782
00264.6088,00240.5462
00405.7415,00246.9399
00394.3037,00255.5938
00295.4757,00191.8255
00327.5989,00228.3110
00330.7452,00255.7961
00340.1767,00127.1303
00275.4181,00269.5819
00321.4063,00125.3974
00319.5167,00193.0943
00326.8066,00173.4056
00339.7519,00218.8645
00277.6824,00176.6773
00343.3695,00233.5446
00367.4058,00238.3374
00390.7768,00238.7330
00267.3697,00215.3590
00333.6180,00279.2800
00416.5605,00177.9894
00340.4184,00187.0843
00303.3112,00125.1489
00324.4743,00212.2442
00359.3356,00127.5870
00301.4895,00215.9558
00295.3315,00264.2439
00401.6105,00184.2701
00378.4400,00248.8552
00366.0449,00222.7216
00241.8634,00144.4227
00328.9864,00249.0813
00340.8061,00281.0163
00327.2652,00284.3006
00330.0800,00143.8404
00292.0816,00197.1543
00284.8081,00258.6914
00391.2131,00277.0999
00335.5509,00237.6450
00457.6524,00294.0879
00371.8284,00119.2648
00311.2966,00201.4861
00363.5178,00209.0278
00303.3019,00259.7668
00252.0912,00228.8519
00342.8155,00126.7835
00295.3853,00168.0412
00350.6657,00137.4196
00362.7143,00171.3304
00302.9139,00235.4827
00278.9083,00112.7322
00269.9599,00218.7458
00314.6250,00282.3752
00395.9719,00181.5178
00391.7735,00210.7415
00282.6752,00226.6452
00338.4305,00282.8282
00334.4268,00271.4417
00323.3377,00175.4059
00311.8413,00176.6883
00279.0437,00261.4351
00464.8576,00275.7383
00442.3488,00243.4441
00330.4850,00238.2545
00314.8152,00173.0185
00299.0435,00182.1338
00382.1023,00172.9985
00299.7531,00248.9022
00375.9071,00213.7952
00352.7050,00224.9154
00353.3788,00150.8329
00291.3159,00223.9600
00239.2065,00121.5609
00326.2493,00217.2732
00371.9819,00183.4842
00368.2184,00232.5330
00290.9580,00154.6503
00298.5724,00249.1989
00367.7379,00195.6123
00376.4820,00165.2914
00355.5773,00191.2411
00286.7975,00267.2980
00378.3880,00205.0892
00329.1428,00277.2667
00310.7102,00153.7680
00303.5840,00227.0654
00306.5743,00192.4287
00372.4280,00166.9894
00355.3464,00160.1613
00317.9905,00286.5573
00269.0188,00285.1988
00356.4242,00206.6053
00399.3576,00179.8924
00354.9850,00117.1797
00299.1333,00143.4706
00289.2368,00290.8565
00264.3852,00116.0800
00371.1602,00280.7738
00403.0482,00155.5737
00341.5620,00256.6557
00325.2901,00243.7680
00295.4443,00261.9413
00341.1155,00172.9578
00318.8743,00240.0977
00369.4921,00187.2795
00364.4181,00186.7458
00330.5343,00284.7124
00351.6474,00159.8073
00384.5232,00210.0690
00338.8636,00150.6534
00291.4741,00175.4923
00359.1192,00143.1230
00319.6251,00302.7526
00262.8996,00271.3103
00451.9985,00246.2827
00332.0905,00167.8488
00304.6867,00169.4612
00356.9113,00241.1922
00385.0152,00171.5680
00315.4200,00201.6507
00449.6414,00166.0288
00347.0994,00257.2992
00389.2684,00198.0560
00387.8912,00163.1983
00369.0565,00278.3706
00310.2658,00272.5038
00229.5612,00230.5582
00330.2326,00172.4831
00327.1297,00195.5788
00365.0422,00186.0097
00317.8931,00154.1890
00366.2478,00200.3093
00349.9005,00279.5368
00397.4352,00208.8447
00258.0951,00162.2471
00363.3451,00174.2341
00411.2129,00228.2382
00244.5897,00305.3161
00432.8831,00260.1399
00342.1982,00169.7444
00301.0539,00185.9707
00320.6055,00199.0655
00360.8458,00262.7580
00236.5187,00239.6770
00403.4886,00156.1669
00387.5338,00131.7394
00317.7251,00234.3067
00316.2636,00164.3818
00335.2406,00187.9175
00302.4979,00157.6756
00342.7603,00183.5512
00305.1319,00287.0569
00379.8594,00230.2233
00369.5976,00195.2796
00253.3610,00195.4381
00353.6409,00221.7608
00354.0108,00117.2002
00332.2934,00277.9682
00313.4022,00242.1258
00393.8482,00198.2826
00271.0266,00302.6938
00375.4118,00222.0295
00334.9228,00180.4251
00389.7528,00224.2859
00290.3528,00165.1900
00299.0533,00182.8759
00243.4202,00219.9760
00265.7182,00228.6537
00332.4754,00182.3489
00355.6647,00184.1474
00350.5269,00145.6035
00313.0150,00190.5270
00332.0605,00193.8776
00411.5295,00136.0881
00239.5023,00196.0946
00293.0316,00284.1772
00323.5977,00178.9827
00358.1752,00237.7418
00330.5838,00147.4207
00389.9191,00198.0839
00359.4832,00200.8866
00284.5526,00264.3693
00276.2022,00160.2284
00326.7667,00289.1984
00316.8834,00236.3063
00314.1356,00129.1266
00350.1191,00202.6786
00286.0898,00173.2788
00345.8577,00178.4405
00354.6446,00235.9890
00238.3914,00200.3281
00323.9554,00226.8144
00324.6910,00129.4527
00372.7467,00216.6608
00312.6840,00183.1497
00331.0529,00186.8760
00378.3587,00109.5707
00327.9724,00196.7437
00406.4670,00131.8503
00299.2639,00271.1411
00295.8317,00121.7929
00254.9847,00234.3902
00319.2709,00211.0103
00387.8834,00189.1604
00331.3338,00235.1382
00279.6089,00176.9190
00309.9759,00124.1100
00320.2923,00167.9356
00276.1500,00157.5243
00359.2981,00297.4496
00302.3058,00195.8745
00334.0219,00219.4418
00335.4849,00172.6970
00243.8196,00210.8677
00373.9259,00255.0399
00296.2197,00127.0026
00305.0686,00231.4295
00362.0026,00242.0046
00304.5797,00187.7641
00326.0904,00188.7510
00351.3237,00114.8825
00285.0052,00117.8456
00320.9184,00182.0115
00323.0446,00192.2964
00300.5938,00268.3121
00303.9710,00309.6498
00332.6184,00184.4563
00304.3332,00105.2263
00433.0189,00250.9881
00335.0059,00214.1150
00328.6046,00230.0726
00358.5439,00188.3916
00306.2997,00201.7737
00272.9656,00221.0291
00261.3369,00125.2473
00323.3790,00134.4472
00381.8734,00319.0963
00273.2085,00238.3928
00308.8758,00259.3214
00359.5931,00228.8005
00372.2581,00232.4964
00378.9887,00188.4411
00339.4271,00204.2039
00331.4050,00192.7025
00237.6286,00137.6453
00307.6863,00160.2596
00373.9854,00195.8008
00303.2562,00230.2953
00311.7558,00190.3459
00233.6374,00224.7388
00333.8902,00104.1205
00310.3785,00307.0932
00312.0610,00213.1846
00314.4591,00236.3008
00452.9542,00222.2669
00302.3733,00233.1381
00384.9870,00316.7585
00288.2109,00208.1130
00314.2795,00182.6169
00302.0312,00186.7916
00284.0634,00238.4046
00284.0034,00146.8985
00355.2225,00199.1245
00369.3782,00150.2452
00358.1631,00186.9833
00411.8697,00245.3387
00310.1228,00179.9481
00207.9494,00115.6443
00384.6704,00148.5450
00341.6978,00225.1129
00351.0812,00165.3027
00314.8715,00175.7475
00357.1389,00183.6059
00285.2261,00186.2822
00337.3626,00208.0100
00333.2564,00229.4334
00316.9849,00114.9600
00319.3238,00306.1123
00410.1660,00272.6728
00328.0007,00132.1646
00385.4556,00194.2554
00408.2662,00210.5007
00300.7310,00257.9572
00297.7844,00233.1499
00312.1485,00146.9243
00332.0210,00201.6976
00372.0964,00159.0050
00328.9084,00200.8916
00296.6204,00147.7238
00375.5014,00211.0763
00312.2821,00235.1124
00272.7887,00165.8830
00328.1761,00187.1488
00331.0618,00164.5090
00386.4448,00190.9916
00370.2065,00202.7354
00240.0082,00178.3607
00333.0271,00165.4759
00359.5633,00231.8999
00367.0943,00185.1214
00349.5738,00140.2172
00286.2422,00210.1588
00403.6845,00191.4350
00282.3197,00309.9780
00386.0509,00248.2579
00432.5525,00149.0812
00420.1779,00206.4620
00276.4307,00252.3943
00399.5944,00207.8793
00289.4369,00164.9476
00373.2164,00223.5763
00328.7846,00211.2264
00336.3279,00213.3044
00310.0739,00189.5259
00389.2323,00151.3197
00309.3914,00224.8194
00288.2744,00110.1538
00329.2378,00168.9081
00384.1465,00163.3991
00424.4244,00182.1584
00423.4801,00231.1592
00371.1160,00204.6619
00345.0443,00284.8987
00241.7001,00161.9167
00353.2437,00128.3622
00366.8669,00161.4848
00402.3215,00127.0098
00341.1353,00257.2147
00279.4229,00284.5021
00389.6175,00251.6092
00370.8325,00183.8797
00426.0336,00211.0958
00263.6490,00231.5487
00292.0895,00210.1817
00397.4948,00208.7100
00311.9434,00207.5152
00323.0595,00225.0834
00298.7829,00163.8488
00302.8313,00225.4395
00329.1560,00160.4176
00319.6095,00276.3190
00366.2547,00176.4926
00404.9266,00264.2485
00329.3130,00229.0852
00381.5893,00130.0651
00469.7496,00165.0637
00376.1108,00188.7329
00391.8997,00202.5925
00227.7210,00175.8962
00347.8754,00275.7396
00323.3178,00219.8298
00309.0967,00149.7457
00368.5864,00211.2023
00383.5240,00261.7517
00298.9928,00178.5717
00394.3009,00256.3775
00354.9719,00181.0644
00219.9205,00251.1676
00295.3520,00202.4511
00397.2170,00230.0074
00324.6929,00243.6770
00418.4407,00164.9756
00296.4370,00146.0642
00397.5948,00180.9664
00327.8546,00259.0908
00331.7246,00274.5013
00392.9855,00254.1953
00378.0824,00127.4250
00333.0768,00223.2403
00372.9008,00176.7600
00312.9894,00159.8739
00426.3632,00123.5407
00323.9045,00302.0226
00198.8865,00173.2657
00364.0065,00270.3159
00349.3581,00140.4296
00289.2088,00158.1407
00356.6478,00163.8659
00363.4213,00235.1239
00370.4647,00212.2207
00397.1372,00263.8211
00307.9383,00183.8180
00298.4539,00223.1840
00392.4568,00221.0784
00264.9244,00150.3841
00403.6295,00207.4853
00336.7264,00200.6157
00367.4608,00205.6236
00406.2301,00224.0082
00396.3791,00233.4330
00367.8012,00171.2005
00313.6559,00266.3786
00332.3359,00215.1077
00363.8339,00139.7492
00306.6547,00188.9325
00361.6649,00166.6797
00284.0208,00206.5491
00344.7360,00312.5244
00363.2662,00239.6542
00397.7986,00188.4855
00351.4623,00155.8468
00291.6986,00126.9043
00326.6739,00188.9184
00377.5059,00246.1933
00296.9330,00146.7022
00342.5822,00232.2869
00311.6875,00272.9433
00393.8467,00182.0724
00254.3186,00183.6760
00391.6321,00231.1604
00293.2487,00202.4021
00333.4221,00251.7694
00329.7048,00211.1189
00327.7055,00273.9109
00384.9657,00173.4591
00325.8943,00285.6824
00355.6043,00160.8397
00371.4732,00201.8677
00337.9930,00190.5150
00292.4794,00172.5500
00368.6802,00158.5683
00360.7430,00285.3299
00352.5435,00212.1996
00371.7886,00123.3075
00341.5662,00168.3237
00281.9771,00124.0186
00346.2496,00166.1239
00400.2555,00218.7479
00357.4229,00215.2596
00297.8934,00218.4147
00319.3603,00258.3110
00339.7145,00185.4271
00244.3535,00183.2306
00325.0507,00239.5754
00233.0627,00245.0034
00399.4239,00145.9095
00354.3174,00251.6799
00352.9232,00253.8367
00296.4275,00208.6727
00320.7308,00225.1319
00353.8250,00199.1769
00310.4083,00281.5514
00353.9692,00201.6519
00357.1495,00146.8950
00299.2251,00178.3072
00372.2035,00141.6105
00375.0011,00227.5190
00448.9813,00173.7050
00314.5595,00191.1741
00342.9239,00176.2127
00272.1929,00151.0031
00376.5149,00203.5736
00371.5034,00169.7028
00321.7718,00218.2418
00341.2024,00229.0328
00353.7082,00184.4648
00395.6938,00203.9723
00245.0802,00233.2212
00316.6814,00235.7456
00328.2830,00208.9165
00303.7891,00152.3066
00381.8921,00147.8814
00365.9341,00228.5441
00340.0473,00248.0296
00334.6908,00200.6677
00325.3781,00189.0095
00324.3681,00232.1074
00325.0127,00210.3657
00311.6728,00206.7976
00354.7612,00133.5586
00298.5738,00146.2469
00287.7238,00138.9350
00265.8893,00158.6602
00370.9087,00209.7237
00311.3868,00269.4228
00305.5850,00177.9501
00268.7064,00203.2468
00287.6548,00210.6170
00373.3817,00186.4246
00368.1327,00204.1560
00300.9923,00216.3624
