u,v
00242.5453,00201.2248
00419.2439,00197.0593
00253.0254,00224.4769
00285.1248,00200.9726
00366.7542,00191.6096
00403.0670,00197.1078
00274.3300,00163.6940
00323.2683,00183.8941
00342.2569,00188.5183
00362.1295,00281.1440
00372.4074,00106.3783
00339.4344,00222.5312
00424.3903,00137.7046
00321.9824,00158.4020
00348.3455,00269.7141
00526.3918,00147.3954
00342.0711,00246.4490
00325.4627,00218.2563
00314.2341,00201.1534
00236.4435,00247.7318
00464.8938,00204.7116
00454.4359,00243.7193
00245.4657,00133.5963
00349.4142,00176.0786
00402.3534,00215.6694
00262.0677,00166.3547
00415.2930,00110.6183
00272.2260,00214.8351
00274.3104,00194.9551
00307.3276,00152.2201
00472.1125,00129.4317
00310.0052,00147.5178
00519.2537,00151.1448
00314.2915,00159.3048
00333.0771,00184.4637
00362.5392,00185.5813
00346.9586,00197.1793
00241.9995,00245.5030
00375.8726,00215.4132
00386.3276,00150.3990
00377.1197,00242.2345
00404.7369,00194.5315
00379.1551,00109.6224
00260.2997,00157.3938
00363.3535,00206.9713
00376.7405,00213.5714
00322.7281,00185.3681
00472.4191,00119.2921
00322.2561,00157.8569
00334.4483,00178.0963
00504.3152,00158.9953
00314.4745,00235.0130
00424.5284,00206.7511
00343.4172,00204.3783
00380.2757,00114.3526
00196.8242,00243.2359
00424.0994,00149.1050
00390.0847,00129.6490
00330.9488,00202.4395
00389.2880,00221.1561
00247.8420,00102.1228
00330.4850,00220.3461
00317.6688,00203.6882
00322.7885,00167.8744
00311.8094,00138.5048
00459.7012,00123.0369
00304.2727,00153.5413
00292.9819,00148.7134
00454.0577,00183.4523
00295.7384,00163.3308
00401.6844,00197.0871
00406.8550,00129.0383
00311.7043,00091.0447
00231.4032,00262.8409
00289.3022,00135.9878
00410.6333,00087.0488
00331.3812,00228.8248
00300.0707,00170.0419
00264.7525,00161.8402
00307.1968,00162.5973
00293.2834,00255.6061
00299.5675,00259.2534
00460.5718,00111.9185
00327.5883,00297.1363
00373.1964,00319.5352
00456.6205,00116.7216
00426.9799,00203.9002
00436.1212,00214.2365
00338.9883,00298.3691
00218.3794,00255.8851
00334.0851,00078.8666
00315.1273,00311.9314
00323.7344,00117.8573
00327.7797,00224.4169
00334.9151,00336.0966
00242.9105,00183.7339
00377.2811,00296.0031
00293.8490,00241.3942
00261.9077,00225.9635
00376.7825,00082.7545
00461.6637,00175.4078
00250.6361,00227.9657
00337.1102,00237.0958
00434.9646,00204.2008
00434.5575,00215.3772
00305.9018,00229.4559
00205.3503,00248.3775
00315.7903,00250.3407
00309.8359,00223.4306
00309.5086,00153.3742
00349.2479,00081.4318
00327.2101,00264.9698
00239.8095,00212.6703
00302.9670,00263.8708
00353.8019,00266.0811
00330.2765,00141.7054
00350.5274,00252.9026
00493.1575,00082.2381
00323.3766,00240.6801
00315.3078,00237.1541
00384.8036,00194.2085
00452.0364,00185.5176
00299.1721,00232.8207
00314.6759,00235.6067
00363.6358,00149.9071
00216.0952,00266.7439
00336.2307,00087.5575
00291.4079,00206.9891
00304.0889,00263.4481
00194.9932,00140.4797
00298.2301,00243.1107
00401.7449,00132.0119
00369.7828,00273.6767
00375.1263,00084.7550
00368.4619,00187.9953
00364.0444,00169.4426
00381.3500,00142.7307
00280.8332,00233.2374
00375.0323,00214.8016
00407.3112,00141.6804
00467.8504,00162.2770
00378.1635,00148.4954
00354.8548,00238.4997
00340.9425,00083.9309
00219.3341,00265.5246
00211.2798,00144.6877
00345.7672,00218.3698
00288.6059,00289.7306
00378.8378,00101.4833
00319.9028,00257.3909
00376.3566,00077.0644
00293.9521,00276.6894
00302.8819,00267.9120
00294.5372,00267.3818
00233.2116,00264.8987
00418.4090,00134.6029
00279.4283,00199.8829
00390.8569,00235.1851
00456.7142,00181.4633
00332.2359,00047.9599
00207.2701,00128.2899
00322.8097,00177.5199
00363.6792,00201.2104
00214.3507,00229.2799
00388.4883,00131.4348
00336.5101,00179.4456
00333.7122,00140.0952
00261.5723,00204.9122
00355.2080,00088.7532
00328.3350,00196.6778
00419.2639,00124.2130
00340.5136,00180.5546
00310.0176,00172.9194
00287.9616,00200.0242
00374.0174,00213.3708
00397.1168,00144.4742
00216.7372,00151.9929
00334.1380,00203.3409
00379.3815,00177.5761
00316.3170,00208.0732
00369.3999,00095.4069
00180.4203,00240.4712
00309.1672,00188.0664
00330.4096,00197.9680
00291.3982,00183.1912
00401.5733,00084.0068
00329.1334,00092.5088
00251.0083,00195.5196
00298.4117,00210.6738
00359.3675,00222.8505
00326.8990,00231.2293
00367.5915,00167.2858
00211.4993,00182.3089
00275.1952,00207.8987
00421.0208,00140.0488
00355.3729,00123.8899
00505.9399,00244.9503
00263.3852,00157.7707
00222.3333,00258.2683
00388.3131,00167.9653
00352.6412,00154.7222
00305.0992,00218.4382
00368.5187,00154.9775
00273.7865,00214.2852
00536.6116,00150.3854
00280.9197,00224.8845
00316.4804,00217.0962
00304.2979,00245.9977
00160.6067,00138.8650
00279.1256,00244.5417
00334.0874,00097.2606
00323.7148,00203.0904
00530.8417,00216.2967
00346.4890,00237.4271
00406.3086,00132.6151
00170.7483,00242.1600
00392.7790,00202.7393
00364.9658,00198.0188
00370.5153,00154.8768
00489.9846,00157.3189
00359.0170,00125.6080
00347.4646,00153.0027
00364.5376,00121.1161
00380.7482,00102.3731
00299.2682,00224.3238
00393.8485,00095.8788
00153.2612,00100.0415
00333.1412,00094.3794
00420.5833,00221.0901
00365.9599,00181.8672
00322.6752,00200.5398
00325.1525,00197.7423
00188.2807,00227.4350
00417.5850,00135.8571
00326.2009,00195.8233
00438.0934,00159.5899
00345.5074,00144.3517
00368.9675,00197.4251
00271.5733,00187.4261
00295.8598,00182.6352
00309.6768,00183.6490
00360.8546,00155.0361
00289.6692,00112.7743
00214.4306,00134.8544
00289.5863,00207.9103
00326.4668,00160.9521
00308.9965,00195.5630
00425.9100,00212.1033
00304.8990,00155.5938
00239.1418,00164.6603
00262.5434,00163.8345
00338.9725,00163.0625
00423.8804,00140.6852
00473.6007,00178.6366
00219.8746,00183.1859
00381.8055,00192.6803
00264.8667,00174.7378
00296.7199,00169.5932
00287.1108,00143.3053
00267.7058,00093.1705
00335.4853,00149.0674
00218.8013,00135.2198
00275.6786,00217.1528
00374.9872,00174.1324
00462.8651,00189.1558
00325.7068,00218.6975
00325.3159,00226.2464
00403.8279,00136.0331
00253.2681,00106.4167
00384.4586,00164.3668
00389.9519,00198.3409
00372.7646,00171.6634
00298.4549,00193.8331
00328.4715,00223.9139
00324.8680,00245.3347
00354.7372,00216.7568
00332.9851,00124.8145
00435.0638,00147.3326
00222.0600,00095.5043
00362.9307,00176.8741
00229.3531,00194.7474
00380.2631,00161.7704
00360.8499,00136.2046
00401.1863,00135.2945
00336.5893,00157.6391
00453.8680,00229.1711
00360.2017,00179.0744
00235.8728,00215.0776
00290.8369,00163.5255
00380.5814,00169.1808
00312.8047,00263.1198
00323.4330,00199.4205
00325.0998,00266.4144
00348.0416,00077.9873
00321.2121,00233.2631
00160.7397,00120.6104
00314.7710,00164.7023
00369.0554,00170.8559
00416.8523,00228.7615
00325.8515,00258.7469
00338.0900,00245.7040
00394.4467,00144.3437
00336.5760,00241.9167
00321.2321,00187.5223
00294.5218,00132.6870
00448.6947,00152.2026
00313.0032,00225.6471
00288.8567,00189.5447
00370.6910,00151.3083
00403.9608,00160.4240
00308.7064,00218.9425
00354.0474,00181.8687
00343.3091,00181.8948
00180.8096,00158.0066
00413.1503,00099.6039
00312.2817,00189.3644
00396.6219,00209.1624
00328.1873,00182.4558
00448.9500,00083.3567
00337.3786,00178.1075
00354.0155,00176.0749
00363.6103,00230.8050
00258.7407,00164.1512
00349.6887,00189.2447
00427.8019,00120.6497
00348.3001,00136.1713
00320.9753,00194.2240
00360.0876,00248.0139
00300.5459,00229.4402
00319.1825,00184.1100
00341.8250,00082.9113
00399.5525,00097.6814
00326.8601,00136.9833
00310.3387,00136.4980
00371.3437,00217.3516
00300.4164,00127.1003
00267.0744,00256.1318
00320.7303,00132.5732
00334.4533,00139.4224
00195.8639,00178.0181
00324.5884,00139.6660
00345.8924,00230.6899
00340.8980,00131.3312
00453.1888,00104.8032
00332.8774,00136.8091
00442.2480,00208.1801
00170.6244,00144.7630
00284.7022,00254.8142
00318.9301,00136.4355
00396.6341,00107.8319
00279.8047,00162.1310
00272.5722,00164.5097
00276.7110,00178.8685
00369.1552,00219.0614
00264.4776,00179.2145
00283.4529,00244.9541
00191.9072,00202.6160
00355.1323,00134.5342
00284.1905,00192.5430
00326.4213,00245.7737
00305.0504,00143.1053
00413.1865,00095.0252
00380.4144,00135.2620
00333.9319,00215.5681
00250.2613,00140.9803
00416.1016,00215.2006
00346.6062,00265.5756
00291.6014,00256.6324
00351.9603,00265.5577
00350.0305,00265.0374
00354.2948,00261.9735
00376.4547,00218.7385
00384.7848,00147.6030
00265.0688,00223.2003
00350.6503,00248.6062
00316.1593,00271.5819
00358.1359,00172.8745
00341.9691,00119.4914
00355.3356,00241.1493
00363.9563,00251.6671
00459.7868,00101.8714
00242.6040,00142.3835
00368.0397,00238.4632
00422.5328,00223.0714
00369.1757,00247.1115
00294.3244,00248.3372
00355.3137,00259.6300
00347.5316,00265.1547
00365.4406,00158.8106
00301.3184,00194.5101
00261.1376,00255.3595
00345.9909,00106.8555
00327.6752,00178.2695
00335.9317,00158.6382
00270.3037,00274.8665
00420.9230,00242.8106
00219.5638,00168.5552
00421.0361,00232.0342
00394.4591,00273.2769
00504.0164,00095.7962
00421.9506,00226.0999
00422.6693,00211.7493
00390.2219,00156.3250
00329.0192,00244.7150
00421.5300,00202.2156
00306.5196,00125.2154
00411.3064,00197.7646
00268.0064,00240.1106
00373.4907,00122.5522
00396.4689,00207.3037
00354.1660,00211.1004
00366.2733,00210.2775
00272.5197,00279.8341
00314.3737,00212.9651
00240.7120,00144.5331
00402.4505,00219.9139
00379.7126,00284.0220
00465.8235,00140.4263
00405.8569,00228.0941
00392.7892,00233.9294
00478.5845,00159.2143
00333.7818,00234.8166
00341.0533,00233.8761
00308.0476,00260.7403
00304.6984,00180.1559
00377.7312,00123.3025
00300.3141,00283.4745
00316.6099,00192.0287
00302.5242,00282.6440
00213.7448,00098.1366
00255.8529,00254.5360
00292.2533,00343.3868
00249.5109,00282.8329
00434.0733,00254.7387
00455.6606,00135.2232
00252.5678,00274.1829
00289.9578,00261.4391
00493.6452,00212.5089
00359.9220,00235.4672
00270.6590,00195.7314
00320.2487,00276.7811
00369.0571,00132.1900
00305.7968,00259.5977
00244.9143,00228.8161
00330.8308,00249.5299
00298.7892,00197.4790
00306.2317,00210.6761
00159.3347,00120.3366
00317.9257,00338.7918
00405.1722,00227.9630
00406.3853,00281.5485
00454.1429,00131.2328
00406.5265,00212.3896
00318.5158,00111.5352
00404.7439,00188.3593
00386.1268,00256.1944
00371.2246,00244.1111
00363.6885,00226.2276
00287.4671,00192.2068
00334.1989,00179.7335
00283.2563,00190.1527
00341.4948,00265.8404
00333.0695,00197.4767
00124.5916,00166.5615
00273.8824,00173.1186
00363.1519,00320.8224
00343.6693,00167.6547
00310.7003,00112.7799
00330.4985,00189.9987
00432.1862,00156.3070
00359.8837,00190.6570
00298.3305,00210.3317
00373.9957,00209.2026
00367.8320,00264.0497
00310.9604,00246.3824
00296.5251,00274.6381
00343.2492,00235.3876
00353.3666,00226.6113
00364.2064,00167.6644
00299.7322,00200.3431
00153.2086,00117.2493
00263.6680,00205.2053
00313.3057,00275.7127
00345.7696,00122.4477
00379.7171,00304.3727
00310.5582,00228.3531
00312.8567,00170.7114
00427.2596,00171.6824
00316.3642,00227.7733
00362.2151,00232.4178
00384.4483,00187.8555
00314.1047,00203.6067
00302.4497,00300.8004
00328.0479,00184.3539
00291.5003,00155.2020
00186.8530,00103.1860
00295.2955,00147.5293
00321.0865,00216.4917
00324.9389,00108.4903
00317.9850,00152.2966
00307.7559,00209.3424
00370.4823,00297.7538
00307.9522,00216.9728
00384.5651,00165.7797
00314.8414,00146.4262
00287.9218,00208.5354
00348.8229,00206.7705
00352.7648,00223.8822
00310.4336,00292.1441
00288.1805,00180.0100
00293.9859,00186.3615
00172.5508,00110.2262
00298.6409,00171.4291
00328.8369,00130.6837
00278.8945,00229.7434
00300.4660,00231.7465
00293.2044,00229.9177
00257.4752,00203.4812
00352.1026,00282.9106
00240.3005,00194.5033
00394.2043,00185.4329
00414.3149,00260.8508
00230.2740,00211.7966
00323.8858,00177.1810
00321.4160,00169.8334
00349.0509,00209.9692
00312.8489,00174.7510
00323.0685,00108.2585
00056.3322,00184.5345
00286.2332,00266.2028
00329.0467,00245.5934
00292.9916,00218.6641
00277.3019,00229.5320
00279.2635,00234.5189
00283.3244,00231.4292
00407.1012,00281.7325
00348.6433,00262.8823
00276.6351,00197.1676
00369.8610,00204.7371
00251.8314,00214.0078
00486.2773,00197.1230
00359.1332,00209.5499
00306.8033,00237.3547
00116.0288,00202.6577
00401.6538,00194.5595
00318.5406,00252.5246
00289.3287,00224.5948
00294.5847,00200.3097
00294.6875,00233.7720
00263.4767,00185.4873
00213.0012,00255.5108
00414.0247,00278.6590
00289.7799,00208.8663
00333.9770,00234.4995
00466.1191,00181.7675
00313.7444,00215.3005
00390.5685,00202.7395
00259.2900,00198.5535
00469.3358,00237.5033
00247.8589,00318.2281
00137.6461,00210.0388
00394.8424,00157.8306
00300.3798,00216.3829
00323.1233,00172.6856
00281.9365,00206.7822
00308.9437,00207.3913
00376.3643,00252.3022
00368.8710,00247.4230
00420.8385,00272.8922
00375.7610,00270.7253
00338.0099,00158.2564
00375.8932,00269.6882
00451.1341,00173.6291
00299.8857,00216.8786
00184.4453,00149.8550
00402.3355,00217.7045
00348.3788,00257.2813
00261.9189,00170.6044
00498.9130,00155.2151
00342.3001,00213.6890
00253.0195,00191.6017
00320.8066,00192.2393
00300.8535,00184.1298
00285.7020,00138.1675
00265.4071,00232.7330
00372.2031,00131.3381
00419.8675,00281.5617
00249.1355,00231.4301
00207.8065,00215.1681
00088.0075,00170.5506
00283.0526,00229.4689
00457.9739,00168.9048
00249.0820,00204.3142
00434.7950,00229.4495
00247.1764,00152.6844
00462.1396,00142.2442
00261.2536,00186.8606
00228.8421,00220.6469
00263.4252,00179.4441
00243.8231,00199.3961
00211.0649,00208.0230
00383.4651,00134.5815
00233.6484,00205.5135
00392.3821,00275.5562
00322.0408,00172.4922
00124.6310,00145.3689
00348.8599,00200.4924
00290.7933,00165.7829
00400.1354,00217.0479
00251.7676,00212.1611
00452.6187,00236.7662
00260.2650,00167.4762
00291.7471,00258.0430
00435.4826,00139.7552
00299.1843,00193.7883
00334.1289,00238.0764
00336.4509,00199.3034
00348.5530,00198.9716
00395.8151,00172.1716
00359.3556,00220.5321
00337.3543,00244.6685
00385.0437,00275.0618
00086.9296,00143.1884
00368.8573,00221.1541
00367.7460,00192.3429
00572.5025,00157.4903
00307.5228,00225.5126
00234.7278,00198.2404
00372.9680,00132.4956
00253.5114,00170.2874
00432.8926,00231.4608
00382.5482,00221.0415
00366.9056,00215.1667
00371.8436,00214.0533
00393.9781,00204.9824
00372.0841,00211.4235
00375.7896,00199.1608
00110.2961,00138.2509
00358.0419,00253.6278
00411.7472,00299.6778
00335.2063,00233.7673
00419.4044,00196.7117
00357.9254,00227.3669
00438.3434,00155.5086
00340.5137,00277.2969
00285.0409,00223.5631
00406.3438,00134.9338
00353.4302,00193.8907
00377.4743,00197.2692
00353.6106,00157.0227
00359.3506,00166.5643
00321.9642,00154.5703
00324.0389,00148.6830
00158.7005,00169.3702
00357.8896,00160.4188
00321.3017,00150.5661
00432.3194,00274.2579
00367.6713,00229.0536
00393.9922,00190.6572
00330.6227,00184.8902
00252.6356,00202.1582
00433.3599,00153.6030
00330.1599,00287.7336
00318.8481,00205.5916
00375.4982,00201.6704
00382.9588,00125.8014
00385.7810,00181.4290
00274.2643,00187.6128
00274.8912,00145.4415
00155.0605,00182.4494
00274.6361,00141.3856
00254.3986,00145.3652
00239.3068,00158.7779
00435.2049,00264.8945
00276.5500,00176.2732
00139.7190,00262.2550
00298.3824,00213.3598
00396.3938,00236.0456
00417.4300,00138.5219
00331.0970,00194.8527
00407.7993,00174.7178
00360.0576,00263.8321
00413.7747,00215.4736
00406.1150,00158.5666
00334.9280,00159.4013
00275.0519,00263.4393
00145.9510,00160.9924
00318.7787,00249.6057
00336.1280,00222.4626
00177.1723,00269.7130
00328.4454,00221.3711
00429.0793,00279.1997
00240.7391,00182.0378
00241.9478,00160.3770
00332.6277,00233.9128
00387.5573,00179.3052
00381.0716,00145.6020
00272.8878,00180.4027
00374.0953,00229.9174
00349.2751,00255.3315
00382.7881,00189.0889
00334.2347,00217.2459
00205.1620,00191.4729
00318.3678,00175.0288
00165.4438,00283.0065
00251.8334,00276.5441
00278.4424,00229.9106
00278.6950,00237.4239
00377.0280,00243.4291
00216.6467,00153.8496
00365.9290,00184.4629
00223.1815,00176.2686
00316.0301,00272.5880
00351.7051,00131.8407
00372.0344,00173.4157
00331.5638,00192.2580
00354.9794,00257.5399
00192.4198,00186.2686
00361.3880,00192.0074
00356.0381,00164.6235
00237.4667,00203.6276
00219.3089,00143.3021
00305.7569,00144.4438
00327.6951,00144.7971
00302.8430,00203.0601
00373.9745,00227.5736
00308.1342,00213.6306
00388.4274,00150.7551
00306.6051,00203.2737
00305.7484,00260.5565
00109.4777,00137.5400
00404.6487,00189.0679
00389.8244,00203.8182
00321.9220,00194.8256
00323.3164,00201.7752
00327.7689,00211.3866
00180.5320,00210.6039
00306.8435,00286.3602
00237.4309,00169.1080
00349.3271,00156.9815
00342.5590,00242.7623
00327.8891,00238.1937
00370.1920,00145.1504
00386.3004,00249.9185
00310.5718,00174.3387
00176.2026,00182.8521
00341.1083,00172.4002
00267.5717,00221.3045
00413.2393,00199.5554
00367.4350,00178.0954
00376.1958,00181.6438
00316.7642,00145.0842
00312.5316,00168.8469
00391.5854,00187.5873
00163.6815,00202.3885
00351.6456,00166.2387
00277.5884,00255.0853
00283.3308,00213.2094
00307.3777,00170.2893
00406.1426,00136.6930
00144.7566,00187.4958
00384.9485,00160.8818
00380.0620,00238.8895
00308.6233,00217.4150
00392.7585,00148.1555
00361.2861,00138.5840
00366.0496,00211.7859
00388.9676,00221.9713
00316.0565,00142.8334
00361.7316,00144.3924
00384.2644,00151.9092
00146.5614,00283.6866
00343.2219,00182.0076
00352.7349,00184.0650
00181.2213,00158.3409
00261.4038,00119.5451
00371.4515,00214.7038
00399.7221,00214.5402
00374.3481,00244.5281
00342.8293,00192.3027
00295.4630,00201.7044
00294.3951,00219.2822
00274.2552,00208.3978
00356.7932,00119.4204
00399.0531,00224.9455
00400.1709,00168.7956
00294.1643,00237.1182
00156.2550,00159.1752
00379.1413,00156.2631
00243.3043,00263.2287
00270.6456,00227.2694
00277.0729,00126.8562
00384.8866,00216.1176
00348.3492,00215.2274
00411.1216,00218.7893
00238.7151,00224.3768
00402.9128,00202.9902
00377.8421,00255.4026
00353.8358,00214.7173
00329.4818,00233.4465
00400.0572,00216.1521
00156.4145,00177.2728
00290.5686,00101.3188
00278.9808,00115.7126
00383.4676,00155.2532
00333.9306,00166.0793
00383.2858,00195.9551
00287.2762,00121.0994
00253.7272,00273.3931
00297.4286,00150.0734
00264.2138,00185.4577
00206.7457,00173.7955
00265.7686,00163.1465
00308.2648,00137.2412
00288.6389,00172.8627
00400.5590,00257.1024
00324.7628,00172.0576
00196.4857,00151.0699
00309.3558,00188.6853
00373.3318,00163.4226
00415.1465,00215.3028
00381.8019,00172.7633
00357.4211,00174.5360
00350.7206,00173.6787
00415.7326,00163.3771
00263.0138,00273.0031
00418.6418,00123.8093
00305.6162,00197.1859
00424.1548,00140.9447
00358.5165,00137.7635
00255.3153,00046.2202
00326.4301,00174.8088
00384.1924,00248.6800
00196.9303,00134.9395
00280.8453,00152.8021
00288.4823,00147.3246
00383.4845,00190.2381
00315.9798,00135.7540
00370.1767,00172.4649
00343.6037,00189.0548
00313.9198,00115.1722
00269.7280,00164.0635
00300.6784,00234.1037
00364.7223,00176.1794
00267.2523,00141.0725
00394.7333,00307.9068
00269.1414,00013.3048
00416.0668,00291.7423
00369.9474,00274.0664
00191.7697,00126.2664
00377.1263,00254.1878
00364.7072,00270.3564
00356.0584,00276.4580
00333.1815,00193.9921
00385.5792,00189.4796
00331.6115,00154.5802
00360.8852,00179.1204
00347.2343,00249.6466
00215.5926,00150.6469
00316.6478,00245.4392
00352.1069,00240.0381
00270.6535,00002.1896
00343.6402,00152.2032
00318.3636,00249.7071
00218.5415,00075.3108
00302.5757,00241.7104
00382.5102,00249.4224
00370.7316,00249.9618
00397.8831,00250.7783
00334.3441,00249.6515
00270.5732,00152.4527
00339.4975,00258.3656
00380.8850,00236.9816
00244.3369,00064.5989
00350.2559,00189.1952
00389.8763,00155.6867
00358.0413,00236.1325
00347.1742,00257.5608
00287.6799,00295.9431
00474.6193,00243.0071
00315.2344,00277.4699
00217.9325,00096.7136
00371.8575,00274.0505
00365.3098,00283.2187
00416.7298,00271.2775
00318.9656,00338.2105
00366.6192,00295.2520
00235.9871,00124.0670
00250.0568,00164.6474
00364.0175,00251.5154
00372.2405,00284.1428
00345.1713,00152.2769
00383.0599,00134.0133
00368.3255,00247.3728
00368.0382,00247.0346
00181.4508,00152.0877
00283.5671,00295.2845
00355.1586,00239.1526
00508.4744,00237.0274
00341.5390,00233.7609
00418.2415,00269.8266
00329.0955,00190.9694
00288.4533,00165.2375
00303.0425,00123.6280
00389.5419,00262.7714
00319.7083,00212.7864
00339.7963,00209.5914
00387.5996,00251.5755
00373.2203,00137.4422
00380.5711,00250.9280
00305.7855,00154.5683
00107.6624,00139.0750
00345.1317,00229.2712
00306.7126,00247.3472
00437.1024,00254.5701
00341.6043,00211.3750
00343.8599,00170.6289
00439.0027,00232.7788
00320.9743,00272.1994
00352.6809,00145.8647
00331.2791,00276.5665
00340.7357,00257.9656
00328.8896,00214.8170
00314.8123,00253.7592
00301.4141,00171.4852
00113.8710,00133.2912
00305.6882,00216.5964
00368.1615,00127.3581
00252.4064,00193.5710
00368.3339,00282.3004
00279.8363,00258.7973
00311.6650,00241.3712
00453.9123,00268.4955
00360.4127,00197.2427
00415.8983,00211.6749
00387.8815,00124.9030
00357.1744,00198.3468
00370.1490,00201.3926
00345.2270,00282.4272
00131.7219,00141.6738
00415.0950,00215.1489
00328.1964,00162.3418
00283.9979,00185.3049
00407.8216,00165.1557
00314.9096,00257.1010
00388.2160,00122.6060
00337.0170,00235.6644
00356.7861,00215.0595
00252.1744,00257.9276
00385.8546,00120.7684
00393.9758,00270.0324
00419.2365,00215.4184
00431.2246,00161.4916
00396.9441,00260.7479
00398.7980,00256.5761
00360.9709,00176.8650
00426.0479,00247.1036
00350.1531,00232.1573
00315.6693,00206.2602
00196.7257,00223.9575
00386.2732,00150.0915
00285.1331,00212.4706
00369.0596,00199.6629
00258.6976,00211.9878
00347.6159,00290.8183
00404.0008,00142.8485
00251.2486,00252.8426
00308.3591,00272.0537
00372.8882,00120.1847
00423.3964,00220.4083
00298.7585,00285.4265
00324.1119,00146.8112
00323.6720,00268.9325
00392.3951,00225.8111
00317.9305,00264.4637
00331.3225,00236.7121
00198.2417,00185.4693
00324.3628,00255.8618
00356.0338,00160.1354
00380.8324,00203.7319
00338.0009,00283.1993
00417.4679,00134.6212
00343.1203,00285.3240
00227.9429,00248.3145
00361.9578,00291.0746
00425.5047,00228.6008
00397.9311,00174.6245
00362.4107,00267.2681
00326.7965,00124.6828
00413.5130,00204.1426
00364.8272,00218.6727
00388.3411,00232.5201
00312.2757,00225.8457
00198.5089,00167.6322
00295.3853,00190.5443
00356.3593,00239.5499
00376.2014,00184.3084
00371.1987,00239.1603
00421.2158,00101.1274
00366.7471,00235.8392
00224.6666,00272.9818
00388.9925,00113.6272
00265.9455,00221.1523
00407.5295,00208.6765
00279.0951,00197.7700
00320.5914,00134.1485
00360.1049,00102.5027
00291.1052,00163.6368
00397.0667,00188.2506
00300.0837,00159.9253
00256.4649,00240.3703
00323.3079,00211.0124
00247.5640,00187.5463
00374.5796,00176.8279
00257.0392,00169.7925
00401.3371,00085.1222
00260.8289,00164.5434
00387.1775,00092.3978
00344.3429,00231.9674
00266.5954,00152.8626
00424.9431,00187.0235
00326.0673,00156.3773
00312.5461,00142.6304
00317.8154,00172.9889
00314.7751,00233.7491
00387.6629,00211.9834
00170.8184,00205.6330
00311.1721,00243.9133
00387.9669,00210.2730
00333.7742,00254.7843
00406.0336,00078.4473
00350.9363,00235.6195
00355.5033,00127.5671
00341.3795,00212.3452
00335.3961,00105.2986
00331.9724,00207.6573
00347.5430,00238.2410
00389.8963,00143.6491
00353.4771,00184.6815
00324.0635,00149.6182
00359.8463,00163.0563
00097.7179,00199.8667
00366.9406,00167.3042
00378.6404,00202.6712
00222.8828,00146.8113
00394.3250,00215.9971
00249.2572,00155.1200
00387.8263,00093.9469
00244.7464,00137.9673
00507.2047,00253.5826
00255.2550,00133.6685
00289.7469,00235.2093
00386.4102,00125.7772
00320.1583,00103.0138
00310.3001,00171.4559
00391.3932,00159.5690
00369.2905,00128.4774
00168.9545,00171.3786
00322.4041,00156.2525
00333.0169,00203.6326
00383.4681,00193.9870
00333.7462,00120.1975
00401.2865,00140.0437
00410.0137,00213.9103
00356.9860,00159.8302
00571.1583,00340.6627
00346.3595,00204.8350
00210.6448,00208.4434
00288.2982,00236.5200
00206.0751,00209.6926
00401.1034,00187.3825
00239.5509,00194.6880
00259.9028,00098.6137
00169.5819,00180.3852
00355.3703,00132.1671
00331.7562,00296.0832
00347.9312,00265.1698
00364.1677,00166.7661
00291.9661,00171.4682
00580.7628,00317.2497
00390.6685,00144.1523
00319.2777,00180.1401
00420.6923,00222.6407
00330.0315,00259.8135
00194.2215,00179.4691
00223.8173,00168.5007
00260.8042,00260.8080
00298.3121,00242.8497
00283.3414,00199.2181
00439.9798,00226.4201
00281.2921,00083.9872
00352.6824,00250.9872
00277.1024,00203.9792
00320.6805,00196.0780
00285.8949,00200.8193
00364.3941,00122.5499
00489.3915,00238.3440
00301.6425,00194.4621
00353.9534,00228.6745
00345.0208,00183.6385
00399.5455,00309.6010
00275.5808,00180.6985
00219.6779,00175.5989
00237.7382,00276.6811
00318.3907,00171.9478
00255.9303,00144.9836
00320.0321,00056.2029
00444.1189,00237.5994
00316.1699,00151.3526
00379.9563,00161.5159
00455.2103,00284.6130
00328.8618,00127.1954
00368.2931,00201.6526
00262.1451,00167.0636
00502.1406,00235.0291
00340.6883,00211.6574
00360.4161,00202.8420
00398.7093,00293.4886
00340.8400,00180.3333
00288.1740,00224.1622
00349.1983,00152.4777
00306.0583,00215.5094
00376.4909,00182.7654
00327.4491,00136.2890
00328.8877,00207.3452
00302.2910,00073.4930
00339.6391,00185.1555
00252.4923,00272.8012
00232.8718,00151.7455
00304.4379,00265.0416
00334.8633,00184.5751
00418.2117,00289.1722
00382.3902,00235.4225
00410.4589,00084.9927
00367.4344,00219.8034
00334.3317,00186.8941
00338.6735,00176.9126
00324.5172,00204.3844
00508.5983,00145.1612
00343.8012,00213.8552
00255.1290,00262.4322
00364.4052,00312.3215
00355.1514,00315.9679
00357.1351,00229.2670
00373.8482,00258.7049
00350.0551,00331.9837
00250.5312,00178.2596
00338.3209,00142.7703
00382.6309,00319.4286
00256.3773,00202.2898
00393.1846,00308.3070
00242.1018,00209.2633
00312.1713,00050.2429
00385.2654,00327.4697
00231.5521,00295.3693
00227.7331,00252.8887
00325.0834,00223.5939
00455.1487,00248.3768
00352.3521,00159.9804
00394.6502,00333.8602
00258.5240,00183.8090
00310.1738,00182.7773
00373.5254,00325.2481
00220.3802,00166.6219
00354.9448,00294.6259
00519.6978,00140.4028
00201.9161,00205.8426
00334.8362,00295.4857
00340.9370,00140.0853
00285.1527,00250.3101
00315.6005,00291.0519
00341.3811,00276.9182
00255.6656,00200.0713
00357.9877,00304.6890
00294.1457,00185.6211
00355.9188,00288.8204
00312.6297,00222.2167
00341.8056,00276.4126
00225.0837,00263.5671
00299.7517,00057.9465
00304.1075,00159.4332
00291.7793,00304.9173
00304.0053,00241.7954
00329.4231,00263.8191
00459.0224,00220.9120
00328.0019,00186.5134
00158.0587,00238.5719
00317.9587,00289.5782
00488.9375,00143.3918
00311.4221,00303.8627
00227.5693,00194.5447
00333.8036,00101.2078
00303.2992,00320.0844
00370.7668,00142.9793
00373.1250,00159.3427
00287.9387,00310.7992
00306.3075,00131.4750
00370.7192,00299.5360
00367.7014,00267.5008
00255.9760,00175.1248
00395.6934,00258.9837
00234.8833,00150.8214
00293.8107,00190.1125
00215.8521,00216.9388
00361.7334,00265.7131
00233.1461,00281.6879
00240.1521,00175.7997
00273.1866,00174.5559
00361.6199,00074.5698
00276.5993,00171.2814
00457.6176,00231.5807
00351.1133,00186.6987
00297.9223,00164.7559
00368.6679,00097.6141
00270.6548,00273.1061
00446.3414,00121.4472
00320.3390,00237.0748
00270.5045,00183.8227
00341.0070,00250.2386
00305.2574,00187.1120
00357.1066,00247.1713
00252.6591,00155.8403
00361.8925,00249.4362
00243.0783,00231.1011
00332.5257,00255.7507
00246.9540,00170.2172
00352.1198,00252.3203
00355.6622,00202.3405
00270.3458,00147.7773
00201.2885,00249.3611
00337.7141,00245.5761
00368.7118,00150.0461
00345.4226,00129.5824
00364.2698,00275.0749
00316.6939,00143.3047
00367.7069,00076.2252
00457.6262,00266.1266
00385.2291,00263.5620
00311.4543,00141.5731
00298.6411,00131.3558
00344.2335,00272.9418
00238.6496,00144.5043
00428.2534,00149.6296
00347.4729,00282.2203
00308.9594,00183.8868
00312.5142,00231.3383
00277.3314,00155.4564
00391.3580,00235.4906
00170.1952,00208.9195
00247.1591,00172.8102
00401.7562,00228.6894
00307.3763,00223.2755
00299.5940,00188.2699
00320.7538,00223.5294
00192.4554,00171.5696
00397.5511,00223.0813
00370.1747,00180.7619
00297.0105,00162.7043
00400.0051,00236.3935
00298.6448,00133.2022
00376.8491,00238.6636
00384.7961,00118.4659
00299.3250,00230.6803
00288.4636,00119.0116
00376.9373,00220.1610
00369.8677,00233.1498
00251.5144,00208.2196
00414.5183,00222.4271
00433.4449,00147.7093
00219.5941,00194.5285
00404.1089,00220.3778
00188.2590,00226.7911
00326.6437,00169.4045
00413.7557,00210.2465
00423.8375,00208.0421
00286.5221,00184.1836
00316.9168,00219.6228
00336.4853,00228.3517
00423.1572,00202.3935
00276.4102,00210.2952
00415.7711,00102.7155
00238.6302,00232.3748
00421.3111,00190.2305
00281.5734,00166.4660
00333.0274,00129.7675
00388.0264,00218.1284
00328.8812,00124.9130
00388.7816,00266.5388
00290.1960,00162.0759
00313.4289,00093.0872
00444.9797,00198.3923
00346.3768,00304.2549
00299.1112,00142.4102
00195.3141,00200.3196
00359.2360,00298.6728
00342.4435,00122.6772
00455.8630,00122.6316
00332.1230,00303.2593
00316.1294,00160.2878
00302.6477,00306.6147
00306.4079,00163.6300
00355.1768,00152.7440
00347.7395,00296.3773
00268.3183,00182.5880
00352.4244,00236.9591
00456.8091,00181.7728
00342.9914,00247.1238
00315.5352,00172.0705
00220.9947,00216.5366
00307.7907,00289.2512
00343.4345,00281.8334
00355.2067,00198.4404
00330.3650,00257.3867
00323.0623,00097.9261
00431.5200,00190.8078
00167.3407,00179.2328
00322.3156,00269.2710
00317.8502,00253.6161
00433.2352,00143.9484
00310.4727,00282.6105
00437.2380,00145.7466
00311.1223,00283.3506
00395.4392,00167.1661
00343.2209,00268.2048
00387.7790,00222.1306
00328.1324,00277.9778
00216.6245,00178.9101
00321.0379,00285.8963
00165.9507,00190.8363
00268.7943,00195.7227
00307.2460,00284.6603
00285.9241,00140.1867
00299.8103,00282.0876
00441.0235,00171.0073
00338.5278,00081.4728
00287.5986,00284.9036
00281.8834,00272.0037
00426.8682,00200.8876
00312.4687,00274.2984
00356.5464,00156.5977
00310.9027,00279.4647
00309.4419,00150.0673
00293.8454,00283.0534
00187.0197,00220.2731
00319.3473,00256.4570
00219.0268,00204.5812
00380.7271,00152.6952
00317.3578,00274.8289
00320.9623,00069.6798
00342.4368,00282.5028
00269.9505,00105.3612
00358.0765,00238.1066
00311.6311,00160.6463
00292.1758,00289.2080
00424.6792,00193.3349
00297.0377,00231.4468
00415.7863,00173.4489
00343.9651,00267.7251
00165.4133,00219.9925
00343.0340,00257.1192
00400.0559,00173.2474
00314.8500,00251.4298
00200.8169,00230.5802
00318.5727,00158.4003
00317.6984,00230.0192
00357.4240,00100.6922
00281.6756,00217.1452
00275.5731,00212.4479
00286.7837,00125.4169
00331.9482,00199.2546
00280.3047,00219.1656
00367.8867,00192.6267
00270.0842,00186.4031
00441.0023,00178.7208
00420.5760,00156.0445
00333.8476,00191.2209
00331.5769,00204.8809
00383.8214,00140.3125
00309.7718,00200.5683
00308.1248,00087.2417
00294.0921,00193.1907
00214.5474,00225.5180
00289.3990,00151.1512
00287.5846,00212.5797
00353.1357,00260.7125
00318.4987,00191.3519
00355.5027,00262.1427
00308.9278,00129.9985
00343.7228,00288.5235
00285.9364,00248.3085
00437.1377,00224.8972
00249.9676,00091.1301
00310.5739,00242.9337
00300.3263,00248.0817
00408.4865,00141.5782
00356.8336,00324.1032
00442.2307,00191.3903
00335.9545,00318.8021
00298.9001,00261.1969
00416.4304,00178.2329
00230.8652,00230.9472
00270.4959,00277.0658
00267.3611,00284.5155
00434.7010,00235.9233
00281.8971,00084.2534
00270.6892,00271.2347
00341.6868,00186.4285
00283.6509,00221.7435
00281.0790,00233.1066
00443.2820,00205.2381
00261.5874,00239.9771
00424.8600,00136.6410
00285.6059,00240.5876
00237.5228,00255.8076
00357.3275,00176.9233
00238.9111,00249.3213
00191.9299,00264.5152
00432.6409,00201.6488
00229.8055,00249.3079
00333.6702,00237.0427
00278.0120,00077.1488
00403.6951,00270.2433
00302.9957,00219.6767
00345.3441,00135.1729
00345.0275,00255.4080
00216.1476,00179.9978
00460.7867,00183.8068
00379.2989,00262.9229
00418.6016,00082.8400
00377.0761,00261.4471
00383.3082,00259.7914
00358.7908,00232.8056
00418.8865,00249.9421
00383.5329,00270.4057
00467.3163,00261.2158
00286.2696,00272.9880
00417.5479,00290.1454
00270.7991,00063.1250
00432.1923,00292.6147
00439.7980,00240.0773
00383.0975,00284.8636
00289.3409,00160.7538
00368.1265,00244.8063
00216.6478,00177.7363
00375.6151,00245.9464
00502.2493,00153.7193
00416.0970,00092.5177
00427.6138,00296.8861
00409.9344,00316.5088
00414.0360,00299.1306
00415.8970,00294.1215
00429.9984,00260.9845
00453.3795,00241.2621
00304.8432,00076.2796
00279.6739,00254.4214
00393.1347,00257.3264
00368.8369,00253.0093
00450.3243,00278.5699
00311.5144,00140.7885
00472.0862,00277.5313
00503.1019,00252.4956
00217.9938,00178.4189
00448.7455,00226.7913
00517.3015,00171.3433
00371.7522,00313.4103
00367.7867,00130.5710
00309.6519,00250.4097
00316.3061,00253.8149
00281.4149,00286.4896
00302.4304,00155.8683
00281.0259,00322.7880
00276.9321,00228.2964
00311.6751,00325.2981
00384.7031,00291.1902
00317.7839,00116.9055
00370.7835,00304.1052
00339.8210,00290.5064
00361.6171,00290.6716
00268.1206,00290.5938
00256.1150,00177.2303
00330.1275,00174.2919
00452.4858,00148.2684
00265.6938,00279.5128
00268.5132,00280.8745
00325.9755,00240.8672
00331.1123,00141.3621
00331.5423,00229.7920
00416.0266,00234.2116
00352.4824,00247.4154
00251.4071,00245.5751
00377.0966,00122.7220
00330.9135,00205.3989
00460.7310,00240.4058
00378.4008,00206.3477
00376.9661,00285.3145
00367.9203,00219.7627
00347.3033,00207.6510
00235.3939,00180.4173
00406.8610,00236.9484
00443.1505,00161.9391
00385.0879,00223.4557
00272.7982,00213.4013
00334.5514,00144.3086
00275.9382,00218.2208
00253.1952,00251.2834
00351.7277,00143.0203
00408.5696,00198.2831
00219.7012,00236.1444
00249.6952,00242.3149
00424.0795,00242.9739
00282.4131,00196.2639
00387.0386,00268.9050
00345.1616,00240.5629
00261.3170,00174.9447
00199.2362,00174.8389
00416.0556,00154.3827
00206.1246,00181.7608
00201.4819,00181.1463
00352.6258,00223.5005
00342.5073,00238.8583
00324.0572,00204.0472
00330.7955,00183.0652
00299.6215,00138.8770
00296.1676,00205.7995
00408.2967,00261.5555
00233.3429,00235.4979
00276.9781,00277.7115
00354.4810,00247.9302
00347.5854,00239.5114
00322.1730,00194.5045
00279.9961,00262.7406
00354.3231,00192.9011
00200.1021,00162.4376
00396.6618,00154.7328
00407.8792,00162.1851
00328.1609,00211.8566
00354.7553,00234.0625
00281.8782,00215.4495
00267.4868,00222.9050
00458.3453,00113.8777
00271.9994,00222.4555
00359.9911,00277.2539
00344.2640,00232.4022
00446.9220,00192.6727
00344.3266,00210.5585
00246.6687,00209.6910
00308.1115,00265.2885
00406.4393,00225.5727
00272.3914,00222.1878
00238.7107,00134.6827
00247.0054,00249.2721
00252.8731,00248.6693
00472.4760,00152.0961
00424.6650,00221.3958
00350.0216,00233.2316
00422.4276,00207.9550
00450.7830,00114.6103
00439.7324,00201.8006
00370.9071,00255.1204
00323.4846,00262.2536
00374.9049,00180.3468
00459.0077,00214.3042
00349.2570,00179.5303
00243.0346,00224.0466
00352.0396,00121.1035
00394.7023,00239.8161
00208.1179,00145.0882
00345.5267,00131.0944
00331.5029,00161.1951
00360.7850,00117.7557
00534.4665,00173.8606
00370.0905,00223.1922
00367.3276,00257.0599
00413.6625,00206.5231
00449.5066,00133.7686
00326.5552,00256.7639
00369.3687,00184.4873
00365.7622,00217.0994
00340.7163,00186.8128
00306.8535,00186.6366
00234.4724,00208.5279
00371.8112,00156.1970
00263.3882,00103.8568
00375.9055,00249.5502
00322.9760,00169.1157
00372.3229,00211.7261
00363.3979,00215.2026
00383.1413,00148.2183
00428.2130,00191.4065
00338.4488,00247.7414
00357.0103,00190.8798
00390.6156,00209.7350
00310.0460,00291.4460
00458.9540,00191.4333
00441.4854,00130.1294
00319.8261,00172.9734
00369.6182,00160.7275
00372.1342,00193.4417
00243.0275,00229.4777
00278.5637,00142.4521
00388.3091,00194.1865
00500.7157,00258.4688
00381.5358,00145.2832
00336.7661,00211.7389
00416.3900,00132.0585
00336.1613,00232.5703
00335.2360,00285.2498
00337.3659,00288.1911
00351.7333,00198.1239
00357.2626,00256.8275
00431.4023,00040.4667
00366.9897,00155.9796
00377.5622,00246.4732
00401.7747,00219.7465
00406.8808,00246.9189
00315.7222,00244.6746
00481.4178,00274.7770
00236.0434,00236.5893
00309.4400,00199.6050
00309.0512,00266.4461
00282.2546,00257.5776
00293.9571,00231.9015
00505.8654,00113.7284
00282.1891,00265.5267
00348.2438,00252.8807
00353.6000,00274.0280
00376.6495,00260.9328
00397.5319,00137.4834
00342.3803,00221.7761
00290.3556,00286.9460
00448.5060,00070.6012
00326.1707,00317.6944
00445.8286,00244.4245
00305.3454,00232.0947
00249.5045,00217.5165
00313.6375,00243.3147
00296.3235,00175.2588
00325.1350,00230.6984
00361.3702,00211.9196
00524.3852,00136.4236
00364.7737,00223.3861
00314.4987,00221.7790
00295.9076,00133.7599
00439.2577,00183.5804
00322.5560,00191.4797
00405.6122,00224.6655
00318.0473,00209.6886
00444.2877,00060.0163
00370.0377,00237.6615
00291.2284,00215.6586
00470.5586,00241.9993
00245.3514,00246.0076
00238.1629,00233.9691
00210.4494,00223.3340
00295.9649,00189.6328
00241.8239,00228.7062
00464.2038,00150.4188
00178.3482,00219.5134
00354.3063,00298.6446
00247.3336,00165.3773
00204.9701,00199.8175
00389.1666,00187.6466
00235.6852,00206.7366
00355.7836,00202.5872
00263.9297,00203.2456
00431.0132,00104.7009
00295.5789,00174.4914
00306.7878,00182.1357
00441.3444,00241.5065
00259.5934,00247.1532
00218.9784,00284.2999
00283.1522,00207.6196
00267.5593,00226.2555
00444.6418,00176.6697
00365.1202,00260.1201
00254.1841,00215.8899
00269.9537,00213.3545
00363.3174,00297.8015
00365.6109,00162.9593
00240.7329,00200.2397
00263.2003,00201.2433
00369.1962,00199.4632
00267.9909,00205.8116
00417.9451,00113.8497
00330.7939,00295.8186
00367.4361,00247.9571
00309.9493,00264.6857
00276.5591,00220.4618
00165.0060,00296.7746
00278.6174,00165.1269
00311.1082,00209.6786
00405.1709,00280.1505
00441.3861,00176.9674
00318.1938,00133.2419
00307.3397,00223.8179
00380.5169,00297.9524
00372.8380,00234.7667
00331.8633,00192.5582
00356.4978,00236.7894
00380.2078,00194.1066
00442.2993,00111.6236
00349.9058,00234.9778
00399.7661,00220.0986
00351.8538,00213.2171
00326.5204,00207.7959
00301.0534,00160.8880
00176.2271,00255.1824
00219.7192,00231.9285
00390.5563,00293.3434
00375.6607,00141.4356
00303.9915,00159.3454
00431.5665,00192.4783
00312.7575,00194.6363
00343.3433,00301.2474
00315.9485,00168.5175
00266.5197,00212.6806
00263.8480,00216.4148
00420.5731,00176.0791
00436.9079,00109.7743
00279.9286,00195.7653
00260.6325,00179.3037
00380.3958,00211.4438
00290.2742,00204.2060
00175.9751,00255.8065
00333.6087,00180.2518
00239.4707,00107.2638
00285.0591,00184.2557
00402.8341,00287.4525
00478.5202,00206.3944
00257.6050,00224.9947
00345.7619,00277.2768
00283.8466,00216.7312
00290.0191,00193.4458
00255.2273,00209.5627
00422.6588,00172.1539
00258.7252,00213.3391
00423.9048,00143.0131
00233.0627,00183.2923
00310.3523,00213.0148
00359.2490,00237.5379
00360.6589,00201.2467
00323.4695,00218.5773
00181.0212,00262.9027
00230.6103,00110.2816
00374.7457,00240.1860
00250.4752,00200.9347
00444.8719,00197.2533
00239.5720,00210.2109
00433.9990,00248.2440
00265.1924,00177.0858
00238.9764,00151.8829
00222.3824,00162.4579
00437.9962,00165.0184
00430.0849,00144.0239
00223.1302,00218.8628
00398.9399,00203.0284
00237.6438,00238.2427
00353.0533,00249.5840
00230.2489,00252.9840
00178.7483,00240.3328
00209.1102,00256.3301
00341.0014,00261.8149
00140.4862,00234.6504
00459.8983,00159.8836
00159.6177,00251.6712
00410.1383,00216.2624
00153.0331,00250.3818
00211.2952,00243.4552
00262.6697,00236.6919
00271.3830,00220.0054
00356.2780,00142.6925
00476.4391,00098.7757
00274.5435,00220.3943
00452.0484,00139.8843
00285.0389,00211.9858
00343.0743,00251.8928
00293.7660,00196.4745
00337.4246,00262.0949
00157.9886,00182.4948
00174.4366,00253.5434
00267.2578,00227.4437
00467.3732,00160.3911
00262.9225,00203.1747
00367.0559,00157.2302
00269.1305,00191.2016
00299.9016,00234.0759
00302.6613,00232.3130
00493.4319,00022.5385
00288.7979,00233.9319
00345.5370,00164.5303
00488.3733,00125.4933
00282.0717,00225.3517
00353.3412,00241.4771
00303.8349,00251.4863
00343.0331,00265.9261
00154.5841,00204.7233
00335.6310,00213.7601
00253.8561,00231.8151
00329.8870,00227.6536
00494.4983,00185.1890
00335.7954,00280.8633
00379.3169,00173.9097
00342.0820,00303.6918
00325.4496,00264.8005
00492.1228,00028.1512
00323.8136,00253.0067
00321.4879,00228.0409
00389.1955,00197.4460
00358.6537,00112.9919
00384.8352,00272.2135
00131.2077,00245.7046
00326.3450,00224.4406
00354.6902,00238.2957
00329.5009,00215.6550
00297.8876,00184.2030
00317.5073,00236.4821
00419.4004,00241.2617
00275.5247,00214.3873
00395.9194,00161.1138
00325.2439,00259.3586
00350.2491,00271.9813
00484.6882,00039.7649
00363.0400,00250.9112
00370.3816,00218.2675
00347.7470,00144.4512
00134.6035,00209.4875
00392.3575,00262.2072
00359.1463,00241.2586
00383.0150,00270.9465
00295.7280,00170.1410
00351.6801,00189.6066
00329.2527,00202.6564
00339.9354,00184.3622
00299.0739,00205.9645
00452.3736,00214.7496
00376.4615,00188.3515
00387.2365,00168.7808
00436.7353,00041.0426
00388.1837,00155.2622
00327.2599,00210.0001
00321.6974,00248.2448
00244.0532,00136.9836
00343.4965,00270.8900
00332.7660,00137.4146
00359.2283,00216.3379
00336.0047,00246.0197
00344.0976,00275.4886
00388.6628,00169.6187
00325.0693,00180.2834
00274.0872,00164.0772
00281.8202,00191.7902
00288.6077,00206.4615
00446.8769,00225.5430
00273.2195,00200.2792
00401.5827,00164.9075
00315.8694,00083.8641
00274.9120,00198.0143
00289.8814,00191.5005
00342.9114,00143.6600
00285.7185,00181.2577
00222.7792,00168.3197
00341.9838,00247.6501
00284.8023,00179.9249
00355.1747,00190.0347
00333.2301,00175.1803
00333.6299,00232.0579
00324.4487,00217.9551
00234.2406,00188.7787
00307.1106,00202.6677
00423.8835,00232.3224
00300.7629,00221.4669
00378.1855,00138.2152
00304.9197,00195.3535
00425.6397,00162.8609
00292.7412,00158.0542
00300.3179,00176.8973
00344.0536,00186.0665
00383.1703,00242.6575
00190.1647,00157.4791
00348.8502,00196.3103
00395.1186,00226.9689
00324.6845,00196.8283
00333.6857,00189.2054
00355.3539,00182.5616
00254.2472,00168.4960
00318.3654,00186.1722
00330.0090,00203.7021
00410.0866,00244.8725
00305.7600,00203.9412
00401.5606,00109.6369
00324.7920,00206.5963
00430.7037,00167.9745
00309.5461,00206.1733
00329.1028,00205.3366
00312.3459,00201.9256
00348.4025,00218.5309
00158.2560,00175.5145
00301.8939,00219.2357
00407.0911,00271.9368
00296.7994,00225.5009
00345.4769,00194.5970
00310.6184,00224.2573
00238.6868,00144.6686
00321.9075,00254.0932
00326.6800,00254.1414
00436.2630,00223.3088
00261.5373,00233.6167
00412.0688,00098.5535
00465.8464,00128.6112
00300.4597,00214.8071
00323.6182,00211.6382
00367.9534,00179.6611
00300.0459,00210.7913
00175.5787,00213.7026
00277.7015,00213.6602
00366.3989,00178.7387
00381.2241,00301.5989
00347.9151,00172.8207
00346.0141,00200.3095
00355.2243,00148.9674
00265.9683,00229.0223
00384.5386,00089.8347
00543.8530,00194.8261
00352.9936,00168.4248
00411.7420,00100.2919
00320.1627,00162.5613
00399.1629,00217.0180
00441.8756,00137.6178
00220.6303,00280.2969
00375.4953,00183.9269
00441.3885,00139.2221
00326.9034,00137.0952
00359.5818,00144.4697
00402.5957,00310.0411
00347.6896,00166.0716
00367.5691,00212.1430
00357.2357,00159.0182
00245.5497,00211.6252
00373.9049,00177.6939
00344.7913,00194.0417
00469.5167,00233.8468
00328.7380,00167.3890
00388.6568,00149.6223
00196.0641,00315.6751
00385.7930,00222.7634
00389.7083,00154.0239
00340.3604,00155.1694
00418.6050,00124.3996
00386.8846,00145.8467
00334.1066,00213.6545
00335.5627,00211.7919
00421.7079,00281.5752
00359.6175,00216.7050
00361.9779,00207.6195
00334.3122,00229.8293
00257.9056,00211.6547
00322.7765,00255.8560
00218.4237,00231.4644
00414.5620,00136.6512
00386.6902,00205.9104
00383.7163,00226.9785
00399.2733,00184.0561
00360.9629,00123.8493
00430.8840,00124.9669
00311.6799,00173.0444
00327.4319,00177.2444
00313.4143,00170.0337
00311.7214,00182.2696
00340.7929,00211.2841
00528.7149,00149.1842
00378.3459,00198.3036
00357.8307,00208.8495
00357.9839,00200.0670
00254.6758,00182.1852
00343.2172,00197.1615
00341.3257,00088.2899
00408.0358,00114.8624
00150.7366,00200.4421
00414.4159,00244.9755
00309.5811,00179.5676
00409.0564,00215.1842
00285.0550,00193.9604
00422.1140,00184.5714
00204.6232,00165.5127
00269.3575,00180.5965
00279.4946,00169.4200
00504.2162,00139.5712
00293.7790,00219.6023
00360.9196,00202.0268
00297.8411,00213.0960
00338.5081,00099.3049
00207.5657,00233.0057
00296.5142,00212.8615
00123.0005,00224.2446
00321.2916,00211.5281
00388.4077,00096.1766
00405.1540,00219.7533
00439.6629,00234.5500
00262.7620,00209.3646
00266.9941,00189.1802
00437.3137,00195.9171
00232.3380,00180.4253
00215.3923,00157.7599
00467.4875,00156.3297
00255.2014,00133.6949
00381.9500,00113.5253
00290.5925,00184.5232
00367.8744,00198.9294
00216.6954,00191.8522
00275.9181,00173.6003
00246.8839,00257.9229
00278.2948,00167.9775
00374.4401,00205.2713
00350.4057,00100.8209
00390.4321,00213.7952
00448.0795,00235.6192
00326.6987,00142.5730
00436.6534,00153.7999
00362.2864,00148.3632
00337.0388,00171.0657
00399.2628,00144.4467
00302.1372,00188.2246
00471.5220,00164.1111
00312.7637,00221.1696
00317.5658,00221.7516
00184.7844,00165.5748
00350.6342,00170.5957
00341.5710,00234.7045
00252.5972,00231.0437
00369.9071,00124.2839
00348.5360,00237.6831
00425.5594,00225.6543
00413.2455,00235.1581
00360.6516,00223.2387
00343.6639,00120.1132
00402.9844,00109.8861
00454.2561,00132.5418
00386.5266,00112.5310
00412.6946,00139.0905
00477.8632,00168.8935
00431.4417,00179.9759
00409.5664,00148.0292
00421.9590,00143.0142
00190.2699,00143.3355
00345.7261,00184.2562
00360.0076,00108.0300
00211.8104,00168.8028
00365.1241,00094.1693
00405.2874,00136.7795
00334.5398,00154.8848
00433.5491,00255.4573
00298.5473,00185.0649
00319.6614,00171.2466
00360.9038,00152.8634
00456.4509,00154.2543
00356.4734,00126.6860
00286.9994,00150.2125
00475.0171,00168.4753
00314.7769,00184.5230
00222.9386,00159.8817
00329.3595,00167.7591
00346.7128,00189.3900
00337.0505,00206.6883
00150.9747,00190.2396
00187.4478,00192.7437
00377.3554,00176.8617
00330.5529,00207.1884
00343.9306,00160.6343
00329.6148,00213.4507
00439.7943,00281.6219
00283.5327,00241.6642
00284.0490,00256.0291
00453.4968,00142.4394
00283.9459,00260.7753
00320.5702,00280.0021
00428.1840,00165.0003
00285.6920,00215.2444
00327.0459,00131.0097
00264.0368,00203.9808
00318.9932,00154.3886
00181.2730,00211.7381
00309.6305,00279.3296
00378.9509,00141.8665
00191.3919,00217.1535
00360.3069,00228.2496
00313.0717,00257.4425
00429.1028,00209.2381
00273.1053,00274.2042
00266.5217,00274.2188
00269.6349,00279.2107
00437.5165,00156.2016
00239.7198,00251.8136
00277.3245,00125.1326
00386.6973,00193.6093
00233.6340,00257.8758
00303.5407,00272.3438
00345.5667,00144.4906
00167.5293,00155.6603
00318.9402,00247.0900
00176.2977,00216.4571
00326.3940,00161.9217
00379.7160,00187.8952
00333.5258,00252.3052
00330.0369,00287.5663
00375.7109,00201.3304
00355.2438,00281.6254
00377.3870,00312.9322
00385.5539,00240.0240
00416.7723,00201.1500
00256.5185,00127.3618
00349.9984,00265.2489
00384.2383,00192.3018
00357.1894,00299.5686
00183.0611,00158.5177
00309.8068,00258.1740
00351.7048,00112.2394
00324.8873,00246.2662
00338.5111,00163.5061
00386.4023,00159.4352
00214.9845,00205.8464
00335.1968,00245.4104
00368.0001,00213.1568
00273.9785,00219.3530
00246.8459,00196.9600
00214.7560,00229.0784
00296.8262,00139.9407
00317.1901,00041.0527
00203.9801,00218.7714
00211.6365,00226.2119
00398.4265,00217.5541
00164.8543,00140.8044
00219.0494,00230.1185
00203.7456,00259.6062
00355.8433,00200.3699
00369.7923,00143.7007
00381.1687,00169.9678
00203.4321,00220.7994
00194.7540,00243.0029
00249.0291,00251.1646
00407.3629,00233.9504
00270.2842,00243.7097
00358.6099,00122.1804
00273.9149,00254.9380
00274.7175,00253.6273
00352.0929,00080.8669
00231.4950,00220.7038
00131.2771,00136.0220
00202.5457,00216.0826
00392.3489,00225.8805
00186.8494,00216.2562
00344.0208,00215.2615
00229.4852,00215.7763
00362.2440,00105.0911
00344.4719,00141.4439
00262.0760,00287.4666
00219.9288,00198.0768
00258.2798,00214.2962
00407.3989,00253.9187
00369.0914,00252.7840
00369.4939,00121.9595
00373.5851,00269.2888
00367.0326,00282.7144
00120.7850,00188.8160
00325.6597,00111.1885
00347.4328,00263.0338
00423.6510,00180.2402
00337.1806,00235.9292
00334.5105,00308.7037
00353.7188,00093.4565
00344.8901,00238.1439
00324.6156,00268.4560
00356.4412,00132.7145
00199.6166,00287.1531
00321.1304,00267.5735
00465.5547,00231.4820
00316.1514,00240.3836
00314.7617,00175.5022
00279.0100,00254.2588
00111.6833,00177.9107
00326.4014,00214.6062
00331.2211,00237.6026
00338.1397,00086.6346
00316.1090,00225.9944
00466.8993,00168.3522
00299.2190,00219.8249
00271.2939,00205.5865
00333.1428,00220.4030
00296.2725,00213.0224
00337.3377,00177.3405
00315.4965,00153.5013
00181.5592,00251.6938
00317.6581,00167.4463
00349.0153,00178.9540
00196.7844,00133.0017
00467.9691,00232.8436
00317.3375,00167.1074
00349.0185,00197.2729
00324.2516,00212.4041
00305.9017,00190.5896
00346.1182,00107.5413
00301.2094,00184.1868
00453.6393,00223.3819
00361.4724,00141.2322
00321.3778,00207.2262
00192.6485,00265.3460
00373.6448,00155.7220
00323.8408,00205.4111
00169.0734,00132.5573
00408.1813,00186.2550
00369.5471,00172.2341
00340.3947,00174.7142
00352.9739,00164.7319
00459.4282,00218.5396
00284.9867,00227.2294
00306.0907,00239.8362
00334.0390,00234.8813
00308.2821,00061.3270
00325.5395,00229.3079
00173.6913,00257.1617
00354.9074,00116.2269
00436.7416,00160.6908
00322.9354,00245.4066
00209.1151,00314.9599
00326.5959,00224.9514
00305.8044,00216.3271
00367.2233,00223.6698
00321.3428,00243.3796
00378.2465,00166.6893
00273.4554,00258.8361
00387.2854,00104.9845
00285.0277,00275.4342
00293.5552,00272.2762
00284.4062,00274.4002
00299.1044,00296.0420
00151.7621,00208.4374
00316.4680,00032.6347
00344.1155,00112.6136
00322.2695,00283.7419
00259.7005,00339.6736
00326.4815,00261.6640
00532.5022,00134.4784
00408.5797,00182.4003
00296.2913,00259.2358
00376.6526,00164.2338
00371.4007,00194.7623
00297.9069,00251.4190
00324.3442,00250.7592
00367.0600,00105.8235
00321.6538,00262.8975
00307.8369,00261.5707
00246.0222,00188.8247
00399.8547,00143.9283
00343.2586,00192.5267
00314.6434,00043.3661
00338.0745,00199.2371
00430.4006,00194.9353
00340.5333,00234.9395
00264.0348,00259.6806
00444.8573,00207.3209
00401.4528,00267.3782
00359.7059,00239.2441
00410.5912,00280.0253
00380.1024,00173.8098
00420.4994,00297.4961
00371.1039,00102.8043
00366.9321,00228.1041
00344.7989,00260.5340
00334.3891,00142.6405
00290.8453,00150.2635
00350.0193,00261.4369
00394.0099,00249.7848
00328.0304,00057.0359
00400.2519,00248.3273
00420.3123,00205.3070
00441.4248,00218.0296
00292.2625,00181.0636
00398.0412,00246.7902
00398.3742,00214.8666
00424.0917,00173.7309
00396.6685,00175.1008
00375.4135,00184.0542
00411.8472,00244.3187
00266.4292,00137.4902
00383.0291,00090.9777
00422.0123,00236.5142
00330.7201,00148.0936
00393.9790,00263.9156
00390.5946,00253.2078
00329.7974,00044.9939
00390.6118,00245.0697
00391.8074,00299.3891
00421.6094,00191.9494
00434.0670,00197.8830
00263.9716,00227.2451
00405.0176,00302.5437
00431.8706,00257.6964
00251.3323,00144.9503
00380.6206,00166.1051
00394.8678,00161.1384
00397.8569,00225.2792
00397.1203,00214.4613
00321.1089,00127.2416
00382.2015,00088.0851
00336.8572,00168.2745
00358.3633,00269.3851
00354.4808,00255.7726
00317.8555,00016.6400
00339.8996,00227.1512
00411.3567,00185.7007
00436.0576,00178.4017
00338.9952,00228.2656
00262.6128,00220.8702
00320.6996,00184.6979
00249.6787,00143.0145
00345.4923,00238.4036
00381.9982,00163.4970
00326.3512,00126.7633
00438.4905,00227.3876
00315.1784,00275.8481
00357.5143,00230.2826
00450.5461,00215.5583
00311.9430,00243.1614
00344.3641,00249.0308
00375.8269,00041.7146
00384.1499,00253.5060
00357.1210,00259.6012
00444.6953,00184.3448
00273.1884,00267.2880
00363.8300,00245.4928
00240.0559,00190.3200
00318.4594,00249.7064
00374.5525,00110.6668
00415.5744,00256.2348
00382.4068,00165.9280
00455.6434,00205.4701
00380.2698,00244.0878
00368.5824,00174.3204
00301.4027,00236.8545
00290.7896,00202.0183
00316.8358,00185.8017
00417.9984,00112.3472
00293.8587,00222.0337
00254.3382,00219.7073
00273.3700,00242.6292
00480.6976,00194.1772
00268.5086,00265.1591
00254.6814,00194.2880
00293.0787,00222.6746
00339.7127,00183.8568
00296.9561,00241.7630
00410.8332,00199.4148
00298.8000,00272.9834
00314.8864,00262.1809
00336.2041,00251.4282
00338.7648,00246.2506
00427.2370,00049.6734
00333.1645,00253.3867
00314.9081,00252.9603
00302.5580,00244.3046
00274.1581,00230.8383
00403.0083,00197.6707
00329.7843,00234.6000
00340.1372,00237.7627
00300.1172,00218.7861
00275.6565,00220.3856
00288.6590,00211.9597
00294.4234,00226.8391
00283.5159,00227.5768
00391.4832,00306.5564
00327.5623,00229.6297
00313.1095,00215.9479
00308.2308,00227.6775
00311.9411,00233.3305
00297.8254,00215.1511
00309.2511,00235.4537
00270.4713,00276.3055
00230.1432,00311.9941
00309.4868,00211.1293
00233.5479,00183.6975
00221.9847,00187.6227
00305.5766,00221.3376
00223.9791,00179.2017
00232.5226,00158.2850
00246.3114,00182.2898
00321.7470,00145.1707
00238.1245,00238.5928
00231.8251,00173.1509
00281.2853,00161.8357
00275.2982,00122.4777
00276.3931,00112.0217
00291.6096,00209.5694
00274.7646,00206.1703
00316.2958,00207.6429
00305.0270,00183.6124
00287.0154,00212.7026
00294.9262,00203.5297
00315.8936,00206.5435
00353.0275,00205.2107
00345.6124,00210.3388
00318.3756,00180.4575
