u,v
00427.7789,00118.1603
00286.3069,00173.0541
00399.3059,00242.4114
00285.2283,00157.8628
00200.0084,00153.5979
00461.1737,00194.1145
00400.8052,00226.7309
00229.7355,00220.9301
00441.1581,00185.3805
00342.6808,00159.1054
00416.8604,00204.2381
00215.6904,00225.9316
00384.6876,00132.0729
00496.6935,00208.7264
00313.2339,00133.2638
00515.8969,00229.1399
00396.2083,00096.9573
00239.4269,00217.4765
00252.5887,00218.9578
00431.3849,00156.2504
00471.1684,00262.1988
00264.0483,00148.8107
00386.6017,00242.7707
00296.0862,00168.6416
00481.6042,00261.4860
00335.4646,00234.8793
00253.7294,00157.4752
00470.4798,00229.7624
00187.4934,00133.1906
00378.4016,00263.8571
00327.8285,00158.5799
00205.1573,00237.2732
00441.6045,00258.9785
00274.7426,00186.1869
00531.7903,00134.5483
00449.6523,00220.2318
00399.4050,00122.3653
00295.1153,00128.2299
00530.0543,00235.4404
00382.0006,00043.5002
00461.6777,00161.3222
00404.6223,00252.2145
00231.7950,00209.4563
00269.1808,00239.2914
00397.8959,00239.5223
00258.5321,00098.8246
00204.7758,00169.6435
00227.1138,00135.7903
00285.3846,00146.0799
00409.5551,00209.4823
00300.7419,00206.0590
00504.6718,00265.9854
00185.9860,00259.7827
00412.8947,00125.6713
00436.8436,00245.3094
00532.8590,00137.3248
00383.6385,00267.4640
00357.8190,00147.4582
00330.7364,00126.0889
00270.1968,00166.6689
00446.9626,00231.2881
00429.9719,00246.0338
00432.0329,00174.7955
00484.2008,00205.2504
00375.4554,00242.2341
00395.8469,00127.5863
00428.7504,00226.9745
00268.7599,00199.4798
00304.9412,00262.9622
00240.3096,00189.8315
00339.0813,00240.1027
00405.6075,00224.6275
00245.3598,00093.5732
00257.4860,00204.1110
00304.9715,00111.5205
00220.8473,00307.7329
00507.5699,00280.6213
00451.6125,00279.3667
00526.2662,00144.3695
00251.1817,00173.4181
00278.3300,00094.2849
00434.9743,00216.8236
00404.9811,00269.2613
00434.2072,00200.0672
00371.3236,00209.0947
00449.0409,00236.2203
00475.4909,00175.9739
00355.6123,00089.6691
00483.5075,00210.0295
00416.5009,00104.7185
00412.3810,00214.8197
00278.7076,00198.7453
00299.9117,00195.2529
00292.3856,00276.4358
00494.2530,00276.4494
00300.0877,00216.6462
00173.5684,00233.0086
00237.7066,00240.9557
00311.1874,00108.9783
00246.2210,00194.1094
00255.6932,00087.1241
00440.2840,00144.4364
00418.7367,00176.6877
00473.8547,00330.3011
00478.3106,00261.7222
00226.3623,00184.2601
00349.0920,00306.0057
00458.4401,00181.1564
00436.4543,00303.4299
00444.7769,00237.0203
00486.1991,00218.9429
00377.2922,00200.1530
00405.7775,00167.6415
00449.4198,00213.8910
00420.8460,00212.3961
00412.0370,00223.7737
00289.8786,00193.4602
00280.1925,00182.4930
00348.2393,00244.2811
00285.8573,00135.9504
00281.1003,00082.9765
00402.1246,00112.5993
00316.5277,00173.1094
00311.3738,00205.8263
00294.8112,00226.1170
00310.1982,00115.2546
00215.2796,00221.5164
00511.0111,00286.7817
00392.9452,00274.0865
00332.1964,00228.5369
00334.0823,00289.2510
00491.8356,00205.9679
00409.0228,00241.2663
00362.2069,00308.3507
00514.3182,00216.0606
00384.9308,00137.9470
00462.1206,00125.9643
00443.7647,00222.4481
00381.2312,00255.7195
00145.2062,00200.0602
00277.0970,00171.1549
00341.0026,00156.0222
00436.3044,00160.3024
00331.5403,00177.4454
00323.2786,00299.3397
00235.0190,00134.8295
00433.1450,00195.2438
00293.8458,00157.8381
00213.7697,00230.0302
00296.8484,00188.3107
00331.7029,00242.4617
00238.1784,00250.8845
00518.0121,00247.7981
00403.0466,00295.9115
00316.9669,00305.5522
00437.7881,00201.7091
00472.4579,00134.4455
00367.6410,00266.8172
00348.8823,00276.6565
00158.3823,00209.4248
00511.1031,00207.6539
00382.4036,00094.0433
00492.4145,00222.9050
00326.9281,00159.1267
00255.8213,00148.6537
00537.5022,00198.1991
00333.5992,00174.1690
00382.0582,00112.2765
00277.8208,00211.5289
00196.1423,00148.4108
00283.0693,00225.7853
00320.8457,00139.2491
00446.2421,00210.8216
00517.5752,00262.3245
00291.1917,00205.8019
00300.7878,00133.2586
00222.1420,00255.5157
00371.6979,00231.3243
00159.1534,00201.6534
00310.5096,00314.2886
00443.0864,00199.2882
00473.0314,00105.3123
00452.2957,00171.8103
00371.9038,00284.9106
00364.8041,00264.8387
00383.0628,00118.3786
00499.1736,00217.6346
00217.1599,00192.0251
00536.5030,00251.3734
00388.3794,00231.7211
00347.7428,00166.9309
00404.0358,00103.9972
00325.3601,00142.7623
00228.5257,00190.6866
00178.1891,00264.3130
00316.5359,00109.7055
00260.2161,00142.0066
00337.6471,00151.0164
00513.9363,00298.9612
00485.2080,00187.2351
00298.8808,00210.2622
00210.1672,00235.3586
00467.0487,00134.0397
00362.5437,00230.0318
00547.8774,00162.3940
00304.7388,00340.7421
00377.7591,00320.5993
00455.7592,00247.3784
00361.1048,00286.5457
00361.0554,00142.3794
00361.5767,00287.0414
00454.5655,00207.6079
00411.9171,00186.9882
00350.6426,00224.5735
00267.2026,00136.7431
00414.6913,00111.9330
00146.2486,00138.4955
00336.1958,00163.2856
00229.8550,00172.0617
00294.8492,00102.5110
00243.5652,00121.3388
00445.1544,00234.3051
00354.3159,00156.0507
00469.5838,00188.5677
00309.6000,00210.2784
00200.2242,00250.5460
00453.1619,00109.6708
00478.1524,00173.2605
00338.4897,00263.6212
00475.5952,00234.5450
00305.8794,00346.4218
00425.6623,00340.4669
00361.7195,00156.7089
00286.8206,00240.2436
00350.0343,00295.2383
00443.0831,00180.7809
00357.0645,00273.4468
00423.9432,00179.8808
00160.7188,00104.0176
00215.1278,00178.6967
00258.9666,00151.8450
00398.9432,00117.0379
00376.8009,00196.5391
00236.3959,00141.4570
00259.8473,00119.2619
00521.4634,00215.0109
00518.4949,00170.8564
00437.5430,00119.1203
00346.7635,00155.8645
00461.9019,00175.7422
00321.9432,00214.6334
00144.3183,00224.4828
00307.8258,00337.1096
00404.9190,00222.8371
00492.4415,00187.1528
00161.7001,00088.9877
00431.8968,00278.3264
00390.3864,00189.5040
00253.2209,00159.6633
00390.9478,00245.0530
00411.3196,00227.5124
00294.4952,00282.1210
00502.8917,00171.8749
00217.9812,00143.5560
00274.2202,00168.9241
00306.2113,00177.4891
00397.6543,00114.0471
00366.1367,00173.7143
00326.4650,00223.9991
00414.4401,00161.1401
00509.3741,00163.6604
00502.7325,00201.2647
00337.2090,00242.3625
00311.6156,00144.7932
00331.7925,00277.3671
00474.9243,00181.7528
00143.5944,00153.6075
00324.5483,00327.4889
00429.1840,00192.6205
00508.5787,00169.0619
00209.9715,00178.9271
00486.5676,00161.7148
00361.3310,00222.2150
00501.4860,00203.9679
00284.5128,00333.5715
00164.5094,00151.3361
00458.8145,00228.6812
00460.9452,00109.2505
00292.1771,00162.3899
00316.3495,00233.0922
00450.6938,00181.1613
00462.0997,00167.5986
00392.3136,00198.8085
00326.8689,00185.9072
00203.0491,00186.8938
00150.4074,00210.8973
00318.9895,00213.5022
00520.5712,00180.1165
00314.1156,00154.8236
00330.2090,00263.1913
00405.7902,00220.3755
00416.1003,00132.9428
00326.8422,00310.1688
00207.6538,00215.1042
00495.1654,00165.5357
00443.4078,00218.0774
00407.3599,00226.0031
00442.4841,00229.7017
00144.4852,00151.1544
00268.5970,00319.5590
00453.9584,00104.4636
00421.2721,00269.5862
00398.7127,00175.0349
00208.0630,00258.5545
00463.6915,00156.9509
00317.7948,00168.1912
00443.8507,00215.1418
00285.1048,00189.7384
00253.1391,00157.0618
00305.1279,00180.7299
00294.6891,00216.7256
00385.4239,00171.7606
00306.5816,00225.2228
00351.4712,00158.9444
00408.1093,00131.3872
00394.4778,00225.3618
00271.7013,00213.2413
00363.6432,00304.6259
00485.0390,00162.4632
00418.2898,00243.9565
00178.2585,00162.4259
00443.3495,00197.8616
00417.5498,00267.0687
00483.2865,00196.4540
00407.4339,00235.5897
00357.3002,00161.7629
00397.5867,00179.8752
00221.7993,00104.7599
00481.6805,00116.1385
00476.6313,00284.5133
00349.5774,00169.0724
00276.8496,00164.9088
00268.9006,00240.3151
00290.4849,00157.8780
00292.0893,00217.8976
00274.6703,00241.0874
00402.4820,00210.1498
00252.1654,00130.3528
00354.2167,00142.0737
00409.2719,00193.9753
00240.3555,00233.3514
00379.6302,00308.2943
00257.7504,00130.7693
00487.8049,00151.6511
00413.8558,00244.2215
00460.8225,00174.8714
00409.6448,00112.9325
00389.3296,00279.6888
00378.4262,00141.9774
00250.3548,00089.4456
00428.9830,00277.8895
00430.4008,00123.1916
00510.3149,00157.5467
00181.7784,00244.8571
00289.0783,00206.0180
00352.7185,00187.7353
00268.7666,00159.1816
00298.6462,00203.6112
00391.2079,00198.4891
00286.5740,00131.9953
00301.5136,00220.0701
00301.0618,00221.1687
00256.2255,00230.3097
00374.4550,00119.9048
00379.6155,00322.9942
00427.0563,00188.2866
00423.1415,00163.5886
00422.0765,00258.3058
00481.3188,00140.6225
00263.3084,00115.3563
00372.9439,00165.4771
00309.0476,00137.2159
00425.6703,00155.6607
00375.9717,00142.6085
00444.5340,00209.6068
00430.2111,00208.7018
00399.7317,00215.3641
00084.9801,00300.9178
00292.8492,00186.8766
00329.3050,00185.7250
00275.6124,00164.0767
00342.6385,00147.4179
00504.6449,00211.8176
00469.3195,00166.7250
00264.3756,00079.0997
00240.2813,00195.3376
00261.3474,00208.3649
00353.4617,00173.9844
00277.1408,00116.2490
00411.1223,00089.1953
00371.3739,00283.2944
00351.3560,00185.6944
00419.5747,00217.5635
00211.8201,00180.8058
00542.9742,00208.5400
00472.5150,00261.6182
00458.2211,00132.8914
00433.5513,00193.5660
00332.9250,00144.5517
00391.4458,00224.8928
00432.7239,00211.6605
00091.9347,00290.9223
00288.0472,00199.8426
00265.7051,00161.6491
00274.0481,00176.6120
00357.9272,00176.2415
00457.5336,00171.4831
00191.3966,00136.4770
00474.4181,00250.1683
00283.8179,00101.2285
00212.6936,00170.8531
00228.4384,00183.0334
00291.2882,00129.1314
00393.0573,00106.2239
00271.7367,00227.1085
00359.1320,00141.5052
00363.8463,00271.4715
00412.9179,00138.8063
00443.3873,00198.4930
00461.6524,00175.6098
00435.1837,00256.4028
00414.2081,00204.6786
00345.2355,00137.6316
00138.8998,00220.6022
00392.1579,00210.9476
00270.2678,00171.4804
00251.9587,00165.0777
00285.2815,00198.4797
00233.2136,00113.1254
00230.6511,00265.6336
00271.0205,00061.6467
00254.8136,00131.1908
00406.4095,00111.3228
00522.5583,00231.9075
00511.5476,00219.8221
00236.9849,00179.3832
00393.7161,00098.3473
00172.9895,00167.1821
00488.6853,00165.7118
00234.5909,00200.2911
00447.0461,00292.6981
00439.9133,00213.7663
00428.1198,00241.3427
00472.4566,00212.6309
00401.3195,00218.4228
00360.5767,00109.4003
00134.1847,00216.6642
00416.2162,00207.3137
00405.4495,00196.7406
00302.8440,00193.2556
00278.0042,00208.9682
00262.0828,00146.9425
00229.1707,00106.3876
00241.0157,00248.8582
00256.6948,00058.1940
00317.5023,00148.9922
00239.7268,00141.1714
00392.6499,00119.0859
00496.9467,00182.4976
00472.1497,00175.0268
00433.0826,00262.5992
00266.8834,00196.5361
00379.4466,00105.3063
00438.8768,00317.3561
00251.4050,00267.3378
00417.3651,00222.5193
00475.0609,00205.0152
00409.7161,00231.9349
00390.4231,00177.5794
00373.1281,00126.2727
00446.3945,00261.0388
00413.7546,00203.3917
00377.6728,00186.8504
00217.3232,00101.1368
00267.9956,00048.6596
00278.9382,00222.3377
00262.6208,00211.2721
00208.2964,00192.9055
00274.9766,00213.4353
00436.4773,00193.7608
00278.3647,00123.4643
00321.5727,00125.5483
00446.1623,00315.5618
00473.5105,00193.6478
00380.7881,00084.9337
00302.2374,00183.9518
00444.6468,00297.2655
00423.9529,00124.1027
00263.8469,00292.7105
00334.5374,00050.4949
00499.9515,00227.8168
00445.9428,00183.9583
00504.4375,00205.8907
00375.3918,00136.2259
00472.1351,00220.7200
00285.0383,00124.3419
00305.5620,00200.1397
00476.3528,00265.0003
00240.2250,00073.9422
00254.6663,00161.4548
00396.6039,00168.5700
00238.8660,00172.5402
00277.0798,00205.8010
00286.4369,00119.6693
00454.0442,00307.1903
00454.3895,00184.1445
00307.0494,00117.6975
00392.2288,00163.2359
00514.6042,00261.8477
00361.0916,00098.3545
00226.0758,00140.8742
00429.4405,00131.3792
00222.7259,00218.0155
00421.3529,00272.4438
00384.5058,00091.6951
00431.7958,00167.3352
00202.9716,00135.9996
00493.0452,00209.3889
00402.5780,00190.5262
00212.6266,00199.2351
00504.4322,00204.0520
00257.7407,00113.0059
00262.3803,00191.9524
00519.6692,00230.4082
00388.7283,00168.4852
00285.1803,00112.8108
00452.5421,00305.7073
00435.9052,00154.8718
00307.3858,00174.8082
00282.9860,00202.5520
00375.5446,00120.0619
00327.3657,00123.0602
00403.3629,00138.5014
00472.3322,00255.6857
00315.4635,00151.3418
00449.5662,00160.4180
00247.4961,00233.1016
00201.1120,00140.2373
00146.5621,00219.9436
00445.5002,00237.4592
00430.6205,00161.2579
00401.4127,00192.5770
00359.7000,00116.7660
00533.8980,00184.2491
00248.2804,00113.4750
00265.7882,00078.2250
00424.2958,00217.0098
00276.7767,00157.9650
00510.5640,00236.0468
00425.5545,00295.7560
00410.1137,00098.0727
00380.0603,00171.6939
00362.8279,00104.0639
00276.9453,00155.1801
00261.2512,00179.1711
00394.5523,00133.9593
00319.8444,00069.1459
00393.0246,00238.4411
00296.1765,00110.3506
00393.9926,00114.4859
00290.7812,00209.0586
00192.2709,00121.7538
00203.0035,00238.8578
00440.0542,00246.4587
00235.2612,00087.4853
00424.2863,00152.2671
00243.9107,00152.0538
00410.6687,00191.3627
00383.5228,00091.2930
00512.8950,00176.3261
00484.0983,00222.3333
00267.0386,00199.5840
00492.9423,00246.2590
00361.7225,00146.8036
00318.5616,00120.2033
00290.9911,00177.9063
00410.7823,00301.3573
00425.4057,00206.7782
00364.8808,00158.6023
00259.0050,00200.1425
00312.0682,00078.9443
00455.7087,00224.5127
00364.8992,00161.5711
00198.3932,00078.9981
00199.5732,00120.8594
00388.2421,00125.3904
00218.6081,00224.2377
00333.1826,00228.7817
00222.2726,00149.9894
00412.7978,00257.8062
00439.6378,00147.4099
00394.3105,00191.7129
00400.7962,00108.2728
00543.0870,00211.7312
00396.0980,00124.5707
00495.9161,00222.5835
00429.7252,00183.1902
00322.4246,00174.2855
00420.8974,00271.3654
00353.3550,00180.0102
00322.3658,00184.1850
00450.3792,00340.7374
00366.1046,00154.2471
00260.4412,00204.6099
00192.2309,00088.6406
00262.6891,00118.5208
00446.6154,00238.4252
00252.0366,00112.6289
00273.0730,00171.9831
00218.3186,00140.5263
00347.7962,00171.4059
00216.6878,00199.0667
00329.5826,00225.8833
00388.8721,00275.3317
00432.7927,00112.1571
00405.9386,00260.1548
00336.6491,00182.3177
00315.3881,00190.9000
00408.5984,00087.1437
00361.1181,00178.9578
00342.8214,00090.3973
00280.0685,00183.1233
00459.0575,00256.5358
00405.2361,00297.0402
00320.4647,00180.2770
00193.4284,00093.8344
00475.3461,00319.5141
00395.5677,00197.8844
00227.8757,00163.8085
00220.0165,00153.1605
00232.1915,00159.5240
00251.5646,00112.2059
00273.4703,00225.7828
00428.2219,00248.4039
00201.0906,00205.1470
00347.4366,00129.7701
00332.0240,00219.9423
00417.6881,00125.8727
00420.5936,00245.3661
00365.6643,00183.9155
00421.7747,00261.8745
00291.7363,00196.5173
00333.2585,00152.9554
00420.7893,00059.4726
00196.6659,00093.8236
00342.7477,00180.2098
00280.2905,00183.2323
00469.3360,00249.0785
00331.3804,00194.6802
00412.3916,00298.7484
00273.9551,00145.4473
00249.6771,00147.9549
00469.9794,00314.8153
00249.0825,00194.8250
00326.2218,00312.6111
00284.2592,00113.3591
00364.2301,00229.2532
00182.8734,00195.5625
00514.5544,00291.0772
00375.0747,00141.1498
00226.7457,00046.3455
00298.9810,00192.1411
00368.8533,00190.4523
00205.4123,00071.9428
00529.6350,00222.5065
00392.1363,00117.0626
00429.8745,00230.1136
00316.8500,00164.2535
00412.1929,00066.5063
00271.1647,00137.5335
00321.8257,00195.4228
00280.9185,00186.5624
00484.8712,00220.3490
00299.3104,00176.6631
00250.9907,00229.7407
00444.2816,00280.5981
00288.3082,00311.4687
00252.4347,00115.5503
00248.4282,00108.6526
00461.1621,00336.1718
00406.7999,00257.9980
00160.0270,00222.0537
00489.9048,00307.1175
00293.5045,00050.4015
00240.2730,00072.7862
00490.0718,00256.6537
00394.3012,00133.1401
00263.5697,00235.7977
00261.7835,00140.6049
00460.6931,00264.2703
00347.0934,00117.7293
00429.9485,00220.5180
00318.1970,00164.7289
00424.2361,00074.7756
00368.9064,00145.8273
00225.0818,00193.7843
00244.4909,00211.4419
00461.4060,00238.5084
00298.2640,00175.6723
00280.8414,00283.0732
00228.4942,00258.7030
00256.4256,00111.4895
00348.1470,00248.4017
00468.0401,00253.4000
00446.1128,00278.6123
00422.3191,00301.5779
00267.5771,00212.1784
00226.1819,00124.0652
00325.2061,00062.7918
00258.5284,00243.8544
00445.5330,00174.0962
00413.3752,00204.2573
00298.9459,00061.5274
00382.5561,00264.1842
00358.1751,00079.2863
00407.7037,00170.4905
00324.8911,00172.3808
00250.4653,00209.9048
00250.3452,00219.5302
00381.4783,00154.4527
00407.2686,00097.9413
00296.7811,00275.2080
00265.3737,00126.8756
00457.2841,00241.6799
00364.9931,00225.7213
00259.5268,00171.7240
00313.2259,00200.7895
00233.7001,00226.2649
00480.9719,00264.5071
00468.5648,00280.8173
00420.0143,00288.2609
00256.8941,00231.1102
00411.3424,00037.7420
00263.8566,00252.3426
00285.2757,00060.9286
00435.4466,00181.5167
00417.3566,00147.8768
00296.2044,00152.9441
00418.8857,00286.6555
00256.4733,00175.6310
00258.0474,00207.9749
00453.6571,00307.5908
00327.1907,00157.5265
00307.7202,00253.7150
00319.1246,00087.0691
00405.9334,00161.5454
00404.7322,00073.0673
00388.4513,00151.7146
00287.9896,00093.4265
00402.2814,00235.6563
00297.5585,00227.0613
00342.8728,00132.1668
00444.1212,00279.9519
00450.2763,00195.2209
00259.3805,00256.9844
00297.0488,00096.8988
00296.3262,00265.0722
00429.8011,00319.6436
00273.7648,00074.5627
00357.5368,00130.5060
00400.8188,00249.2928
00284.8325,00242.9384
00251.6747,00179.7500
00504.5188,00380.2463
00352.7129,00191.3344
00252.9624,00083.9931
00239.1806,00155.3994
00444.8437,00277.5964
00276.4296,00228.7416
00320.4223,00176.0810
00453.7592,00094.5141
00428.4923,00110.2911
00421.6892,00124.9626
00403.1647,00260.9140
00336.8226,00068.1358
00273.0553,00195.6612
00392.3033,00279.2555
00338.2477,00134.9109
00479.3464,00184.2602
00214.6923,00225.6703
00252.0390,00127.4604
00287.2980,00264.2478
00421.8275,00311.9754
00382.8984,00112.7875
00514.9548,00359.6449
00392.4497,00243.2550
00338.0726,00208.1208
00295.8290,00165.0033
00206.9526,00134.7482
00355.2501,00182.4590
00308.8927,00126.8912
00262.5077,00213.4119
00453.6859,00275.5583
00439.3156,00159.2849
00470.3276,00152.9795
00218.5883,00112.0489
00235.1821,00208.9647
00314.0714,00077.4410
00417.2407,00208.6143
00429.7744,00124.2461
00462.7996,00283.5104
00375.5211,00244.8000
00453.2067,00176.9511
00323.8650,00118.8892
00284.2195,00178.7570
00234.9225,00233.6612
00429.8943,00283.9716
00415.6124,00317.3605
00390.9166,00094.1148
00417.9068,00212.8181
00204.0717,00127.7438
00364.2344,00187.9467
00271.7654,00114.3141
00315.4237,00209.5195
00272.1966,00196.5856
00246.5342,00258.1855
00222.4218,00091.9873
00432.2006,00265.1981
00477.7242,00125.0043
00262.4110,00283.8662
00476.9973,00119.3332
00334.7334,00065.6881
00456.1644,00270.6880
00417.1536,00324.4994
00439.8528,00137.1217
00400.0887,00243.4820
00244.5506,00258.3098
00288.1886,00123.8357
00292.2603,00172.0897
00454.5923,00180.5114
00435.1810,00234.3671
00182.8993,00120.6768
00413.7505,00328.8228
00445.6638,00286.6572
00438.4890,00117.0173
00369.4873,00169.9297
00252.0168,00086.5794
00273.4758,00208.9456
00255.4445,00236.1494
00351.6028,00224.4551
00245.9445,00099.0788
00390.6855,00110.1413
00433.6557,00302.1124
00264.2761,00150.6786
00497.0110,00099.1234
00472.3219,00161.5421
00282.2599,00249.0910
00489.1571,00248.1895
00416.5117,00145.1057
00350.3454,00230.0437
00381.5231,00263.2817
00215.6611,00094.3965
00456.1046,00266.5230
00417.9211,00143.8254
00290.1388,00171.5998
00268.3644,00125.4924
00454.2992,00195.6258
00429.0121,00327.2776
00516.8725,00220.5337
00338.0453,00156.7325
00261.2271,00111.5677
00325.6043,00173.6846
00246.3112,00268.9687
00343.3825,00217.5412
00247.2094,00099.0430
00391.4436,00124.3926
00218.2574,00167.3956
00437.3175,00326.1023
00355.7234,00233.7829
00173.4342,00153.8366
00244.0968,00228.3972
00405.2537,00080.8211
00513.2172,00196.4476
00341.2897,00146.1134
00374.2793,00122.5373
00381.1148,00271.9008
00437.7711,00240.2106
00481.9671,00208.9364
00294.4350,00179.8380
00308.6408,00203.6327
00330.4317,00192.1850
00246.7107,00094.6551
00413.1399,00327.8122
00401.9269,00233.1723
00515.6456,00221.9617
00274.4191,00279.2291
00278.7685,00186.7632
00239.2556,00104.8315
00295.4948,00200.8776
00130.2245,00184.4703
00389.4949,00087.0772
00370.0349,00221.7030
00235.3199,00216.9849
00220.3691,00154.6804
00436.9738,00237.5447
00373.7439,00110.5587
00337.6524,00174.1249
00462.5484,00224.9592
00519.0456,00177.4996
00322.9393,00187.5326
00365.3275,00272.2153
00421.5741,00219.5933
00228.4707,00127.7165
00461.8193,00211.5162
00314.5349,00177.5052
00481.5683,00224.8020
00280.2457,00247.2048
00247.7397,00162.4184
00407.3581,00336.4107
00183.6812,00089.7909
00406.0406,00231.1586
00156.6450,00125.6936
00249.9719,00160.8173
00389.1953,00162.7722
00273.2329,00215.0394
00376.0750,00194.5910
00320.5672,00211.5083
00421.9539,00118.6985
00394.0802,00234.0007
00406.9838,00198.4320
00223.0495,00165.9631
00393.2873,00062.8245
00460.4827,00221.5207
00510.6231,00170.8065
00369.9860,00262.1501
00213.3701,00098.3102
00176.0632,00092.4975
00245.8658,00215.4488
00408.7724,00161.7313
00308.1329,00163.3138
00429.3497,00208.2606
00430.9521,00195.4225
00146.2690,00120.1736
00449.0178,00324.9091
00248.1504,00162.5084
00186.4263,00155.4000
00421.8062,00220.9714
00376.6994,00159.5800
00376.9586,00204.8487
00293.3724,00239.0528
00386.2631,00116.4591
00311.6791,00214.7896
00400.7128,00227.3941
00386.5009,00243.1206
00216.2971,00173.9465
00375.1682,00082.6328
00209.5490,00088.2221
00213.3514,00101.0145
00371.1318,00258.6439
00448.6581,00223.4783
00278.6883,00296.6748
00461.6290,00221.9268
00139.5896,00109.3103
00426.5595,00178.3512
00357.9677,00207.4666
00422.2670,00204.0484
00475.7580,00342.3373
00249.7947,00144.4265
00418.7766,00228.1118
00380.0422,00215.1345
00313.3914,00113.2666
00279.1419,00144.2831
00324.7359,00302.1535
00381.6522,00163.2440
00284.7961,00208.8491
00253.8375,00172.0697
00417.3652,00218.4629
00189.3844,00094.5678
00421.6684,00261.9038
00227.6827,00175.7909
00169.1638,00105.7986
00400.8862,00164.9891
00366.1175,00203.1968
00353.3014,00218.9671
00439.8856,00222.0409
00180.2783,00102.4152
00479.1899,00338.6944
00289.4102,00295.7420
00219.1514,00178.1045
00434.1540,00296.7786
00396.8379,00214.2257
00378.6786,00182.9261
00377.9695,00178.7694
00385.2269,00194.3467
00411.7010,00227.4064
00389.4063,00152.7689
00194.1814,00121.0396
00417.1727,00263.0278
00232.6359,00130.6395
00273.0962,00165.5908
00194.6462,00116.0937
00435.9746,00210.2695
00155.3944,00082.4369
00411.5131,00060.2199
00421.5500,00281.4576
00266.3800,00140.7124
00174.9491,00176.7644
00392.9361,00148.8876
00359.4024,00182.1339
00411.1454,00185.5892
00249.8957,00193.0450
00454.5294,00138.1387
00503.2216,00291.3677
00308.9853,00290.9489
00445.8406,00202.0230
00460.0097,00094.8598
00332.6977,00178.8223
00236.5468,00153.5178
00393.0419,00238.9764
00398.1723,00239.8549
00417.9133,00202.7361
00277.0489,00141.9874
00195.4649,00052.6462
00385.2443,00267.0776
00446.1390,00145.3444
00231.2389,00200.6013
00217.9241,00115.2502
00453.7137,00081.8774
00203.2398,00155.9959
00396.0234,00086.6839
00459.6680,00252.6745
00252.9914,00140.0340
00293.7271,00172.2330
00364.3489,00193.4304
00405.3698,00150.6924
00477.9040,00157.8054
00274.4434,00167.3473
00354.6941,00186.1103
00274.6761,00297.2672
00477.2794,00268.1768
00497.3885,00045.2376
00369.2320,00260.4703
00323.8452,00177.9792
00519.8164,00178.1155
00392.7406,00223.5778
00295.2805,00129.9891
00269.5696,00152.8716
00395.4835,00279.6181
00421.8853,00095.6855
00409.2910,00058.3153
00218.7311,00194.6640
00231.2525,00059.0064
00207.0258,00157.9842
00391.1140,00064.3358
00290.4246,00204.2853
00341.7529,00104.5261
00461.0268,00254.8484
00251.0485,00236.0351
00354.2622,00177.6641
00413.4002,00240.5339
00449.5550,00031.6483
00486.5351,00133.4034
00403.6121,00116.8836
00279.6987,00266.8639
00483.2028,00270.3101
00360.9832,00217.2631
00385.1316,00272.3128
00290.2880,00087.9027
00529.9050,00180.7023
00322.1802,00176.0770
00413.1989,00120.9535
00255.7198,00163.1538
00376.9555,00201.1317
00213.3198,00183.1913
00234.7312,00167.1931
00260.9266,00159.4303
00256.6696,00238.4683
00459.8618,00173.5556
00452.6902,00172.3566
00420.8065,00042.3421
00381.4281,00089.8759
00466.0764,00238.6623
00273.0409,00182.9853
00418.9425,00290.4785
00331.2688,00177.4062
00358.2475,00194.3545
00436.9219,00179.0780
00236.1121,00087.3590
00352.7513,00214.5446
00459.1248,00183.5058
00490.4467,00274.2156
00446.8276,00097.0318
00313.8275,00246.0770
00385.1732,00261.7583
00298.6348,00161.0862
00323.6654,00194.4607
00244.6335,00191.8809
00241.4987,00141.1901
00234.5250,00221.1478
00475.2403,00195.3245
00264.6618,00236.3259
00408.9627,00148.8532
00414.2720,00042.6950
00456.3559,00163.8387
00256.0298,00128.5694
00441.2083,00136.1056
00272.0174,00051.1391
00305.6017,00110.7015
00393.2700,00317.5302
00297.2672,00168.5478
00394.3230,00259.4064
00421.0539,00190.9766
00439.7806,00082.7530
00323.4976,00182.3537
00462.3227,00184.7830
00495.4491,00279.8755
00396.0369,00249.5717
00264.0171,00191.3285
00222.4223,00140.4233
00406.6910,00211.0671
00325.7106,00178.5173
00242.4870,00172.0769
00269.2523,00185.6622
00491.5417,00249.3367
00399.4234,00122.0584
00267.8022,00213.3015
00399.6464,00092.8972
00447.8040,00156.0437
00286.7389,00057.1652
00246.7904,00157.1156
00424.9173,00132.7683
00417.7292,00326.8957
00163.3028,00197.5828
00392.0253,00228.0435
00428.8123,00079.3305
00398.5324,00185.7549
00481.4592,00261.7545
00269.0278,00129.0505
00248.8934,00128.1419
00434.0582,00202.4612
00419.5029,00308.0713
00265.7770,00163.7293
00345.4776,00227.1940
00312.3904,00205.4721
00202.8843,00174.3705
00233.2273,00194.3747
00438.0158,00201.7309
00408.4308,00289.3570
00410.3865,00101.4229
00289.4360,00226.2577
00292.5478,00113.1229
00479.5125,00152.8689
00234.2496,00152.0408
00429.5049,00127.8901
00239.6967,00210.7932
00425.1819,00298.1066
00437.7854,00065.5827
00375.9231,00111.4789
00389.3486,00185.8468
00267.2688,00153.7493
00282.0805,00175.4020
00495.2823,00233.8110
00366.5317,00158.6000
00429.2742,00288.8781
00217.6573,00181.2048
00334.7927,00236.3651
00244.3009,00223.4620
00148.8232,00208.6406
00415.5504,00083.7812
00277.8433,00203.7484
00453.3779,00211.0588
00403.6429,00237.1820
00296.7952,00136.6880
00253.9480,00243.2946
00470.5070,00154.5168
00406.5309,00107.5382
00249.1333,00162.6101
00436.8898,00115.6421
00521.3317,00218.1720
00263.3433,00221.1672
00347.9034,00132.2857
00246.4168,00172.2204
00370.6690,00227.6177
00297.0013,00164.9241
00461.2139,00175.5308
00404.1411,00161.5727
00446.2110,00260.9667
00228.5179,00175.8098
00347.6282,00288.1332
00305.9749,00170.7333
00234.8657,00221.6138
00263.3501,00117.3640
00397.2404,00101.5496
00457.7847,00187.8785
00260.3979,00209.9264
00419.3419,00212.2832
00373.8895,00132.6497
00260.4647,00191.6504
00440.1205,00177.1321
00241.1496,00196.3341
00188.4903,00143.9401
00374.6860,00244.8781
00292.2079,00137.5911
00399.7620,00248.0145
00459.5047,00175.9061
00380.5027,00226.3599
