u,v
00351.5382,00195.6885
00366.8208,00168.2792
00294.7071,00235.2953
00314.4739,00224.6216
00336.0378,00192.5200
00322.0352,00172.9311
00302.3444,00220.5077
00303.0609,00230.7568
00323.5319,00266.7352
00358.5789,00219.6378
00345.3652,00202.1479
00330.5518,00218.8091
00363.5257,00159.8741
00249.8321,00211.4766
00330.3845,00223.5618
00324.6578,00203.2651
00311.3770,00194.6231
00306.0541,00201.0504
00354.4335,00210.2854
00343.6711,00140.7499
00356.2102,00179.3617
00294.4503,00158.7418
00296.1457,00162.7496
00308.4740,00204.2651
00274.2993,00230.0849
00357.4809,00148.9891
00329.1539,00211.7005
00336.3036,00214.5712
00335.0147,00208.3673
00293.2624,00208.3705
00357.2970,00208.0266
00370.4779,00191.1412
00360.0279,00286.0866
00399.8139,00271.8252
00367.0034,00232.4283
00354.6321,00230.3406
00374.6960,00223.5067
00366.1408,00244.2847
00346.6925,00182.8219
00314.6463,00226.8913
00328.7602,00224.9273
00316.7997,00234.4234
00381.5278,00242.6990
00422.8581,00204.6603
00445.5400,00225.1138
00412.9312,00272.4863
00409.5837,00219.7461
00356.6356,00176.9419
00341.5598,00138.6701
00347.0838,00151.0358
00333.1433,00145.2467
00359.5093,00168.2989
00390.2339,00162.6427
00349.1683,00143.8280
00362.0297,00152.8590
00371.6480,00198.6286
00379.3463,00220.1194
00342.9679,00201.2986
00296.1817,00191.0741
00290.2028,00186.4903
00297.5203,00159.7213
00257.6035,00108.4238
00286.7339,00129.3032
00291.3928,00127.8695
00317.5210,00168.7645
00312.5471,00245.6381
00207.0140,00187.7781
00231.8467,00165.2578
00260.6549,00148.0621
00312.8941,00197.1730
00300.3515,00209.2298
00297.0840,00185.0945
00259.9559,00175.2538
00251.5825,00162.0984
00162.0800,00152.2328
00174.1866,00164.3260
00265.5334,00165.2825
00328.1262,00167.8216
00263.5190,00167.8550
00271.2061,00180.9909
00259.4218,00166.7391
00255.4173,00167.2859
00249.6521,00220.4831
00245.8492,00151.6941
00229.7166,00198.4352
00248.2529,00205.7285
00246.6975,00186.9363
00288.6740,00207.6606
00318.0866,00195.3968
00317.9426,00180.9746
00342.4846,00202.3928
00366.9181,00203.5695
00338.5688,00196.2060
00303.3608,00230.6538
00361.9478,00173.2997
00382.7596,00172.1474
00397.1924,00234.6636
00357.0890,00171.4223
00332.1974,00159.2496
00336.1928,00154.6954
00327.5532,00126.8853
00325.2611,00118.3655
00331.1719,00242.0037
00311.3068,00227.1981
00321.3219,00216.9231
00331.7471,00176.4844
00311.0051,00164.7044
00271.7357,00160.6724
00267.0201,00183.7439
00281.6386,00274.5373
00294.6886,00258.5019
00290.2856,00231.9383
00278.4035,00180.9944
00262.1774,00176.7005
00259.0404,00150.9987
00255.5590,00146.8627
00238.6462,00190.1440
00262.5102,00158.3417
00240.4641,00181.4439
00332.1537,00210.8879
00297.0574,00191.6701
00316.0771,00155.2554
00296.4317,00197.9689
00319.6221,00170.8964
00298.9950,00203.0855
00301.5463,00162.8853
00271.0395,00136.7401
00242.6694,00211.0212
00246.7505,00208.7326
00203.0759,00149.6138
00273.4309,00212.3013
00242.8537,00159.4619
00261.9514,00111.0293
00279.6268,00094.7115
00257.0749,00116.1182
00200.8321,00163.5069
00240.1030,00219.2294
00377.8231,00337.1530
00315.0464,00216.9650
00297.1035,00227.5116
00287.4078,00187.1651
00258.5629,00178.8278
00303.6898,00171.5921
00266.2831,00247.1074
00271.2941,00207.9646
00263.4528,00202.2982
00277.5326,00183.2769
00281.6664,00137.0074
00295.6143,00239.6954
00265.2817,00215.8885
00278.7143,00143.3748
00271.9897,00144.2999
00332.4632,00226.2346
00265.1177,00187.1417
00291.3589,00191.1639
00356.2507,00300.8821
00333.5650,00212.0813
00310.8757,00208.2502
00312.8480,00197.5281
00303.1508,00191.1331
00301.7311,00168.8798
00324.5310,00197.0351
00328.4831,00205.6230
00341.6870,00205.7228
00362.8069,00200.6564
00385.3412,00222.8983
00386.9005,00231.7211
00384.9690,00233.0711
00330.3358,00173.9707
00338.5150,00177.8801
00330.7985,00208.2824
00336.4529,00201.3110
00326.0709,00196.8354
00375.1785,00213.3686
00360.3304,00223.8416
00304.8746,00199.5778
00309.6799,00198.6254
00289.8970,00143.7549
00331.6695,00142.6206
00335.0642,00230.2471
00300.9645,00132.9679
00304.6000,00152.1260
00284.0774,00169.0095
00366.9311,00247.9915
00342.9916,00249.2935
00344.7319,00215.4393
00378.2427,00231.6425
00380.6419,00243.3105
00375.3903,00228.9953
00366.7979,00231.2855
00375.0699,00227.8507
00367.7070,00215.7669
00279.0649,00178.8610
00302.4708,00160.1918
00332.3278,00197.1199
00350.4089,00238.0522
00333.5665,00209.9205
00312.5101,00257.7676
00327.2635,00254.1959
00329.4433,00184.0161
00331.7367,00175.4684
00396.4852,00173.0560
00311.5679,00263.1569
00418.2220,00188.5537
00397.1887,00178.4281
00398.0906,00187.4326
00374.4929,00180.0067
00387.9090,00191.6769
00346.7669,00161.2534
00325.6223,00163.8478
00387.9751,00150.4641
00371.8646,00171.8871
00352.6782,00182.9025
00330.6982,00186.3138
00321.8233,00178.1021
00349.4106,00209.8008
00370.1798,00189.8689
00403.0455,00179.1333
00368.7962,00170.8517
00393.6109,00214.2005
00424.8077,00181.5342
00417.1931,00200.6449
00396.8753,00160.2241
00374.7718,00256.9252
00400.8665,00261.6760
00379.4809,00253.5305
00398.5635,00240.2301
00424.8557,00236.2229
00372.9321,00180.4469
00334.2451,00171.1139
00309.9554,00145.9721
00421.4796,00230.1814
00420.5852,00194.0775
00332.5368,00158.9893
00322.2157,00166.7090
00405.1967,00217.2227
00395.0855,00207.0027
00374.7650,00211.3324
00339.2204,00280.4737
00356.9384,00249.9249
00361.4186,00249.8003
00354.8412,00249.8492
00303.5407,00184.3085
00279.5768,00169.2927
00239.3901,00197.3236
00425.4788,00297.8658
00395.1184,00273.2726
00360.5740,00240.7463
00329.8893,00211.1721
00289.6883,00200.1510
00363.5564,00186.5600
00365.3397,00189.3704
00323.8569,00233.2219
00338.2047,00266.2838
00343.2303,00217.2522
00344.4590,00242.8114
00334.6689,00227.6189
00334.8670,00221.6785
00350.9930,00198.3656
00332.9957,00202.9834
00338.4987,00192.5696
00287.8139,00261.1528
00385.0897,00292.3074
00381.4738,00188.3238
00343.3669,00177.7616
00352.8779,00172.9624
00376.2904,00160.7462
00390.3385,00181.1446
00347.1899,00247.0698
00298.9240,00202.3013
00359.6119,00148.5854
00337.3039,00154.2497
00280.2277,00140.9529
00244.1778,00137.6628
00354.2296,00199.9378
00346.6031,00202.3985
00322.2034,00174.8164
00382.3476,00163.0664
00318.2530,00220.1217
00333.5274,00201.6489
00333.6613,00164.6219
00320.2155,00198.4781
00350.2253,00158.6183
00356.3284,00158.5124
00296.8490,00153.9253
00296.2210,00167.6110
00301.0485,00214.3377
00259.0846,00237.4301
00330.9010,00212.0246
00332.0668,00220.0871
00308.0077,00199.0579
00312.4339,00134.8552
00338.3924,00220.8387
00339.2823,00305.0629
00343.9844,00293.0405
00348.0038,00264.9609
00335.5323,00270.7294
00363.5685,00247.1771
00359.8900,00238.6937
00340.0285,00231.3892
00346.5179,00293.4998
00341.0250,00272.6879
00339.7354,00264.2094
00332.0171,00227.2809
00360.0066,00230.3116
00348.7880,00218.0773
00330.6927,00187.5702
00336.0773,00179.1880
00324.1639,00298.7549
00331.7584,00287.1601
00343.0082,00274.1904
00323.7015,00234.1885
00327.3784,00219.0950
00329.1491,00219.0996
00281.6336,00288.3870
00295.4518,00268.3651
00311.7422,00242.9582
00311.1734,00221.3572
00271.5437,00228.3757
00272.8250,00199.7771
00305.2526,00269.9684
00358.1336,00229.1964
00384.5488,00230.2201
00379.1428,00224.7208
00396.6909,00228.9536
00356.3746,00220.8376
00351.8936,00239.4023
00366.6676,00210.8337
00391.1135,00200.2714
00384.0427,00199.6929
00363.5668,00181.6754
00353.3768,00249.4423
00356.9313,00251.2449
00324.8274,00291.6271
00309.1644,00266.4301
00327.7973,00279.7319
00345.7938,00286.6519
00331.7852,00231.3607
00402.1246,00301.6474
00392.6636,00283.1509
00383.3008,00259.5485
00386.9483,00243.2436
00392.4590,00239.8630
00365.3766,00214.7393
00357.4160,00222.1308
00374.3790,00280.6145
00370.1165,00272.3163
00343.7384,00280.9562
00358.9974,00241.0058
00344.6686,00272.0451
00301.3413,00166.6711
00284.7819,00182.5174
00325.6233,00207.3929
00337.2581,00214.3103
00262.3878,00178.6895
00350.4579,00188.3677
00360.5868,00335.8811
00340.1697,00220.3454
00345.7409,00205.0476
00360.7098,00168.4013
00345.8677,00188.4949
00325.0146,00204.0917
00277.3336,00184.1665
00305.2756,00152.0201
00318.9946,00157.2161
00287.9748,00232.5471
00304.5310,00196.0909
00379.6344,00292.1658
00339.4274,00186.5470
00355.3459,00216.4078
00370.4449,00203.8341
00334.0096,00213.2629
00346.3010,00210.1089
00314.4019,00212.7096
00329.5169,00201.0907
00330.3122,00210.3351
00335.7582,00193.6655
00324.5102,00213.5394
00308.9749,00222.4788
00320.7058,00214.0567
00288.8057,00192.8966
00248.0033,00171.1873
00367.1703,00258.4756
00377.3177,00233.4375
00382.1966,00181.4328
00341.0829,00185.1961
00278.2237,00161.5815
00256.5724,00162.2583
00328.9413,00190.6622
00339.5220,00188.5877
00306.0164,00172.5608
00325.6756,00218.4854
00309.2874,00229.0497
00323.2877,00165.7914
00399.5861,00318.0264
00343.0950,00186.4068
00342.8708,00161.0305
00345.1370,00171.3010
00340.9004,00190.4625
00407.2062,00256.6252
00394.6653,00220.8991
00363.4084,00261.0691
00405.3159,00217.4415
00392.3865,00229.5100
00360.5803,00185.4490
00336.5895,00182.9006
00370.5273,00277.7151
00397.2632,00229.2845
00323.8610,00205.9565
00296.0917,00171.1063
00295.7634,00209.9366
00410.1010,00210.7533
00367.4895,00189.4220
00348.9991,00189.2955
00361.3598,00245.0281
00346.2901,00257.3851
00322.3136,00271.2744
00324.4391,00283.1576
00329.8080,00325.4714
00327.1511,00255.6211
00299.0507,00264.5250
00423.7262,00252.0482
00380.5978,00219.1039
00374.4908,00198.3698
00389.4742,00192.0301
00363.6034,00136.4591
00345.9702,00131.3685
00333.6863,00185.3845
00311.1590,00246.6120
00323.7498,00229.3268
00341.0960,00195.6945
00333.1222,00196.1543
00307.8422,00194.2211
00289.5905,00251.8007
00360.3663,00193.5514
00277.5014,00165.6938
00301.3796,00169.1768
00285.0743,00183.9470
00343.4827,00210.0160
00350.7411,00209.6661
00361.5392,00211.4702
00331.0092,00203.1294
00294.1285,00213.2837
00275.1367,00206.6785
00328.8023,00366.4199
00352.9266,00259.2468
00335.2151,00289.6791
00362.9270,00215.8877
00330.4223,00251.6155
00362.4714,00206.0128
00328.0891,00241.8800
00333.9035,00215.2163
00325.9751,00223.9393
00332.1122,00222.8949
00312.8081,00187.5920
00300.7491,00213.8171
00314.0553,00183.4198
00357.6379,00229.2504
00327.7808,00176.6251
00360.6115,00227.9276
00332.4911,00186.0460
00365.9465,00224.4836
00334.5866,00205.7260
00340.2007,00207.9509
00341.7216,00176.6250
00345.4883,00184.9373
00306.3021,00170.1184
00345.3758,00184.9545
00283.6836,00168.0094
00363.9928,00207.6094
00260.2462,00170.8195
00376.2920,00218.9810
00260.6507,00163.9099
00397.3418,00226.4860
00269.4834,00209.5218
00381.0838,00232.4823
00236.1150,00214.3617
00345.0294,00211.0110
00283.5288,00195.8484
00353.3523,00217.0424
00280.5161,00202.1233
00362.1710,00217.3361
00299.5857,00169.9756
00353.7261,00192.5485
00326.4548,00139.7669
00334.8166,00211.8620
00340.4150,00142.1803
00343.6071,00212.2842
00321.0466,00173.6212
00311.7003,00195.3083
00275.2849,00179.7513
00306.2895,00201.5461
00259.7527,00225.8129
00287.6297,00203.2123
00332.1019,00265.5318
00280.0648,00177.7802
00314.9581,00277.9313
00364.1481,00174.0422
00385.0463,00302.4985
00355.5526,00181.3463
00332.6332,00185.6947
00365.8167,00168.9492
00296.1836,00359.7661
00320.6772,00180.3179
00293.3946,00327.1649
00346.1923,00180.7222
00303.4789,00251.6767
00346.7074,00192.6214
00391.3615,00218.6062
00334.0801,00198.9158
00337.4266,00188.9756
00329.3690,00198.0058
00348.4978,00188.9337
00355.5877,00193.0129
00335.8152,00204.0615
00361.3941,00180.6755
00397.5688,00146.5285
00338.5897,00180.9908
00419.6512,00134.8850
00335.5860,00186.2710
00315.7398,00230.9498
00332.0902,00256.1487
00299.3649,00161.8755
00356.9122,00236.5974
00298.3813,00166.3942
00355.2001,00191.4969
00281.8592,00195.5978
00364.8036,00169.0323
00294.0552,00277.1921
00328.1956,00243.4788
00262.6343,00190.7555
00328.5676,00204.4418
00303.0189,00277.7709
00351.7308,00186.0565
00303.3857,00335.9893
00320.7620,00191.2433
00308.1649,00246.2327
00313.5755,00212.1895
00266.7304,00201.5650
00373.9361,00238.5103
00269.0779,00182.8163
00375.1923,00234.6262
00297.7848,00182.3556
00371.0532,00175.6083
00268.4480,00165.4092
00352.8085,00246.4251
00273.6571,00171.2243
00349.4093,00267.2152
00249.1073,00181.9918
00354.4223,00228.6941
00306.3935,00226.2551
00343.6124,00235.2496
00298.8169,00216.4869
00306.9004,00188.9833
00321.5970,00230.7816
00309.0111,00197.2424
00364.8385,00214.8064
00367.8396,00219.2013
00325.6541,00194.6006
00264.0741,00153.7568
00373.1417,00210.7319
00291.6472,00137.1888
00367.1763,00214.8530
00371.0331,00208.4847
00384.3354,00212.9276
00374.5121,00242.5480
00391.3012,00209.4624
00324.3007,00154.0965
00399.8893,00211.7038
00336.6012,00161.4015
00372.7474,00216.7609
00321.1390,00123.3027
00379.5526,00153.0893
00290.1617,00209.9586
00358.8489,00241.1503
00320.1536,00201.4871
00367.9695,00239.2944
00360.4989,00252.2850
00308.9957,00204.4175
00347.6976,00254.2989
00317.6984,00198.8725
00408.6408,00228.8633
00350.5282,00177.2000
00435.7603,00200.2292
00324.4827,00148.3961
00411.5486,00232.3957
00280.3473,00145.4062
00414.4602,00232.5949
00206.2103,00225.6671
00385.9046,00243.3376
00183.1161,00156.8890
00382.6814,00230.9952
00370.9366,00174.7868
00351.2354,00225.9473
00331.6623,00138.8257
00349.6476,00193.4840
00312.7135,00137.1685
00332.9185,00137.3288
00297.0306,00157.2386
00357.4985,00243.5935
00244.6836,00173.4643
00365.1376,00231.5864
00285.5760,00156.3227
00347.7798,00218.8059
00375.7520,00259.4729
00289.1768,00183.9983
00352.9814,00252.2946
00343.2422,00219.4972
00313.2913,00197.0672
00321.3492,00191.5055
00364.8622,00241.5658
00276.8448,00197.7668
00365.4101,00242.1520
00279.3149,00193.4882
00373.3480,00259.8817
00292.9701,00236.5100
00347.3274,00235.1096
00341.5910,00232.3974
00379.8539,00226.0598
00395.4382,00234.5164
00407.6867,00264.1269
00358.2551,00283.6937
00373.5219,00225.2838
00394.3712,00223.5022
00401.0141,00219.8046
00380.3698,00221.7876
00383.7701,00200.9592
00391.6903,00303.3207
00392.5583,00283.8430
00371.7990,00202.6233
00483.2999,00283.3416
00449.2149,00265.1541
00444.3614,00266.4053
00383.6917,00263.8662
00405.8712,00251.1231
00406.5313,00247.6817
00400.8169,00227.9248
00362.6136,00222.2956
00342.5986,00213.2113
00413.7811,00260.9604
00379.5518,00278.5667
00368.7797,00233.4664
00313.4640,00206.4302
00308.8260,00181.0531
00331.4585,00213.2317
00315.9924,00240.4926
00334.8179,00201.5287
00345.6949,00181.7810
00236.3360,00154.0647
00300.8986,00227.3535
00396.0761,00227.4579
00406.0042,00228.6815
00371.0630,00225.3644
00349.2135,00246.4572
00333.9603,00225.2936
00321.5000,00229.7633
00313.4984,00209.3923
00319.4725,00215.4636
00317.5683,00270.2876
00318.6020,00220.7862
00292.6391,00183.1557
00268.5935,00229.4736
00352.0122,00210.2230
00300.3819,00191.5880
00300.3699,00179.3167
00268.4389,00175.3350
00307.3556,00183.3142
00375.0555,00217.6817
00390.1195,00195.8579
00360.8976,00244.5745
00367.2402,00273.4367
00373.5352,00275.6997
00377.5789,00236.4846
00368.3051,00215.1891
00377.2220,00203.0230
00358.0571,00267.0172
00374.6066,00233.4265
00376.6801,00193.0919
00381.8403,00194.5824
00346.0942,00211.4527
00314.7649,00271.4102
00373.4541,00217.9808
00385.6036,00208.3252
00271.7940,00189.6954
00301.0715,00187.5747
00332.7784,00161.8727
00333.6916,00205.3854
00364.4764,00217.9224
00347.0950,00235.5304
00321.6775,00221.7497
00322.0161,00203.0525
00274.2941,00180.9277
00376.2546,00209.5634
00383.4944,00291.0089
00428.4412,00205.8482
00348.7352,00278.8647
00357.9266,00181.5642
00375.1203,00179.6622
00358.8683,00239.8646
00375.6875,00199.0199
00330.8776,00204.3407
00353.2939,00250.1615
00419.7715,00258.7574
00408.7988,00253.2305
00401.1238,00228.6550
00395.1325,00348.3413
00396.9574,00243.0772
00424.6877,00229.5138
00400.5326,00245.0295
00381.3826,00237.4278
00369.8257,00241.8162
00349.5557,00264.4635
00415.0357,00199.1600
00372.1953,00181.8990
00323.0143,00146.5406
00329.8884,00149.0836
00349.8277,00124.8007
00277.1988,00244.3470
00283.0850,00256.2212
00306.4060,00264.7077
00351.4883,00308.9769
00342.0949,00321.2800
00324.6661,00285.6888
00329.0327,00261.8115
00372.4324,00204.6227
00372.7246,00184.5615
00331.0853,00263.0762
00333.6134,00254.5805
00271.0753,00175.7504
00300.5025,00159.3333
00329.0115,00173.4071
00335.7598,00193.6232
00348.1258,00217.6753
00335.3213,00284.5602
00334.2425,00271.3329
00305.2083,00245.2809
00373.4130,00208.1328
00300.3622,00200.0333
00306.7234,00206.6056
00309.8621,00215.0847
00334.7591,00253.8188
00328.6203,00254.7054
00230.9362,00235.3252
00301.5391,00242.2193
00225.7387,00118.1080
00221.5992,00109.7786
00285.3990,00108.6417
00243.7007,00169.6700
00253.2267,00181.0489
00243.7709,00128.6309
00251.4064,00119.1000
00257.5175,00220.2866
00247.0632,00269.0276
00308.7276,00228.7539
00286.3519,00203.1204
00304.0564,00192.5746
00315.3768,00338.7432
00326.1191,00345.0219
00337.6648,00342.1361
00317.7933,00309.5757
00254.5706,00161.2629
00268.3395,00154.2454
00269.9900,00150.2141
00307.9704,00114.4287
00267.0436,00169.6383
00259.6391,00238.7962
00265.3219,00249.6027
00273.2944,00149.3053
00264.3537,00137.4395
00307.8698,00121.8665
00236.1790,00202.1190
00253.2588,00192.7801
00390.8764,00218.2209
00444.5465,00176.5008
00322.3034,00222.5917
00356.2608,00282.0226
00360.2444,00165.4726
00321.3798,00264.5469
00366.1859,00303.6169
00335.5882,00229.9892
00338.1736,00216.5733
00326.1103,00230.4566
00284.9404,00269.8219
00337.2562,00226.0652
00327.9847,00260.8366
00335.2566,00228.3899
00262.7389,00208.3312
00248.6081,00199.8251
00266.3626,00198.7747
00293.3339,00218.0974
00348.3238,00305.6690
00355.8415,00282.4997
00288.8265,00256.9927
00251.3510,00218.9301
00347.8268,00177.8852
00369.7222,00177.8763
00435.6548,00225.9083
00375.5393,00315.4413
00363.9100,00280.2635
00391.5510,00253.1251
00389.8233,00241.7652
00433.5356,00276.4352
00451.5298,00290.6847
00441.3051,00326.5779
00431.6598,00289.0135
00357.7461,00304.9795
00425.8422,00224.0538
00446.2576,00221.7241
00404.8638,00305.7384
00415.9687,00275.6089
00303.8953,00187.8330
00316.6345,00171.5168
00354.6744,00151.8727
00363.5736,00175.3557
00347.4638,00218.8958
00372.8133,00224.8773
00379.2433,00216.3531
00390.7658,00202.1199
00409.0322,00161.8545
00339.1428,00184.5473
00406.4566,00206.7408
00439.6707,00283.0876
00439.0224,00277.3818
00419.8150,00163.2271
00428.4803,00169.7731
00430.9939,00239.0875
00358.1137,00257.9753
00363.7336,00318.0357
00350.3446,00199.9435
00387.7390,00270.4018
00331.1350,00195.9175
00317.1636,00207.0541
00338.2754,00284.1179
00377.0515,00279.2629
00377.9367,00301.1636
00414.3890,00258.1992
00367.6095,00256.0466
00408.7969,00196.4375
00407.5848,00182.0281
00403.8797,00158.4071
00408.6479,00184.3560
00432.6964,00189.0703
00416.3243,00207.8838
00419.4790,00204.1426
00364.8484,00198.4786
00366.9989,00199.2589
00376.4113,00155.1740
00351.7010,00220.0491
00325.4620,00212.2433
00324.5975,00213.7909
00273.5464,00198.7050
00415.5529,00284.7041
00343.5330,00195.8585
00323.4848,00163.7611
00363.6326,00139.8367
00391.2278,00192.1552
00372.4332,00190.7796
00334.7127,00170.5653
00346.3091,00162.5872
00295.0888,00203.1235
00317.7971,00227.3413
00373.5066,00229.1667
00368.6620,00231.2573
00392.2513,00187.0241
00306.2091,00219.7974
00314.8479,00196.7117
00316.5259,00182.6810
00328.1302,00243.0246
00328.3771,00208.8837
00332.3182,00193.8319
00356.7004,00186.8493
00348.4271,00165.0525
00275.3774,00277.7889
00332.9866,00229.7624
00303.2087,00154.9881
00290.3298,00144.3218
00305.3923,00147.1927
00251.6780,00162.9928
00346.0377,00205.4974
00343.0763,00223.0306
00386.1925,00267.8954
00357.9013,00189.5841
00361.2406,00205.9461
00361.3709,00261.9317
00296.6436,00215.4650
00337.4544,00205.3576
00324.5081,00189.7433
00292.2741,00160.0847
00271.4119,00184.8119
00265.6046,00161.0599
00332.1542,00191.4678
00348.4724,00178.3281
00376.5670,00177.1019
00348.0692,00153.2218
00332.2159,00212.6379
00330.0047,00168.0850
00324.5263,00219.8527
00353.3648,00187.1573
00336.3713,00194.4710
00323.6915,00184.2596
00289.8810,00167.3519
00360.6787,00245.5477
00358.4085,00240.4739
00372.3937,00247.0438
00371.6306,00242.1218
00364.1281,00238.8554
00326.5701,00211.4649
00413.2756,00261.1278
00415.9649,00242.6513
00413.8785,00234.4326
00403.2358,00220.1110
00375.8055,00221.1747
00369.8962,00210.4251
00368.0207,00208.0337
00362.5432,00261.5678
00353.3263,00254.4991
00347.0200,00247.4140
00348.0432,00243.7393
00354.0435,00254.5135
00352.9871,00252.7035
00327.9145,00236.4719
00316.0571,00234.0779
00395.6567,00209.1167
00334.7899,00229.7080
00302.8272,00147.1771
00307.3039,00181.7112
00309.5684,00174.5105
00306.3814,00197.4147
00356.3488,00294.4064
00342.4352,00284.5178
00353.4581,00230.6449
00335.4196,00185.8025
00307.6740,00243.0803
00320.8943,00242.8062
00334.4937,00235.7267
00333.3107,00234.7428
00324.2697,00188.1377
00300.9117,00225.4663
00275.2748,00200.4356
00266.5802,00229.1336
00240.8763,00213.5101
00217.2686,00189.6994
00247.7950,00171.6193
00293.3102,00136.3073
00306.2223,00237.7661
00427.2298,00320.5277
00345.9780,00231.5180
00314.3958,00197.3051
00407.4420,00260.1718
00317.8944,00238.1488
00297.8932,00167.1505
00297.1146,00170.9422
00350.9208,00316.1682
00360.9741,00226.6850
00353.4029,00202.3254
00304.2534,00206.3615
00332.4718,00180.5336
00270.3080,00208.6086
00264.0433,00227.9505
00289.3244,00222.2496
00315.8813,00218.1270
00309.3482,00174.8279
00363.0096,00206.7116
00374.0659,00232.9070
00363.7222,00244.5460
00365.4890,00240.0843
00369.4702,00235.5844
00367.5179,00236.4044
00377.8460,00240.8891
00370.5695,00251.5580
00367.8685,00242.9537
00352.1799,00222.6808
00309.8427,00230.7117
00343.6892,00210.0985
00333.3397,00218.6155
00373.0202,00180.3811
00306.0270,00200.3382
00363.1544,00310.6481
00352.8192,00278.1278
00358.5785,00270.3759
00335.9564,00174.5441
00344.3041,00166.5880
00355.3953,00171.0644
00332.9512,00246.8205
00340.3848,00239.8832
00359.5383,00266.2587
00327.9748,00227.1979
00328.5485,00215.6749
00403.5051,00325.7316
00318.4985,00199.7757
00338.1330,00203.9123
00370.6357,00209.1256
00364.0663,00234.9636
00357.7014,00213.9026
00316.0534,00168.8820
00368.0967,00223.9362
00369.9424,00244.4657
00355.9311,00240.3564
00367.6802,00207.2916
00323.5435,00140.8431
00350.8177,00145.0331
00347.0707,00131.0489
00321.9608,00173.5605
00325.0907,00159.8881
00359.3124,00188.8182
00233.2540,00135.6422
00319.3780,00132.0233
00302.0329,00155.4756
00294.6070,00186.7583
00293.1450,00197.4945
00316.3361,00194.2011
00362.7608,00179.9207
00375.5727,00160.4824
00374.9791,00183.0717
00345.6833,00217.9118
00320.3478,00208.3615
00342.9512,00206.4964
00383.1682,00234.2114
00373.4129,00184.8670
00339.1568,00169.5821
00414.8115,00195.5063
00402.8328,00251.4030
00402.0922,00245.5673
00368.7855,00263.2544
00370.5247,00207.0179
00363.7890,00209.2941
00394.7041,00267.3340
00297.5500,00193.3026
00288.6368,00154.7826
00246.5576,00184.8415
00243.7317,00250.3194
00253.3344,00231.5966
00276.2267,00197.0582
00335.2504,00234.0864
00291.2483,00183.2088
00265.0646,00228.7983
00256.6099,00189.3385
00240.9793,00171.8681
00303.3200,00181.8971
00297.5042,00177.9821
00324.1986,00190.3254
00321.4301,00180.0813
00356.0018,00262.5960
00381.4827,00251.8206
00369.2025,00211.0180
00366.3371,00212.6783
00359.4162,00230.7510
00370.5954,00273.0414
00354.7005,00246.3238
00325.9431,00231.7271
00297.9832,00165.4608
00284.4513,00210.0263
00293.3326,00216.6517
00301.3634,00227.8202
00308.4657,00173.7347
00343.2152,00168.4667
00352.9778,00165.8335
00344.4023,00228.9755
00342.0181,00219.0162
00354.9804,00207.1220
00376.8310,00182.0445
00321.2173,00215.5785
00319.7420,00219.8179
00392.1057,00231.0140
00334.0022,00140.6038
00271.8126,00091.6245
00332.0579,00232.7887
00352.8978,00217.0646
00392.3074,00261.4406
00379.4155,00202.3467
00376.3679,00222.5339
00349.8684,00253.8285
00351.2007,00197.4019
00410.4294,00217.8288
00420.8498,00204.7762
00402.4101,00160.7879
00407.2666,00138.2304
00272.9881,00165.6103
00286.9433,00165.4580
00274.8596,00139.0892
00275.6459,00109.2267
00311.6224,00261.8956
00332.2695,00265.3737
00367.6798,00230.9413
00309.2686,00186.5918
00299.1219,00179.0430
00295.3053,00172.2826
00322.9423,00126.1158
00290.9234,00305.8532
00353.6868,00228.1646
00350.1749,00161.0160
00358.8105,00127.2210
00349.7400,00116.5582
00347.5762,00298.8533
00363.4217,00117.2542
00376.5453,00159.3306
00369.9026,00125.2630
00327.9906,00157.6288
00318.4323,00240.6987
00329.7934,00296.8256
00394.8449,00265.8911
00338.4028,00190.6702
00284.5404,00174.7706
00328.2866,00121.6989
00344.2960,00197.8134
00375.2859,00199.8312
00376.9969,00222.5563
00390.1736,00230.2774
00398.2141,00233.9208
00338.9835,00192.7627
00329.8208,00172.4670
00411.6457,00194.4226
00435.2310,00134.7213
00432.7589,00138.1504
00441.7988,00172.7843
00312.3376,00190.8680
00303.5071,00250.6886
00324.5919,00249.0698
00360.1067,00179.4667
00324.0559,00281.3885
00305.9471,00233.3927
00324.0193,00219.2293
00333.1785,00201.1846
00372.4270,00186.5128
00351.8307,00266.8537
00332.1676,00242.5228
00335.7783,00259.1016
00353.5569,00233.7262
00344.7154,00238.7316
00299.6377,00164.9709
00291.8905,00109.2703
00310.2748,00100.7722
00308.7502,00087.1514
00346.6263,00169.7318
00403.2394,00260.5803
00322.0409,00162.0428
00350.1782,00177.3061
00373.3367,00240.2737
00371.6393,00247.1945
00382.7341,00201.7002
00375.1586,00190.7252
00346.7203,00200.1705
00354.4821,00184.1271
00325.1652,00147.8614
00282.7515,00145.0399
00296.6071,00117.0466
00334.3240,00186.5947
00342.1149,00231.6437
00339.4537,00229.9499
00332.9404,00221.4366
00365.4474,00190.8364
00377.9226,00190.3488
00325.9789,00181.7646
00392.7874,00141.4641
00354.8743,00159.5579
00346.6653,00149.1359
00389.0880,00096.1927
00359.4789,00126.5887
00371.6143,00109.3273
00295.9672,00212.5938
00287.6485,00217.0998
00291.3783,00235.2611
00321.8559,00245.0402
00302.3155,00207.8592
00294.7865,00188.7342
00355.5861,00157.4340
00345.7298,00136.8908
00351.2882,00194.3770
00326.3911,00215.2814
00305.8405,00233.1916
00291.8205,00150.2714
00268.4409,00141.5968
00359.7123,00140.5092
00317.9071,00163.5084
00296.1557,00188.8628
00354.3725,00117.1653
00337.3863,00183.0748
00363.2497,00172.5939
00379.3193,00209.3381
00305.7385,00257.3263
00328.2610,00253.2386
00325.4471,00256.5884
00308.6594,00232.4634
00297.3531,00208.4659
00334.8752,00248.6193
00340.5892,00234.2527
00334.7418,00205.1959
00316.0274,00211.9431
00305.6360,00215.7748
00299.5021,00220.8617
00277.6277,00244.6134
00282.6646,00185.6741
00241.9478,00215.4732
00343.7582,00212.1458
00342.1571,00187.7390
00324.3427,00191.7054
00356.5647,00199.1348
00343.6835,00196.2081
00368.3107,00193.7657
00362.0651,00214.9462
00369.6791,00193.4723
00332.8875,00210.6950
00356.8508,00197.6848
00367.6058,00178.7540
00385.1184,00165.0604
00368.7574,00216.4207
00335.5573,00213.9742
00342.3550,00219.0999
00343.0422,00220.1533
00351.2526,00214.9288
00338.3293,00178.7646
00350.1474,00239.4194
00312.1842,00191.3299
00311.4468,00198.7549
00320.2925,00224.3281
00337.0365,00223.7321
00334.4138,00210.4410
00315.3689,00249.1756
00353.9956,00257.4193
00340.5861,00233.2251
00355.0357,00237.8959
00391.9276,00211.1097
00365.2270,00185.2713
00336.1876,00190.7807
00307.8103,00141.2992
00301.2849,00154.9482
00293.6345,00157.0289
00333.9232,00221.5414
00333.7356,00295.0623
00357.9115,00275.1263
00371.9716,00228.5246
00362.8341,00227.5477
00337.6282,00204.3352
00370.9534,00210.7905
00308.6526,00224.6858
00351.0678,00206.2892
00307.6674,00293.8737
00297.8470,00221.2325
00342.5667,00191.2742
00347.0022,00220.5408
