u,v
00281.8952,00245.8301
00330.1868,00251.6888
00419.0939,00344.1704
00263.3369,00305.2231
00278.8838,00213.4362
00414.0507,00225.3121
00424.3038,00258.8882
00299.5509,00250.1298
00431.8326,00276.7504
00356.1093,00260.6697
00421.1148,00134.0949
00335.5629,00273.7715
00318.1986,00188.2231
00242.3127,00223.7328
00242.3213,00212.1233
00401.4927,00313.3138
00200.9601,00208.6234
00205.2155,00214.0976
00402.0114,00309.6034
00260.9958,00329.3731
00476.4378,00364.5703
00356.0414,00289.2063
00411.9790,00241.3535
00441.3293,00262.7022
00413.1053,00248.7098
00457.5856,00139.4199
00338.9972,00267.8972
00344.0219,00265.4943
00347.3153,00276.2368
00309.6591,00136.5503
00334.3155,00278.2245
00272.7401,00229.5242
00391.1359,00315.6164
00208.4953,00235.1067
00210.3959,00241.9714
00346.6561,00239.3880
00265.7926,00328.0414
00465.1327,00305.0470
00167.9691,00227.3989
00443.4909,00319.5135
00414.2243,00220.7468
00407.6971,00121.8115
00411.0116,00239.1160
00221.7540,00258.2800
00310.1669,00240.2930
00273.5365,00220.1342
00319.6394,00114.1997
00333.6383,00199.8602
00298.5715,00225.9246
00373.5292,00320.1808
00312.4328,00155.8316
00310.0940,00157.9858
00512.4117,00295.0840
00363.4780,00174.1116
00227.0528,00324.5655
00437.1123,00130.1030
00489.2260,00320.7155
00253.3598,00226.3657
00397.4497,00248.7732
00408.4882,00185.0932
00288.1812,00256.3203
00282.1362,00173.7968
00257.5575,00177.7893
00275.9075,00136.9601
00318.0479,00110.4737
00282.5963,00137.3794
00281.3294,00181.5620
00303.7158,00314.2234
00205.7959,00200.7300
00494.5220,00273.1451
00449.0404,00124.0480
00318.6259,00152.6885
00263.4587,00326.5958
00488.7708,00260.3160
00190.5835,00143.9397
00350.6253,00256.0718
00190.5069,00124.5723
00427.8601,00246.7619
00373.9705,00180.4027
00343.1935,00261.9189
00400.0604,00216.8491
00353.7062,00183.6677
00233.4441,00173.2937
00275.6368,00297.0134
00490.8960,00125.0610
00293.0341,00351.7215
00281.7932,00281.3081
00528.6852,00289.0803
00255.2764,00255.2943
00251.9779,00323.3053
00336.8115,00141.5856
00421.1705,00257.2121
00293.2183,00232.1091
00351.9985,00252.6428
00305.7572,00186.6099
00414.0860,00283.9717
00329.1346,00184.9810
00245.1858,00234.9875
00327.9608,00240.8150
00398.3870,00107.2333
00221.3007,00207.1917
00299.5494,00247.8806
00278.3185,00176.6406
00302.1591,00350.1293
00506.6266,00312.0500
00362.8902,00253.3297
00238.2134,00318.6541
00337.2396,00250.9231
00401.0494,00302.0359
00345.7282,00142.0497
00354.0187,00252.0242
00414.2630,00288.9016
00391.0036,00210.9638
00354.6261,00207.0949
00347.9768,00203.6755
00357.8919,00168.8386
00242.3207,00101.0288
00299.7964,00207.9868
00298.3049,00204.4822
00296.2558,00201.2471
00468.5558,00270.8539
00338.7814,00352.1471
00247.5439,00199.1015
00327.7309,00259.9483
00427.9146,00297.8445
00255.0968,00316.3229
00264.9936,00170.5123
00331.9468,00145.6147
00282.2601,00163.7177
00269.0380,00308.3831
00295.5598,00144.1406
00230.7590,00138.3718
00435.2439,00162.1169
00158.5000,00184.7981
00201.3265,00275.1883
00316.3653,00248.4461
00284.4150,00162.9088
00319.3307,00254.1353
00445.7938,00296.5897
00465.4992,00296.2385
00305.7981,00284.0409
00366.3466,00331.9465
00361.3895,00239.4402
00333.0906,00140.0853
00257.5125,00313.2235
00280.0506,00309.0114
00331.7403,00187.1713
00331.2610,00204.5589
00404.5476,00124.3022
00336.5009,00202.0481
00168.5520,00167.1259
00309.9557,00158.7743
00308.0160,00158.2869
00333.9524,00277.4995
00280.2289,00145.1009
00482.4238,00288.4464
00464.2535,00309.3968
00271.9214,00275.4200
00397.9375,00367.4231
00340.9656,00247.5872
00283.2504,00285.9276
00330.9265,00237.1430
00223.6084,00285.1711
00340.3282,00247.6234
00416.3477,00153.6721
00364.8415,00237.3049
00386.0838,00234.1464
00380.1588,00175.1936
00161.6021,00189.1954
00415.7466,00211.5463
00498.6226,00264.6031
00373.4819,00198.4820
00465.4020,00231.2837
00308.9551,00203.0007
00435.6765,00283.4871
00417.8342,00322.2457
00283.7986,00246.2435
00295.5107,00298.8350
00322.9490,00183.6532
00400.3745,00128.8272
00376.1349,00235.1350
00193.5863,00299.3881
00357.3231,00175.9723
00345.5939,00177.5277
00334.1257,00218.3986
00488.2307,00215.5148
00316.3240,00239.3715
00135.1137,00189.6953
00342.1952,00254.8407
00329.4177,00228.0885
00332.8262,00254.3675
00336.5566,00329.9915
00439.6943,00242.1636
00304.4139,00227.7907
00448.8321,00311.1465
00395.2149,00156.9510
00461.5136,00286.0602
00289.1842,00258.5091
00229.9105,00314.9472
00355.3841,00274.8760
00282.7058,00247.7626
00313.0103,00204.8456
00335.2117,00181.8187
00458.7419,00264.9951
00340.5499,00187.2926
00331.6992,00175.8592
00407.6129,00200.4613
00354.3581,00232.1954
00362.7371,00134.6214
00238.4257,00309.8416
00305.7755,00129.0356
00381.5334,00130.1477
00387.1491,00290.2875
00479.0174,00251.5621
00272.5914,00155.2029
00409.7432,00292.2118
00177.6385,00300.8863
00253.1752,00171.6534
00333.1249,00312.0243
00296.6729,00258.7437
00282.9608,00190.5747
00438.1233,00254.1508
00285.1545,00262.1094
00261.4959,00237.2378
00351.2857,00170.3652
00335.4403,00239.4555
00169.5535,00278.3406
00323.8698,00139.2158
00384.9468,00132.1614
00379.9201,00264.7830
00324.0602,00175.4380
00224.8558,00276.4509
00199.1822,00290.9090
00350.9419,00190.7538
00395.2505,00282.2112
00329.6816,00166.0889
00229.3517,00213.1053
00433.7390,00244.0135
00339.4557,00315.3289
00322.5714,00179.3977
00320.5382,00199.3676
00287.5742,00201.0732
00283.4307,00196.9423
00344.1607,00148.8871
00232.9240,00284.4447
00320.3121,00224.5734
00302.3899,00203.9613
00384.7209,00256.3812
00348.4352,00191.5074
00224.3630,00269.4939
00257.7474,00243.1486
00304.6060,00205.4710
00393.7695,00267.8316
00383.9624,00302.9926
00272.1337,00201.3866
00293.8402,00204.0256
00365.4635,00320.0470
00329.1252,00223.3460
00361.1229,00235.9559
00362.3696,00220.1942
00325.6207,00131.5182
00338.4760,00220.1420
00439.5383,00278.5717
00302.5015,00156.6260
00307.4209,00232.7855
00298.4163,00091.0759
00415.8060,00227.0221
00257.7946,00307.9915
00217.5799,00206.7552
00411.3512,00273.5495
00304.4487,00131.8468
00262.5271,00182.3643
00306.7575,00133.5404
00333.7007,00350.3993
00314.3589,00132.8411
00306.2442,00357.6110
00308.6270,00203.5831
00397.2261,00151.8777
00295.0565,00175.5746
00287.4671,00195.0041
00461.3366,00270.9738
00290.2523,00150.8522
00272.2411,00209.6886
00383.7085,00280.8278
00262.4051,00211.0642
00218.4919,00208.2850
00404.4554,00258.3323
00282.1498,00196.2207
00304.8928,00262.2008
00237.8627,00270.7834
00261.6307,00170.8385
00331.5023,00345.1128
00275.5020,00123.1630
00285.6264,00335.5668
00405.3679,00113.2810
00337.9941,00175.9289
00341.5324,00149.2438
00417.9171,00291.0365
00337.4495,00138.4670
00349.2959,00308.7365
00457.3518,00249.9547
00371.5271,00173.4416
00221.2635,00221.8484
00326.1014,00124.4509
00281.0905,00129.6527
00270.8327,00266.1147
00397.7727,00197.7250
00432.8248,00227.3236
00380.9774,00222.7998
00306.4163,00197.9819
00420.7587,00188.7104
00337.9409,00325.0474
00269.5120,00349.3635
00291.1755,00173.7510
00261.6300,00163.3230
00442.6920,00287.0172
00389.4001,00256.9554
00244.1206,00174.7210
00267.9124,00210.5191
00435.0495,00233.3824
00209.7540,00167.4653
00249.2597,00204.2625
00303.2785,00214.8889
00275.2861,00278.0742
00322.1410,00249.6107
00392.2220,00178.2534
00403.0143,00175.7884
00275.8659,00169.2995
00198.2746,00309.5055
00225.9415,00226.5364
00264.8245,00357.4934
00520.5708,00299.6733
00311.1576,00180.0066
00395.9293,00246.1960
00382.8185,00191.6899
00313.1103,00177.9626
00409.1643,00242.7407
00340.5683,00188.4347
00328.0275,00309.8771
00356.1840,00203.5368
00339.4105,00141.9354
00382.2167,00180.9743
00265.4405,00278.6103
00419.6852,00163.6593
00331.4225,00138.7654
00292.0212,00159.1260
00285.7203,00277.3956
00433.1566,00255.7594
00264.4189,00385.2889
00418.4033,00261.3373
00336.5434,00176.2840
00310.6441,00221.0118
00319.4169,00217.4849
00341.8323,00235.8694
00407.7325,00245.8923
00317.2661,00229.3394
00348.4511,00299.3083
00410.3083,00177.2435
00314.2813,00217.4608
00235.2485,00286.0871
00314.0487,00216.7749
00370.2064,00147.5281
00437.8312,00274.6199
00310.3661,00221.5526
00453.3513,00281.9539
00254.0952,00273.0266
00294.0490,00244.0917
00263.7901,00386.2607
00274.4100,00263.1761
00261.5070,00277.6674
00278.2295,00279.4653
00415.5732,00245.8774
00295.8992,00300.2020
00433.9529,00182.2153
00382.6949,00326.6436
00300.3181,00293.2990
00398.8658,00244.6928
00309.8019,00287.8541
00279.6076,00294.3786
00416.4615,00156.8591
00314.2790,00280.3779
00409.0309,00295.6297
00326.0019,00261.8649
00263.8157,00291.3727
00265.0908,00378.0048
00313.9106,00250.3574
00321.9458,00267.9847
00341.6743,00250.8490
00407.0345,00190.5749
00313.6357,00240.9185
00401.3044,00237.1616
00366.2190,00196.0283
00299.3288,00237.0790
00336.1032,00322.7838
00299.8782,00240.7578
00366.4314,00301.2868
00296.7888,00320.5327
00319.6807,00261.1614
00442.8930,00147.4098
00336.3731,00268.6967
00250.2761,00248.4448
00333.9686,00255.3652
00273.6740,00367.0837
00314.1414,00238.9645
00347.6503,00156.9083
00308.8432,00252.7779
00431.2264,00268.5407
00295.8763,00261.7349
00393.7013,00232.6089
00348.2809,00244.5043
00340.3772,00322.9550
00351.9210,00264.1375
00218.5318,00274.1625
00281.3870,00331.0938
00416.3757,00229.2174
00411.6754,00187.1132
00418.2046,00221.1874
00414.3252,00216.6226
00443.3614,00197.0208
00275.5961,00350.3128
00394.7280,00194.8313
00356.3201,00195.4903
00443.1656,00271.0010
00381.0079,00298.5240
00362.4773,00286.4580
00350.7782,00214.1632
00357.4370,00284.4132
00198.7421,00251.3290
00362.5032,00376.6900
00373.0509,00270.2906
00330.8299,00295.5610
00408.5333,00184.5035
00371.1113,00269.9487
00392.1980,00290.5886
00314.8508,00353.2973
00451.6859,00248.6644
00389.0268,00271.3658
00341.0920,00301.3697
00338.3071,00256.2997
00432.2288,00281.9841
00325.8676,00280.2552
00331.7231,00282.1351
00368.8966,00270.4421
00340.0496,00283.4172
00450.2120,00220.0105
00361.9958,00271.3467
00387.9454,00368.6006
00362.1816,00284.5398
00511.8597,00346.9251
00415.8299,00186.9110
00376.9669,00284.6406
00385.2011,00265.2952
00356.3081,00292.6905
00326.1930,00292.3027
00331.7935,00360.8050
00292.1950,00283.3507
00404.1889,00250.5840
00385.0406,00251.9809
00518.5872,00191.6272
00378.7918,00284.1917
00369.6313,00171.8266
00408.7014,00242.0808
00371.0148,00215.3766
00439.1716,00339.9472
00346.4001,00219.9535
00378.0055,00265.8403
00395.4974,00210.3246
00467.4166,00238.1956
00369.4327,00205.5952
00350.6777,00227.2063
00346.5936,00246.8250
00332.8556,00379.6088
00337.7197,00223.2099
00392.2069,00361.0600
00312.5394,00233.8441
00302.1567,00209.7119
00344.9243,00220.3031
00418.9532,00226.8676
00247.0669,00238.2574
00278.0421,00249.1946
00417.6497,00273.0305
00289.1532,00208.7721
00459.2910,00326.3756
00322.7867,00179.0448
00408.0125,00221.9918
00391.9502,00224.2652
00276.8100,00212.8598
00323.9606,00334.4398
00358.0885,00225.7219
00287.5446,00210.3543
00329.2835,00202.7988
00412.6182,00337.7593
00307.2223,00215.4796
00437.2378,00231.2351
00336.6124,00225.5253
00361.0206,00236.3120
00340.0786,00256.9174
00414.0028,00247.6008
00316.6877,00264.2087
00366.9284,00259.4874
00449.8427,00320.1738
00347.7458,00216.8451
00340.4343,00236.3469
00416.0917,00189.1526
00300.1091,00215.2627
00324.3745,00242.0005
00319.6467,00322.3933
00425.6261,00313.7437
00313.9105,00218.6674
00377.7877,00292.4049
00417.3614,00245.2923
00417.0064,00268.5672
00371.0826,00228.8577
00322.9617,00249.6674
00365.1138,00227.9978
00340.1332,00206.3062
00351.3597,00206.4029
00430.7578,00310.8488
00323.0091,00191.7910
00354.2585,00235.7644
00421.5416,00340.8296
00275.6779,00340.8259
00294.3893,00311.1552
00385.9641,00270.6135
00521.7985,00197.5916
00343.5713,00119.7692
00374.5816,00263.1880
00359.0205,00188.3431
00387.0205,00193.8147
00337.2779,00238.0681
00343.3572,00220.6076
00341.1146,00155.8255
00313.2734,00156.5139
00317.8571,00228.1590
00411.6459,00367.6606
00425.7094,00295.3141
00339.9571,00357.7773
00283.1808,00313.8983
00431.6277,00241.1690
00293.4320,00341.2562
00321.8543,00222.5747
00405.9784,00132.1606
00431.3106,00344.6528
00320.5885,00221.3560
00262.7853,00185.0271
00263.1931,00182.2250
00337.1603,00221.9430
00245.5493,00159.4429
00335.2626,00247.3925
00259.3506,00188.3364
00417.7303,00367.0424
00366.0755,00211.9953
00408.6433,00273.1926
00423.0408,00218.8014
00354.1573,00362.2176
00329.6289,00167.8824
00311.9944,00321.2745
00410.4285,00270.4648
00427.6415,00156.8120
00424.5194,00305.7393
00384.2878,00218.1278
00369.0215,00218.2363
00322.0413,00227.1397
00334.3498,00274.0655
00284.8144,00249.8795
00299.9954,00231.6305
00425.8991,00357.9968
00330.6253,00231.4870
00316.1570,00238.0522
00348.6494,00299.7382
00371.7707,00260.6087
00406.7018,00211.5727
00293.7843,00260.9910
00495.4304,00160.9854
00348.2658,00361.1721
00309.2661,00292.5370
00443.7234,00200.4579
00325.3994,00262.9226
00336.9080,00240.3978
00297.5520,00213.2160
00347.0980,00253.4069
00293.6518,00259.0406
00386.5316,00253.3822
00424.1247,00351.3073
00397.9232,00268.8184
00387.7675,00239.4122
00381.6843,00247.2516
00386.7492,00178.3863
00328.5182,00200.5219
00344.6863,00287.1821
00412.6649,00207.1582
00374.1352,00374.7498
00404.8310,00185.6090
00280.5639,00280.5991
00294.8863,00208.1590
00274.3601,00242.5614
00299.4472,00208.7112
00367.5558,00251.8332
00335.0157,00233.3171
00412.9965,00238.1718
00412.1037,00264.1936
00394.9740,00256.7878
00399.9796,00340.9691
00350.0746,00252.4187
00433.3818,00143.9529
00393.4494,00234.9438
00362.7231,00253.8708
00280.5545,00287.9913
00423.4686,00395.5673
00336.9740,00284.4373
00385.2155,00187.8881
00237.4562,00297.1360
00319.4814,00218.2916
00365.6790,00234.6761
00323.1072,00217.4203
00363.4310,00204.9407
00417.7773,00278.4239
00375.4650,00211.5652
00380.9706,00347.2516
00393.9590,00161.7910
00422.4045,00222.0377
00409.3337,00229.0514
00522.7593,00189.2235
00332.7669,00194.9643
00352.2674,00250.7331
00370.0019,00192.5743
00245.4491,00300.3427
00409.1768,00394.4870
00260.0860,00273.6198
00321.3374,00252.2075
00394.4692,00261.2484
00463.7445,00222.5634
00404.2019,00324.0327
00418.9178,00195.9753
00409.7267,00199.7001
00418.6387,00156.1009
00389.1027,00185.4005
00426.6659,00391.4870
00385.5813,00197.4728
00379.2043,00229.7000
00382.9808,00207.6115
00472.8046,00177.6624
00382.8293,00328.0547
00383.6052,00232.8794
00395.1935,00196.5190
00370.7233,00365.8724
00390.3159,00233.7238
00355.8365,00258.0263
00398.6583,00238.7982
00407.7289,00243.0014
00411.2998,00242.9738
00451.2639,00226.0761
00416.4119,00244.5388
00451.9333,00370.5241
00373.0248,00258.9558
00330.4889,00267.9135
00348.1902,00219.1080
00321.6889,00249.5713
00470.5179,00176.3888
00375.7598,00338.2675
00372.8727,00361.4525
00360.7264,00190.5382
00318.6284,00258.7290
00348.2784,00292.4718
00302.2146,00265.3557
00279.5293,00239.5556
00448.1230,00245.3063
00276.5310,00252.3976
00287.5275,00265.8653
00441.1500,00364.3963
00304.0796,00303.4603
00307.5518,00260.0771
00350.3824,00256.2822
00294.0375,00200.2415
00457.1673,00162.9550
00405.6888,00319.5981
00371.8643,00287.1143
00429.2720,00374.0698
00325.8682,00218.0754
00375.4789,00220.1364
00296.0600,00146.3176
00270.1057,00136.2946
00440.0436,00221.1232
00452.0535,00227.2305
00434.1704,00228.6334
00403.2556,00261.6679
00429.6608,00385.9201
00389.5992,00179.3733
00331.1732,00214.9510
00350.5249,00295.1010
00288.1295,00255.1526
00419.3666,00168.9178
00284.0750,00177.3766
00392.6834,00386.4929
00394.1182,00307.4036
00350.4905,00246.0675
00414.6781,00187.1608
00482.5019,00223.3583
00323.2917,00186.8727
00372.1517,00239.0037
00330.7184,00217.1731
00507.1254,00205.9639
00400.5178,00356.4846
00409.2631,00146.9742
00406.5800,00229.3197
00355.3269,00266.3057
00269.5034,00289.0942
00374.4764,00189.6308
00389.6939,00153.1967
00333.6727,00326.7939
00384.9711,00316.8141
00472.5580,00217.5718
00313.8159,00205.5900
00331.3346,00245.5361
00302.6567,00199.0244
00238.4632,00230.3941
00280.8218,00211.4244
00333.4179,00233.5497
00304.3001,00239.4661
00397.6582,00343.7663
00317.5264,00248.2143
00381.4329,00314.5979
00386.3156,00282.8551
00260.5428,00273.0241
00403.1958,00172.7424
00431.1584,00321.0374
00431.4286,00227.3698
00350.8427,00227.9564
00203.8371,00270.2169
00342.5358,00233.1732
00293.3486,00264.8668
00343.6398,00229.5699
00392.7598,00201.0747
00352.5710,00189.7374
00353.3613,00194.0831
00404.1797,00374.7108
00365.0154,00311.8718
00343.1806,00190.2104
00269.9672,00191.1856
00365.5648,00300.3399
00285.2468,00139.2967
00368.5182,00235.4868
00364.2306,00165.3292
00289.8109,00132.8839
00360.5736,00239.6463
00183.7980,00262.4231
00358.0979,00202.6822
00438.9951,00207.8269
00433.4784,00197.0903
00437.3113,00188.3690
00409.5356,00307.2741
00436.9300,00177.4783
00394.9271,00365.1512
00427.7838,00198.0710
00389.2300,00323.4373
00316.9194,00327.6396
00363.4572,00162.2383
00348.3823,00256.1354
00430.6688,00262.5638
00335.3188,00191.5973
00196.0426,00339.6822
00417.4830,00247.5901
00360.4401,00199.4869
00301.4106,00305.1035
00338.6886,00191.7683
00416.7159,00200.1197
00359.7705,00193.9299
00337.0485,00149.8765
00389.0587,00369.9869
00383.1462,00220.1646
00353.3156,00239.7281
00344.0872,00352.3906
00372.2726,00248.9412
00403.4239,00138.3934
00382.4551,00216.5385
00279.1406,00311.6619
00327.4131,00192.1678
00365.5535,00241.4323
00297.0815,00297.1572
00435.8787,00210.6430
00350.1529,00258.5279
00348.6708,00290.8349
00376.1530,00292.9610
00348.1357,00277.7533
00384.9046,00379.7030
00355.9983,00281.7685
00349.5337,00204.5133
00312.1176,00229.4026
00353.2346,00342.2107
00280.4611,00332.5503
00316.2933,00100.8892
00437.6632,00202.7885
00370.5974,00206.3999
00343.4284,00222.1611
00329.0023,00232.7959
00309.0236,00177.8505
00307.1060,00304.7936
00309.6705,00172.4473
00294.4949,00151.9090
00266.8502,00150.2247
00346.3737,00195.8077
00397.1430,00376.6606
00446.6828,00246.9560
00370.0700,00227.8927
00324.6363,00310.2023
00322.0551,00200.1232
00416.1237,00177.3437
00386.5885,00333.6697
00301.0783,00204.5869
00352.7914,00227.4367
00285.1085,00223.2408
00365.4714,00211.3018
00316.8613,00300.9533
00299.5750,00210.6358
00281.2673,00198.0265
00380.1723,00233.3244
00383.9922,00222.3446
00425.0086,00111.5377
00381.2973,00375.9162
00375.2420,00212.5598
00329.5171,00294.5032
00373.3088,00224.4061
00391.3778,00210.7896
00361.3684,00299.9950
00413.5142,00187.9856
00339.2497,00242.5617
00334.8747,00204.9415
00322.3560,00225.8253
00333.3624,00278.3192
00340.8324,00192.3380
00308.7879,00189.0111
00444.1699,00073.5423
00378.4138,00219.7025
00395.3486,00230.8626
00326.3792,00286.7970
00410.3591,00213.5643
00377.1159,00380.5512
00437.3244,00197.0500
00372.6854,00206.1134
00369.9644,00303.1152
00403.5980,00187.3900
00330.9348,00207.3317
00372.6085,00204.6236
00344.1323,00195.2475
00350.8186,00284.4465
00445.1033,00062.7694
00297.1887,00199.5966
00318.3970,00174.3475
00277.2635,00174.1178
00341.1213,00251.2971
00342.6438,00176.9238
00336.4444,00191.6803
00427.6642,00375.4784
00359.7263,00222.6065
00344.0739,00265.0479
00273.4142,00233.8145
00307.5329,00349.3400
00339.7362,00283.4357
00415.5447,00108.1559
00389.7511,00184.1276
00383.4385,00207.8275
00299.3971,00301.1622
00286.2643,00292.1784
00288.1179,00347.6991
00428.4406,00291.0071
00334.7697,00263.5703
00371.2298,00254.4320
00379.7800,00249.9101
00457.9277,00397.8922
00397.7274,00229.6031
00425.0487,00239.2099
00398.4992,00134.6841
00397.4479,00210.5744
00253.7153,00250.0742
00297.8030,00346.5250
00365.1555,00236.6660
00370.7576,00184.8902
00372.7130,00152.2193
00373.3063,00197.7369
00337.4596,00203.8372
00307.4162,00311.3384
00284.5192,00348.7550
00347.6201,00217.9207
00456.0735,00284.0814
00389.3531,00187.1746
00462.6816,00395.5013
00382.6774,00172.0028
00446.3531,00187.9229
00374.6867,00220.0048
00331.8562,00181.2362
00486.5064,00343.4777
00317.4163,00176.5842
00309.5628,00195.3625
00368.6215,00188.6830
00338.4589,00154.8715
00151.8310,00288.0960
00288.8947,00237.9315
00307.1974,00237.8475
00288.0962,00301.3105
00384.9172,00300.6215
00324.9083,00252.5900
00490.6646,00348.8462
00257.2191,00245.9608
00374.1796,00305.5451
00340.5900,00317.4463
00341.0862,00236.5682
00370.6293,00284.7045
00303.3687,00232.1334
00473.5744,00288.8554
00165.3282,00282.6576
00294.4977,00172.5152
00361.7613,00178.2133
00290.9106,00189.7946
00294.2397,00135.2966
00242.9033,00141.7854
00263.9833,00317.2112
00396.5497,00311.3460
00225.2206,00145.3299
00464.1046,00324.5414
00296.8742,00169.1648
00418.1818,00316.1987
00317.2636,00157.5245
00353.8801,00346.3454
00338.7856,00169.3123
00185.4438,00286.1240
00353.9269,00149.7689
00316.7562,00212.0969
00470.5530,00280.7428
00433.2264,00176.0655
00260.5119,00154.1536
00378.4636,00170.1671
00258.3855,00129.5040
00380.5285,00197.7034
00239.0177,00316.2212
00330.1831,00152.4221
00353.9669,00193.6251
00471.3292,00328.1595
00450.2147,00334.7716
00386.4072,00216.7188
00298.4842,00204.3920
00384.3109,00287.9540
00427.8699,00359.7119
00239.6851,00179.5877
00252.6157,00195.8938
00426.5257,00254.0967
00378.7183,00262.0027
00413.7892,00162.6031
00341.2378,00244.2424
00375.4150,00248.6955
00406.7448,00250.2485
00426.5191,00321.8752
00239.3820,00309.1266
00397.9171,00253.0524
00318.5411,00153.7958
00479.8223,00333.7069
00306.2903,00172.4765
00419.2260,00241.8307
00303.2997,00180.0352
00257.1851,00189.9100
00398.4490,00352.0100
00312.5914,00189.5555
00311.4749,00164.3799
00439.0587,00241.7899
00390.5024,00177.0641
00311.7692,00153.6151
00354.7207,00250.1215
00340.3307,00159.2719
00443.2662,00324.6601
00211.1746,00302.5718
00381.3396,00165.9803
00486.8419,00340.6670
00340.9429,00187.0389
00336.0110,00154.3345
00432.8111,00217.0999
00321.5235,00139.3387
00437.4034,00249.3857
00440.0771,00252.8980
00400.0061,00360.5083
00402.2358,00246.6933
00339.7107,00215.6837
00436.4978,00227.1777
00388.9725,00264.4730
00360.7339,00236.7691
00406.5280,00218.9615
00455.0641,00303.9586
00392.6566,00250.8634
00205.4760,00328.4359
00340.6301,00158.2141
00387.8380,00242.7806
00472.8058,00326.0883
00351.0282,00268.3376
00423.8896,00215.2173
00382.0063,00276.5159
00388.9617,00235.8959
00375.4173,00220.2488
00422.4441,00326.8183
00370.8138,00241.4698
00495.2938,00268.6131
00399.2927,00280.9641
00423.8245,00219.7069
00361.0818,00229.9941
00450.8223,00270.1634
00417.8761,00210.5721
00345.7462,00148.0038
00378.8464,00218.9388
00510.5558,00256.7372
00488.0093,00291.9789
00367.3425,00206.3956
00418.8642,00217.0291
00349.1958,00227.8560
00355.5836,00199.3539
00353.7591,00213.6096
00433.5522,00245.0451
00409.2847,00239.2198
00408.7173,00345.8914
00345.9894,00213.2489
00409.0276,00218.1606
00453.5210,00253.5798
00347.6871,00161.9624
00341.5956,00181.3321
00335.2350,00134.5949
00333.5798,00165.3067
00521.4098,00262.8083
00330.7083,00134.3587
00461.4939,00228.7038
00334.7987,00136.1502
00424.6787,00225.4086
00334.3375,00137.7693
00302.4703,00297.9867
00325.8109,00129.4301
00316.0670,00121.4403
00423.7695,00233.8697
00413.9689,00351.1375
00290.7404,00180.4518
00451.1302,00272.7594
00268.7546,00171.3874
00462.6308,00256.3536
00233.2942,00170.0138
00465.0248,00266.6348
00295.5926,00182.9536
00319.2238,00168.0222
00281.8496,00196.0909
00459.8711,00247.2990
00449.6419,00217.0526
00327.0106,00281.9318
00450.8598,00278.4295
00430.2246,00233.7838
00426.2525,00221.8363
00383.4539,00210.2903
00448.6726,00324.0540
00345.3042,00211.3788
00433.2916,00356.1652
00526.0798,00324.1123
00331.3468,00179.1832
00330.1017,00186.2191
00471.5657,00269.5567
00335.5665,00191.7068
00361.9173,00193.9759
00467.0804,00285.3284
00262.1049,00168.2987
00329.6553,00295.7036
00355.9858,00249.4368
00428.6855,00220.6784
00353.9479,00248.5557
00407.6537,00190.9971
00264.1274,00253.9733
00535.1733,00303.2985
00432.9966,00330.0343
00303.3358,00239.5213
00314.2312,00234.4827
00436.6892,00365.2985
00335.9567,00224.7853
00328.0595,00235.5809
00445.7466,00282.0044
00338.2212,00228.9501
00317.9381,00349.2656
00478.6324,00296.9052
00498.9759,00320.4871
00285.8527,00151.7242
00426.7992,00357.5777
00391.2893,00278.9236
00361.4937,00220.0081
00356.1984,00289.4860
00377.7868,00320.1329
00447.9515,00224.6721
00341.1347,00235.5108
00357.3473,00231.4946
00377.5329,00252.1652
00331.5121,00398.7680
00421.2196,00258.4177
00361.9782,00244.7794
00406.5169,00212.1108
00403.0476,00214.6074
00267.3561,00266.5903
00322.4284,00123.2988
00499.0184,00337.9084
00385.2736,00218.2985
00495.6195,00246.4784
00500.3074,00315.2946
00337.8600,00323.9544
00343.2822,00238.0762
00347.2608,00233.7387
00453.3178,00225.7614
00383.0608,00254.0529
00376.1048,00211.9392
00331.7452,00383.7452
00340.2196,00246.0502
00343.7769,00242.0701
00344.6237,00240.1733
00344.4894,00331.0384
00305.4573,00140.2806
00337.5481,00238.3490
00431.7846,00226.0993
00277.4750,00290.9563
00462.0403,00384.3201
00423.7057,00264.5901
00331.3889,00247.0304
00529.8681,00163.7766
00369.4705,00232.8495
00340.7773,00239.7965
00455.3283,00190.8508
00342.9308,00246.0666
00363.5061,00228.1489
00302.8734,00352.8317
00356.8048,00229.4179
00361.0773,00339.5675
00320.4251,00234.4568
00333.8148,00245.7209
00301.0739,00118.7042
00333.7805,00249.2489
00406.8454,00307.4748
00497.2310,00339.4354
00391.7640,00187.8883
00392.5141,00225.6950
00370.5301,00246.2469
00385.2169,00243.2590
00351.0641,00236.5875
00460.8983,00181.8818
00389.6704,00287.9607
00365.7660,00329.4728
00416.7233,00194.7642
00268.5766,00377.5437
00398.8287,00205.4775
00395.4457,00221.4561
00366.8093,00220.1655
00287.1125,00124.8451
00352.0688,00177.4983
00314.6140,00241.7473
00507.4966,00298.1828
00440.4794,00242.2781
00296.6836,00212.9846
00432.7949,00186.3106
00310.6610,00254.1042
00352.1010,00283.5876
00323.8555,00251.6603
00333.0984,00291.5592
00345.8005,00229.6706
00291.3836,00373.9929
00283.5975,00254.5402
00347.1130,00203.2118
00274.7252,00248.5844
00317.8390,00203.2023
00338.9720,00132.9417
00505.6548,00313.5176
00304.0640,00215.0638
00462.6904,00250.3084
00396.8846,00268.0423
00315.1922,00185.8341
00394.8622,00161.1840
00263.5206,00235.0977
00347.8865,00247.6776
00323.3058,00255.5871
00297.5670,00254.2809
00266.3346,00375.3188
00265.4642,00249.0699
00401.2444,00230.2290
00383.5627,00264.6805
00338.4342,00248.6767
00382.4372,00252.2222
00341.5423,00136.7375
00501.4349,00354.3637
00306.5414,00249.9082
00400.6852,00178.5811
00301.2596,00286.7479
00375.3297,00185.8647
00367.5724,00248.5668
00297.7914,00265.8250
00283.4027,00267.5865
00338.8367,00273.2415
00259.6642,00352.5146
00355.9846,00293.3351
00371.6627,00196.2220
00368.9586,00253.0216
00383.2098,00283.7290
00386.6317,00269.4259
00332.5342,00301.4572
00360.8169,00173.8612
00320.0649,00262.6938
00380.8599,00172.8341
00454.5370,00288.5992
00310.5464,00264.1578
00300.3825,00265.0875
00376.8579,00177.4103
00243.4178,00268.6412
00215.7900,00284.0183
00206.6595,00195.4952
00271.3128,00350.5154
00383.4401,00259.1089
00471.8402,00225.5583
00380.9187,00211.2276
00419.2737,00278.5567
00349.1016,00200.2640
00350.8794,00167.9948
00411.5064,00179.3649
00347.8668,00166.7400
00308.4069,00158.0038
00532.0369,00270.7120
00355.7513,00159.1334
00365.6866,00166.0344
00396.2432,00148.6827
00373.3210,00147.2626
00401.7275,00244.3445
00354.7488,00174.9916
00364.6880,00191.8386
00315.3169,00371.1377
00497.6175,00219.8725
00370.6355,00263.3843
00411.2370,00250.4952
00364.9370,00176.9888
00389.5936,00202.6386
00372.6356,00132.8269
00437.0116,00254.2637
00394.9642,00216.6713
00325.7220,00158.5544
00311.6548,00157.6752
00327.0118,00183.8604
00381.4976,00343.0479
00513.1249,00250.9220
00356.3594,00246.2242
00312.6539,00167.4382
00337.7880,00258.7460
00375.3904,00167.6488
00312.9713,00184.7454
00491.0770,00281.3488
00333.0006,00251.4668
00347.1049,00193.3216
00339.6772,00274.3735
00355.3837,00196.5426
00420.3712,00216.2318
00359.7488,00224.3707
00352.8791,00352.5297
00345.5634,00200.9015
00352.1120,00234.7575
00410.9844,00212.3748
00366.3822,00215.1199
00299.8679,00221.7759
00345.6856,00174.3176
00394.3189,00256.2497
00268.4082,00215.8733
00332.6070,00238.2874
00274.3515,00199.8858
00274.7896,00252.3517
00534.3294,00232.1337
00330.3848,00234.3269
00480.9383,00196.6608
00309.1772,00175.0706
00284.4541,00291.1479
00371.2658,00217.6059
00249.8573,00180.3553
00295.2758,00264.6028
00268.9932,00243.7149
00290.8268,00282.7448
00380.9960,00197.6608
00277.1309,00175.5874
00283.4016,00287.0388
00292.2771,00255.8613
00224.8347,00163.1523
00339.5589,00258.0069
00212.8987,00149.0146
00409.0557,00241.4429
00335.8990,00252.2823
00460.3580,00267.9500
00188.1508,00146.7928
00222.7231,00241.2280
00469.5189,00185.1693
00272.1801,00238.7382
00208.8165,00226.8995
00267.0385,00163.6678
00281.2507,00305.1744
00399.8742,00220.1285
00217.7832,00223.1069
00316.9914,00263.8347
00219.7128,00220.6956
00370.7918,00209.5524
00302.3821,00243.4478
00285.1919,00326.5056
00433.3502,00206.4841
00263.9958,00225.6151
00306.0138,00231.7670
00240.7186,00248.0439
00289.0541,00249.0193
00381.0130,00277.7913
00284.3340,00255.8868
00283.8692,00239.0058
00386.1420,00264.2431
00310.9492,00212.4091
00396.9030,00254.2028
00278.7124,00260.8731
00443.6458,00258.1226
00306.9599,00198.5768
00286.1009,00264.1004
00270.9923,00194.6739
00278.1172,00281.2956
00292.8824,00185.5782
00414.1478,00257.1385
00237.8294,00235.8973
00292.2478,00249.0143
00281.2851,00221.7744
00385.8966,00188.0725
00486.7644,00166.0060
00279.4405,00292.8235
00436.0422,00184.8015
00253.6401,00214.4299
00270.7564,00293.0931
00236.0107,00172.8414
00260.0606,00275.4663
00354.1953,00264.2855
00455.3033,00201.1231
00169.1637,00165.6232
00273.0547,00276.9413
00375.7551,00147.4582
00245.2039,00271.8970
00379.1462,00264.9088
00383.0976,00242.3233
00345.4444,00156.2982
00246.2743,00268.0613
00346.2287,00152.9700
00406.0644,00242.3107
00315.3309,00255.9813
00347.8214,00154.4713
00317.5692,00185.5556
00335.4264,00271.8488
00385.7045,00183.1264
00323.1723,00243.5672
00483.3853,00181.2421
00383.1496,00247.0803
00417.4828,00171.9028
00308.5008,00193.3825
00300.5373,00195.8505
00232.6682,00157.5520
00428.8052,00166.8669
00307.6551,00245.5821
00278.5156,00159.6129
00310.3417,00243.8404
00392.9552,00294.4089
00278.4280,00125.7787
00282.3129,00279.7082
00355.9547,00195.8458
00414.7251,00296.7511
00377.8596,00303.3829
00301.3512,00280.1685
00310.2929,00196.6869
00329.1466,00271.4099
00355.3876,00185.7495
00535.7477,00246.7918
00315.3908,00269.8231
00433.5008,00164.9007
00314.0406,00167.9608
00334.4275,00237.3576
00480.8177,00156.2264
00313.8380,00275.7946
00313.9328,00171.7599
00389.9665,00231.8501
00319.9493,00275.2849
00323.2488,00130.4495
00440.2888,00165.1485
00309.0917,00268.5602
00280.7833,00143.0957
00320.9572,00272.8610
00282.4459,00277.9039
00297.2493,00233.0821
00224.8478,00279.3365
00337.0060,00339.0699
00288.4007,00226.2505
00429.2122,00334.2771
00262.9797,00322.0167
00238.3640,00194.7153
00319.6408,00274.3404
00503.1250,00287.4441
00225.6886,00192.4322
00435.4172,00161.7198
00235.2763,00162.4770
00236.6500,00199.0260
00240.1665,00158.8976
00366.0311,00322.8859
00259.5806,00313.4886
00264.3454,00171.8138
00407.8365,00212.0168
00294.6111,00253.9416
00270.4393,00154.6804
00433.1435,00115.9263
00283.4269,00237.5390
00237.1311,00114.1028
00288.1393,00248.4016
00242.5841,00116.3568
00258.6545,00151.3272
00335.5414,00157.5266
00434.6566,00408.4256
00457.9817,00333.2496
00326.5237,00132.8980
00334.2106,00161.9920
00432.7416,00140.2119
00329.2560,00155.6715
00387.3860,00084.7759
00539.3051,00260.5467
00343.7336,00132.3347
00344.0894,00147.9282
00349.2217,00153.2081
00343.7958,00126.8640
00373.1716,00318.8571
00332.6619,00169.3427
00340.4566,00136.6333
00433.7308,00127.2955
00353.2178,00199.5166
00309.6693,00146.5196
00324.1861,00162.5903
00337.7693,00270.6576
00345.8476,00143.1954
00368.3383,00229.2783
00348.8123,00123.7730
00344.0656,00207.3138
00418.6700,00385.3911
00453.8750,00150.9287
00466.7145,00301.1823
00298.6376,00127.1156
00350.9425,00198.3223
00439.1891,00308.7746
00267.9880,00130.4673
00389.1525,00290.3971
00306.4258,00114.5395
00384.6884,00261.8737
00289.5916,00110.1579
00374.1765,00264.0640
00375.5116,00307.3859
00325.5894,00155.0265
00312.3035,00318.2160
00388.9370,00164.9660
00323.2757,00157.4760
00309.8691,00313.8766
00348.7870,00195.9713
00305.0885,00231.2212
00298.8090,00152.0644
00371.0506,00274.3228
00414.0860,00403.3609
00443.3643,00225.0838
00301.6309,00179.8713
00374.3443,00273.1598
00469.0049,00198.6156
00288.3715,00173.1814
00303.8337,00202.6616
00448.5237,00340.8962
00283.0659,00194.3370
00314.7421,00211.1684
00325.9073,00135.2379
00345.1703,00207.2284
00321.3835,00163.4382
00419.6577,00294.0340
00352.7922,00217.7247
00350.0154,00210.3886
00417.4488,00195.6707
00369.2047,00202.0398
00335.3548,00185.9878
00304.1321,00149.0403
00324.1105,00193.9099
00307.8013,00141.2683
00370.2129,00220.5600
00459.2715,00222.3636
00383.0048,00113.7851
00344.7979,00208.2861
00414.9539,00397.5296
00385.8389,00127.1497
00435.2272,00217.2339
00305.6313,00211.5439
00507.8675,00319.8261
00351.1863,00270.0995
00337.7628,00266.1906
00383.7173,00247.4658
00339.8401,00281.8286
00405.8374,00298.5079
00414.4076,00211.7924
00358.7354,00186.4867
00355.3496,00167.6715
00314.2431,00200.9156
00457.0581,00228.4663
00379.4567,00231.5706
00342.5678,00248.2435
00425.0215,00355.9388
00387.0547,00208.2038
00324.1505,00271.3811
00467.2069,00307.4630
00308.0633,00292.4401
00381.2869,00278.3976
00299.8694,00305.2877
00323.6037,00336.8671
00383.1008,00202.6103
00451.4082,00307.5993
00417.4245,00259.0891
00375.3864,00243.6937
00418.1915,00261.6748
00411.2641,00253.8530
00400.8143,00232.4535
00382.3779,00290.0216
00402.7134,00421.7069
00398.9869,00212.4890
00367.4848,00226.7043
00398.6289,00287.3165
00367.7390,00228.0819
00357.8061,00219.7751
00346.7352,00209.9579
00442.7760,00285.0421
00309.5172,00218.7742
00377.0497,00211.7324
00307.0910,00216.2697
00389.5226,00237.8745
00325.5282,00235.0725
00317.4291,00336.9766
00283.0081,00210.5981
00350.7611,00192.5202
00448.4998,00345.5452
00391.8486,00246.1597
00409.1879,00190.4000
00355.8380,00221.0530
00458.3246,00273.4361
00447.5126,00235.3290
00443.4879,00282.6662
00388.3820,00225.6031
00395.0945,00228.1604
00430.0476,00195.5625
00385.0311,00211.9493
00388.1322,00244.4734
00374.5863,00195.2523
00386.8614,00196.9850
00318.7397,00342.7509
00383.9442,00187.1427
00416.1276,00186.3613
00475.5266,00354.4886
00414.9166,00264.9378
00411.9752,00224.0788
00372.5696,00236.8735
00450.7153,00287.0293
00399.4043,00298.7628
00336.1320,00203.8854
00334.6065,00185.3450
00422.7970,00247.2691
00481.8100,00206.4346
00358.7394,00252.8830
00405.3076,00272.7141
00340.8730,00242.0863
00306.5020,00254.0302
00413.3758,00190.7183
00297.7673,00332.6891
00289.0950,00257.2620
00441.0743,00217.1266
00303.0965,00235.2301
00395.3868,00226.0419
00408.5319,00299.8868
00297.1696,00156.8216
00432.7909,00295.5698
00348.8613,00172.0989
00345.7005,00170.9570
00368.1916,00206.4279
00314.1900,00140.0505
00354.1121,00160.7236
00374.3879,00257.2395
00406.9846,00156.5482
00439.6724,00239.7350
00355.1755,00136.1358
00285.7652,00334.1963
00451.4488,00209.1531
00336.6742,00166.9921
00361.9684,00137.7825
00395.4981,00292.6240
00349.5799,00316.4655
00328.2935,00218.0645
00405.5553,00255.9449
00284.7186,00194.8827
00322.2098,00184.9270
00395.1479,00186.7488
00237.9339,00225.0259
00277.7251,00189.6645
00385.9907,00210.3703
00312.5990,00270.4448
00228.2986,00237.8739
00499.4482,00217.7892
00427.2465,00266.4539
00270.1912,00215.3322
00278.7103,00165.5914
00393.8636,00265.1928
00311.6649,00192.5672
00395.6673,00299.3753
00465.3019,00319.0040
00324.4212,00229.6837
00324.9255,00201.1618
00315.2263,00202.4029
00475.5854,00167.1075
00328.1928,00230.0505
00423.8601,00274.9542
00530.6309,00202.3008
00292.1147,00172.0313
00375.0278,00237.3073
00351.6090,00285.2126
00286.8553,00140.9502
00286.8478,00147.2932
00367.0772,00220.0686
00309.9284,00174.5419
00392.6593,00285.2203
00316.5550,00162.5066
00473.3922,00322.1889
00307.0794,00146.5192
00279.1236,00242.2563
00483.4412,00181.5836
00382.3808,00307.6417
00407.1822,00180.0978
00473.2903,00196.3118
00377.3408,00277.0748
00348.8116,00225.0295
00351.9983,00288.6979
00371.5664,00273.2794
00344.6324,00286.8861
00333.4589,00300.8882
00391.5157,00203.1845
00336.0093,00259.8198
00387.8688,00278.3628
00346.6864,00235.5889
00439.3710,00319.7673
00335.3520,00232.0892
00426.8713,00193.8174
00302.3820,00195.3938
00237.3783,00372.7619
00353.1560,00221.2388
00303.8219,00189.6075
00415.4343,00206.9164
00318.3165,00215.6191
00387.4315,00215.2205
00341.3174,00245.4225
00283.0323,00287.6610
00319.5665,00241.2064
00404.7486,00197.2312
00357.0738,00205.3047
00397.0888,00231.5895
00376.7301,00253.5275
00253.9574,00296.9621
00403.3420,00261.5659
00395.9286,00208.7357
00327.1798,00359.9215
00386.2216,00219.6094
00239.8829,00367.3231
00324.4206,00205.6369
00392.4901,00180.1237
00308.4445,00199.0645
00296.0833,00188.9506
00399.7300,00206.6803
00257.6631,00301.8945
00301.4767,00176.9221
00316.8060,00198.1256
00265.9109,00255.6708
00348.1972,00178.0927
00320.5928,00266.7977
00339.2066,00167.0568
00250.3580,00248.1910
00354.0244,00378.5625
00392.2175,00206.1871
00380.8436,00175.4015
00356.6751,00133.4967
00236.4301,00365.9076
00388.2925,00179.0667
00294.2373,00236.9616
00310.9173,00260.9044
00407.6502,00198.7917
00341.9928,00216.2945
00217.5494,00249.6780
00321.2790,00209.3029
00252.3680,00222.5142
00346.8638,00220.8775
00371.0076,00231.9197
00335.9915,00241.5680
00239.7953,00310.4048
00308.8836,00397.9776
00406.4877,00156.5753
00367.9888,00265.4295
00384.5700,00226.0211
00357.9713,00248.7537
00199.6872,00369.7308
00379.2185,00250.3746
00367.1221,00251.7490
00422.3520,00170.2020
00443.6992,00185.6629
00204.0886,00249.0504
00410.6390,00175.1188
00417.1890,00187.4974
00285.3591,00216.0529
00403.8983,00227.4919
00335.9810,00243.9144
00310.2499,00212.7780
00366.4917,00202.1011
00447.4643,00195.0099
00345.7444,00406.5066
00316.9012,00217.3745
00434.2664,00245.0107
00307.9351,00277.5407
00188.6129,00342.5447
00338.4719,00215.3820
00312.4539,00231.5303
00333.6424,00214.7671
00445.8118,00182.3899
00192.2486,00271.4526
00302.8751,00219.7169
00303.1537,00206.0501
00268.1992,00254.2592
00395.5530,00226.8618
00244.0479,00231.2018
00341.1482,00255.4448
00447.4706,00191.4847
00372.1199,00306.8943
00336.2743,00345.8143
00399.8159,00233.5569
00351.0885,00271.4973
00307.0665,00328.3689
00334.4856,00309.8164
00316.9103,00179.1887
00281.2776,00180.7583
00278.2830,00181.0805
00460.6721,00175.1002
00184.7548,00291.6696
00305.5360,00244.0829
00433.3241,00230.0515
00254.0395,00275.3665
00297.9201,00231.1182
00345.7151,00252.7070
00338.6536,00250.7171
00311.0958,00347.7931
00402.8018,00230.3755
00363.6064,00228.5683
00423.2660,00207.6064
00341.0603,00198.9785
00291.4403,00311.3649
00337.0966,00179.7505
00334.0669,00208.7344
00345.2905,00164.8598
00333.2218,00202.4545
00391.4757,00157.7120
00244.0191,00241.4151
00470.9558,00156.1947
00421.5133,00206.7189
00250.7242,00274.5801
00413.8090,00266.2284
00314.8359,00342.5560
00417.6252,00228.9731
00416.7925,00248.7785
00316.5513,00262.5678
00432.6758,00207.9229
00394.5259,00253.9342
00267.6749,00285.7625
00406.9050,00269.3458
00410.4161,00250.3422
00407.1354,00252.2243
00403.6465,00282.3109
00406.7810,00243.0090
00381.6967,00181.7715
00411.3015,00236.3371
00498.5509,00144.8381
00265.9564,00261.0956
00371.1650,00260.6911
00322.1553,00342.9014
00417.0950,00230.3454
00365.1916,00256.0459
00473.4624,00273.3587
00377.5753,00256.8239
00455.9756,00231.6825
00402.3135,00263.7245
00337.3193,00319.9321
00411.4029,00260.3549
00417.3748,00225.1781
00408.5999,00285.8387
00427.8084,00217.5663
00416.7255,00235.2455
00426.4040,00219.6008
00421.9969,00124.9517
00395.7552,00354.8672
00412.6182,00184.4224
00397.4004,00240.9868
00267.8492,00258.8794
00425.5875,00180.5778
00513.2415,00229.8598
00318.2747,00224.2383
00336.7239,00265.2168
00384.5995,00287.1126
00330.2121,00250.2420
00360.4254,00310.2282
00327.9569,00244.3615
00407.9925,00290.3262
00343.3042,00227.1760
00389.7935,00193.5390
00360.7581,00203.5442
00392.1918,00214.2113
00405.3885,00155.6490
00430.9470,00291.8194
00420.4137,00351.3575
00348.4237,00223.3138
00279.2434,00232.4786
00350.7570,00244.8682
00562.1644,00198.8015
00321.8307,00242.1198
00302.9937,00217.0739
00410.4016,00260.5386
00299.6932,00214.8741
00358.7231,00317.9343
00291.9374,00257.9201
00297.4530,00233.3428
00320.6392,00221.2480
00325.5559,00225.2473
00479.8168,00199.6102
00387.3766,00154.3524
00302.4802,00169.7358
00395.4201,00243.5654
00369.6534,00347.6823
00306.8479,00163.9252
00298.8970,00207.2286
00311.5511,00298.5991
00484.7266,00145.1961
00283.3720,00238.5551
00404.5819,00271.1709
00279.8175,00247.9668
00371.7435,00321.3001
00275.2339,00263.6527
00406.9452,00284.1350
00265.8121,00221.7538
00313.1589,00247.2599
00401.4801,00160.1122
00462.2267,00214.7505
00342.4679,00236.4218
00387.4556,00313.8205
00338.4389,00220.0900
00393.6727,00215.1324
00248.2821,00215.7484
00349.2178,00165.3265
00458.9906,00153.4660
00299.9095,00181.9535
00280.6160,00182.2459
00382.8156,00277.5239
00252.1806,00147.4322
00364.6700,00279.2224
00249.7493,00141.7339
00222.5657,00276.7974
00274.0337,00208.0700
00389.0309,00212.0260
00249.3111,00219.2452
00444.9541,00313.1847
00447.8026,00194.8745
00263.5711,00186.5663
00306.9711,00258.5600
00372.9227,00216.4979
00333.1845,00252.8252
00371.7158,00176.0477
00496.0219,00107.9974
00330.4793,00123.9706
00326.7944,00143.1949
00367.8133,00288.6598
00268.5414,00198.0911
00367.7867,00264.9235
00240.2081,00306.8196
00267.7934,00205.5673
00376.2610,00228.3054
00359.5195,00271.7643
00420.7962,00286.6517
00317.8455,00256.6298
00426.1201,00213.8863
00326.1050,00277.2750
00314.9698,00264.0117
00344.3244,00125.7894
00384.8521,00220.5776
00291.5019,00123.2332
00450.9488,00132.5007
00328.1440,00182.6312
00393.2196,00265.9677
00302.0374,00144.6688
00389.6266,00271.6638
00327.0891,00163.5143
00267.2933,00286.8077
00326.7876,00166.1133
00421.3023,00208.5887
00339.7480,00286.7096
00436.8616,00236.9201
00329.4108,00162.1028
00280.5009,00190.7439
00290.0958,00281.7337
00324.8109,00161.2074
00384.9221,00225.8504
00319.9850,00167.1920
00475.6370,00208.2403
00322.9496,00164.3435
00299.6185,00155.2459
00478.2787,00200.6591
00314.8419,00165.8893
00398.3492,00275.1821
00370.8484,00298.2734
00319.4688,00143.0956
00280.1803,00302.6792
00470.7388,00188.0254
00316.3482,00256.3975
00488.0679,00172.3736
00376.1360,00252.9992
00374.7946,00188.6244
00306.6823,00303.1012
00368.1001,00234.6241
00402.4365,00230.6832
00385.7137,00187.5962
00461.9766,00201.5949
00351.6915,00197.5847
00348.4745,00270.0680
00407.7399,00238.4433
00366.6787,00275.6380
00430.5063,00195.5599
00344.1770,00256.7845
00341.9268,00306.6920
00398.5231,00178.7783
00290.3129,00307.1621
00331.1864,00248.4213
00318.1476,00269.0634
00348.2366,00271.6335
00339.3777,00265.5817
00341.1685,00276.8884
00363.6453,00251.9335
00397.6108,00224.4770
00359.8560,00195.9953
00471.3659,00203.6851
00328.9098,00214.8087
00477.4099,00299.6754
00373.5503,00255.3198
00327.9884,00236.0916
00341.5432,00200.6077
00488.4178,00209.5843
00282.0279,00203.0656
00312.2664,00304.4488
00370.9907,00199.0690
00272.9753,00189.3470
00264.5726,00229.8123
00282.4467,00225.4643
00426.4421,00111.7714
00239.3221,00234.6514
00393.5999,00225.7865
00231.3514,00240.0162
00468.2605,00184.3542
00259.2049,00240.2252
00467.7372,00177.8403
00421.6434,00196.1454
00362.1759,00233.6654
00337.6607,00199.0272
00358.5283,00258.2258
00359.4030,00185.5145
00468.7890,00245.3168
00172.1583,00262.9430
00325.4870,00140.0656
00327.3362,00152.2540
00336.1842,00164.5094
00402.6585,00103.7697
00346.4753,00196.4067
00337.4998,00207.9811
00396.0346,00219.7398
00472.2886,00174.3830
00370.2614,00185.8320
00393.5906,00270.2645
00389.0846,00264.0695
00357.6298,00225.3332
00352.4444,00237.9356
00285.8184,00188.7751
00467.1476,00246.0734
00382.5089,00248.5214
00327.0439,00135.8772
00220.5627,00190.3572
00328.8176,00147.6598
00314.1407,00164.1510
00299.1545,00177.8215
00379.7819,00116.3423
00507.8872,00205.4379
00318.8239,00156.9252
00295.7404,00155.9480
00402.8235,00216.5173
00470.3076,00209.3311
00280.2336,00202.3854
00427.7993,00333.7117
00436.2247,00234.6915
00306.6505,00171.3832
00315.3269,00236.7296
00394.6180,00250.1806
00299.0282,00173.9082
00313.4302,00157.7351
00218.6466,00144.5071
00315.8585,00183.0350
00529.0428,00237.1663
00319.9870,00166.0250
00387.6479,00113.8594
00316.4363,00219.5802
00321.7256,00187.3317
00290.6743,00174.0866
00434.8804,00177.2035
00379.2265,00179.7935
00424.1530,00297.3535
00291.9693,00152.6807
00399.6484,00147.2057
00259.5892,00146.5378
00337.9919,00319.5861
00291.0469,00170.5832
00477.0493,00200.1959
00352.5289,00169.1301
00231.5213,00117.8641
00364.8340,00144.6047
00287.6328,00148.0803
00396.1665,00113.6721
00296.7443,00148.8085
00265.2071,00124.8437
00451.5872,00149.6955
00373.7009,00192.9878
00264.5850,00121.7577
00394.3749,00131.0369
00406.3287,00237.9764
00530.3962,00205.4206
00312.8152,00135.0806
00378.9343,00269.5523
00350.7491,00259.4553
00344.7962,00138.4588
00351.8548,00157.5648
00332.9317,00133.5481
00235.1943,00129.7153
00342.4133,00171.0044
00351.0706,00150.3221
00393.5064,00109.8369
00350.0576,00176.6949
00365.1308,00195.4983
00348.3306,00200.1843
00374.5417,00198.8127
00378.6898,00247.9012
00320.1316,00238.2521
00377.3674,00258.0063
00496.2049,00274.4733
00387.8823,00241.8523
00352.9692,00208.8386
00384.7681,00294.1189
00309.5874,00189.3480
00304.9688,00198.4881
00326.4233,00185.3973
00234.6863,00142.7382
00331.4987,00129.1934
00335.3223,00110.7223
00279.3669,00143.1207
00365.5706,00157.6500
00279.7956,00128.1226
00253.1649,00179.3949
00356.0048,00176.4122
00409.8927,00267.8970
00503.6924,00229.1300
00369.9172,00279.1050
00265.6143,00236.9021
00438.7329,00317.4254
00284.6415,00238.6418
00379.3176,00226.6682
00271.5129,00223.5210
00370.2565,00101.0121
00221.9255,00169.4139
00360.6581,00135.2343
00357.8246,00137.0963
00310.3427,00156.7803
00299.3491,00136.4707
00339.2882,00168.0296
00380.4425,00167.3195
00321.3757,00144.6936
00368.3060,00277.0212
00352.6008,00276.9841
00448.0774,00228.3785
00312.5881,00157.9366
00465.6735,00271.5198
00285.4116,00200.7779
00328.8611,00222.4260
00320.2563,00150.8181
00257.7880,00142.0784
00265.3986,00167.5352
00207.8463,00200.2142
00292.4180,00158.8426
00321.0501,00180.3370
00428.7485,00197.4032
00298.3724,00134.7016
00439.3690,00215.6094
00361.9900,00293.9062
00386.8312,00134.9830
00330.9558,00202.7737
00460.8601,00234.0686
00478.9873,00247.2404
00391.1599,00260.2000
00377.4875,00171.7146
00352.1277,00199.6078
00320.1140,00232.2759
00317.8943,00205.1240
00315.6942,00206.7772
00335.9465,00170.2392
00339.3448,00204.4227
00144.4796,00162.2068
00305.9803,00215.0610
00327.8398,00143.1914
00361.1813,00252.4708
00336.9671,00283.6881
00358.8809,00255.3887
00388.7177,00222.7419
00278.7471,00284.1367
00483.9861,00218.7844
00473.8456,00257.5844
00228.2839,00271.7640
00240.8861,00255.7286
00267.2929,00217.8871
00357.6679,00250.9022
00255.9820,00186.9065
00369.4140,00154.6486
00238.2278,00206.3346
00257.1877,00204.9934
00178.8136,00180.2404
00235.0296,00199.6478
00307.0845,00261.8543
00326.2273,00144.3384
00230.9643,00200.8357
00227.9026,00209.3884
00377.8951,00237.0046
00473.9713,00181.7202
00262.6296,00172.5854
00426.2187,00230.8202
00279.0601,00339.7509
00235.9031,00191.4927
00358.9808,00270.3622
00316.0091,00328.0586
00334.2155,00298.6945
00379.9331,00160.9892
00395.9994,00215.8803
00390.5235,00222.0155
00164.3122,00204.4503
00390.7808,00224.4662
00350.8647,00123.4774
00380.5199,00236.6433
00471.2037,00165.8991
00355.6239,00233.3976
00379.4661,00259.7793
00425.8456,00231.6742
00211.4528,00337.9263
00374.6636,00203.3680
00388.8332,00205.0498
00410.7405,00251.1956
00331.5134,00212.9429
00387.9995,00213.0718
00359.2106,00256.6613
00303.4852,00219.5511
00183.6472,00183.7954
00290.0645,00220.4918
00374.9593,00146.6404
00253.3526,00215.7813
00239.7676,00218.3074
00435.2965,00257.5158
00271.9339,00214.9765
00325.7971,00232.5877
00421.7374,00251.0716
00187.1226,00303.0380
00334.6441,00205.5710
00282.0703,00204.1155
00412.6752,00252.8062
00286.6398,00200.5335
00291.6785,00182.2141
00341.1578,00168.3280
00318.6238,00229.5386
00205.0479,00202.6218
00410.6422,00245.5144
00373.6722,00180.9152
00408.6027,00258.5818
00405.7812,00162.4260
00192.5429,00322.9680
00396.5398,00230.5700
00448.7959,00288.0815
00521.4155,00227.8123
00397.2150,00191.5926
00382.6807,00233.0099
00423.7036,00319.6006
00407.6866,00238.2489
00424.4249,00263.2196
00415.3522,00249.4828
00342.4035,00263.9645
00324.2046,00260.9743
00284.1539,00239.1884
00292.7703,00372.7489
00291.6957,00289.3242
00398.3750,00139.3431
00320.6841,00154.9943
00207.7457,00362.9778
00309.8275,00265.8621
00421.2729,00268.4222
00300.0889,00223.4323
00390.8491,00362.5010
00405.3154,00185.8346
00277.7363,00246.4890
00314.4626,00203.9507
00375.7962,00159.9830
00300.2161,00192.3795
00294.8275,00275.2521
00256.0886,00279.8792
00248.3803,00344.7106
00283.0040,00199.0849
00241.0993,00280.6518
00257.1221,00280.3961
00270.4557,00384.1287
00408.5309,00137.0382
00267.9223,00287.0175
00404.9121,00342.6057
00402.7458,00182.0137
00381.2382,00323.0429
00275.2818,00222.9728
00251.5523,00228.3713
00250.4386,00200.3777
00357.2492,00160.3210
00290.8509,00207.5212
00431.6633,00275.4318
00364.8717,00311.7738
00449.1987,00176.7335
00396.7920,00262.5723
00275.6706,00191.0889
00353.2445,00232.0390
00328.4262,00178.5490
00410.4940,00357.2100
00427.5414,00374.7106
00456.5725,00267.8601
00435.4860,00254.7729
00361.2461,00365.4781
00404.7056,00191.6692
00369.4868,00212.8056
00348.7125,00201.9724
00361.9655,00156.2185
00263.0793,00255.1434
00408.3710,00315.0460
00381.5254,00150.4576
00415.5146,00271.5122
00399.0752,00301.3694
00286.2496,00180.6199
00402.1590,00261.6377
00317.6951,00204.3632
00394.7378,00256.8342
00392.6158,00360.6339
00476.0589,00251.4196
00565.2747,00164.2706
00420.4652,00152.0340
00475.0922,00290.4321
00415.7880,00191.2914
00326.9563,00173.3959
00338.4952,00165.9426
00371.3616,00141.8968
00398.9349,00248.4385
00383.0654,00157.0770
00332.6252,00157.6906
00326.2450,00152.7659
00318.3148,00158.5456
00212.6489,00189.7778
00318.3291,00155.9998
00317.9865,00192.5324
00392.9109,00326.3814
00334.1318,00230.8667
00425.9470,00287.5303
00211.2115,00225.3222
00386.0092,00247.3570
00243.4908,00209.7949
00451.7520,00272.8432
00413.7107,00175.4379
00264.6301,00246.9515
00376.4245,00138.3959
00362.5757,00135.8489
00294.4135,00260.8183
00308.4381,00291.3281
00352.4482,00304.5763
00380.6248,00273.2383
00225.3617,00185.3996
00374.4846,00279.8541
00401.2876,00324.5939
00329.9151,00176.4428
00356.5298,00290.1222
00410.6611,00300.7232
00384.6666,00243.4134
00363.4292,00285.4236
00352.6049,00275.4590
00456.9345,00270.2728
00380.0890,00141.6760
00446.6226,00246.9306
00270.3389,00191.2823
00412.7349,00257.2162
00316.7021,00208.9014
00358.0982,00271.2244
00383.9784,00231.6423
00254.9664,00169.8199
00368.7723,00202.1583
00370.7068,00230.6304
00337.9340,00180.0157
00369.2202,00227.7977
00381.0380,00286.2915
00334.2040,00254.7715
00423.8046,00138.0279
00458.5694,00272.0927
00369.3200,00224.9157
00461.7815,00229.5774
00356.7847,00230.9437
00370.8309,00223.5682
00388.8430,00218.0447
00376.6955,00213.5319
00260.3747,00161.3030
00318.9191,00244.1054
00263.6141,00297.7909
00373.4536,00340.7492
00297.1770,00238.7567
00302.3193,00227.0007
00405.1983,00290.9469
00299.3700,00280.2019
00423.3631,00277.9919
00419.7063,00227.2198
00299.2174,00284.5044
00235.9971,00275.5854
00225.6628,00292.5087
00227.4184,00271.7678
00207.2295,00316.3981
00257.3232,00131.1733
00193.4387,00320.8457
00199.4479,00322.9979
00247.9445,00287.9700
00260.9616,00277.0196
00413.1967,00226.0718
00227.7743,00224.1124
00239.4808,00270.5907
00232.3611,00278.6219
00195.3905,00246.7438
00343.6007,00226.4119
00301.8634,00240.7364
00364.5131,00193.7837
00359.0543,00197.0432
00337.5138,00230.7930
00401.6557,00211.9931
00379.4754,00180.0660
00352.2478,00144.0048
00334.0456,00191.4051
00280.9119,00197.8788
00383.8609,00235.2172
00416.2536,00211.3909
00377.8510,00188.9934
00301.2367,00269.9114
00291.0487,00249.0617
00282.6970,00451.3834
00364.4243,00313.2387
00332.4491,00234.2190
00308.1388,00226.7326
00350.6527,00228.8404
00348.8136,00226.6301
00370.0167,00234.6462
00355.6515,00211.9440
00336.6558,00237.0576
00292.1352,00263.6128
00293.8627,00193.3043
00309.6287,00157.5246
00288.4755,00177.2420
00315.8124,00121.9682
00323.1133,00144.0040
00279.1803,00152.4832
00397.9043,00307.0042
00333.0146,00181.5655
00322.0257,00184.2918
00348.8566,00126.8330
00339.3184,00169.4949
00368.0442,00160.3132
00363.3518,00155.8926
00363.4853,00153.2416
00377.0692,00165.2814
00395.1302,00180.4810
00394.3499,00173.7007
00408.6732,00167.4717
00363.4218,00210.9415
00379.6349,00246.6038
00391.1225,00241.3167
00392.0041,00259.3735
00325.1965,00260.5407
00347.8268,00240.5344
00346.5855,00247.9662
00325.5545,00228.4503
00328.7727,00223.3285
00335.5616,00223.2511
00386.9092,00251.6037
00311.1385,00234.5046
