u,v
00200.6692,00200.3832
00199.8001,00199.8165
00199.7374,00199.7828
00200.6467,00199.4904
00200.4397,00199.5767
00200.2766,00200.4431
00200.5244,00199.5653
00200.4827,00199.5466
00200.3441,00199.5012
00200.4928,00199.5719
00199.8385,00199.7383
00200.3819,00199.9175
00200.5325,00199.9637
00200.3723,00199.7626
00200.2425,00199.6951
00200.3854,00199.5042
00200.2873,00199.7074
00200.1457,00200.2023
00199.4210,00199.7015
00199.4715,00199.3918
00200.3009,00199.9006
00199.6789,00199.9866
00200.0752,00200.0172
00200.3907,00200.3939
00199.6498,00200.3734
00200.0490,00199.8650
00200.2069,00199.9137
00200.2097,00200.1072
00200.5217,00200.6808
00199.8121,00199.9654
00200.2214,00200.0584
00200.1680,00200.1139
00200.3650,00200.2126
00200.5390,00200.1771
00199.8365,00199.8922
00200.3765,00200.0238
00200.1466,00199.6711
00200.1670,00199.5163
00199.9634,00199.6354
00200.6048,00199.8491
00199.5103,00199.4952
00200.0848,00200.4326
00200.1667,00200.1205
00200.1711,00199.8369
00200.1155,00199.7983
00199.9423,00199.3398
00200.2883,00200.1543
00200.4596,00200.2183
00200.1667,00200.6248
00200.0896,00200.0728
00199.9203,00199.8754
00199.4618,00200.4255
00200.1723,00200.3790
00200.2893,00200.3169
00199.9826,00199.6305
00199.4199,00200.3185
00199.8715,00199.8104
00199.9562,00200.0711
00199.1780,00199.7383
00199.9893,00200.2071
00199.6982,00200.2009
00199.7493,00200.5108
00199.4197,00200.3267
00199.6619,00199.8192
00199.9574,00200.2672
00199.9027,00200.1728
00199.7538,00200.3392
00199.5349,00200.1224
00199.5509,00200.3747
00200.4243,00200.1915
00199.8835,00200.5064
00199.9074,00199.5526
00199.9238,00199.5007
00199.8406,00199.5179
00199.8715,00199.5214
00199.8219,00200.3055
00199.7777,00200.0098
00199.8318,00199.9434
00199.8324,00199.8992
00199.8985,00199.8418
00199.9429,00199.7829
00200.0769,00199.5894
00200.3571,00200.3599
00200.4201,00200.5101
00200.5437,00200.4651
00199.5990,00200.3260
00199.6734,00200.1295
00199.7887,00200.1155
00199.9131,00200.2371
00200.0571,00200.3368
00200.2493,00200.0553
00200.4432,00200.1463
00199.5901,00200.0914
00199.8248,00199.9777
00199.9913,00200.0993
00200.1466,00200.1983
00200.3675,00200.2530
00200.5830,00200.2943
00199.8590,00200.2782
00200.1998,00200.4516
00200.6124,00199.6869
00199.8407,00199.8373
00200.0499,00199.9363
00200.1407,00199.9475
00200.2776,00199.8918
00200.4733,00199.9518
00199.5813,00199.9913
00199.7132,00200.0923
00199.7541,00200.1527
00199.8675,00200.0930
00200.0340,00200.2519
00200.0066,00200.2628
00199.9493,00200.0830
00199.8640,00199.9602
00199.8119,00199.9676
00199.6777,00199.9937
00199.6732,00200.1310
00199.6800,00199.9693
00199.6400,00199.9992
00199.4627,00200.0236
00200.2531,00200.0765
00200.0066,00200.0709
00199.6796,00200.0419
00199.4711,00200.2058
00200.1330,00200.1978
00199.9276,00200.2083
00199.8144,00200.2079
00199.5281,00200.3221
00200.2809,00200.3065
00200.0197,00200.2974
00199.7409,00200.2130
00199.4567,00200.4473
00200.3274,00200.4068
00200.0985,00200.3117
00199.9796,00200.3542
00199.8507,00199.7465
00199.7806,00199.6081
00199.7082,00199.7306
00199.5129,00199.7803
00200.3055,00199.7280
00200.3041,00199.7628
00200.0883,00199.6004
00200.0394,00199.6053
00199.9831,00199.7279
00200.2726,00199.5611
00200.2520,00200.3615
00200.1909,00200.3248
00200.1776,00200.1513
00200.1558,00199.9880
00200.1489,00199.7786
00200.1397,00199.7282
00200.1841,00199.6867
00200.2549,00199.4560
00200.3023,00200.3105
00200.3972,00200.2021
00199.5927,00200.1754
00199.7239,00200.1351
00199.8376,00199.8911
00199.9016,00199.7539
00200.0617,00199.6848
00200.2464,00199.8645
00200.3861,00199.8519
00200.5044,00199.8674
00199.7124,00199.7472
00199.8653,00199.7683
00200.0938,00199.6277
00200.2959,00199.6271
00200.4874,00199.5462
00199.7121,00199.5498
00199.9904,00199.6780
00200.2181,00199.7589
00200.4640,00199.7453
00199.7132,00199.8616
00200.0304,00200.0713
00200.2622,00200.1747
00200.4812,00200.2001
00199.5779,00200.1854
00199.7542,00200.4486
00199.9024,00200.5674
00200.0260,00199.6741
00200.1225,00199.8033
00200.2565,00199.8014
00200.3003,00199.8642
00200.3020,00199.8492
00200.2812,00199.8577
00200.2939,00199.8523
00200.2204,00199.9630
00200.1866,00199.9710
00200.1013,00199.9783
00200.0031,00199.9444
00199.8899,00200.0304
00199.8280,00200.1033
00199.6442,00200.1527
00199.4711,00200.0890
00200.2372,00200.1714
00200.0004,00200.1743
00199.7203,00200.3260
00199.4615,00200.4591
00200.2475,00200.4836
00200.0305,00199.5767
00199.8098,00199.6917
00199.5001,00199.7560
00200.2624,00199.6713
00200.0340,00199.6712
00199.8067,00199.6453
00199.6239,00199.6264
00199.4314,00199.6681
00200.2661,00199.6937
00200.1251,00199.7145
00200.0403,00199.8055
00199.9310,00199.7967
00199.8318,00199.7267
00199.6686,00199.5606
00199.6001,00199.6967
00199.4955,00199.6466
00200.3748,00199.6095
00199.7592,00200.2789
00199.7506,00200.2803
00199.6855,00200.1084
00199.6384,00199.9116
00199.6059,00199.8069
00199.6181,00199.5442
00199.6518,00200.3758
00199.6818,00200.2269
00199.7482,00200.0702
00199.8653,00199.9197
00199.9263,00199.8119
00200.0572,00199.6670
00200.1947,00199.5877
00200.3855,00199.5282
00200.4921,00200.4561
00199.6559,00200.4178
00199.8180,00200.3270
00199.9828,00200.3036
00200.1329,00200.1870
00200.3399,00200.2291
00200.5275,00200.1592
00199.7247,00200.1606
00199.9568,00200.1369
00200.2038,00200.0595
00200.4607,00200.0719
00199.7073,00200.1022
00199.9469,00200.1515
00200.1924,00200.2163
00200.4369,00200.3333
00199.6665,00200.4251
00199.9170,00199.5698
00200.1398,00199.7428
00200.2540,00199.8512
00200.4331,00200.0141
00200.5412,00200.1095
00199.6598,00200.2779
00199.6677,00200.2567
00199.7850,00200.4946
00199.8113,00199.5454
00199.8177,00199.6436
00199.8353,00199.7401
00199.8017,00199.7526
00199.7669,00199.7641
00199.6977,00199.8732
00199.6105,00199.9855
00199.5257,00200.0374
00200.3602,00200.1594
00200.2226,00200.2060
00200.1029,00200.3714
00199.9002,00200.4102
00199.6822,00200.4742
00199.4377,00199.6475
00200.2224,00199.6934
00199.9478,00199.8159
00199.6794,00199.7704
00199.4487,00199.9581
00200.1738,00199.9919
00199.9174,00200.0668
00199.7111,00200.0755
00199.4943,00200.0248
00200.2874,00200.0351
00200.1086,00199.9967
00199.9544,00199.9892
00199.8039,00199.9477
00199.6606,00199.9442
00199.5016,00199.8411
00200.4059,00199.8499
00200.3103,00199.8296
00200.1680,00199.7740
00200.0904,00199.7296
00199.9645,00199.5674
00199.9143,00199.5609
00200.2771,00200.1657
00200.1199,00200.0940
00200.0646,00199.8633
00200.0368,00199.7167
00199.9909,00199.4698
00200.0203,00200.2710
00200.0277,00200.0779
00200.0815,00199.8923
00200.1651,00199.7664
00200.2648,00199.5934
00200.3570,00199.4353
00200.4925,00200.3467
00199.6435,00200.2162
00199.8029,00200.1220
00199.9984,00200.0186
00200.1462,00199.9446
00200.3487,00199.9034
00200.5264,00199.8375
00199.7241,00199.7508
00199.8726,00199.7010
00200.1161,00199.6296
00200.3099,00199.6341
00200.5424,00199.5929
00199.7829,00199.5938
00200.0273,00199.5944
00200.2849,00199.6263
00200.5280,00199.6951
00199.7640,00199.7826
00200.0182,00199.8669
00200.2495,00199.9962
00200.4678,00200.1504
00199.6434,00200.2890
00199.8368,00200.4762
00199.9739,00199.6329
00200.0957,00199.8009
00200.1550,00199.9966
00200.2596,00200.0715
00200.2373,00200.2786
00200.2451,00200.3730
00200.2455,00200.5562
00200.2104,00199.6087
00200.1907,00199.7183
00200.1247,00199.8132
00200.0808,00199.9150
00199.9734,00200.0811
00199.8744,00200.1998
00199.7338,00200.2876
00199.5801,00200.4254
00199.4246,00200.5459
00200.2241,00199.6654
00200.0535,00199.7962
00199.7952,00199.9124
00199.5617,00200.0430
00200.3168,00200.1006
00200.0633,00200.2228
00199.7920,00200.2438
00199.5404,00200.2314
00200.3054,00200.2685
00200.0914,00200.2264
00199.8831,00200.2102
00199.7009,00200.1896
00199.5339,00200.1382
00200.3315,00200.1366
00200.1700,00200.0767
00200.0435,00200.0153
00199.9114,00199.9543
00199.7885,00199.9039
00199.6736,00199.8105
00199.5821,00199.7612
00199.4972,00199.6186
00200.3899,00199.5320
00200.3152,00200.4093
00199.9945,00199.4559
00199.8978,00200.2860
00199.9066,00200.0783
00199.8241,00199.8670
00199.8120,00199.6817
00199.8003,00199.4725
00199.7963,00200.2785
00199.8191,00200.0689
00199.8781,00199.8799
00199.9217,00199.6739
00200.0656,00199.5359
00200.1795,00200.3561
00200.3164,00200.2244
00200.5231,00200.1281
00199.6603,00199.9969
00199.8346,00199.8857
00200.0159,00199.7922
00200.2084,00199.7283
00200.3346,00199.5803
00200.5661,00199.5759
00199.8065,00199.5100
00200.0119,00200.4700
00200.2348,00200.4370
00200.4492,00200.4140
00199.6996,00200.3957
00199.9426,00200.4208
00200.1986,00200.4883
00200.4325,00199.5226
00199.6866,00199.6290
00199.9086,00199.7341
00200.1945,00199.8718
00200.3945,00200.0228
00200.5624,00200.2233
00199.6843,00200.3605
00199.8117,00200.5561
00199.9272,00199.7672
00199.9630,00199.8999
00200.0054,00200.1370
00200.0418,00200.2902
00200.0618,00200.4782
00200.0535,00199.6592
00200.0177,00199.7753
00199.9508,00199.9208
00199.8739,00200.0588
00199.8141,00200.2287
00199.6606,00200.3405
00199.6233,00200.5242
00199.4675,00199.6859
00200.3333,00199.8266
00200.1660,00199.9781
00199.9954,00200.1135
00199.7630,00200.2528
00199.5374,00200.3708
00200.2906,00200.4888
00200.0295,00199.5697
00199.7855,00199.6361
00199.5504,00199.7187
00200.3279,00199.7126
00200.0959,00199.7195
00199.8423,00199.6851
00199.6547,00199.6409
00199.4804,00199.6056
00200.2827,00199.5623
00200.0744,00199.4613
00199.9473,00200.4025
00199.8234,00200.3108
00199.6944,00200.2069
00199.6011,00200.1423
00199.4625,00200.0268
00200.3224,00199.9289
00200.2204,00199.7915
00200.1671,00199.6756
00199.5321,00199.7876
00199.5062,00199.6419
00200.4057,00199.4336
00200.4091,00200.2052
00200.3784,00200.0084
00200.3510,00199.7761
00200.3942,00199.5771
00200.4448,00200.3952
00200.4864,00200.1939
00199.5924,00199.9858
00199.7281,00199.8441
00199.8205,00199.6775
00199.9784,00199.5478
00200.1104,00200.3923
00200.2301,00200.2960
00200.5447,00200.1580
00199.7043,00200.0591
00199.8775,00199.9801
00200.1203,00199.8563
00200.2288,00199.8066
00200.4431,00199.7444
00199.7370,00199.6670
00199.9336,00199.6505
00200.1209,00199.6047
00200.3884,00199.6298
00199.6489,00199.6741
00199.9024,00199.7364
00200.1439,00199.8152
00200.3801,00199.9264
00199.6281,00200.0444
00199.8090,00200.1976
00199.9707,00200.3378
00200.1400,00200.5193
00200.3348,00199.7318
00200.4666,00199.9201
00199.5826,00200.1392
00199.5903,00200.2488
00199.6263,00200.5360
00199.6465,00199.7298
00199.6899,00199.9160
00199.6397,00200.0708
00199.5259,00200.2261
00199.4942,00200.4260
00200.4664,00199.6163
00200.3586,00199.8058
00200.2578,00199.9950
00200.1654,00200.1890
00200.0113,00200.3736
00199.8200,00200.5513
00199.6258,00199.7262
00199.4428,00199.9095
00200.2830,00200.0360
00200.0443,00200.1915
00199.8208,00200.2678
00199.5068,00200.3273
00200.2822,00200.3780
00200.0314,00200.3916
00199.8757,00200.3540
00199.6111,00200.3388
00199.4082,00200.2969
00200.1908,00200.2567
00200.0114,00200.1881
00199.8206,00200.1142
00199.6758,00200.0226
00199.5337,00199.9496
00200.3745,00199.8259
00200.2211,00199.7354
00200.0711,00199.5732
00199.9573,00199.4618
00199.8755,00200.3250
00199.8128,00200.1695
00199.6945,00200.0166
00199.7984,00199.5439
00199.7177,00200.3671
00199.6712,00200.1672
00199.5842,00199.9571
00199.6003,00199.7511
00199.5672,00199.5528
00199.5559,00200.3194
00199.5895,00200.0941
00199.6658,00199.8891
00199.7301,00199.6609
00199.9121,00199.4806
00200.0165,00200.2896
00200.1588,00200.1126
00200.2878,00199.9724
00200.4599,00199.8308
00199.5898,00199.6942
00199.8376,00199.5804
00199.9551,00199.5079
00200.1289,00200.4651
00200.3273,00200.3618
00200.5011,00200.2862
00199.6939,00200.2214
00199.9588,00200.2123
00200.1447,00200.1635
00200.3719,00200.1572
00200.6228,00200.1512
00199.8867,00200.1885
00200.1096,00200.2159
00200.3909,00200.3141
00199.6561,00200.4166
00199.8638,00200.5313
00200.0778,00199.6533
00200.2260,00199.8185
00200.3728,00199.9807
00200.5652,00200.2138
00199.7018,00200.4547
00199.7468,00199.6914
00199.7808,00199.9016
00199.8505,00200.1137
00199.8258,00200.3363
00199.8465,00200.5476
00199.7425,00199.7220
00199.7072,00199.9318
00199.6358,00200.1136
00199.6034,00200.3078
00199.4910,00200.5014
00200.4512,00199.7146
00200.3748,00199.9276
00200.2356,00200.1032
00200.0324,00200.3123
00199.8472,00200.5029
00199.6202,00199.6488
00199.4590,00199.8336
00200.2427,00199.9849
00199.9247,00200.0913
00199.6865,00200.1596
00199.4324,00200.2299
00200.1673,00200.2272
00199.9879,00200.2032
00199.6735,00200.1634
00199.4641,00200.1093
00200.2964,00200.0135
00200.1012,00199.9272
00199.9336,00199.8144
00199.7814,00199.6903
00199.6639,00199.5476
00199.5201,00200.4162
00200.3889,00200.2755
00200.2467,00200.0935
00200.0858,00199.9559
00200.0480,00199.8452
00199.9605,00199.7092
00199.6936,00199.7703
00199.8718,00199.6338
00199.7463,00199.4829
00199.7435,00200.2610
00199.6803,00200.0699
00199.7019,00199.8758
00199.7146,00199.6444
00199.7761,00199.4174
00199.8694,00200.2059
00199.9996,00200.0085
00200.0806,00199.7804
00200.2603,00199.5972
00200.3499,00199.4454
00200.5090,00200.2780
00199.6203,00200.1253
00199.7993,00199.9851
00199.9902,00199.8983
00200.1223,00199.7928
00200.0333,00199.6499
00200.4237,00199.6355
00200.5764,00199.5660
00199.7433,00199.5375
00199.9344,00199.4746
00200.1881,00200.4526
00200.3951,00200.4475
00199.6064,00200.4696
00199.8979,00200.4698
00200.2211,00199.5237
00200.4541,00199.5860
00199.6912,00199.6760
00199.9325,00199.7775
00200.1586,00199.9276
00200.3094,00200.0589
00200.4762,00200.2324
00199.6514,00200.4247
00199.8555,00199.6796
00199.7099,00199.8004
00199.9969,00200.0921
00199.9737,00200.3423
00199.9521,00200.5512
00200.0229,00199.7954
00199.9653,00200.0230
00199.9453,00200.2236
00199.8131,00200.4109
00199.8124,00199.6031
00199.8153,00199.8275
00199.6969,00200.0134
00199.6177,00200.2210
00199.4984,00200.4128
00200.3538,00199.6716
00200.1270,00199.8517
00199.8623,00200.0161
00199.7044,00200.1866
00199.4477,00200.3339
00200.1648,00200.4476
00199.8868,00200.5362
00199.6227,00199.5824
00200.3196,00199.5811
00200.0915,00199.5980
00199.8488,00199.5292
00199.6364,00199.4849
00199.4301,00200.3801
00200.2341,00200.2984
00200.1040,00200.1864
00199.9505,00200.0420
00199.7980,00199.9181
00199.6795,00199.7627
00199.5768,00199.6103
00200.3960,00199.4383
00200.2263,00200.2764
00200.1332,00200.1327
00200.0654,00199.9548
00200.0325,00199.8955
00199.9892,00199.7886
00199.6798,00199.6328
00199.4490,00199.4088
00200.1958,00200.1823
00200.0521,00199.9698
00199.8755,00199.6887
00199.7857,00199.3895
00199.6954,00200.1036
00199.6566,00199.7978
00199.6172,00199.4666
00199.6095,00200.1487
00199.5812,00199.8404
00199.6275,00199.5311
00199.6637,00200.2230
00199.7325,00199.9113
00199.8623,00199.6578
00199.8785,00199.3664
00199.8475,00200.0619
00200.1378,00199.8527
00200.3024,00199.5999
00200.4659,00200.3563
00199.7102,00200.1212
00199.9615,00199.9003
00200.2449,00199.7087
00200.5569,00199.5282
00199.9407,00200.3958
00200.3187,00200.2906
00200.6750,00200.2008
00200.0544,00200.1532
00200.4534,00200.1233
00199.8096,00200.1358
00200.1087,00200.1908
00200.4735,00200.2752
00199.8149,00200.4099
00200.1446,00200.5525
00200.2372,00199.6751
00200.7061,00199.9192
00199.8400,00200.1505
00200.0478,00200.4000
00200.2597,00199.6406
00200.3916,00199.9389
00200.5704,00200.1909
00199.6533,00200.4170
00199.8021,00199.7242
00199.9457,00200.0541
00199.9831,00200.3511
00200.0272,00199.6609
00200.0605,00200.0253
00199.9938,00200.4101
00199.8676,00199.7544
00199.7365,00200.0983
00199.6535,00200.4700
00199.4339,00199.7576
00200.1620,00200.0812
00199.9700,00200.3186
00199.6866,00200.5763
00199.3718,00199.7543
00200.1152,00199.9611
00199.8643,00200.1076
00199.5802,00200.2279
00200.2947,00200.2924
00200.0183,00200.3639
00199.7813,00200.4218
00199.4975,00200.4411
00200.2400,00200.4389
00199.9825,00200.4144
00199.7115,00200.3700
00199.4128,00200.2972
00200.0633,00200.2294
00199.7860,00200.1939
00199.5114,00200.0418
00200.0156,00200.2876
00199.8555,00200.1964
00199.5689,00200.0422
00200.3098,00199.8086
00200.1337,00199.5754
00199.9246,00200.3562
00199.7384,00200.0888
00199.5814,00199.7686
00199.4836,00199.4854
00200.3918,00200.1532
00200.3708,00199.8620
00200.3551,00199.5250
00200.3989,00200.2380
00200.4648,00199.9683
00200.4744,00199.6469
00199.5517,00200.3238
00199.6675,00200.0435
00199.7695,00199.8219
00199.9484,00199.5337
00200.0318,00200.3000
00200.2645,00200.0415
00200.4336,00199.7938
00199.7480,00199.5913
00199.9471,00200.3532
00200.2222,00200.1787
00200.5958,00199.9940
00199.9043,00199.8819
00200.2678,00199.7404
00200.6284,00199.7048
00199.9836,00199.6534
00200.3978,00199.6197
00199.7500,00199.6617
00200.0576,00199.7271
00200.3927,00199.8134
00199.7576,00199.9351
00200.0742,00200.1419
00200.2424,00200.2868
00200.5452,00200.5399
00199.7479,00199.7068
00199.9340,00199.9487
00200.1385,00200.1818
00200.2536,00200.4025
00200.3721,00199.6853
00200.4660,00199.9218
00199.6446,00200.2099
00199.6785,00200.4884
00199.7817,00199.8161
00199.8114,00200.1281
00199.8070,00200.4803
00199.7298,00199.8079
00199.6201,00200.1369
00199.4884,00200.4616
00200.4347,00199.8136
00200.2813,00200.1657
00199.9381,00200.3944
00199.8075,00199.6825
00199.5183,00199.9427
00200.2521,00200.1193
00200.0495,00200.2596
00199.7251,00200.4129
00199.4456,00200.5228
00200.1910,00199.6134
00199.9498,00199.6953
00199.6508,00199.7518
00199.3800,00199.7690
00200.1220,00199.7608
00199.8448,00199.7578
00199.5528,00199.7168
00200.2474,00199.6651
00199.9130,00199.6032
00199.6718,00199.5428
00199.4724,00199.4686
00199.7328,00200.2531
00199.4913,00200.1016
00200.1897,00199.8744
00200.0363,00199.6441
00199.8257,00199.4136
00199.6010,00200.1317
00199.4635,00199.8920
00200.3505,00199.6153
00200.2277,00200.3489
00200.1836,00200.0687
00200.1526,00199.7898
00200.1247,00199.5016
00200.1795,00200.2179
00200.2153,00199.9532
00200.2283,00199.6828
00200.4313,00199.4066
00200.5565,00200.1215
00199.6589,00199.9043
00199.8575,00199.5915
00199.9880,00200.3705
00200.1938,00200.1351
00200.5211,00199.8900
00199.7294,00199.6900
00199.9911,00199.4915
00200.3174,00200.3547
00200.6618,00200.2514
00200.0047,00200.1495
00200.3748,00200.0689
00199.7498,00200.0659
00200.0954,00200.0476
00200.4635,00200.0907
00199.7830,00200.1458
00200.0708,00200.2276
00200.4809,00200.3627
00199.7796,00200.4883
00200.0782,00199.6766
00200.2215,00199.7782
00200.4908,00200.0178
00199.6903,00200.2286
00199.9149,00200.4017
00200.0812,00199.6414
00200.1398,00199.8289
00200.2992,00200.0646
00200.4216,00200.3520
00200.4608,00200.6194
00199.5436,00199.8891
00199.6008,00200.2172
00199.5566,00200.5186
00199.4785,00199.8045
00200.4288,00200.1311
00200.3027,00200.4620
00200.2314,00199.7478
00200.0791,00200.0504
00199.8583,00200.3115
00199.6420,00200.5186
00199.3840,00199.7731
00200.1611,00199.9666
00199.9395,00200.0929
00199.6722,00200.2282
00199.4096,00200.3845
00200.1167,00200.5000
00199.8673,00199.6005
00199.5917,00199.6905
00200.3239,00199.7215
00200.0530,00199.7864
00199.7504,00199.7772
00199.4689,00199.7918
00200.1402,00199.7526
00199.8824,00199.7342
00199.6119,00199.6393
00200.3508,00199.5708
00200.0829,00200.4344
00200.2474,00200.0753
00199.9968,00199.8805
00199.7618,00199.7146
00199.5308,00199.4776
00200.3055,00200.2697
00200.1314,00200.0355
00199.9625,00199.7874
00199.7937,00199.5300
00199.6977,00200.2586
00199.5686,00199.9798
00199.5732,00199.7482
00199.5418,00199.4635
00199.5726,00200.2230
00199.6520,00199.9754
00199.7005,00199.7317
00199.7980,00199.4805
00199.9290,00200.2475
00200.0496,00200.0278
00200.1382,00199.7554
00200.3560,00199.5614
00200.5912,00200.3601
00199.7991,00200.1619
00200.0569,00199.9823
00200.3225,00199.7985
00200.6291,00199.6443
00199.9663,00199.5301
00200.3009,00200.4507
00200.6359,00200.3608
00200.0100,00200.3364
00200.3585,00200.3191
00199.7813,00200.3673
00200.1161,00200.4211
00200.4505,00200.5238
00199.7662,00199.6062
00200.0592,00199.7228
00200.3754,00199.8814
00200.5551,00199.9665
00199.7865,00200.2082
00200.0361,00200.3505
00200.2455,00200.5597
00200.4008,00199.7577
00200.5550,00199.8928
00199.6824,00200.0850
00199.7725,00200.2789
00199.8713,00200.4875
00199.8728,00199.7034
00199.9803,00199.9836
00199.9930,00200.2503
00199.9576,00200.5115
00199.9050,00199.7754
00199.8327,00200.0424
00199.6902,00200.3112
00199.5292,00200.5537
00200.3565,00199.8397
00200.0880,00200.1114
00199.8667,00200.2838
00199.6876,00200.5238
00199.4151,00199.6671
00200.1823,00199.8328
00199.8813,00199.9470
00199.6334,00200.0590
00199.3790,00200.1588
00200.0938,00200.2510
00199.7860,00200.3029
00199.5257,00200.3485
00200.2619,00200.3698
00200.0213,00200.3933
00199.7524,00200.3929
00199.4661,00200.3793
00200.1512,00200.3418
00199.8824,00200.2613
00199.6179,00200.1983
00199.4115,00199.6432
00200.0901,00199.5823
00199.8380,00200.3887
00199.6385,00200.1941
00199.4160,00199.9468
00200.2500,00199.7075
00200.0836,00199.4568
00199.9716,00200.2420
00199.8872,00200.0290
00199.8346,00199.8039
00199.7994,00199.5703
00199.7909,00200.3383
00199.8334,00200.1385
00199.9073,00199.9232
00199.9980,00199.6996
00200.0818,00199.5157
00200.1995,00200.3300
00200.3406,00200.1473
00200.5334,00199.9298
00199.6736,00199.7678
00199.8963,00199.5334
00200.1136,00200.4250
00200.3930,00200.2544
00199.6903,00200.1350
00200.0042,00200.0147
00200.3450,00199.9227
00199.6811,00199.8820
00200.0277,00199.8575
00200.4058,00199.8549
00199.7912,00199.8846
00200.1389,00199.9618
00200.4896,00200.0219
00199.8322,00200.1553
00200.1446,00200.2413
00200.4436,00200.3474
00199.6808,00200.5318
00199.9825,00199.5702
00200.1448,00199.7753
00200.3582,00199.8531
00200.5342,00200.0672
00199.6667,00200.1184
00199.8383,00200.2815
00199.9493,00200.4345
00200.0565,00199.5876
00200.1245,00199.8146
00200.1774,00200.0000
00200.1759,00200.1975
00200.1559,00200.4106
00200.1165,00199.6364
00200.0220,00199.8640
00199.9329,00200.0817
00199.7549,00200.3332
00199.6093,00200.5657
00200.3781,00199.7812
00200.1697,00199.9893
00199.8808,00200.1696
00199.6325,00200.2960
00199.3838,00200.4841
00200.1395,00199.5640
00199.8604,00199.6756
00199.6122,00199.7756
00200.3637,00199.8379
00200.0702,00199.9550
00199.7976,00199.9978
00199.5350,00200.0528
00200.2667,00200.0739
00199.9940,00200.1097
00199.7315,00200.0842
00199.4488,00200.1094
00200.1933,00200.0612
00199.9348,00199.9891
00199.6443,00199.9164
00200.1599,00200.2402
00199.8705,00200.0605
00199.6405,00200.0024
00199.3819,00199.7986
00200.1546,00199.6750
00199.9355,00199.4597
00199.7746,00200.2741
00199.6181,00200.0750
00199.5238,00199.8225
00200.4334,00199.6648
00200.3826,00199.4352
00200.3471,00200.2478
00200.3468,00200.0549
00200.4620,00200.0044
00200.4553,00199.7810
00200.5313,00199.6353
00199.6276,00199.4874
00199.7310,00200.3333
00199.8599,00200.1865
00199.9954,00200.0282
00200.1649,00199.8940
00200.3720,00199.7298
00200.6203,00199.6345
00199.8815,00199.4466
00200.1730,00200.3948
00200.5009,00200.2909
00199.8344,00200.2389
00200.1676,00200.2088
00200.5163,00200.1898
00199.8941,00200.2010
00200.2620,00200.2690
00200.6707,00200.4207
00199.9913,00200.4504
00200.3302,00199.5435
00200.6296,00199.6372
00199.9258,00199.7253
00200.2052,00199.8218
00200.4423,00199.8543
00199.6724,00199.9733
00199.8978,00200.0545
00200.0675,00200.1468
00200.2341,00200.1842
00200.3732,00200.3133
00200.4786,00200.3969
00199.5805,00200.5017
00199.6415,00199.6573
00199.6416,00199.7982
00199.6654,00199.9402
00199.6524,00200.1161
00199.6405,00200.3221
00199.5114,00200.4944
00200.3772,00199.6477
00200.2309,00199.8499
00200.0361,00200.0549
00199.8631,00200.2200
00199.5831,00200.4367
00200.3490,00200.5754
00200.0844,00199.6958
00199.7906,00199.8516
00199.5374,00199.9263
00200.2923,00199.9909
00200.0225,00200.1138
00199.7776,00200.1280
00199.5024,00200.2441
00200.2385,00200.2654
00199.9811,00200.3182
00199.7367,00200.3592
00199.5143,00200.4859
00200.2083,00200.4469
00199.9222,00200.4225
00199.6803,00200.3920
00199.4309,00200.3261
00199.5454,00200.0540
00200.3682,00200.1125
00200.1269,00199.9696
00199.9451,00199.6877
00199.7116,00199.5993
00199.5412,00200.3849
00200.3929,00200.3192
00200.3131,00200.2053
00200.2071,00199.9523
00200.1154,00199.7937
00200.0756,00199.6546
00200.1390,00199.5176
00200.1349,00200.4101
00200.1019,00200.1108
00200.1059,00200.0188
00200.2144,00200.0257
00200.2983,00199.9935
00200.3536,00199.9299
00200.4767,00199.8159
00199.6822,00199.7774
00199.8285,00199.5381
00200.0985,00200.4253
00200.3219,00200.2989
00200.6067,00200.2261
00199.8928,00200.3186
00200.2276,00200.2441
00200.5820,00200.2144
00199.9379,00200.1748
00200.3686,00200.3109
00199.7400,00200.3841
00200.0874,00200.4412
00200.4150,00200.4115
00199.7181,00200.4815
00200.0260,00199.5708
00200.3243,00199.6930
00200.6165,00199.8321
00199.8469,00199.7940
00200.1767,00199.9150
00200.3916,00199.8879
00200.5918,00199.9431
00199.7643,00199.9782
00199.9075,00199.9201
00200.0183,00200.0385
00200.1348,00200.1020
00200.2492,00200.0663
00200.3111,00200.1490
00200.3468,00200.2616
00200.3713,00200.4002
00200.3322,00200.5231
00200.2066,00200.4960
00200.0626,00199.5889
00199.8750,00199.7618
00199.6891,00199.8925
00199.4795,00200.0892
00200.2782,00200.1875
00200.0793,00200.4473
00199.8284,00199.5846
00199.5395,00199.6378
00200.2583,00199.6695
00200.0051,00199.7830
00199.7434,00199.9078
00199.5140,00199.9198
00200.2423,00200.0301
00199.9807,00200.0550
00199.7283,00200.2181
00199.5267,00200.2821
00200.2594,00200.2762
00199.9685,00200.2925
00199.7024,00200.2882
00199.3970,00200.3204
00200.1138,00200.2492
00199.8556,00200.2984
00200.2352,00199.9761
00200.0107,00199.7460
00199.8338,00199.7497
00199.5898,00199.5730
00200.3908,00200.3884
00200.2692,00200.3802
00200.0499,00200.1587
00199.8716,00200.0844
00199.7198,00200.0396
00199.6777,00199.9327
00199.7604,00199.7573
00199.7902,00199.6389
00199.7865,00199.6088
00199.7725,00199.4691
00199.7500,00200.3207
00199.7183,00200.1897
00199.8545,00200.1913
00199.8641,00200.1731
00200.0024,00200.0736
00200.2336,00199.9989
00200.3268,00199.9440
00200.5943,00199.8299
00199.7433,00199.8473
00199.9677,00199.8561
00200.2312,00199.9175
00200.5189,00199.8996
00199.8010,00200.0331
00200.1783,00199.9778
00200.7373,00200.0946
00200.1065,00200.1898
00200.5063,00200.3148
00199.7136,00200.2892
00200.1009,00200.2619
00200.3350,00200.2613
00199.7063,00200.4917
00200.0252,00199.5438
00200.2582,00199.4998
00200.5024,00200.3048
00199.8465,00200.4490
00200.0734,00199.6182
00200.2476,00199.4968
00200.3772,00200.4177
00200.4553,00200.4205
00200.4963,00200.5441
00199.6380,00200.3798
00199.7582,00200.4840
00199.9085,00200.4365
00199.9601,00200.5260
00199.8886,00199.5169
00199.7626,00199.6402
00199.6035,00199.6560
00200.3962,00199.6311
00200.1686,00199.8984
00200.0038,00199.9135
00199.8450,00200.0220
00199.7678,00199.9193
00199.4807,00200.0639
00200.1578,00200.1776
00199.8899,00200.2839
00199.5486,00200.3903
00200.3078,00200.3819
00200.0452,00200.3410
00199.7859,00200.4928
00199.5369,00199.6562
00200.4325,00200.0170
00200.1481,00199.9588
00199.8947,00199.9398
00199.5701,00199.9857
00200.3253,00199.9981
00200.0556,00200.0476
00199.7276,00199.9362
00199.4576,00199.9662
00200.0072,00199.8633
00199.5166,00199.6411
00199.7000,00200.1736
00200.1692,00200.3154
00199.6036,00200.2209
00199.5736,00199.7517
00199.4542,00200.2455
00200.3229,00200.3863
00200.1901,00200.2872
00200.2844,00200.2626
00199.8109,00199.6492
00199.8077,00199.6988
00199.7528,00199.4820
00199.6035,00199.6684
00199.4476,00200.2552
00199.6053,00200.3433
00200.2622,00200.3427
00200.6183,00200.4091
00200.1977,00200.4695
00199.6239,00199.5042
00200.4602,00199.9086
00200.3120,00199.8412
00200.0753,00199.9042
00200.2952,00199.9397
00199.7129,00200.0690
00199.8869,00200.2210
00200.7570,00199.8345
00200.7230,00199.9158
00200.2438,00200.3121
00200.4822,00200.2560
00199.8480,00199.8083
00200.0914,00199.8054
00200.5089,00199.9387
00200.2708,00199.7601
00199.7362,00199.4769
00200.8469,00199.8454
00199.9136,00199.5033
00200.1267,00199.7377
00199.2890,00199.6477
00200.5372,00200.0856
00199.6100,00200.3419
00199.5318,00199.8071
00199.6140,00199.7892
00199.8041,00200.0797
00200.2118,00200.2079
00200.4712,00199.7275
00199.8151,00199.5453
00199.8304,00200.0079
00200.0767,00199.5072
00199.6200,00199.9391
00199.6139,00199.8410
00200.2133,00199.8135
00200.3886,00199.9483
00200.1801,00200.0279
00199.7791,00199.9680
00200.3512,00199.3145
00199.9062,00200.3536
00199.5417,00199.7330
00200.0053,00199.7235
00199.6889,00199.4737
00199.6276,00199.9909
00200.1087,00199.9893
00200.1836,00200.0844
00200.4629,00200.2191
00200.3647,00200.6351
00200.0831,00200.2704
00199.7869,00199.9851
00199.7810,00199.9671
00199.4629,00199.8187
00200.0539,00199.8963
00199.4607,00200.1476
00199.9965,00200.4793
