u,v
00199.2294,00199.5508
00199.5050,00200.4461
00199.6607,00200.5221
00199.9311,00200.3380
00199.1339,00200.1527
00199.3433,00199.9032
00199.7085,00199.7487
00200.0242,00199.6978
00199.3150,00199.3913
00199.6555,00200.2435
00200.0577,00199.9280
00199.5474,00199.8682
00200.0875,00199.5107
00199.6397,00200.1202
00200.2318,00199.8367
00199.9357,00199.6913
00199.6571,00199.4704
00199.4352,00200.2104
00200.3069,00199.7934
00200.2361,00199.5761
00200.2557,00200.1586
00200.3704,00199.8161
00200.5114,00199.4642
00199.7402,00200.2554
00200.0706,00199.9102
00200.4934,00199.6885
00199.9793,00199.3731
00200.4854,00200.1164
00200.0917,00199.8952
00200.7529,00199.8065
00200.4220,00199.6447
00200.1174,00199.4933
00200.7675,00200.4053
00200.5117,00200.3413
00200.2656,00200.3241
00200.0459,00200.2688
00200.8635,00200.1518
00200.5983,00200.1585
00200.3885,00200.1015
00200.1774,00200.0999
00199.8823,00200.0872
00200.5754,00200.0038
00200.2703,00200.0936
00199.9717,00200.1931
00200.6189,00200.2414
00200.2302,00200.4299
00199.7948,00200.5725
00200.3568,00199.9155
00199.7665,00200.0694
00200.1417,00200.2381
00200.4439,00200.4842
00199.6519,00199.8001
00199.8544,00200.1372
00199.9281,00200.5820
00200.0544,00199.9466
00200.1181,00200.3243
00200.0029,00199.7076
00199.8672,00200.0649
00199.6910,00200.3424
00199.4996,00200.6226
00200.2187,00199.9064
00199.9015,00200.1855
00199.5330,00200.5079
00200.0741,00199.8025
00199.6129,00200.1306
00200.1172,00200.4616
00199.5745,00199.5785
00199.9666,00199.8593
00199.2560,00199.9349
00199.5445,00200.2040
00199.8307,00200.3349
00200.0423,00200.5140
00199.1494,00200.2613
00199.4412,00200.1996
00199.6930,00200.0045
00199.9105,00199.9467
00199.1879,00199.8141
00199.4633,00199.6529
00199.7845,00199.4071
00200.0258,00200.3475
00199.3342,00200.2500
00199.7943,00199.9920
00199.2508,00200.0510
00199.7806,00199.8443
00199.2649,00199.6661
00199.8626,00199.5048
00199.4472,00200.2502
00200.2370,00200.1701
00199.9539,00199.9621
00199.7123,00199.7781
00199.6812,00199.5610
00199.6820,00200.3944
00199.7237,00200.1569
00199.7842,00199.9689
00199.9386,00200.0026
00200.2264,00199.8174
00200.5470,00199.6395
00199.9390,00199.4880
00200.5433,00200.3246
00200.2247,00200.4884
00199.8243,00200.2212
00200.4878,00200.2859
00200.0994,00200.1906
00200.7730,00200.0697
00200.4874,00199.9843
00200.3547,00200.0776
00200.0502,00199.7801
00200.7748,00199.9652
00200.5387,00199.8839
00200.4032,00199.9854
00200.1916,00199.8501
00199.8873,00199.7979
00200.5323,00199.7847
00200.2482,00199.5911
00199.8614,00199.6135
00200.6657,00199.9279
00200.2537,00200.0836
00199.8869,00199.9334
00200.4536,00200.0404
00199.9633,00200.2002
00200.3254,00200.4371
00200.6035,00200.5541
00199.7859,00199.6534
00200.0701,00199.9945
00200.1811,00200.0439
00200.2839,00200.3043
00200.4191,00200.5009
00200.3300,00199.6375
00200.2551,00199.8210
00200.0849,00199.9673
00199.8493,00200.3691
00199.6020,00200.4394
00200.3094,00200.5380
00199.9674,00199.8473
00199.5244,00200.1269
00200.0902,00200.5806
00199.5853,00199.5587
00200.1146,00199.7241
00199.5057,00199.9499
00199.8469,00199.9564
00200.1251,00200.0912
00199.5017,00200.4049
00199.7267,00200.2313
00199.9756,00200.2713
00199.4929,00199.9475
00200.0383,00199.2970
00199.2521,00200.4829
00199.9566,00200.3524
00200.0108,00200.4496
00200.0803,00200.2743
00199.2324,00200.1801
00199.4783,00199.9649
00199.9235,00199.9511
00199.7572,00199.9410
00199.3175,00199.8042
00200.0048,00199.5957
00199.4858,00199.4944
00199.8144,00200.2353
00199.5835,00199.9780
00199.8643,00200.3506
00199.6161,00200.0385
00200.1189,00200.6110
00200.0331,00200.2684
00199.3712,00200.0782
00200.1152,00199.7598
00200.2209,00200.1241
00200.3815,00200.1526
00200.6026,00199.8688
00199.6701,00199.6352
00200.2121,00199.9078
00200.7763,00200.0459
00201.0805,00200.0728
00200.3607,00200.5932
00200.3241,00199.6264
00199.8763,00199.6982
00200.4467,00199.8286
00200.3346,00200.2734
00199.9181,00199.6359
00200.7341,00200.2276
00201.0577,00200.0699
00199.5287,00199.9123
00200.8311,00199.3578
00200.1785,00200.4458
00199.9555,00199.7180
00200.7909,00199.6489
00200.4006,00199.5154
00199.8645,00200.2380
00200.7182,00200.4125
00200.5545,00200.4231
00200.0240,00200.4569
00200.2237,00200.1077
00200.8227,00200.5424
00200.3369,00200.2085
00200.4222,00200.3782
00199.7572,00200.2845
00200.0807,00200.1815
00200.1368,00200.5019
00199.8766,00200.4548
00199.0510,00199.8102
00199.8669,00199.5936
00200.2107,00199.8301
00199.8056,00200.1830
00199.5266,00200.1851
00200.3418,00200.2761
00200.2514,00199.8274
00199.4913,00199.3335
00200.3765,00199.8441
00199.7830,00200.0321
00200.0440,00200.1695
00199.6501,00199.8255
00199.7997,00200.5222
00199.2564,00200.0938
00199.7175,00200.3128
00199.8428,00200.0260
00200.0780,00200.6322
00199.8255,00199.7516
00199.8126,00199.7964
00199.4712,00199.9836
00199.8080,00200.0047
00199.4710,00199.7832
00199.5436,00200.0966
00199.7124,00199.6190
00200.1750,00199.6951
00199.4572,00199.3857
00200.0580,00200.4281
00199.5972,00199.6329
00199.9858,00200.4002
00199.8526,00200.1520
00199.6011,00200.1106
00199.9353,00200.0091
00199.9801,00200.0507
00199.2246,00199.9917
00200.2851,00199.7285
00200.4437,00200.0973
00199.5973,00199.4962
00200.2986,00199.5631
00200.4846,00199.5123
00200.4632,00199.6312
00200.0528,00199.6112
00200.3378,00199.5244
00200.6185,00199.5232
00200.0058,00199.6353
00200.7278,00199.6903
00200.7660,00199.8004
00200.3541,00200.3577
00200.1566,00200.3759
00200.7138,00200.5511
00200.3130,00200.4320
00200.1261,00199.7937
00200.7541,00199.6630
00200.3335,00199.9954
00200.0361,00199.7901
00200.2184,00199.9842
00200.2695,00200.2395
00200.0674,00200.2369
00200.3079,00200.4266
00200.2880,00200.3111
00200.1120,00200.0367
00200.5197,00199.9279
00200.1283,00200.2284
00200.7650,00200.0582
00200.0326,00199.9819
00199.9664,00199.5968
00200.3144,00200.0610
00200.5744,00200.2563
00199.7679,00199.9240
00199.9108,00200.1363
00199.9538,00200.0779
00199.7507,00199.7611
00200.0233,00200.2457
00199.8564,00199.9688
00200.0778,00199.7349
00200.1080,00199.6155
00199.8758,00199.4474
00199.5214,00199.7455
00200.3685,00200.0744
00199.7591,00200.4061
00199.3336,00200.3252
00200.1841,00200.3625
00199.6722,00200.6064
00199.5148,00200.0103
00200.2119,00200.7383
00199.4454,00200.1634
00199.9062,00199.6263
00200.0432,00199.9455
00199.9959,00199.7040
00199.9452,00199.9983
00199.2135,00199.9079
00199.6489,00199.7059
00200.0290,00199.5974
00199.4032,00199.5157
00199.7863,00200.1689
00199.2157,00200.1023
00199.6474,00199.8596
00200.0969,00199.7800
00199.6514,00199.6850
00200.1148,00199.4689
00199.7300,00200.3573
00199.3987,00200.2198
00200.0708,00200.1028
00199.7617,00199.9583
00199.4840,00199.7219
00200.3156,00199.5470
00200.1765,00200.3334
00200.0884,00200.3684
00200.0649,00200.1414
00200.2012,00199.8571
00200.2495,00199.7623
00200.4093,00199.6611
00199.6225,00199.5075
00199.9061,00200.4298
00200.2424,00200.3333
00200.6451,00200.1867
00200.0846,00200.1106
00200.6732,00199.9711
00200.3827,00200.1493
00200.0446,00200.1356
00200.6814,00200.1385
00200.2860,00200.1158
00199.9942,00200.0411
00200.5168,00199.9460
00200.3172,00200.0141
00199.9137,00199.8721
00200.6038,00200.0303
00200.2735,00200.0094
00199.9975,00200.0364
00200.6372,00200.0366
00200.1784,00199.9816
00200.7150,00200.0098
00200.2323,00199.9380
00200.6756,00199.8746
00200.3039,00200.1301
00200.6988,00200.3358
00200.1888,00200.1865
00200.5283,00200.4006
00199.8814,00200.4478
00200.0472,00199.6649
00200.1384,00199.7600
00200.1887,00199.9724
00200.2723,00200.2019
00200.1998,00200.2457
00200.1482,00200.4822
00200.1722,00199.5912
00199.9595,00199.8554
00199.7066,00199.9503
00199.4227,00200.0915
00200.1186,00200.2168
00199.7568,00200.4078
00199.3897,00200.4755
00199.9878,00199.6724
00199.5790,00199.8896
00200.0607,00200.1977
00199.5931,00200.4455
00200.0817,00200.5026
00199.4885,00199.5107
00199.8574,00199.6081
00199.2533,00199.6745
00199.5941,00199.8008
00199.9615,00199.6577
00199.3178,00199.8415
00199.5136,00199.5014
00199.8975,00200.4782
00199.1947,00200.3897
00199.5606,00200.2031
00199.9643,00199.9934
00199.3848,00199.7122
00199.8721,00199.5194
00199.3599,00200.3519
00199.8051,00200.1248
00199.3473,00199.8997
00199.9573,00199.6121
00199.6611,00199.5290
00200.3215,00200.1267
00200.1166,00199.8769
00199.8586,00199.5440
00199.7287,00200.4216
00199.6048,00200.1956
00199.5855,00199.9665
00199.5616,00199.6795
00199.6447,00199.4495
00199.7975,00200.0974
00200.0059,00199.8026
00200.2835,00199.5178
00200.5970,00200.2717
00199.9758,00200.0737
00200.4970,00199.8795
00199.9968,00199.6349
00200.5585,00199.4902
00200.1708,00200.3268
00200.8183,00200.3603
00200.4578,00200.3320
00200.1453,00200.1752
00200.7589,00200.0531
00200.4012,00200.0828
00200.0970,00200.1958
00200.7419,00200.2096
00200.4170,00200.1360
00200.0954,00200.1997
00200.7506,00200.1808
00200.4060,00200.2543
00199.9901,00200.2107
00200.4934,00200.2044
00200.0739,00200.4003
00200.5825,00200.4699
00200.0506,00199.5620
00200.4716,00199.7501
00199.8764,00199.9317
00200.2299,00200.2283
00200.4968,00200.4308
00199.6797,00200.5395
00199.7834,00199.7294
00199.8306,00200.0467
00199.8542,00200.4533
00199.7853,00199.8029
00199.7469,00200.1308
00199.6519,00200.4717
00199.4356,00199.7767
00200.1540,00200.1023
00199.8918,00200.3270
00199.5461,00200.5773
00200.1919,00199.8302
00199.8696,00200.0098
00199.4116,00200.2281
00199.9411,00200.4413
00199.4505,00199.6399
00199.9818,00199.9631
00199.4409,00200.1017
00199.8627,00200.1830
00199.1679,00200.2383
00199.5776,00200.3983
00199.9494,00200.4768
00199.1922,00200.5257
00199.6594,00199.9488
00199.9972,00199.8613
00199.3119,00199.7043
00199.6334,00199.5726
00200.0459,00200.2977
00199.4494,00200.0422
00199.9136,00199.7930
00199.4039,00199.5043
00199.9210,00200.2050
00199.4988,00199.8726
00200.1417,00199.5489
00199.8239,00200.2045
00199.6035,00199.8946
00199.3991,00199.5531
00200.2023,00200.1962
00200.0897,00199.8642
00200.0468,00199.4463
00200.0588,00200.0998
00200.0861,00199.7037
00200.2050,00199.3283
00200.3699,00199.9399
00199.6321,00199.5736
00199.9345,00200.1383
00200.3258,00199.7945
00199.7629,00199.4802
00200.2649,00200.1896
00199.7592,00199.9295
00200.3425,00199.7336
00199.9617,00199.5573
00200.6120,00200.4154
00200.3022,00200.3696
00199.9861,00200.2626
00200.6472,00200.2378
00200.3308,00200.2305
00199.9973,00200.2543
00200.6645,00200.2471
00200.3131,00200.2747
00199.9555,00200.2865
00200.5846,00200.3400
00200.1967,00200.4555
00200.7568,00200.4824
00200.3246,00199.6404
00199.8444,00199.7917
00200.3175,00200.0174
00199.7722,00200.2197
00200.1562,00200.5303
00200.5056,00199.8126
00199.7939,00200.1369
00200.0991,00200.5427
00200.2701,00199.8432
00200.3442,00200.2417
00200.4040,00200.6767
00200.3989,00200.0747
00200.3472,00200.5335
00200.1991,00199.9462
00200.0337,00200.3360
00199.8097,00199.6973
00199.5222,00200.0840
00200.2292,00200.3710
00199.9101,00199.7270
00199.5306,00200.0136
00200.1191,00200.3100
00199.6579,00200.6254
00200.1932,00199.8796
00199.6672,00200.1154
00200.1475,00200.3562
00199.5678,00200.6007
00199.9985,00199.7539
00199.3377,00199.9175
00199.7112,00199.9898
00200.0590,00199.9921
00199.4189,00200.0606
00199.7678,00199.6330
00200.0555,00199.5619
00199.4008,00199.4579
00199.7294,00200.2450
00200.1101,00200.0282
00199.4826,00199.7287
00199.9247,00199.4102
00199.3835,00200.1070
00199.8691,00199.7472
00199.4477,00199.3723
00200.0312,00199.9581
00199.6813,00199.5526
00199.3874,00200.1394
00200.1426,00199.6948
00199.9889,00200.2568
00199.8464,00199.8478
00199.7826,00199.3183
00199.7333,00199.9046
00199.7756,00199.4249
00199.8531,00199.9432
00200.0186,00199.4651
00200.2095,00199.9955
00200.5115,00199.5142
00199.8551,00200.0477
00200.2701,00199.6103
00199.7344,00200.2200
00200.2298,00199.8904
00199.7949,00199.5929
00200.3791,00200.2896
00200.0154,00200.0671
00200.6510,00199.8909
00200.3500,00199.7625
00200.0394,00199.6606
00200.6748,00199.6561
00200.3552,00199.5900
00199.9957,00199.6250
00200.6846,00199.6692
00200.3337,00199.7427
00199.9713,00199.8478
00200.5639,00199.9936
00200.1843,00200.1206
00200.7185,00200.2382
00200.3038,00200.4339
00199.8003,00199.7005
00200.2521,00199.9656
00200.7207,00200.2980
00200.0797,00200.6516
00200.4118,00200.0288
00199.7104,00200.5013
00199.9232,00199.9276
00200.0866,00200.4063
00200.1566,00199.9197
00200.1861,00200.3890
00200.1782,00199.9121
00200.0679,00200.4301
00199.9239,00199.9102
00199.7347,00200.4089
00199.4949,00199.8298
00200.2165,00200.2716
00199.9104,00200.6609
00199.5562,00200.0263
00200.1748,00200.4182
00199.7238,00199.7934
00200.2574,00200.1225
00199.7610,00200.4292
00200.2303,00199.7093
00199.6774,00199.9503
00200.0746,00200.1909
00199.4779,00200.3654
00199.8366,00200.5051
00199.1731,00199.5594
00199.4716,00199.6509
00200.0316,00200.3681
00199.3753,00200.2659
00199.6999,00200.0722
00200.0037,00199.8740
00199.4291,00199.5924
00199.8316,00200.2975
00199.2391,00199.9370
00199.7447,00199.5718
00199.2683,00200.1787
00199.8047,00199.7317
00199.4528,00199.2691
00200.1389,00199.7818
00199.9103,00199.2950
00199.6751,00199.8070
00199.4779,00199.2574
00200.4068,00199.7044
00200.3295,00200.1666
00200.3772,00199.6176
00200.3961,00200.0154
00200.5540,00199.4502
00199.7359,00199.8799
00199.9761,00199.3422
00200.2934,00199.7919
00200.6487,00199.2770
00200.0454,00199.8026
00200.5622,00199.3668
00200.0926,00200.0061
00200.6794,00199.6408
00200.2962,00199.3479
00199.9373,00200.1029
00200.6210,00199.9117
00200.2964,00199.7514
00199.9249,00199.6536
00200.6148,00199.6012
00200.3016,00199.5863
00199.9962,00199.6188
00200.5742,00199.6739
00200.2648,00199.7866
00199.8879,00199.9013
00200.4725,00200.0986
00200.0555,00200.2618
00200.6220,00200.5090
00200.1267,00199.7916
00200.6306,00200.1278
00200.1060,00200.5329
00200.4965,00199.9090
00199.8873,00200.3854
00200.1848,00199.8705
00200.4806,00200.3862
00199.6528,00199.9146
00199.7400,00200.4777
00199.8295,00200.0693
00199.8371,00200.6524
00199.8024,00200.2170
00199.6429,00199.7927
00199.5072,00200.3176
00200.3063,00199.8308
00200.0495,00200.3628
00199.7479,00199.8212
00199.4397,00200.3325
00200.0164,00199.7662
00199.6256,00200.2079
00200.1843,00200.6165
00199.6812,00199.9885
00200.1604,00200.3098
00199.6303,00200.5929
00200.0318,00199.9078
00199.4551,00200.1009
00199.7488,00200.3253
00200.1471,00200.3833
00199.4309,00200.4522
00199.8257,00200.4724
00199.3350,00200.3900
00199.7200,00200.3420
00200.0910,00200.1945
00199.3926,00200.0101
00199.7585,00199.7680
00200.1125,00199.4453
00199.4947,00200.0983
00199.9799,00199.7489
00199.4603,00199.2740
00199.9915,00199.8020
00199.6308,00199.3197
00200.2787,00199.8020
00200.0279,00199.2410
00199.7263,00199.6938
00199.5258,00200.0816
00200.4045,00199.4985
00200.3336,00199.8679
00200.3089,00199.2630
00200.3705,00199.6870
00200.4280,00200.0291
00199.5855,00199.4189
00199.7098,00199.7689
00200.0843,00200.1606
00200.3417,00199.5704
00199.7185,00200.0369
00200.1820,00199.5110
00200.7028,00200.0201
00200.2390,00199.5757
00199.8531,00200.2064
00200.4837,00199.8665
00200.1000,00199.6104
00200.8017,00200.3820
00200.4589,00200.2180
00200.1153,00200.1220
00200.8218,00200.0833
00200.5257,00200.0756
00200.1430,00200.1573
00200.8055,00200.2484
00200.4731,00200.3956
00200.0784,00200.5803
00200.7298,00199.7745
00200.2068,00200.0379
00200.7381,00200.3345
00200.2694,00199.6754
00200.7425,00200.0723
00200.1895,00200.4953
00200.6035,00200.0124
00199.9932,00200.5223
00200.3127,00200.0898
00200.4794,00200.6757
00199.6621,00200.3074
00199.7449,00199.9488
00199.8077,00200.5818
00199.8405,00200.2300
00199.7158,00199.8375
00199.5974,00200.5228
00199.4697,00200.0734
00200.1914,00200.6849
00199.9518,00200.2384
00199.6352,00200.7551
00200.2440,00200.2502
00199.8678,00200.7297
00199.4184,00200.1764
00199.9773,00200.5519
00199.4809,00199.9532
00199.9216,00200.2809
00199.3729,00200.5829
00199.7669,00199.8184
00200.1226,00200.0553
00199.4696,00200.2037
00199.8156,00200.3229
00199.2088,00200.3867
00199.7565,00199.7045
00200.1160,00199.5693
00199.4046,00200.4177
00199.8358,00200.2007
00200.1612,00199.9126
00199.5640,00199.5860
00199.9978,00200.2072
00199.5317,00199.7939
00199.9947,00199.3272
00199.6168,00199.8576
00200.2410,00199.3003
00199.9091,00199.7517
00199.6125,00200.1741
00199.3820,00199.5765
00200.1104,00199.9212
00200.1454,00199.2664
00199.9562,00199.6109
00199.9930,00199.9490
00199.9739,00199.2808
00200.0607,00199.5684
00200.2937,00199.9192
00200.5350,00199.2411
00199.7972,00199.6188
00200.1405,00200.0155
00200.5607,00199.4326
00200.0797,00199.8955
00200.5919,00199.4415
00200.1829,00200.0208
00200.7947,00199.6257
00200.4359,00200.3228
00200.1011,00200.0397
00200.7426,00199.8177
00200.3717,00199.6435
00200.1500,00199.5832
00200.7644,00199.5277
00200.5549,00199.5743
00200.1034,00199.6177
00200.7523,00199.7172
00200.4035,00199.8838
00200.0457,00200.1129
00200.5609,00200.3448
00200.1778,00199.7062
00200.6499,00200.0487
00200.2111,00200.4426
00200.6706,00199.9153
00200.1831,00200.4685
00200.5752,00200.0215
00199.9211,00200.6228
00200.1568,00200.2821
00200.3287,00199.9240
00200.4090,00200.5720
00199.5814,00200.2813
00199.4767,00199.9473
00199.5621,00200.6150
00200.3519,00200.2582
00200.2075,00199.8784
00200.0044,00200.4709
00199.8403,00200.0570
00199.4732,00200.6295
00200.1143,00200.1734
00199.7496,00200.7021
00199.3571,00200.1737
00199.9273,00200.6355
00199.4715,00200.0644
00199.9317,00200.4468
00199.4036,00199.7815
00199.8052,00200.0800
00200.1753,00200.2944
00199.4931,00200.4611
00199.9084,00199.6159
00199.1879,00199.6937
00199.5778,00199.7377
00199.7023,00200.4883
00199.9742,00200.3789
00199.2893,00200.2974
00199.6176,00200.1497
00199.9539,00199.8841
00199.3606,00199.6043
00199.7452,00200.2352
00199.2519,00199.8831
00199.7759,00199.4016
00199.3649,00199.9046
00199.9488,00199.3637
00199.5863,00199.8192
00200.2331,00199.2209
00200.0085,00199.6052
00199.7823,00199.9691
00199.5888,00199.2896
00199.6068,00199.6984
00199.4517,00199.9594
00199.5186,00199.3655
00200.4457,00199.6234
00199.5676,00199.9890
00199.7288,00199.3033
00199.9023,00199.6582
00200.2176,00200.0632
00200.5650,00199.4372
00200.0066,00199.8568
00200.5314,00199.3147
00200.0728,00199.8250
00200.6730,00199.3550
00200.3173,00199.9951
00199.9988,00199.6232
00200.6577,00200.3580
00200.3090,00200.1481
00199.9298,00200.0202
00200.7215,00199.9694
00200.4040,00199.9207
00200.1003,00199.9752
00200.7726,00200.0623
00200.4143,00200.2452
00199.9910,00200.4566
00200.6070,00199.7131
00200.1417,00199.9977
00200.6613,00200.3485
00200.2051,00199.7371
00200.7903,00200.1740
00200.2690,00200.6660
00200.7079,00200.1925
00200.1329,00199.7994
00200.4292,00200.3961
00199.6837,00200.0947
00199.8270,00200.7395
00199.8541,00200.4718
00199.9441,00200.1460
00199.9864,00200.8440
00199.9862,00200.5753
00199.6973,00200.2449
00199.5807,00199.9105
00200.2747,00200.5312
00199.9923,00200.1161
00199.7202,00200.6759
00199.3111,00200.2122
00199.9496,00200.7135
00199.4976,00200.1930
00200.0793,00200.6331
00199.5833,00200.0186
00200.1074,00200.3796
00199.5388,00199.6573
00199.9353,00199.9303
00199.3023,00200.1211
00199.6199,00200.2794
00200.0055,00200.4227
00199.3517,00200.4714
00199.2971,00200.5777
00199.4955,00199.6145
00199.7223,00199.6672
00199.8112,00199.5891
00200.0776,00199.4708
00199.3611,00200.3179
00199.5727,00199.9970
00199.8446,00199.6663
00199.1846,00200.2531
00199.5837,00199.8047
00200.0076,00199.2641
00199.5046,00199.7417
00199.9925,00200.1040
00199.5292,00199.4722
00200.1510,00199.7804
00199.7147,00200.0788
00199.5126,00199.3519
00200.2716,00199.5706
00200.2303,00199.8246
00199.9881,00199.9878
00200.0402,00199.2150
00200.0731,00199.4366
00200.1517,00199.6143
00200.3699,00199.8338
00200.6011,00200.0467
00200.0106,00199.3122
00200.4703,00199.6161
00200.0605,00199.9147
00200.6043,00199.3021
00200.2169,00199.7611
00199.9093,00200.2096
00200.5952,00199.7664
00200.2953,00199.3799
00200.0381,00200.0636
00200.8154,00199.8505
00200.6348,00199.6425
00200.4332,00199.5793
00200.2272,00199.5187
00199.9957,00199.5804
00200.6903,00199.6440
00200.4864,00199.7946
00200.2303,00200.0120
00199.8819,00200.2632
00200.5672,00200.6083
00200.2693,00199.9762
00199.9649,00200.4563
00200.5688,00199.9455
00200.1456,00200.5439
00200.6865,00200.1644
00200.0787,00199.8575
00200.3927,00200.5798
00200.6219,00200.3462
00199.9110,00200.1337
00200.0813,00200.8741
00200.1338,00200.7125
00200.0922,00200.4904
00200.0305,00200.2699
00199.8954,00200.0380
00199.7264,00200.7977
00199.4653,00200.4944
00200.2177,00200.2159
00199.8890,00199.8697
00199.5064,00200.5128
00200.1279,00200.1561
00199.6529,00200.7123
00200.1357,00200.2467
00199.6076,00200.7188
00199.9389,00200.1772
00199.2987,00200.5360
00199.5737,00199.8640
00199.8609,00200.1990
00200.1231,00200.3810
00199.3879,00199.9556
00199.6231,00199.9611
00199.7610,00199.9322
00200.0672,00199.8384
00199.2122,00199.6514
00199.4694,00199.4121
00199.7569,00200.1369
00200.0750,00199.7612
00199.3787,00199.3283
00199.8067,00199.8852
00199.2596,00199.3866
00199.7508,00199.8133
00200.2374,00199.2319
00199.8394,00199.5915
00199.3764,00199.8669
00200.1863,00199.1604
00199.8897,00199.4198
00199.7679,00199.6693
00199.6022,00199.8813
00199.5847,00200.0930
00199.6740,00199.2738
00199.7622,00199.4865
00199.9346,00199.6950
00200.1678,00199.9823
00200.5126,00199.2139
00199.9471,00199.4728
00200.4392,00199.8199
00199.9993,00199.2069
00200.5760,00199.6505
00200.2173,00200.1543
00199.9151,00199.6991
00200.6007,00200.2780
00200.2694,00199.9237
00200.1316,00199.6843
00200.7842,00199.4981
00200.6869,00200.3537
00200.3655,00200.2491
00200.1035,00200.2183
00199.9480,00200.2684
00200.7077,00200.3764
00200.3992,00200.5081
00200.1597,00199.7619
00200.8011,00200.0354
00200.5701,00200.3820
00200.1720,00199.8056
00199.8676,00200.3232
00200.4292,00199.8569
00199.9781,00200.4600
00200.4435,00200.1359
00199.7813,00200.8032
00200.0185,00200.5316
00200.3876,00200.2670
00200.4850,00200.0224
00199.6896,00200.7863
00199.6189,00200.5528
00199.6049,00200.2662
00199.5277,00200.0268
00199.4963,00200.7388
00200.2524,00200.4380
00200.0184,00200.1434
00199.6760,00200.8310
00199.3790,00200.5011
00199.9904,00200.1591
00199.5551,00200.7400
00200.0489,00200.3181
00199.5164,00199.8534
00199.8982,00200.3173
00199.1984,00199.7231
00199.4816,00200.0736
00199.8241,00200.3980
00200.0608,00199.6504
00199.3539,00199.8535
00200.0055,00199.5834
00199.3259,00199.7000
00199.5028,00199.7053
00199.6602,00199.6426
00199.9327,00199.4926
00199.1087,00200.2366
00199.3349,00199.9527
00199.6288,00199.6381
00199.9579,00200.2666
00199.2835,00199.8062
00199.7364,00199.3339
00200.2100,00199.8415
00199.7531,00199.2555
00200.2495,00199.6546
00199.8658,00200.0681
00199.5811,00199.3951
00200.3591,00199.6844
00200.1885,00200.0192
00200.0654,00199.3799
00199.9712,00199.5831
00200.0299,00199.8463
00200.0356,00200.0736
00200.2914,00199.3326
00200.4542,00199.5923
00199.7628,00199.9010
00200.1675,00199.2197
00200.6158,00199.5590
00200.1213,00199.9615
00200.7194,00199.4062
00200.3577,00199.9150
00200.0205,00199.4533
00200.7225,00200.0797
00200.4339,00199.7454
00200.1019,00199.4984
00199.9342,00200.2904
00200.7763,00200.1583
00200.4957,00200.0906
00200.2089,00200.0539
00200.0523,00200.0774
00200.7608,00200.1371
00200.5536,00200.2403
00200.2101,00200.4118
00199.9051,00199.6317
00200.6059,00199.9247
00200.2847,00200.2684
00199.8837,00200.6550
00200.5192,00200.1746
00200.0448,00200.6624
00200.5455,00200.2515
00199.9232,00199.8508
00200.2558,00200.5233
00200.5702,00200.2171
00199.7739,00199.9167
00199.9718,00200.6546
00199.9985,00200.3601
00200.0609,00200.1348
00200.0264,00200.8211
00199.8703,00200.5404
00199.7439,00200.2337
00199.5076,00199.9073
00200.2064,00200.5495
00199.8803,00200.1815
00199.5046,00200.7771
00200.0653,00200.3466
00199.6061,00199.9136
00200.0405,00200.4216
00199.4950,00199.8647
00199.8550,00200.2923
00200.1406,00200.6693
00199.4374,00200.0099
00199.7248,00200.2860
00200.0114,00200.4812
00199.5586,00200.4251
00199.8132,00200.4315
00199.9859,00200.3328
00199.1509,00200.2328
00199.4067,00200.0019
00199.6156,00199.7970
00199.8675,00199.5060
00199.2065,00200.1963
00199.5117,00199.8451
00199.9303,00199.4384
00199.3762,00199.9836
00199.8630,00199.4884
00199.4671,00199.9916
00200.0326,00199.4434
00199.6593,00199.8760
00199.3878,00199.2763
00200.1924,00199.6593
00200.0823,00200.0054
00199.9339,00199.3387
00199.9696,00199.6533
00200.0220,00199.9590
00200.1621,00199.3324
00200.3747,00199.6342
00199.6505,00199.9895
00199.9901,00199.3594
00200.4230,00199.7802
00199.9321,00199.2615
00200.4944,00199.7372
00200.1052,00199.2854
00200.7366,00199.9044
00200.4527,00199.5603
00200.1825,00200.2439
00199.8485,00200.0338
00200.6398,00199.8155
00200.3764,00199.6617
00200.2079,00199.5656
00199.8767,00199.4880
00200.6897,00200.4930
00200.4432,00199.5178
00200.2055,00199.6021
00199.9005,00199.6512
00200.6413,00199.8477
00200.3243,00200.0650
00200.0230,00200.3467
00200.6569,00199.7143
00200.2445,00200.0864
00199.8147,00200.5365
00200.3047,00200.0443
00199.7614,00200.5976
00200.1331,00200.1699
00200.3854,00200.7487
00199.6587,00200.3994
00199.8321,00200.0577
00199.9291,00200.6895
00199.9467,00200.3309
00199.9396,00199.9548
00199.8708,00200.5976
00199.7249,00200.2453
00199.5374,00199.8391
00200.2899,00200.4320
00199.9570,00200.0388
00199.6076,00200.5975
00200.2060,00200.1689
00199.7327,00200.6863
00200.2322,00200.1682
00199.6460,00200.6392
00200.0598,00200.0795
00199.4393,00200.4581
00199.6800,00199.8010
00200.0108,00200.0566
00199.2252,00200.2439
00199.5177,00200.4072
00199.4839,00199.9701
00199.6220,00199.9999
00199.8654,00199.9838
00200.0085,00199.8447
00199.2611,00199.7225
00199.4266,00199.4839
00199.7146,00200.2180
00200.0012,00199.9603
00199.3102,00199.6424
00199.7040,00200.3047
00200.1103,00199.9130
00199.5690,00199.4943
00200.0882,00200.0656
00199.6898,00199.6175
00199.3243,00200.1260
00199.9979,00199.6846
00199.7679,00200.1199
00199.5728,00199.6371
00199.4465,00200.0777
00200.3758,00199.5066
00200.4264,00199.9301
00200.4901,00199.3898
00199.6843,00199.7735
00199.9468,00200.1904
00200.2786,00199.6552
00200.6825,00200.1341
00200.1299,00199.6656
00200.6754,00200.2279
00200.2298,00199.8135
00199.8849,00199.4447
00200.5420,00200.1373
00200.2536,00199.9016
00199.9828,00199.6427
00200.7086,00199.5276
00200.4583,00200.3491
00200.2118,00200.2735
00199.9946,00200.2002
00200.7727,00200.1746
00200.5433,00200.1720
00200.2551,00200.2542
00200.0226,00200.2939
00200.7106,00200.3350
00200.4475,00200.4700
00200.1269,00199.6778
00200.7784,00199.9155
00200.4030,00200.2213
00199.9524,00200.5639
00200.4797,00199.9430
00199.9636,00200.4041
00200.3515,00199.8522
00199.7073,00200.3627
00199.9318,00199.9170
00200.1661,00200.4279
00200.2927,00200.0249
00200.3489,00200.6178
00200.3362,00200.1957
00200.2828,00200.7784
00200.1693,00200.3072
00199.9951,00199.8431
00199.7844,00200.3442
00199.5194,00199.8292
00200.2101,00200.3344
00199.7996,00199.8400
00199.3769,00200.3058
00199.8916,00199.7373
00199.3617,00200.1510
00199.7844,00200.5097
00200.1545,00199.8979
00199.4979,00200.2100
00199.7993,00200.4867
00200.0761,00199.6422
00199.2855,00199.8656
00199.2265,00199.6978
00199.4432,00199.6851
00199.5923,00199.6279
00199.7978,00199.5331
00200.0396,00200.3199
00199.2805,00200.1320
00199.5476,00199.8896
00199.8710,00199.6475
00199.2128,00199.3843
00199.5926,00200.0546
00200.0704,00199.7452
00199.5585,00199.3887
00200.1503,00200.1114
00199.7581,00199.7178
00199.3745,00199.3145
00200.0952,00199.9534
00199.8770,00199.5096
00199.7567,00200.1234
00199.6173,00199.6115
00199.6061,00200.2234
00199.6735,00199.7298
00199.7980,00199.3094
00200.0129,00199.7412
00200.3144,00199.3264
00199.6935,00199.9073
00200.1345,00199.5071
00200.5963,00200.1366
00200.1635,00199.8360
00200.7726,00199.5516
00200.4220,00200.3198
00200.1624,00200.1845
00199.8633,00199.9431
00200.5739,00199.8203
00200.3250,00199.7323
00200.1022,00199.6419
00200.8810,00199.5665
00200.6119,00199.4479
00200.4009,00200.4015
00200.1651,00200.4257
00199.8752,00200.4753
00200.6203,00200.4263
00200.3369,00200.5212
00200.0427,00199.6546
00200.7157,00199.8340
00200.3413,00200.0160
00199.8851,00200.3113
00200.4455,00200.5955
00199.9058,00199.8998
00200.4246,00200.3612
00199.7189,00200.6362
00199.9945,00200.0768
00200.2388,00200.5730
00200.3818,00200.0124
00200.4868,00200.5471
00200.4989,00200.0193
00200.4633,00200.4458
00200.3515,00199.8982
00200.1874,00200.3746
00200.0092,00199.7575
00199.7598,00200.1704
00199.4546,00200.5862
00200.1139,00199.9648
00199.6828,00200.3844
00200.2405,00199.7507
00199.7314,00200.0947
00200.1916,00200.4168
00199.6090,00199.7971
00199.9889,00200.0363
00199.2708,00200.3051
00199.5735,00200.4704
00199.8364,00199.5886
00200.1024,00199.7623
