u,v
00199.6438,00200.3961
00199.9064,00200.1655
00200.1656,00200.1644
00200.3329,00200.2377
00200.4483,00199.9951
00199.6413,00199.9411
00199.7377,00199.7452
00199.9085,00199.9368
00200.1561,00199.8940
00200.4376,00199.6253
00199.6854,00199.6671
00199.8302,00199.7525
00199.9314,00199.8754
00199.9176,00199.6972
00199.8914,00199.7184
00200.0274,00199.7827
00199.9847,00199.8373
00200.0681,00199.7993
00200.1609,00200.0346
00200.2381,00199.9755
00200.2814,00200.0833
00200.2688,00200.0914
00200.2396,00200.1812
00200.2195,00200.3364
00200.2150,00200.4112
00200.1842,00200.3840
00200.2149,00200.4779
00200.2418,00199.7994
00200.2433,00199.8498
00200.2065,00200.0993
00200.0936,00200.2011
00199.9350,00200.1089
00199.8425,00200.1836
00199.6319,00200.2346
00199.5802,00200.4764
00200.4303,00200.3678
00199.7803,00200.1391
00199.6423,00200.0625
00199.4186,00200.1642
00200.2291,00200.1244
00200.0301,00199.9710
00199.8143,00199.8330
00199.5760,00199.9319
00200.3680,00199.9962
00200.1924,00199.7706
00199.9804,00199.6845
00199.7832,00199.6313
00199.6395,00199.6044
00199.5125,00199.5859
00200.3450,00200.4110
00200.1099,00200.2764
00199.9734,00200.2247
00199.8257,00200.2739
00199.6152,00200.2943
00199.4977,00200.2380
00200.4264,00200.1660
00200.3002,00200.0762
00200.2291,00199.9310
00200.2111,00199.7832
00200.2087,00199.6667
00200.2215,00199.6074
00200.2819,00199.5749
00200.3780,00199.5805
00200.4739,00199.4860
00199.5998,00200.4764
00199.8254,00199.5444
00200.0071,00199.5384
00200.1693,00199.5092
00200.2792,00200.3432
00200.4384,00200.3643
00199.6431,00200.4840
00199.8234,00200.4235
00200.0507,00200.4961
00200.2698,00200.3562
00200.4518,00200.3456
00199.6372,00200.2419
00199.7968,00200.0915
00200.0116,00199.9287
00200.1665,00200.0560
00200.3842,00199.9925
00200.5547,00199.8913
00199.7361,00199.8250
00199.9224,00199.8469
00200.0913,00199.9149
00200.2438,00199.9883
00200.3673,00199.8356
00200.4374,00199.8444
00200.4959,00199.8824
00199.5460,00199.9492
00199.5905,00200.1685
00199.6401,00200.2415
00199.7199,00200.3836
00199.7498,00200.5348
00199.7443,00199.6214
00199.6940,00199.7183
00199.7078,00199.6640
00199.7145,00199.8866
00199.7267,00199.9029
00199.6651,00200.1076
00199.6619,00200.1919
00199.6460,00200.3514
00199.6435,00200.5993
00199.5953,00199.6022
00199.5288,00199.7060
00200.4087,00199.7768
00200.2874,00199.9007
00200.1501,00200.0184
00199.9893,00200.0420
00200.3598,00200.5275
00200.1271,00199.5147
00199.9313,00199.6064
00199.7152,00199.5649
00199.4746,00199.5409
00200.2531,00200.4545
00200.0249,00200.4394
00199.8109,00200.3914
00199.6020,00200.2857
00199.4004,00200.2545
00200.2144,00200.1685
00200.0253,00200.0756
00199.8508,00200.0015
00199.7599,00200.0250
00199.5418,00199.9129
00200.4178,00199.8383
00200.2853,00199.7505
00200.1431,00199.6196
00200.0247,00199.5535
00199.9075,00200.4429
00199.8011,00200.3445
00199.7267,00200.1942
00199.7105,00200.1191
00199.7326,00199.9233
00199.7480,00199.8309
00199.8108,00199.7065
00199.9042,00199.6020
00199.9877,00199.5277
00200.1142,00200.4140
00200.2658,00200.3810
00200.4250,00200.3234
00199.6603,00200.3919
00199.8099,00200.3081
00199.9944,00200.2736
00200.1645,00200.2100
00200.3489,00200.1852
00200.5430,00200.1211
00199.7176,00200.0416
00199.8912,00199.9993
00200.0761,00199.9058
00200.2663,00199.9135
00200.4524,00199.7486
00199.6453,00199.7514
00199.8346,00199.6785
00200.0182,00199.6967
00200.2007,00199.6912
00200.3485,00199.7112
00200.5097,00199.7189
00199.6592,00199.7621
00199.8371,00199.9017
00199.9168,00199.9162
00200.0061,00199.9976
00200.0923,00200.0992
00200.1503,00200.2479
00200.2059,00200.3382
00200.2037,00200.5431
00200.2355,00199.6460
00200.2059,00199.7251
00200.2060,00199.9146
00200.2309,00199.9923
00200.2470,00200.1047
00200.2377,00200.2471
00200.2389,00200.3371
00200.1918,00200.5115
00200.1701,00199.6319
00200.1317,00199.7562
00200.0732,00199.8684
00200.0324,00200.1145
00199.8991,00200.1770
00199.7879,00200.3071
00199.6793,00200.3724
00199.5184,00200.4221
00199.8999,00200.2645
00199.7047,00200.4215
00199.5085,00200.4056
00200.2788,00200.4071
00200.0529,00200.4100
00199.8190,00200.2936
00199.6291,00200.2808
00199.3978,00200.2220
00200.2017,00200.1650
00200.0105,00200.0863
00199.8000,00200.0521
00199.6095,00199.9571
00199.4629,00199.8609
00200.2913,00199.7888
00200.1646,00199.6875
00200.0043,00199.6035
00199.8929,00199.4511
00199.7599,00200.3954
00199.6455,00200.2409
00199.5655,00200.1175
00199.5167,00199.9406
00200.4676,00199.7668
00200.4442,00199.6475
00200.4752,00199.4364
00200.5131,00200.3155
00199.6002,00200.1483
00199.6597,00200.0270
00199.7972,00199.8990
00199.9249,00199.8131
00200.0804,00199.6828
00200.2350,00199.6299
00200.4164,00199.5497
00199.6012,00199.4857
00199.7732,00200.4220
00199.9151,00200.3163
00200.1121,00200.3428
00200.2490,00200.2032
00200.4720,00200.2480
00199.6737,00200.1942
00199.8355,00200.1677
00200.0224,00200.1332
00200.2153,00200.0076
00200.3998,00199.9693
00200.5739,00199.9635
00199.7695,00199.9689
00199.9752,00199.9933
00200.1177,00200.0253
00200.2739,00200.0521
00200.4261,00200.1338
00200.5544,00200.2279
00199.6798,00200.3464
00199.7572,00200.4354
00199.8719,00199.5928
00199.8825,00199.7547
00199.9030,00199.8113
00199.9433,00200.0160
00199.9750,00200.1455
00200.0177,00200.3514
00200.0111,00200.4598
00200.0352,00199.6410
00200.0433,00199.7581
00200.0337,00199.9095
00200.0086,00200.0927
00199.9816,00200.2086
00199.9168,00200.3948
00199.8529,00200.5219
00199.7876,00199.6668
00199.7211,00199.8570
00199.5956,00199.9382
00199.4425,00200.1163
00200.3260,00200.1524
00200.1376,00200.3082
00199.3743,00199.6197
00200.1906,00199.7778
00199.9770,00199.7805
00199.7240,00199.7822
00199.5092,00199.7671
00200.2279,00199.7307
00200.0444,00199.7006
00199.8267,00199.6437
00199.6219,00199.5943
00199.4007,00199.5386
00200.2442,00200.4597
00200.0435,00200.3716
00199.9206,00200.2811
00199.7856,00200.2025
00199.6024,00200.0784
00199.4973,00199.9314
00200.3585,00199.7775
00200.2924,00199.6272
00200.1946,00199.4391
00200.0973,00200.2982
00200.0471,00200.0519
00200.0141,00199.8989
00200.0204,00199.7239
00200.0499,00199.5286
00200.1015,00200.3533
00200.1850,00200.1606
00200.2888,00200.0058
00200.4230,00199.8368
00200.5488,00199.7182
00199.7110,00199.5974
00199.9063,00199.5101
00200.0739,00200.4077
00200.2069,00200.3492
00200.4011,00200.2495
00200.5860,00200.1742
00199.8118,00200.1427
00199.9323,00200.0261
00200.0950,00200.0263
00200.3144,00199.9747
00200.4629,00199.9633
00199.6296,00199.8709
00199.7974,00199.8602
00200.0047,00199.8281
00200.2219,00199.8220
00200.3698,00199.8691
00200.5334,00199.9023
00199.7475,00199.9762
00199.8715,00200.0545
00200.0754,00200.1750
00200.1862,00200.3067
00200.2644,00200.4443
00200.3887,00199.5680
00200.4446,00199.7557
00200.5476,00199.9113
00199.5142,00200.0742
00199.5633,00200.2020
00199.6044,00200.3825
00199.6302,00200.5380
00199.6290,00199.6949
00199.6433,00199.8232
00199.6410,00200.0053
00199.6338,00200.1714
00199.5935,00200.3490
00199.5504,00200.5229
00199.4812,00199.6872
00200.4051,00199.8411
00200.3450,00200.0405
00200.2316,00200.1857
00200.1012,00200.3356
00199.9667,00200.4641
00199.7945,00199.5676
00199.6520,00199.6669
00199.3405,00200.2322
00200.3315,00200.4544
00200.0844,00200.4573
00199.8476,00200.5222
00199.6943,00199.5378
00199.4387,00199.5338
00200.1934,00199.5138
00199.9766,00200.4784
00199.7741,00200.4290
00199.5316,00200.3263
00200.3726,00200.2767
00200.1898,00200.1649
00200.0385,00200.0644
00199.8429,00199.9711
00199.7086,00199.8205
00199.5649,00199.7194
00199.5000,00199.5598
00200.3819,00200.4011
00200.1563,00200.2377
00200.1341,00200.0906
00200.1048,00199.8477
00200.0114,00199.6548
00200.0933,00199.4527
00200.0420,00200.2199
00200.0473,00200.0092
00200.1176,00199.8136
00200.2219,00199.5905
00200.3186,00200.3933
00200.4854,00200.2202
00199.5781,00200.0386
00199.7815,00199.9070
00199.9864,00199.7787
00200.0939,00199.6311
00200.2803,00199.5523
00200.4800,00199.4699
00199.6873,00200.4247
00199.7116,00200.3271
00199.9572,00200.3255
00200.1881,00200.2611
00200.3672,00200.2571
00200.5977,00200.2008
00199.7070,00200.1645
00199.8937,00200.1599
00200.0744,00200.1572
00200.2841,00200.1829
00200.4321,00200.1961
00199.6638,00200.2900
00199.8360,00200.3918
00199.9855,00200.4926
00200.1013,00199.5758
00200.2339,00199.7769
00200.3797,00199.9563
00200.4765,00200.1343
00199.5321,00200.3263
00200.3979,00200.4122
00199.6567,00199.6716
00199.6646,00199.8317
00199.6687,00200.0344
00199.7425,00200.1873
00199.7187,00200.3630
00199.6900,00200.5198
00199.6890,00199.7029
00199.6605,00199.8658
00199.5984,00200.0254
00199.5723,00200.1967
00199.5065,00200.3566
00200.4473,00200.5136
00200.3287,00199.6719
00200.1569,00199.8377
00200.0345,00199.9873
00199.9137,00200.1297
00199.7987,00200.2633
00199.3887,00200.1953
00200.3009,00200.4016
00200.1055,00200.4466
00199.8616,00200.5059
00199.6878,00199.5324
00199.4478,00199.5610
00200.2038,00199.5217
00199.9814,00199.4934
00199.8165,00200.4560
00199.5844,00200.3446
00199.4118,00200.2773
00200.2467,00200.1705
00200.0968,00200.0873
00199.9599,00200.0053
00199.7790,00199.8484
00199.6257,00199.6618
00199.5268,00199.5271
00200.3838,00200.3819
00200.2852,00200.2147
00200.1251,00200.0355
00200.1008,00199.8202
00199.9711,00199.5883
00200.0223,00200.3868
00199.9539,00200.1131
00199.9819,00199.9069
00200.0831,00199.6583
00200.1531,00199.4319
00200.2797,00200.2089
00200.4204,00200.0078
00200.5490,00199.8230
00199.7343,00199.6156
00199.9163,00199.4704
00200.0533,00200.3328
00200.2291,00200.2147
00200.4638,00200.1062
00199.6874,00200.0802
00199.7470,00199.9659
00199.9668,00199.9525
00200.1622,00199.8943
00200.3393,00199.8580
00200.5570,00199.8406
00199.6903,00199.8134
00199.8477,00199.7983
00200.0123,00199.7943
00200.2899,00199.8491
00200.4186,00199.8739
00199.6861,00199.9722
00199.8658,00200.0645
00200.0530,00200.2132
00200.1797,00200.3794
00200.2696,00200.5319
00200.3886,00199.6963
00200.5357,00199.9196
00199.6336,00200.1497
00199.4969,00200.2677
00199.6922,00200.5236
00199.6865,00199.7399
00199.6485,00199.9066
00199.7339,00200.0360
00199.6734,00200.2263
00199.6669,00200.4000
00199.6543,00200.5541
00199.6579,00199.7261
00199.6059,00199.8727
00199.5863,00200.0584
00199.5220,00200.1804
00200.4483,00200.3682
00200.3916,00200.5110
00200.2162,00199.6608
00200.0290,00199.8148
00199.9150,00199.9931
00199.7990,00200.1638
00200.2705,00200.4880
00199.9495,00199.6112
00199.7445,00199.6603
00199.5403,00199.6998
00200.3435,00199.7323
00200.1728,00199.7260
00199.9550,00199.7107
00199.7662,00199.6818
00199.6145,00199.6446
00199.4059,00199.5948
00200.2475,00199.5305
00200.0625,00200.4449
00199.9156,00200.3537
00199.7574,00200.2416
00199.5341,00200.1113
00200.4086,00199.9313
00200.2146,00199.7436
00200.1956,00199.5802
00199.8987,00200.3731
00199.8217,00200.1273
00199.7419,00199.8992
00199.7301,00199.6908
00199.6593,00199.4177
00199.6840,00200.1735
00199.7370,00199.9448
00199.8561,00199.7023
00199.9710,00199.4846
00200.0899,00200.2722
00200.2464,00200.1016
00200.3946,00199.9425
00199.6063,00199.7307
00199.7608,00199.5879
00199.8866,00199.4687
00200.0644,00200.3102
00200.3311,00200.2004
00200.5627,00200.1133
00199.7332,00199.9888
00199.8302,00199.9601
00200.0440,00199.8943
00200.1896,00199.8742
00200.4026,00199.8392
00200.5852,00199.8358
00199.7904,00199.8550
00200.0190,00199.8951
00200.2555,00199.9624
00200.5054,00200.0635
00199.6891,00200.1905
00199.8646,00200.3103
00200.0005,00200.5096
00200.1224,00199.6928
00200.1820,00199.9014
00200.3787,00200.0506
00200.3518,00200.2433
00200.4443,00200.4533
00200.2982,00199.6649
00200.4074,00199.8163
00200.3929,00200.0026
00200.4472,00200.1748
00200.4129,00200.3325
00200.4008,00200.4861
00200.4163,00199.6287
00200.4272,00199.7903
00200.4090,00199.9866
00200.3704,00200.2032
00200.3676,00200.3841
00200.2986,00200.6018
00200.1323,00199.7661
00200.0820,00199.9087
00199.8728,00200.0810
00199.7351,00200.1747
00199.5976,00200.3303
00199.4690,00200.4304
00199.6553,00200.3050
00199.3997,00200.3309
00200.0575,00200.2796
00199.8076,00200.1876
00199.6034,00200.1075
00200.2927,00199.9313
00200.0694,00199.7995
00199.8986,00199.6418
00199.7586,00199.4588
00199.6067,00200.3382
00199.5024,00200.0874
00200.3429,00199.9314
00200.2113,00199.7252
00200.0986,00199.4821
00199.9875,00200.2457
00199.8661,00199.9152
00199.7776,00199.6481
00199.8540,00199.3792
00199.6740,00200.0793
00199.8024,00199.7809
00199.8205,00199.4725
00199.7923,00200.1821
00199.9589,00199.9344
00200.0212,00199.6189
00200.2417,00200.3568
00200.4771,00200.1339
00199.7469,00199.9255
00200.0132,00199.7588
00200.2902,00199.5896
00200.5953,00199.4586
00199.9070,00200.3360
00200.1206,00200.2568
00200.4092,00200.1592
00199.6828,00200.0965
00199.9496,00200.0821
00200.3093,00200.0646
00200.5403,00200.0734
00199.8007,00200.1293
00200.1022,00200.1803
00200.2675,00200.2728
00200.4404,00200.3732
00199.6287,00200.4848
00199.8267,00199.6161
00200.0927,00199.7920
00200.3415,00199.9729
00200.5477,00200.2345
00199.7885,00200.4983
00199.8891,00199.7747
00200.0265,00200.0484
00200.0407,00200.3626
00200.0347,00199.6842
00200.0471,00199.9171
00199.9774,00200.2205
00200.0292,00200.4773
00199.7956,00199.7601
00199.8188,00199.9572
00199.6467,00200.2299
00199.5891,00200.4141
00200.3634,00199.6126
00200.2599,00199.8210
00200.1310,00199.9897
00200.0075,00200.1711
00199.9039,00200.3431
00199.7475,00200.5197
00199.5842,00199.6988
00200.3808,00199.8620
00200.1522,00199.9800
00199.9586,00200.0302
00199.6483,00200.1024
00199.3777,00200.1555
00200.1040,00200.2070
00199.9284,00200.2285
00200.0803,00199.6004
00199.8171,00199.5655
00199.5294,00199.5181
00200.2629,00200.4443
00200.0409,00200.3948
00199.7158,00200.2680
00199.4414,00200.0949
00200.2479,00199.9247
00200.0184,00199.7681
00199.8171,00199.5622
00199.7001,00200.3951
00199.5490,00200.1781
00199.4521,00199.9628
00200.3460,00199.7406
00200.2224,00199.5012
00200.2256,00200.3090
00200.1379,00200.0572
00200.1970,00199.8187
00200.1077,00199.5817
00200.1524,00200.3401
00200.2349,00200.0637
00200.2918,00199.7912
00200.4414,00199.5699
00200.5213,00200.2811
00199.6977,00200.0569
00199.8855,00199.8548
00200.1238,00199.6334
00200.3697,00199.4374
00199.6429,00200.2962
00199.9363,00200.1586
00200.2294,00200.0602
00200.5127,00199.9843
00199.7970,00199.9251
00200.0305,00199.9200
00200.3256,00199.9364
00199.6798,00199.9502
00199.8742,00200.0080
00200.1013,00200.0404
00200.3967,00200.0971
00200.6030,00200.1616
00199.8704,00200.2746
00200.0191,00200.3470
00200.2312,00200.4344
00200.4172,00200.5465
00199.6348,00199.7095
00199.7715,00199.8569
00199.9987,00200.0800
00200.1260,00200.2956
00200.2405,00200.5078
00200.3141,00199.7260
00200.3598,00200.0379
00200.4520,00200.3393
00200.3959,00200.5977
00200.4316,00199.8509
00200.2894,00200.0719
00200.2669,00200.3871
00200.1920,00200.6129
00200.0302,00199.8352
00199.9915,00200.0591
00199.8390,00200.2181
00199.6918,00200.4339
00199.5487,00199.6040
00200.4236,00199.7953
00200.2345,00199.9232
00200.1029,00200.0836
00199.8817,00200.2175
00199.6943,00200.3444
00199.4890,00200.4739
00200.2062,00199.5516
00200.0094,00199.6624
00199.7424,00199.7140
00199.5234,00199.7622
00200.0757,00199.7515
00199.8008,00199.7389
00199.4599,00199.6366
00200.2781,00199.5675
00200.0006,00199.4725
00199.6943,00200.3153
00199.4405,00200.1848
00200.2714,00200.0203
00200.0263,00199.8441
00199.8698,00199.6734
00199.7276,00199.4644
00199.6327,00200.2718
00199.4668,00200.0727
00200.3553,00199.8678
00200.2542,00199.6368
00200.2840,00200.3659
00200.1896,00200.1072
00200.2545,00199.9013
00200.2156,00199.5923
00200.2361,00200.3224
00200.3401,00200.0483
00200.4314,00199.8000
00200.5303,00199.5277
00199.6608,00200.2413
00199.8468,00200.0322
00200.0949,00199.8501
00200.2896,00199.6557
00200.5796,00199.4966
00199.8437,00200.3475
00200.1280,00200.2223
00200.4012,00200.1453
00199.6695,00200.0837
00199.9267,00200.0374
00200.2383,00200.0046
00200.4743,00200.0324
00199.8161,00200.0292
00199.9548,00200.0693
00200.2701,00200.1239
00200.5237,00200.1677
00199.7683,00200.2417
00199.9709,00200.3210
00200.1031,00200.3705
00200.3594,00200.5102
00200.6104,00199.6542
00199.7441,00199.7975
00199.9492,00199.9890
00200.1251,00200.1860
00200.2679,00200.4611
00200.3284,00199.7025
00200.3699,00199.9513
00200.3458,00200.2181
00200.4734,00200.4885
00200.4002,00199.7529
00200.3874,00200.0048
00200.2610,00200.2507
00200.2517,00200.4863
00200.1417,00199.7111
00200.1356,00199.9011
00199.9544,00200.1069
00199.8208,00200.2805
00199.6851,00200.4821
00199.5641,00199.6711
00200.3932,00199.8523
00200.2359,00200.0087
00200.0433,00200.1555
00199.8827,00200.3086
00199.6447,00200.4235
00199.3995,00200.5359
00200.1202,00199.6281
00199.9205,00199.7012
00199.6227,00199.7491
00199.4067,00199.7487
00199.7229,00200.0674
00199.3113,00199.9565
00200.0472,00199.9016
00199.7378,00199.8125
00199.5125,00199.6960
00200.2465,00199.5783
00199.9776,00200.4169
00199.7411,00200.2695
00199.5363,00200.1228
00200.3024,00199.9231
00200.1973,00199.7598
00200.0499,00199.5457
00199.9452,00200.3624
00199.8640,00200.1896
00199.7846,00199.9660
00199.7237,00199.7839
00199.6441,00199.5573
00199.6818,00200.3467
00199.6940,00200.1296
00199.6840,00199.9098
00199.7786,00199.6212
00199.8466,00199.4115
00199.9549,00200.1921
00200.0772,00199.9515
00200.2422,00199.7352
00200.4483,00199.5496
00199.6761,00200.3744
00199.9057,00200.2054
00200.2034,00200.0873
00200.4520,00200.0008
00199.7671,00199.8981
00200.0546,00199.8668
00200.3362,00199.8476
00200.6018,00199.8407
00199.8535,00199.8535
00200.1591,00199.8545
00200.4338,00199.8834
00199.6509,00199.9574
00199.9111,00199.9789
00200.1498,00200.0533
00200.3768,00200.1163
00200.5610,00200.1364
00199.7639,00200.2223
00199.9626,00200.2968
00200.1506,00200.4237
00200.2581,00200.5486
00200.4876,00199.7619
00199.5958,00199.9156
00199.7428,00200.1474
00199.8064,00200.3770
00199.8831,00200.5976
00199.8656,00199.8148
00199.8479,00200.0423
00199.8674,00200.3231
00199.8291,00200.6547
00199.7026,00199.8172
00199.6405,00200.0278
00199.5214,00200.2068
00200.4280,00200.4225
00200.3246,00199.5954
00200.1738,00199.7726
00200.0249,00199.9435
00199.8766,00200.0972
00199.7041,00200.2446
00199.5330,00200.4001
00200.3408,00200.5297
00200.1582,00199.6300
00199.9640,00199.7927
00199.7164,00199.9256
00199.4619,00199.9756
00200.1991,00199.9701
00199.9795,00200.0560
00199.7950,00200.4885
00199.4659,00200.4431
00200.1899,00200.2955
00199.8928,00200.2487
00199.6394,00200.0997
00199.3954,00199.9562
00200.1530,00199.8149
00199.9424,00199.6678
00199.7558,00199.5311
00199.5822,00200.3619
00199.4164,00200.1847
00200.2803,00200.0290
00200.1848,00199.8685
00200.0869,00199.7030
00200.0205,00199.5274
00199.9781,00200.3424
00199.9548,00200.1706
00199.9264,00200.0126
00199.9527,00199.7874
00199.9602,00199.5991
00200.0354,00200.3717
00200.1076,00200.2197
00200.2687,00199.9858
00200.4210,00199.7780
00199.6081,00199.6111
00199.8102,00199.4759
00200.0342,00200.3202
00200.3069,00200.2048
00200.5719,00200.1223
00199.8621,00200.0756
00200.1610,00200.0164
00200.4410,00200.0149
00199.7134,00200.0471
00200.0033,00200.0506
00200.2859,00200.0563
00200.5301,00200.0768
00199.8012,00200.1037
00200.0120,00200.1067
00200.2741,00200.1248
00200.4881,00200.2129
00199.7186,00200.1931
00199.9310,00200.2237
00200.1244,00200.2645
00200.3181,00200.3632
00200.5035,00200.4991
00199.6748,00199.6082
00199.7973,00199.7276
00199.9155,00199.9014
00199.9976,00200.0638
00200.0610,00200.2687
00200.0810,00200.4444
00200.0889,00199.6724
00200.0758,00199.8756
00200.0300,00200.1361
00199.9510,00200.3728
00199.8580,00200.5578
00199.7843,00199.6659
00199.6398,00199.8948
00199.5437,00200.0089
00200.4174,00200.1806
00200.2979,00200.3133
00200.1635,00200.4723
00199.9753,00199.6501
00199.8128,00199.7712
00199.6372,00199.9081
00199.4580,00200.0507
00200.2440,00200.1727
00200.0400,00200.2753
00199.7958,00200.3532
00199.5571,00200.4251
00200.3104,00200.4434
00200.0228,00200.4651
00199.3930,00199.5083
00200.1373,00200.4585
00199.8441,00200.3681
00199.5613,00200.3147
00200.3019,00200.2058
00200.0512,00200.0434
00199.8288,00199.8856
00199.6138,00199.7415
00199.4082,00199.6549
00200.2593,00199.4954
00200.0479,00200.3266
00199.9050,00200.2079
00199.7940,00200.0771
00199.7398,00199.9894
00199.6197,00199.8453
00199.5582,00199.7310
00199.4847,00199.5877
00200.4705,00199.4399
00200.4492,00200.2808
00200.4576,00200.1386
00200.5133,00199.9396
00199.5986,00199.8739
00199.7181,00199.6193
00199.8722,00199.4690
00200.0357,00200.3791
00200.2575,00200.2112
00200.4890,00200.0783
00199.7390,00200.0536
00199.9803,00199.9257
00200.2764,00199.9447
00200.5922,00199.9512
00199.8914,00199.9306
00200.1310,00199.9563
00200.4383,00199.9931
00199.6856,00199.9848
00200.0035,00199.9886
00200.2238,00199.9547
00200.4812,00200.0077
00199.7448,00199.9186
00199.9626,00200.0049
00200.2222,00199.9886
00200.3978,00200.0398
00199.6342,00199.9807
00199.8533,00200.0567
00200.0320,00200.1092
00200.1841,00200.1886
00200.2981,00200.2864
00200.4136,00200.3981
00200.5420,00200.5407
00199.6259,00199.6745
00199.6297,00199.8124
00199.6353,00200.0313
00199.6099,00200.1577
00199.5704,00200.4265
00199.4977,00200.5708
00200.4137,00199.8335
00200.3091,00199.9283
00200.1916,00200.1208
00200.0911,00200.2281
00199.9916,00200.3637
00199.8411,00200.4899
00199.7309,00199.6070
00199.5655,00199.7409
00200.4195,00199.8414
00200.2543,00199.9986
00200.0552,00200.1263
00199.8975,00200.1900
00199.7037,00200.3388
00199.4504,00200.3764
00200.1858,00200.4696
00199.9610,00200.4622
00199.7224,00199.5311
00199.7708,00199.8361
00199.4962,00199.8260
00200.2785,00199.7681
00199.9708,00199.5729
00199.8000,00199.4844
00199.5330,00200.3056
00200.3569,00200.3428
00200.0889,00200.1760
00199.8519,00200.0212
00199.6684,00199.9358
00199.5356,00199.8664
00200.4078,00199.8034
00200.3230,00199.5031
00200.1694,00200.4478
00200.0930,00200.3662
00200.0235,00200.2825
00199.9950,00200.3009
00199.9088,00200.2568
00199.9450,00200.0607
00199.9596,00200.0090
00200.0361,00199.8316
00200.0385,00199.6293
00200.2308,00199.5244
00200.3376,00199.5400
00200.5126,00200.4343
00199.7698,00200.3991
00199.9967,00200.2855
00200.2313,00200.2388
00200.5651,00200.2547
00199.8404,00200.3477
00200.1340,00200.2858
00200.4028,00200.2183
00199.6877,00200.3359
00199.9535,00200.3910
00200.2244,00200.4151
00200.5284,00200.4492
00199.8075,00200.2820
00200.0581,00200.3617
00200.2999,00200.3782
00200.5222,00200.2393
00199.7439,00200.2437
00199.9286,00200.2632
00200.1767,00200.2325
00200.3516,00200.2907
00200.5281,00200.2456
00199.6684,00200.3302
00199.8403,00200.4241
00199.9554,00200.5243
00200.0531,00199.5692
00200.0026,00199.5205
00200.0331,00199.6540
00200.0309,00199.8579
00199.9828,00199.9935
00199.9221,00200.1617
00199.8863,00200.2198
00199.8454,00200.5336
00199.6868,00199.6759
00199.5466,00199.7534
00199.4695,00199.7514
00200.3240,00199.8904
00200.2343,00200.0752
00200.0599,00200.0967
00199.8744,00200.2793
00199.6904,00200.3454
00199.5817,00200.4921
00200.4081,00199.6249
00200.2278,00199.7744
00199.9890,00199.7665
00199.7415,00199.8011
00199.5244,00199.9425
00200.2329,00199.9166
00199.9879,00199.8972
00200.3526,00199.9416
00200.1708,00199.6318
00199.9519,00199.6370
00199.7325,00199.6342
00199.5233,00200.3695
00200.2299,00200.3717
00200.1096,00200.1729
00199.8449,00200.1069
00199.5513,00200.1266
00200.4069,00200.0040
00200.2242,00199.7361
00200.1574,00199.9359
00199.9901,00199.7766
00199.9006,00199.6343
00199.7191,00199.4984
00199.6245,00199.5103
00199.5218,00199.5775
00199.5085,00200.3377
00200.4530,00200.3604
00200.4809,00200.2233
00199.5563,00200.1842
00199.6201,00200.1960
00199.7113,00200.1540
00199.8068,00200.2286
00199.9224,00200.0880
00200.1177,00200.2663
00200.3453,00200.0356
00199.6651,00200.1453
00200.0292,00200.2415
00200.3141,00200.2650
00200.6037,00200.2539
00199.8273,00200.2830
00200.0860,00200.2023
00200.3870,00200.2309
00199.7039,00200.1713
00199.9819,00200.1243
00200.2283,00200.2288
00200.5010,00200.1725
00199.8646,00200.3211
00200.0125,00200.2159
00200.2321,00200.0904
00200.4396,00200.0149
00199.6083,00200.0058
00199.7945,00200.0182
00200.0556,00200.1662
00200.2347,00200.1464
00200.3903,00199.8651
00200.5485,00200.0423
00199.5956,00200.1964
00199.6228,00200.2027
00199.5258,00200.1318
00199.5421,00200.3313
00199.5150,00200.3863
00200.4274,00200.4046
00200.4399,00200.4303
00200.4164,00200.4796
00200.3202,00199.7045
00200.2373,00199.7141
00200.0441,00199.8682
00199.9471,00199.9915
00199.8516,00199.9372
00199.6767,00199.9570
00199.5353,00200.1490
00200.3209,00200.4148
00200.2314,00200.4303
00200.0863,00199.6490
00199.8618,00199.5796
00199.5864,00199.6220
00199.4171,00199.6848
00200.2185,00199.8559
00199.9799,00199.8042
00199.6255,00199.8695
00200.2043,00199.5220
00199.7190,00199.9019
00199.4558,00199.7622
00200.4670,00199.5877
00200.3099,00199.6444
00200.0187,00199.5012
00199.7442,00200.3999
00199.3014,00200.1980
00200.4535,00200.4354
00199.8983,00200.3092
00199.9315,00200.2804
00199.9792,00199.8841
00199.6616,00200.0613
00200.2447,00199.9992
00200.2190,00200.0038
00199.6960,00199.9097
00200.4487,00199.5040
00200.2404,00199.6947
00200.0903,00199.5728
00199.6960,00199.5989
00199.8577,00199.4356
00199.9846,00199.9039
00200.1238,00199.7973
00200.4028,00199.8652
00200.3651,00199.5093
00200.4064,00199.6992
00200.2515,00200.1230
00200.7551,00200.5129
00199.9179,00199.6603
00200.3280,00199.8728
00200.6024,00199.8157
00199.9261,00199.9369
00200.2432,00199.9834
00200.3096,00200.0772
00200.6045,00199.7295
00199.5335,00199.6620
00199.7867,00199.5562
00199.7947,00200.4032
00200.1092,00200.5486
00200.5885,00199.5505
00199.6724,00199.6085
00199.9075,00199.6000
00199.9281,00200.2470
00200.2157,00200.4995
00200.2956,00200.2259
00199.9537,00200.0227
00200.1615,00200.2257
00200.3201,00200.4136
00200.4077,00199.9750
00200.4146,00200.1378
00200.2977,00200.1200
00200.5927,00199.8559
00199.7053,00199.6615
00199.6033,00199.9516
00199.9281,00199.8183
00199.8842,00199.6467
00199.6292,00199.6300
00199.8275,00199.6109
00199.5826,00200.0236
00199.4203,00200.2301
00200.2121,00200.1499
00199.9098,00200.0585
00200.0378,00200.6466
00199.9356,00200.0660
00199.9791,00200.3396
00199.8559,00200.1511
00199.7161,00200.5064
00200.2640,00199.5987
00200.3698,00199.6494
00200.1818,00199.7601
00199.6125,00199.6500
00199.5564,00199.4720
00199.7673,00199.6924
00199.0735,00200.2503
00200.5582,00200.4567
00200.1808,00200.1173
00199.6898,00199.9194
00199.3220,00199.9677
00200.2623,00200.3349
00200.2231,00200.1759
00199.8065,00200.1001
00199.7518,00200.2872
00200.1358,00199.6763
00200.2655,00199.5821
00200.1943,00199.7569
00199.6820,00200.2627
00199.7056,00199.7647
00200.3285,00199.8732
00200.0241,00200.0789
00200.1936,00200.6625
00200.1849,00200.2063
00199.4628,00200.0514
00199.4677,00199.5603
00200.2822,00199.4684
00199.8563,00199.6199
00199.9199,00199.8176
00200.1176,00200.1283
00200.1122,00200.2923
00199.7732,00199.9537
00200.0987,00200.7040
00200.4656,00200.1591
00199.6967,00200.4262
00199.9433,00200.5240
00200.0420,00199.5488
00200.1566,00199.5982
00200.1061,00200.2788
00200.0512,00199.6944
00199.8488,00200.1395
00200.1370,00200.0047
00199.9832,00199.9329
00200.0079,00199.7617
00199.4801,00199.7029
00199.9233,00199.5897
00199.5486,00199.5910
00199.7067,00199.6634
00200.2567,00200.2012
00200.4082,00200.0633
00200.4328,00199.9776
00200.1743,00199.4137
00200.7821,00199.6238
00199.9013,00199.8023
00199.8278,00199.5334
00199.9429,00200.4268
00200.0439,00199.8476
00200.0994,00199.7350
00200.3994,00199.7913
00200.5089,00199.8141
00199.7929,00199.3406
00199.8263,00199.9790
00200.1864,00200.5068
00199.6387,00200.3021
00199.3918,00200.2460
00199.6398,00200.3322
00199.5697,00199.7974
00200.3596,00199.6330
00200.0679,00200.3888
00200.1685,00200.0883
00200.3205,00199.8206
00200.2474,00199.8041
00200.1191,00199.5888
00200.1567,00199.6707
00199.8965,00199.5205
00199.5392,00200.0386
00199.5892,00199.4402
00200.2043,00200.3044
00200.0700,00200.3496
00199.8820,00200.2340
00199.6200,00200.2278
00199.4306,00200.0511
00200.3229,00200.0424
00200.0159,00200.0455
00199.7816,00200.0119
00199.6304,00199.8902
00199.5509,00199.7238
00199.5085,00199.4783
00200.2628,00199.5631
00200.0803,00199.6330
00199.7679,00199.5846
00199.6115,00200.3139
00199.4214,00200.3624
00200.2533,00200.3490
00200.0915,00200.3485
00200.0185,00200.0128
00199.8642,00200.3048
00199.8510,00200.1191
00199.8084,00200.1798
00199.6916,00200.1604
00199.6439,00200.0764
00199.6697,00200.0175
00199.7291,00200.1973
00199.8573,00200.2867
00200.0719,00200.2041
00200.3840,00200.2737
00200.5074,00200.6762
00199.6890,00199.5143
00199.7260,00200.3402
00199.9449,00200.3230
00200.0664,00200.3312
00200.2960,00200.3139
00200.4162,00200.2712
