u,v
00199.8996,00200.5553
00200.0490,00199.7629
00200.0048,00200.0034
00200.0511,00200.2178
00200.1041,00200.4481
00200.0539,00199.6680
00200.0956,00199.8947
00200.1270,00200.1462
00200.1325,00200.4003
00200.0684,00199.6283
00200.0233,00199.9145
00199.9923,00200.1367
00199.8192,00200.3757
00199.6882,00200.5751
00199.4487,00199.7703
00200.3540,00199.9853
00200.1206,00200.1633
00199.8984,00200.3725
00199.8537,00200.3440
00199.6109,00200.5626
00200.3451,00199.6986
00199.9635,00199.7327
00199.7268,00199.8473
00199.4521,00199.8576
00200.1734,00199.8756
00199.9115,00199.8240
00199.6169,00199.7986
00199.4297,00199.7209
00200.1302,00199.6190
00199.9061,00199.5095
00199.6434,00200.3607
00199.4333,00200.2273
00200.1695,00200.0518
00199.9968,00199.8448
00199.8436,00199.6968
00199.6638,00199.4662
00199.5043,00200.2928
00200.3467,00200.0387
00200.1929,00199.7786
00200.1688,00199.5273
00200.1091,00200.2502
00200.0874,00199.9618
00200.0838,00199.6485
00200.1212,00200.3381
00200.2290,00200.0712
00200.3445,00199.7815
00200.4655,00199.4795
00199.6363,00200.2356
00199.8148,00199.9728
00199.9993,00199.7518
00200.1947,00199.5529
00200.4162,00200.3400
00199.6983,00200.2209
00199.9496,00200.1001
00200.1760,00200.0025
00200.3761,00199.9237
00199.6395,00199.8258
00199.8270,00199.7403
00200.1073,00199.7209
00200.3578,00199.6528
00200.6073,00199.6543
00199.8433,00199.6554
00200.1310,00199.6748
00200.4792,00199.7598
00199.6981,00199.8383
00199.9456,00199.9509
00200.1708,00200.1177
00200.3363,00200.3102
00200.5254,00200.4940
00199.6301,00199.6950
00199.8543,00199.9492
00199.9694,00200.1969
00200.0065,00200.4619
00200.1105,00199.7216
00200.1827,00199.9259
00200.2013,00200.1769
00200.2413,00200.4417
00200.2456,00199.5868
00200.2404,00199.8639
00200.2574,00200.0616
00200.2112,00200.2934
00200.2270,00200.5294
00200.1511,00199.7440
00200.0971,00199.9821
00199.9705,00200.1777
00199.8624,00200.3839
00199.7056,00200.5907
00199.5016,00199.7646
00200.3594,00200.0173
00200.1644,00200.2398
00199.9441,00200.2489
00199.6467,00200.3886
00199.3882,00200.4806
00200.1469,00199.5572
00199.8353,00199.6384
00199.5427,00199.6385
00200.2430,00199.6496
00199.9237,00199.5950
00199.6568,00199.5579
00199.3800,00199.4808
00200.1287,00200.4120
00199.8598,00200.2835
00199.6505,00200.1607
00199.4214,00200.0353
00200.1822,00199.8867
00199.9973,00199.7217
00199.8060,00199.5401
00199.7201,00200.3536
00199.5751,00200.1360
00199.4303,00199.9205
00200.3179,00199.6649
00200.2826,00199.4221
00200.2259,00200.1515
00200.2158,00199.8819
00200.1653,00199.6144
00200.2274,00200.3434
00200.3232,00200.0942
00200.4449,00199.8469
00199.5850,00199.5717
00199.7137,00200.3268
00199.9220,00200.1263
00200.0820,00199.9406
00200.2829,00199.7583
00200.5142,00199.6205
00199.7172,00199.4769
00200.0338,00200.4055
00200.2479,00200.2667
00200.4807,00200.2101
00199.6757,00200.0894
00199.9578,00200.0284
00200.2101,00200.0160
00200.4760,00199.9476
00199.6579,00199.9150
00199.9444,00199.9312
00200.2052,00199.9483
00200.4087,00199.9711
00199.7248,00200.0897
00199.9451,00200.1922
00200.1759,00200.2973
00200.3418,00200.4836
00200.4838,00199.6497
00199.6837,00199.8264
00199.8755,00200.0348
00199.9940,00200.2921
00200.0349,00200.5148
00200.1326,00199.7213
00200.2220,00199.9647
00200.3026,00200.1710
00200.2934,00200.4175
00200.3131,00199.6111
00200.3055,00199.8344
00200.3127,00200.0674
00200.2787,00200.2781
00200.2460,00200.4926
00200.1948,00199.7367
00200.1396,00199.9542
00200.0533,00200.1463
00199.9329,00200.3647
00199.7417,00200.5763
00199.5994,00199.7690
00199.4384,00199.9804
00200.2300,00200.1813
00199.7736,00199.8311
00199.4780,00199.9599
00200.2254,00199.9840
00199.9408,00200.0573
00199.6362,00200.0477
00200.3212,00200.0295
00200.0175,00200.0078
00199.7566,00199.9836
00199.4691,00199.9460
00200.2056,00199.8760
00199.9606,00199.7800
00199.7011,00199.6893
00199.4819,00199.5498
00200.2863,00199.4471
00200.0628,00200.3205
00199.8799,00200.1616
00199.6926,00199.9946
00199.5838,00199.7945
00199.4267,00199.5761
00200.3192,00200.3603
00200.2085,00200.0944
00200.1627,00199.9038
00200.1296,00199.6715
00200.1311,00199.4179
00200.1764,00200.1815
00200.2241,00199.9710
00200.3225,00199.7526
00200.4433,00199.5403
00199.6030,00200.3500
00199.7943,00200.1888
00199.9879,00199.9940
00200.1938,00199.8779
00200.3689,00199.7558
00200.5951,00199.6407
00199.8186,00199.5202
00200.0573,00200.4275
00200.2882,00200.3324
00200.5355,00200.2395
00199.7706,00200.1700
00200.0437,00200.1149
00200.2708,00200.0414
00200.5033,00199.9732
00199.7568,00199.9614
00200.0262,00199.9800
00200.2799,00199.9887
00200.5197,00200.0445
00199.7454,00200.1069
00199.9724,00200.2148
00200.1922,00200.3462
00200.3560,00200.4743
00200.5115,00199.6613
00199.6460,00199.8148
00199.7612,00200.0083
00199.8807,00200.2032
00199.9577,00200.4154
00200.0446,00200.5855
00200.0820,00199.7913
00200.1416,00200.0079
00200.1631,00200.1990
00200.1833,00200.4115
00200.1924,00199.5959
00200.1737,00199.8345
00200.1704,00200.0412
00200.1040,00200.2494
00200.0253,00200.4877
00199.9423,00199.6733
00199.8834,00199.9063
00199.7749,00200.0944
00199.5799,00200.3083
00200.4091,00200.4961
00200.2276,00199.6366
00199.9979,00199.7832
00200.3239,00199.8186
00200.0889,00199.8662
00199.7899,00199.9538
00199.5459,00199.9856
00200.2238,00199.9796
00199.9447,00199.9524
00199.6312,00199.9486
00199.3629,00199.8770
00200.0873,00199.8558
00199.7894,00199.8192
00199.5308,00199.6856
00200.2832,00199.6575
00200.0533,00199.5710
00199.8379,00199.4561
00199.6220,00200.3806
00199.4174,00200.2539
00200.2237,00200.1458
00200.0382,00199.9813
00199.9113,00199.8532
00199.7724,00199.6376
00199.6152,00199.4826
00199.5449,00200.2993
00199.4625,00200.1312
00200.4499,00199.8281
00200.4677,00199.6879
00200.5022,00199.4552
00199.5691,00200.3347
00199.6650,00200.1398
00199.7880,00200.0116
00199.9439,00199.8545
00200.1212,00199.7318
00200.3216,00199.5932
00200.5214,00199.5068
00199.7432,00200.3672
00199.9819,00200.3315
00200.2049,00200.2276
00200.4139,00200.1659
00199.6682,00200.0696
00199.8921,00199.9956
00200.1582,00199.9330
00200.3863,00199.8779
00199.6183,00199.7386
00199.8784,00199.6853
00200.1173,00199.6334
00200.3724,00199.6456
00200.6117,00199.6361
00199.8605,00199.6869
00200.0662,00199.7414
00200.3005,00199.8227
00200.5014,00199.8963
00199.6855,00200.0149
00199.8382,00200.1658
00199.9741,00200.3130
00200.0983,00200.4854
00200.1825,00199.6631
00200.2813,00199.8111
00200.2910,00199.9955
00200.3655,00200.1896
00200.3800,00200.3620
00200.4309,00200.5133
00200.4695,00199.7036
00200.4645,00199.8695
00200.4543,00200.0592
00200.4215,00200.2636
00200.3636,00200.4716
00200.3328,00199.6674
00200.2483,00199.8546
00200.1480,00200.0409
00200.0466,00200.2383
00199.8998,00200.4407
00199.7188,00199.5905
00199.5311,00199.6350
00199.7243,00200.0486
00199.4517,00200.1333
00200.1532,00200.1651
00199.9025,00200.1794
00199.6068,00200.2322
00200.3291,00200.1499
00200.0568,00200.0347
00199.7747,00199.9725
00199.5154,00199.9325
00200.2562,00199.8576
00199.9814,00199.8006
00199.7474,00199.7005
00199.5790,00199.6772
00200.3889,00199.6648
00200.0944,00199.4969
00199.8557,00200.3991
00199.6511,00200.2773
00199.4942,00200.1832
00200.3620,00200.0101
00200.1968,00199.9314
00200.0768,00199.7413
00199.9993,00199.6370
00199.9683,00199.5149
00199.9631,00200.2934
00199.9979,00200.1188
00200.0677,00199.9758
00200.1478,00199.8629
00200.2717,00199.7307
00200.3945,00199.6433
00200.5741,00199.5517
00199.7970,00199.5406
00200.0223,00200.4650
00200.1785,00200.3807
00200.4007,00200.3241
00199.6208,00200.2528
00199.8709,00200.1791
00200.0982,00200.0171
00200.3222,00200.0350
00200.5821,00199.9126
00199.8556,00199.8624
00200.0856,00199.8297
00200.3419,00199.7100
00200.6032,00199.6137
00199.8386,00199.5766
00200.0837,00199.5882
00200.3243,00199.5996
00200.5241,00199.6266
00199.7644,00199.6615
00200.0044,00199.7721
00200.1722,00199.8201
00200.3013,00199.8750
00200.4445,00199.9905
00200.5434,00200.0961
00199.6301,00200.3056
00199.7171,00200.3546
00199.7746,00199.6155
00199.8178,00199.7378
00199.8512,00199.9338
00199.8759,00200.1004
00199.9043,00200.1912
00199.9213,00200.3535
00199.9454,00200.4708
00199.9297,00199.6527
00199.8924,00199.8051
00199.8582,00200.0163
00199.7837,00200.1250
00199.7241,00200.3307
00199.6405,00200.5417
00199.4771,00199.6774
00200.3145,00199.8184
00200.1214,00199.8810
00199.9249,00199.9911
00200.2399,00199.9491
00200.0182,00199.9373
00199.8148,00200.0429
00199.5143,00199.9395
00200.2362,00199.7819
00199.9330,00199.8620
00199.6831,00199.6709
00199.4156,00199.8729
00200.1288,00199.6978
00199.8867,00199.6022
00199.6284,00199.5326
00199.4700,00200.4556
00200.2017,00199.5369
00199.9922,00200.3743
00199.7157,00200.1337
00199.4793,00199.9824
00200.2486,00200.1708
00199.9707,00200.1234
00199.8476,00200.0482
00199.6868,00199.9906
00199.5910,00199.8890
00199.4846,00199.6838
00200.4053,00199.5634
00200.3923,00200.3743
00200.4106,00200.3574
00200.4074,00200.2521
00200.5155,00200.2721
00199.5939,00200.1609
00199.7232,00200.1326
00199.9675,00200.1535
00200.1501,00200.2949
00200.3167,00200.0452
00200.5403,00200.0603
00199.6895,00199.8782
00199.8962,00200.0494
00200.1281,00199.9964
00200.4391,00199.9152
00199.6731,00199.8156
00199.9604,00199.7737
00200.1917,00199.6484
00200.4565,00199.5976
00199.6640,00199.5043
00199.9297,00200.4789
00200.1732,00200.4283
00200.4026,00200.2998
00199.6566,00200.2513
00199.8550,00200.2923
00200.1799,00200.2547
00200.3637,00200.4052
00200.5164,00200.3694
00199.6511,00200.3220
00199.7739,00200.3237
00199.8633,00200.4381
00199.9314,00199.6336
00200.0789,00199.7421
00200.1907,00199.8415
00200.2747,00200.0405
00200.2516,00200.2002
00200.2311,00200.2854
00200.2278,00200.3462
00200.2803,00200.3239
00200.2957,00200.6099
00200.2991,00199.7229
00200.2786,00199.8715
00200.2290,00200.0505
00200.2614,00200.3238
00200.1871,00200.6255
00200.1257,00199.5566
00199.9401,00199.5659
00199.8030,00199.5873
00199.6275,00199.8174
00199.3862,00199.9000
00199.6866,00199.5008
00199.4885,00199.5571
00200.2482,00199.4833
00199.9197,00199.5526
00199.7321,00199.4860
00199.4303,00200.3389
00200.1603,00200.2930
00199.8853,00200.1570
00199.5540,00200.1674
00199.4313,00199.9253
00200.3174,00199.8056
00200.0765,00200.1143
00199.8588,00199.8504
00199.5117,00199.7517
00200.2361,00199.6331
00199.9903,00199.5533
00199.7813,00199.5586
00199.6715,00199.7089
00199.4098,00199.4138
00200.2843,00200.3177
00200.1241,00200.4074
00200.0818,00200.2510
00200.0527,00200.2937
00199.9895,00200.2909
00199.9749,00200.3240
00200.0118,00200.2978
00200.1414,00200.2970
00200.3014,00200.2986
00200.6687,00200.5892
00199.7514,00200.4608
00199.9547,00200.4664
00200.1400,00200.4664
00200.2935,00200.4665
00200.5108,00200.3441
00199.7201,00200.3523
00199.9881,00200.2596
00200.1615,00200.2689
00200.5302,00200.2299
00199.8272,00200.1691
00200.0279,00200.1557
00200.1999,00200.0821
00200.4480,00199.9433
00199.6902,00199.7811
00199.9218,00199.6903
00200.2290,00199.9374
00200.5541,00199.7862
00199.8635,00199.5871
00199.9974,00199.8521
00200.1973,00199.7283
00200.3303,00199.7246
00200.3619,00199.7531
00200.4075,00199.6755
00200.4439,00199.7879
00199.6473,00199.8903
00199.7578,00199.9050
00199.8082,00200.0658
00199.8091,00200.1579
00199.8654,00200.1502
00199.7628,00200.2499
00199.8318,00200.4178
00199.8677,00200.4252
00199.8877,00199.5580
00199.8951,00199.5108
00199.9577,00200.0118
00199.9599,00200.0028
00199.9278,00200.2346
00199.8321,00200.2951
00199.6882,00200.4214
00199.5529,00200.3276
00200.3441,00200.4992
00200.1700,00200.5085
00200.0125,00199.5491
00199.9904,00199.8753
00199.4517,00199.2406
00200.2193,00200.4589
00199.7291,00200.0731
00199.9808,00199.6304
00200.0679,00200.2880
00199.6524,00200.3456
00199.4402,00199.9664
00200.2033,00200.2461
00200.1450,00200.0789
00200.1377,00199.7158
00200.3207,00199.6131
00199.9586,00199.8933
00199.4237,00199.5733
00200.3751,00199.4149
00199.9794,00200.2620
00199.4074,00200.4909
00200.1279,00200.0863
00199.3650,00199.2141
00199.5006,00200.5178
00200.0530,00200.1258
00200.2751,00199.6901
00200.3200,00199.8083
00200.5548,00199.9702
00200.4711,00200.1595
00199.5350,00199.9552
00200.4525,00199.9631
00200.3970,00200.8821
00199.7514,00200.1303
00199.8667,00200.7851
00200.0684,00200.3352
00200.2914,00200.2413
00200.4261,00200.2293
00199.8511,00200.2512
00199.4340,00200.2419
00200.9393,00199.8515
00199.6897,00199.8383
00199.6200,00199.9349
00200.2532,00200.0024
00199.7315,00200.2096
00199.7334,00199.8188
00199.6887,00199.7322
00199.9910,00199.6676
00200.3800,00199.8023
00199.8100,00200.2506
00199.9457,00200.1572
00200.5953,00199.5601
00200.0820,00200.2918
00200.1779,00200.4140
00200.5654,00199.9163
00199.5964,00200.1406
00199.8137,00199.8181
00199.5587,00200.1993
00200.5029,00200.3472
00199.8946,00200.2759
00199.3264,00200.0906
00200.3093,00199.6163
00200.4202,00200.1249
00200.3120,00200.1679
00200.2707,00200.2576
00200.1583,00200.5951
00200.1673,00199.6829
00200.1275,00199.5555
00200.6814,00200.1558
00200.2842,00200.5687
00200.4632,00200.3994
00200.3893,00200.5321
00200.1274,00199.8500
00199.9458,00199.5979
00200.3142,00199.5313
00199.7246,00200.4404
00199.8550,00200.2893
00199.1422,00199.4868
00199.3376,00200.3654
00200.0358,00200.4049
00199.5518,00199.9722
00199.9390,00199.8994
00200.1327,00200.7384
00199.9095,00200.3654
00199.8043,00200.1652
00199.6715,00200.2635
00199.8722,00199.8665
00199.9982,00199.6751
00200.8522,00199.3508
00199.7862,00200.3999
00199.6700,00200.0803
00199.7565,00200.3134
00199.9304,00200.0629
00200.5060,00200.4378
00200.0157,00199.6385
00199.5796,00200.2137
00199.8692,00200.2411
00200.2610,00199.9149
00200.4453,00199.5194
00199.8772,00200.4266
00200.4117,00200.4792
00199.9217,00199.7265
00200.5131,00200.1785
00200.0483,00199.7734
00200.6783,00200.5779
00200.1464,00200.1546
00199.9181,00200.6699
00200.6911,00199.9372
00199.8907,00200.4564
00200.5835,00199.9214
00200.0305,00199.9398
00200.0392,00200.7670
00200.5927,00199.5878
00200.5970,00199.5419
00199.4299,00199.5290
00199.9612,00200.3286
00200.0118,00200.3383
00199.5910,00199.4297
00199.7175,00199.5404
00200.1112,00199.5953
00200.1376,00200.1402
00200.4267,00200.2937
00200.3581,00200.3044
00200.5621,00199.9078
00199.8067,00199.5167
00199.8499,00200.3531
00199.5930,00200.1884
00200.2886,00200.1135
00200.0350,00199.9270
00199.8541,00200.3945
00200.3419,00200.6171
00199.4485,00199.9004
00199.5162,00199.4497
00199.5923,00200.3541
00199.4395,00199.9982
00199.7275,00200.1837
00199.2480,00200.2397
00199.4691,00200.4693
00200.0818,00199.6272
00199.5796,00199.5467
00199.5946,00200.6530
00199.7763,00199.8595
00199.3645,00200.0228
00200.1178,00199.8656
00199.3413,00199.7711
00200.2222,00199.7349
00199.8732,00200.2847
00199.7847,00200.3093
00200.2625,00199.8929
00199.5573,00199.8054
00200.3200,00199.8044
00200.0388,00199.5287
00199.7229,00199.5255
00199.5271,00200.3472
00200.3205,00200.1833
00200.2075,00199.9388
00200.1240,00199.8985
00200.0864,00199.6248
00200.1255,00199.5236
00200.3929,00200.0295
00200.5237,00200.1355
00199.6388,00199.9845
00199.7403,00199.7661
00199.9785,00199.5869
00200.1165,00199.4524
00200.3790,00200.3708
00199.7234,00200.5798
00200.1250,00200.1574
00200.4774,00200.1640
00199.8826,00200.0411
00200.3675,00199.9728
00199.7984,00200.0818
00200.3494,00200.1281
00199.8255,00200.0377
00200.3801,00200.1445
00199.9976,00200.1298
00200.6457,00200.2189
00200.3838,00200.2992
00200.0259,00200.5069
00200.5124,00199.6626
00200.0568,00199.6420
00200.5402,00199.7100
00200.0259,00199.7341
00200.4398,00199.7973
00199.8925,00199.8935
00200.2614,00200.1719
00200.6714,00200.0496
00200.0238,00200.1812
00200.2803,00200.2453
00200.4486,00200.3446
00200.5202,00200.1998
00199.6527,00200.3497
00199.6910,00200.1031
00199.7851,00200.3440
00199.8201,00200.5426
00199.8138,00199.5193
00199.6786,00199.6529
00199.4965,00199.7780
00200.2290,00199.8392
00199.8102,00199.7957
00199.4558,00199.9853
00200.0370,00200.1920
00199.6155,00200.3651
00200.1914,00200.3164
00199.7632,00200.2639
00200.2000,00200.4908
00199.6651,00200.4944
00200.0734,00199.6444
00199.5698,00199.7486
00200.0647,00199.7231
00199.5271,00199.8304
00200.0855,00199.6587
00199.6359,00200.0576
00200.2476,00200.3728
00199.7699,00200.2071
00199.2943,00200.3018
00199.8165,00200.1950
00199.2876,00200.1929
00199.8147,00200.0679
00199.4270,00200.0419
00200.1008,00200.0677
00200.1949,00199.6258
00199.8797,00199.4314
00199.5452,00200.2688
00200.2389,00200.0154
00199.9644,00199.6986
00199.7689,00199.4636
00199.6430,00200.1897
00199.5105,00200.0765
00200.4303,00199.7445
00200.4548,00199.4668
00200.4729,00200.2047
00199.6329,00199.9934
00199.7875,00199.7874
00199.9369,00199.5108
00200.1198,00200.2815
00200.3219,00199.9176
00200.5982,00200.0065
00199.8276,00199.8798
00200.2474,00199.7021
00200.5788,00199.5607
00200.0041,00199.5011
00200.4603,00200.2409
00199.9413,00200.0744
00200.4332,00200.0072
00200.0028,00199.9535
00200.5438,00199.9732
00200.1472,00200.0061
00200.7142,00200.0235
00200.3232,00200.0991
00199.9930,00200.2822
00200.5807,00200.3668
00200.1265,00200.4254
00200.7276,00199.5830
00200.1193,00199.6536
00200.6392,00199.9176
00200.0400,00200.0504
00200.5263,00200.2176
00199.8995,00200.2747
00200.2593,00200.4712
00200.5117,00200.4877
00199.7411,00199.6484
00199.9021,00199.7481
00200.0768,00199.7960
00200.1579,00200.0598
00200.1811,00200.1882
00200.1839,00200.3323
00200.1098,00200.5047
00200.1113,00199.6263
00199.9419,00199.9850
00199.7007,00200.1229
00199.4187,00200.2061
00200.0485,00200.3241
00199.6722,00200.5283
00200.2286,00199.7649
00199.8855,00199.9621
00199.4623,00200.1289
00199.9833,00200.3783
00199.3918,00200.5359
00199.8714,00199.5533
00199.3148,00199.6218
00199.8180,00199.6639
00199.2433,00199.7769
00199.7765,00199.8695
00199.2534,00199.9226
00199.7301,00199.9765
00199.3303,00200.1228
00199.8582,00200.3157
00199.4158,00200.0755
00199.8571,00199.8609
00199.4385,00199.6829
00200.0043,00199.8236
00199.5165,00199.6256
00199.6080,00199.9191
00200.2256,00199.7588
00199.9067,00199.4495
00199.6201,00200.1888
00199.3919,00199.8822
00200.1848,00199.5874
00200.0463,00200.1601
00199.9509,00199.8081
00199.9312,00199.4553
00199.9490,00200.1640
00199.9709,00199.8338
00200.0888,00199.5128
00200.2974,00200.2756
00200.5332,00200.0303
00199.7023,00199.6993
00199.9726,00199.4657
00200.2455,00200.1863
00200.5978,00199.9865
00199.9889,00199.7427
00200.3868,00199.5990
00199.7999,00200.3615
00200.3080,00200.2605
00199.7771,00200.1726
00200.3494,00199.9402
00199.9008,00199.8591
00200.4879,00199.8143
00200.0934,00199.8167
00200.6694,00199.8391
00200.2578,00199.8932
00199.8630,00200.0087
00200.4805,00200.1775
00200.0372,00200.3384
00200.5372,00200.4639
00200.0390,00199.7092
00200.4768,00199.8713
00199.9306,00200.0963
00200.3173,00200.2377
00200.6443,00200.4963
00199.9416,00199.6847
00200.2266,00199.9561
00200.4177,00200.1683
00199.6027,00200.4016
00199.7189,00199.6161
00199.7777,00199.8278
00199.7821,00200.1264
00199.7667,00200.3818
00199.6746,00199.6800
00199.5474,00199.9325
00200.4105,00200.3073
00200.1613,00200.5284
00199.8223,00199.7837
00199.5033,00200.0477
00200.1190,00200.3313
00199.6937,00200.6344
00200.2020,00199.7734
00199.7501,00200.1217
00200.2306,00200.2700
00199.7115,00200.4775
00200.1908,00199.5923
00199.6720,00199.6946
00200.1415,00199.8115
00199.6470,00199.7998
00200.1205,00199.8711
00199.5952,00199.8473
00200.1220,00199.8927
00199.6101,00199.8556
00200.1597,00199.8498
00199.7178,00199.8611
00200.2218,00199.6835
00199.7730,00199.6311
00199.3406,00199.4212
00199.9489,00200.2624
00200.1158,00199.8690
00199.7677,00199.6519
00199.4530,00200.2352
00200.1593,00199.9464
00199.9215,00199.5705
00199.7389,00200.1463
00199.6037,00199.7258
00199.4887,00199.2970
00200.4461,00199.9202
00200.4383,00199.4961
00200.4936,00200.0932
00199.6037,00199.7062
00199.7531,00199.3598
00199.9727,00199.9655
00200.2259,00199.6409
00200.4794,00200.3066
00199.8069,00200.0018
00200.1602,00199.7325
00200.5299,00199.4147
00199.9270,00200.2175
00200.4104,00199.9309
00199.8848,00199.7800
00200.4041,00199.5997
00199.9624,00200.3792
00200.5356,00200.3051
00200.1072,00200.2079
00200.6875,00200.1952
00200.2845,00200.2029
00199.8750,00200.2665
00200.4711,00200.3613
00200.0739,00200.4933
00200.6125,00199.6713
00200.1518,00199.8737
00200.6376,00200.1228
00200.1028,00200.3510
00200.5376,00199.6753
00199.9152,00199.8910
00200.2584,00200.2444
00200.5720,00200.4893
00199.8008,00199.8660
00200.0385,00200.1630
00200.2036,00200.4357
00200.3222,00199.7946
00200.3925,00200.0992
00200.3918,00200.4533
00200.3710,00199.8347
00200.2958,00200.2068
00200.1749,00200.5526
00200.0003,00199.9357
00199.7665,00200.2934
00199.5019,00200.6444
00200.1480,00199.9913
00199.7647,00200.3043
00199.3719,00200.6604
00199.9050,00199.9336
00199.3944,00200.2572
00199.9213,00200.4289
00199.4079,00199.6245
00199.8870,00199.8231
00199.3854,00199.9373
00199.8657,00200.0322
00199.3275,00200.1094
00199.7881,00200.1267
00199.2563,00200.1442
00199.7559,00200.1531
00199.2664,00200.0875
00199.7723,00200.0109
00199.2798,00199.9310
00199.8376,00199.8089
00199.3609,00199.6556
00199.9498,00199.4284
00199.5259,00200.2569
00199.5888,00199.6861
00200.2304,00199.3596
00199.9320,00199.9513
00199.6818,00199.5366
00199.4188,00200.0885
00200.2293,00199.6175
00200.0887,00200.1611
00200.0246,00199.7001
00199.9936,00200.2292
00200.0273,00199.7805
00200.1026,00199.3307
00200.2225,00199.8865
00200.3961,00199.4384
00199.6332,00200.0067
00199.8847,00199.6271
00200.2063,00200.2778
00200.5084,00199.9100
00199.9063,00199.5623
00200.2964,00200.1986
00199.7708,00199.9382
00200.2214,00199.5937
00200.7474,00199.4270
00200.2456,00200.2288
00199.7975,00200.0475
00200.3724,00199.9250
00199.9475,00199.8656
00200.5522,00199.8574
00200.1280,00199.8734
00200.7597,00199.9371
00200.3594,00200.0756
00199.9442,00200.1976
00200.4813,00200.4266
00200.0131,00199.6745
00200.4599,00199.9503
00199.9411,00200.2644
00200.3397,00200.5713
00199.7209,00199.9233
00200.0274,00200.2807
00200.2987,00200.6476
00200.5757,00200.0491
00199.7289,00200.4272
00199.8647,00199.8037
00199.9668,00200.2179
00200.0288,00200.6558
00200.0564,00200.0905
00199.9827,00200.5459
00199.8965,00200.0065
00199.7598,00200.4571
00199.5748,00199.8841
00200.3340,00200.3340
00200.0077,00199.7757
00199.6533,00200.1686
00200.2457,00200.5627
00199.8535,00199.8918
00199.3740,00200.2177
00199.9228,00200.4913
00199.4075,00199.7250
00199.9161,00199.9382
00199.3615,00200.0806
00199.8392,00200.2220
00199.3018,00200.3238
00199.7742,00200.3894
00199.2349,00200.3934
00199.7175,00200.3866
00200.2019,00200.3618
00199.6856,00200.2625
00200.2070,00200.1643
00199.7467,00200.0074
00200.2433,00199.8393
00199.8054,00199.6480
00199.4168,00200.3483
00199.9726,00200.0774
00199.8482,00199.8106
00199.4055,00199.4373
00200.0686,00200.0177
00199.8228,00199.5937
00199.5346,00200.1491
00200.3191,00199.6594
00200.1397,00200.1522
00200.0195,00199.6503
00199.9758,00200.1167
00199.9663,00199.5822
00200.0213,00200.0854
00200.0997,00199.5748
00200.2639,00200.0753
00200.4700,00199.6017
00199.7100,00200.1531
00199.9670,00199.6992
00200.2759,00199.2952
00199.7137,00199.8897
00200.1096,00199.5432
00200.5024,00200.2074
00199.9503,00199.8840
00200.4844,00199.6200
00199.9738,00199.3784
00200.5250,00200.1666
00200.0430,00199.9980
00200.6041,00199.8912
00200.2121,00199.8329
00199.8384,00199.8141
00200.4207,00199.8307
00200.0017,00199.8881
00200.6067,00200.0305
00200.1571,00200.2261
00200.6568,00200.4382
00200.2025,00199.7376
00200.6567,00200.0398
00200.1700,00200.4194
00200.5445,00199.7928
00199.8767,00200.2151
00200.1493,00200.6054
00200.4345,00200.0646
00199.6588,00200.5334
00199.8440,00199.9755
00199.9151,00200.4313
00200.0153,00199.9316
00200.0703,00200.4344
00199.9951,00199.8875
00200.0019,00200.4371
00199.8707,00199.9525
00199.7226,00200.4319
00199.4719,00199.9365
00200.1718,00200.4335
00199.9087,00199.8842
00199.5616,00200.3666
00200.1669,00199.7977
00199.6859,00200.1572
00200.2430,00200.4994
00199.7684,00199.7824
00199.2398,00200.0173
00199.7272,00200.2457
00200.1724,00200.3874
00199.6326,00200.5016
00200.0991,00199.5739
00199.5569,00199.6008
00200.0475,00199.5737
00199.5119,00199.5470
00200.0025,00200.4521
00199.5078,00200.2974
00200.0206,00200.1464
00199.4651,00199.9326
00200.0245,00199.7133
00199.6530,00199.4585
00200.2544,00200.1759
00199.8775,00200.2147
00199.4943,00199.8315
00200.1304,00199.4061
00199.8184,00199.9633
00199.5788,00199.5131
00199.4137,00200.0295
00200.1967,00199.4697
00200.0713,00199.9052
00200.0412,00199.3365
00200.0964,00199.8166
00200.0919,00199.2562
00200.1813,00199.7016
00200.3233,00200.1523
00200.5201,00199.6560
00199.7323,00200.1541
00199.9513,00199.6673
00200.3449,00200.2502
00199.6943,00199.8532
00200.0531,00199.4744
00200.4832,00200.0917
00199.9068,00199.7733
00200.4207,00199.4818
00199.8909,00200.2339
00200.4462,00200.0291
00199.9347,00199.8063
00200.5388,00199.6784
00200.1455,00199.5801
00200.7682,00199.5649
00200.3752,00199.5804
00199.9361,00199.6337
00200.5827,00199.7556
00200.1271,00199.9174
00200.6557,00200.1266
00200.1479,00200.4246
00200.6443,00199.7497
00200.1568,00200.1380
00200.5396,00200.5340
00199.9033,00199.9639
00200.2188,00200.4416
00200.4298,00199.9045
00199.6766,00200.4160
00199.8795,00199.9113
00199.9590,00200.4137
00200.0630,00199.9435
00200.1431,00200.4616
00200.2323,00200.0464
00200.1308,00200.5614
00200.0237,00200.1387
00199.8663,00200.6637
00199.7009,00200.2219
00199.3634,00200.7444
00200.0409,00200.2397
00199.7456,00200.7572
00199.3899,00200.2371
00199.8878,00200.6466
00199.3996,00200.0132
00199.9282,00200.3340
00199.3875,00200.5671
00199.8395,00199.8146
00199.2985,00199.9394
00199.7655,00200.0536
00199.2350,00200.1256
00199.6739,00200.1523
00200.1700,00200.1240
00199.6546,00200.0573
00200.1186,00199.9340
00199.6438,00199.7922
00200.1658,00199.6115
00199.5812,00200.3825
00200.1215,00200.0939
00199.7054,00199.8463
00199.3230,00199.5665
00199.5602,00199.6986
00200.1755,00199.3230
00199.8582,00199.8377
00199.5642,00199.3836
00200.3325,00199.8525
00200.1860,00199.3180
00200.0612,00199.7978
00200.0229,00199.2637
00200.0039,00199.7186
00200.0167,00200.1889
00200.1275,00199.6399
00200.2501,00200.1048
00200.3193,00199.6277
00200.5527,00200.1162
00199.7386,00199.6236
00200.0240,00200.1143
00200.2975,00199.6650
00199.7471,00200.2241
00199.9376,00199.8022
00200.5289,00199.4468
00199.8500,00200.1112
00200.3681,00199.8154
00199.8842,00199.5792
00200.3902,00200.3390
00199.9737,00200.1666
00200.5872,00200.0741
00200.2128,00200.0279
00199.8185,00200.0222
00200.4635,00200.1120
00200.0786,00200.2109
00200.6599,00200.3593
00200.1820,00200.5576
00200.6801,00199.7461
00200.1844,00200.0613
00200.6772,00200.3926
00200.1521,00199.7917
00200.5339,00200.1412
00199.8891,00200.6395
00200.1695,00200.0842
00200.4239,00200.5989
00199.6084,00200.0917
00199.7724,00200.6343
00199.9486,00200.1816
00200.0376,00200.7557
00200.1138,00200.3432
00200.1191,00199.9256
00200.1023,00200.5131
00199.9742,00200.1079
00199.7298,00200.7283
00199.5006,00200.3201
00200.1692,00199.7902
00199.8372,00200.3404
00199.4205,00199.7989
00200.0825,00200.2697
00199.5100,00200.6004
00200.0928,00199.9413
00199.5267,00200.2208
00199.9580,00200.4555
00199.4612,00199.6345
00199.9020,00199.7793
00199.3840,00199.8656
00199.8574,00199.9298
00199.3544,00199.9412
00199.8024,00199.9039
00199.2976,00199.8632
00199.8073,00199.7581
00199.2605,00199.5830
00199.7677,00200.3583
00200.2166,00200.0723
00199.8068,00199.7989
00199.3812,00199.4965
00199.9570,00200.1535
00199.7070,00200.4524
00199.3755,00199.6495
00200.0653,00199.7148
00199.8207,00199.8073
00199.5368,00199.8403
00200.2898,00199.8683
00200.0640,00199.9021
00199.8289,00199.8866
00199.5651,00199.8372
00200.3201,00199.7972
00200.1107,00199.6995
00199.8817,00199.6062
00199.6184,00199.5281
00200.3515,00200.3777
00200.1467,00200.1976
00199.8848,00200.0064
00199.5893,00199.7721
00199.5690,00199.5503
00200.2557,00200.2747
00200.2362,00200.0301
00199.9808,00199.7370
00199.9825,00199.4246
00199.9278,00200.1531
00199.8915,00199.7986
00199.9225,00199.4809
00200.0006,00200.2169
00200.1378,00199.9419
00200.2651,00199.6644
00200.4060,00199.4010
00199.6083,00200.1844
00199.7642,00199.8909
00199.9770,00199.6744
00200.1820,00199.4516
00200.3504,00200.2441
00200.5888,00200.0828
00199.8814,00199.9456
00200.1061,00199.7762
00200.4054,00199.6927
00200.6003,00199.6061
00199.8820,00199.5422
00200.0761,00199.4682
00200.3617,00200.4469
00199.6863,00200.4596
00199.9305,00200.5077
00200.2628,00199.5672
00200.5185,00199.6696
00199.8158,00199.8352
00200.0802,00199.9699
00200.2224,00200.1995
00200.4245,00200.4258
00200.5282,00199.6219
00199.6897,00199.8626
00199.7833,00200.0743
00199.9358,00200.3348
