index,width,height,areas
0000000000,000094,000115,010810
0000000001,000111,000126,013986
0000000002,000077,000102,007854
0000000003,000104,000113,011752
0000000004,000065,000099,006435
0000000005,000102,000118,012036
0000000006,000096,000108,010368
0000000007,000111,000151,016761
0000000008,000083,000122,010126
0000000009,000096,000111,010656
0000000010,000098,000113,011074
0000000011,000073,000110,008030
0000000012,000101,000117,011817
0000000013,000092,000107,009844
0000000014,000101,000118,011918
0000000015,000086,000100,008600
0000000016,000073,000094,006862
0000000017,000082,000096,007872
0000000018,000122,000131,015982
0000000019,000064,000100,006400
0000000020,000105,000114,011970
0000000021,000085,000099,008415
0000000022,000078,000101,007878
0000000023,000109,000163,017767
0000000024,000098,000098,009604
0000000025,000102,000106,010812
0000000026,000128,000147,018816
0000000027,000109,000113,012317
0000000028,000099,000102,010098
0000000029,000074,000107,007918
0000000030,000103,000114,011742
0000000031,000099,000098,009702
0000000032,000102,000101,010302
0000000033,000103,000101,010403
0000000034,000074,000092,006808
0000000035,000066,000097,006402
0000000036,000121,000144,017424
0000000037,000103,000100,010300
0000000038,000105,000115,012075
0000000039,000099,000150,014850
0000000040,000103,000099,010197
0000000041,000076,000106,008056
0000000042,000102,000092,009384
0000000043,000103,000088,009064
0000000044,000131,000153,020043
0000000045,000104,000077,008008
0000000046,000115,000114,013110
0000000047,000102,000079,008058
0000000048,000075,000109,008175
0000000049,000103,000081,008343
0000000050,000102,000084,008568
0000000051,000101,000091,009191
0000000052,000069,000095,006555
0000000053,000072,000111,007992
0000000054,000122,000140,017080
0000000055,000100,000091,009100
0000000056,000119,000125,014875
0000000057,000110,000103,011330
0000000058,000095,000096,009120
0000000059,000076,000105,007980
0000000060,000096,000100,009600
0000000061,000095,000103,009785
0000000062,000128,000152,019456
0000000063,000118,000112,013216
0000000064,000097,000101,009797
0000000065,000065,000112,007280
0000000066,000094,000101,009494
0000000067,000097,000105,010185
0000000068,000093,000110,010230
0000000069,000064,000108,006912
0000000070,000091,000107,009737
0000000071,000112,000128,014336
0000000072,000084,000113,009492
0000000073,000121,000149,018029
0000000074,000091,000115,010465
0000000075,000108,000127,013716
0000000076,000087,000108,009396
0000000077,000094,000117,010998
0000000078,000065,000107,006955
0000000079,000119,000122,014518
0000000080,000106,000149,015794
0000000081,000095,000116,011020
0000000082,000099,000114,011286
0000000083,000067,000114,007638
0000000084,000099,000114,011286
0000000085,000099,000114,011286
0000000086,000122,000141,017202
0000000087,000098,000115,011270
0000000088,000062,000105,006510
0000000089,000077,000114,008778
0000000090,000097,000115,011155
0000000091,000102,000121,012342
0000000092,000099,000118,011682
0000000093,000118,000117,013806
0000000094,000093,000110,010230
0000000095,000115,000121,013915
0000000096,000092,000109,010028
0000000097,000069,000110,007590
0000000098,000096,000162,015552
0000000099,000107,000119,012733
0000000100,000098,000109,010682
0000000101,000095,000108,010260
0000000102,000092,000165,015180
0000000103,000065,000114,007410
0000000104,000101,000108,010908
0000000105,000081,000121,009801
0000000106,000070,000113,007910
0000000107,000075,000099,007425
0000000108,000076,000114,008664
0000000109,000108,000122,013176
0000000110,000106,000118,012508
0000000111,000075,000112,008400
0000000112,000111,000112,012432
0000000113,000076,000115,008740
0000000114,000071,000110,007810
0000000115,000080,000116,009280
0000000116,000102,000162,016524
0000000117,000082,000109,008938
0000000118,000116,000117,013572
0000000119,000096,000157,015072
0000000120,000069,000112,007728
0000000121,000112,000108,012096
0000000122,000114,000107,012198
0000000123,000115,000097,011155
0000000124,000085,000099,008415
0000000125,000105,000106,011130
0000000126,000071,000106,007526
0000000127,000107,000117,012519
0000000128,000108,000125,013500
0000000129,000097,000131,012707
0000000130,000109,000095,010355
0000000131,000138,000159,021942
0000000132,000108,000091,009828
0000000133,000071,000108,007668
0000000134,000112,000112,012544
0000000135,000110,000162,017820
0000000136,000107,000119,012733
0000000137,000112,000122,013664
0000000138,000075,000106,007950
0000000139,000113,000121,013673
0000000140,000109,000118,012862
0000000141,000108,000110,011880
0000000142,000118,000107,012626
0000000143,000118,000144,016992
0000000144,000095,000136,012920
0000000145,000089,000106,009434
0000000146,000093,000114,010602
0000000147,000112,000110,012320
0000000148,000106,000116,012296
0000000149,000141,000159,022419
0000000150,000078,000113,008814
0000000151,000098,000118,011564
0000000152,000102,000158,016116
0000000153,000103,000130,013390
0000000154,000090,000113,010170
0000000155,000091,000121,011011
0000000156,000083,000093,007719
0000000157,000105,000120,012600
0000000158,000119,000091,010829
0000000159,000108,000118,012744
0000000160,000123,000147,018081
0000000161,000098,000156,015288
0000000162,000103,000116,011948
0000000163,000061,000113,006893
0000000164,000088,000110,009680
0000000165,000099,000117,011583
0000000166,000069,000090,006210
0000000167,000150,000167,025050
0000000168,000099,000121,011979
0000000169,000105,000154,016170
0000000170,000094,000115,010810
0000000171,000109,000081,008829
0000000172,000100,000067,006700
0000000173,000083,000144,011952
0000000174,000075,000107,008025
0000000175,000104,000114,011856
0000000176,000073,000106,007738
0000000177,000096,000148,014208
0000000178,000121,000112,013552
0000000179,000128,000150,019200
0000000180,000124,000113,014012
0000000181,000064,000111,007104
0000000182,000117,000103,012051
0000000183,000081,000100,008100
0000000184,000094,000160,015040
0000000185,000119,000085,010115
0000000186,000073,000116,008468
0000000187,000153,000178,027234
0000000188,000126,000102,012852
0000000189,000122,000103,012566
0000000190,000089,000109,009701
0000000191,000064,000106,006784
0000000192,000121,000104,012584
0000000193,000116,000120,013920
0000000194,000128,000158,020224
0000000195,000112,000125,014000
0000000196,000110,000137,015070
0000000197,000120,000107,012840
0000000198,000122,000112,013664
0000000199,000066,000113,007458
0000000200,000114,000112,012768
0000000201,000105,000162,017010
0000000202,000122,000119,014518
0000000203,000083,000110,009130
0000000204,000122,000119,014518
0000000205,000100,000116,011600
0000000206,000067,000103,006901
0000000207,000123,000118,014514
0000000208,000114,000108,012312
0000000209,000063,000099,006237
0000000210,000107,000090,009630
0000000211,000117,000143,016731
0000000212,000095,000135,012825
0000000213,000121,000079,009559
0000000214,000099,000121,011979
0000000215,000062,000107,006634
0000000216,000113,000128,014464
0000000217,000120,000133,015960
0000000218,000114,000154,017556
0000000219,000120,000131,015720
0000000220,000083,000104,008632
0000000221,000110,000119,013090
0000000222,000099,000116,011484
0000000223,000100,000110,011000
0000000224,000068,000091,006188
0000000225,000100,000109,010900
0000000226,000099,000108,010692
0000000227,000097,000134,012998
0000000228,000119,000145,017255
0000000229,000062,000092,005704
0000000230,000097,000114,011058
0000000231,000064,000107,006848
0000000232,000100,000115,011500
0000000233,000090,000118,010620
0000000234,000102,000115,011730
0000000235,000126,000154,019404
0000000236,000109,000121,013189
0000000237,000111,000131,014541
0000000238,000090,000108,009720
0000000239,000095,000116,011020
0000000240,000108,000128,013824
0000000241,000104,000125,013000
0000000242,000123,000143,017589
0000000243,000065,000091,005915
0000000244,000091,000142,012922
0000000245,000101,000129,013029
0000000246,000094,000124,011656
0000000247,000060,000091,005460
0000000248,000073,000102,007446
0000000249,000107,000123,013161
0000000250,000107,000127,013589
0000000251,000086,000117,010062
0000000252,000122,000150,018300
0000000253,000107,000129,013803
0000000254,000091,000107,009737
0000000255,000112,000124,013888
0000000256,000087,000108,009396
0000000257,000116,000124,014384
0000000258,000118,000137,016166
0000000259,000117,000121,014157
0000000260,000118,000118,013924
0000000261,000086,000161,013846
0000000262,000119,000114,013566
0000000263,000060,000103,006180
0000000264,000113,000110,012430
0000000265,000070,000104,007280
0000000266,000062,000097,006014
0000000267,000113,000109,012317
0000000268,000133,000137,018221
0000000269,000113,000125,014125
0000000270,000082,000115,009430
0000000271,000123,000138,016974
0000000272,000095,000121,011495
0000000273,000124,000140,017360
0000000274,000078,000107,008346
0000000275,000123,000139,017097
0000000276,000101,000133,013433
0000000277,000095,000147,013965
0000000278,000123,000142,017466
0000000279,000119,000139,016541
0000000280,000120,000138,016560
0000000281,000059,000101,005959
0000000282,000060,000110,006600
0000000283,000123,000141,017343
0000000284,000069,000099,006831
0000000285,000131,000127,016637
0000000286,000118,000135,015930
0000000287,000090,000120,010800
0000000288,000128,000147,018816
0000000289,000081,000117,009477
0000000290,000114,000135,015390
0000000291,000122,000139,016958
0000000292,000113,000138,015594
0000000293,000072,000110,007920
0000000294,000090,000140,012600
0000000295,000114,000143,016302
0000000296,000136,000114,015504
0000000297,000134,000121,016214
0000000298,000129,000123,015867
0000000299,000132,000109,014388
0000000300,000087,000094,008178
0000000301,000083,000109,009047
0000000302,000127,000133,016891
0000000303,000090,000118,010620
0000000304,000068,000094,006392
0000000305,000136,000136,018496
0000000306,000126,000144,018144
0000000307,000140,000138,019320
0000000308,000077,000117,009009
0000000309,000121,000125,015125
0000000310,000086,000142,012212
0000000311,000111,000129,014319
0000000312,000070,000108,007560
0000000313,000115,000129,014835
0000000314,000101,000159,016059
0000000315,000121,000116,014036
0000000316,000127,000113,014351
0000000317,000106,000140,014840
0000000318,000132,000108,014256
0000000319,000075,000101,007575
0000000320,000104,000069,007176
0000000321,000081,000133,010773
0000000322,000137,000095,013015
0000000323,000133,000141,018753
0000000324,000144,000096,013824
0000000325,000065,000093,006045
0000000326,000134,000089,011926
0000000327,000090,000090,008100
0000000328,000121,000134,016214
0000000329,000119,000088,010472
0000000330,000061,000083,005063
0000000331,000122,000104,012688
0000000332,000081,000095,007695
0000000333,000140,000115,016100
0000000334,000119,000090,010710
0000000335,000109,000140,015260
0000000336,000119,000107,012733
0000000337,000093,000134,012462
0000000338,000096,000117,011232
0000000339,000104,000112,011648
0000000340,000073,000087,006351
0000000341,000129,000137,017673
0000000342,000102,000128,013056
0000000343,000087,000131,011397
0000000344,000059,000099,005841
0000000345,000082,000145,011890
0000000346,000080,000126,010080
0000000347,000102,000106,010812
0000000348,000086,000121,010406
0000000349,000064,000089,005696
0000000350,000102,000125,012750
0000000351,000079,000096,007584
0000000352,000103,000135,013905
0000000353,000124,000127,015748
0000000354,000098,000127,012446
0000000355,000097,000100,009700
0000000356,000114,000136,015504
0000000357,000105,000132,013860
0000000358,000126,000143,018018
0000000359,000120,000151,018120
0000000360,000132,000149,019668
0000000361,000076,000095,007220
0000000362,000088,000158,013904
0000000363,000131,000144,018864
0000000364,000062,000102,006324
0000000365,000131,000139,018209
0000000366,000099,000102,010098
0000000367,000128,000141,018048
0000000368,000067,000093,006231
0000000369,000132,000142,018744
0000000370,000123,000147,018081
0000000371,000084,000094,007896
0000000372,000137,000158,021646
0000000373,000065,000079,005135
0000000374,000099,000125,012375
0000000375,000131,000155,020305
0000000376,000124,000149,018476
0000000377,000114,000142,016188
0000000378,000115,000138,015870
0000000379,000088,000166,014608
0000000380,000121,000146,017666
0000000381,000071,000093,006603
0000000382,000118,000131,015458
0000000383,000063,000100,006300
0000000384,000128,000131,016768
0000000385,000104,000100,010400
0000000386,000131,000133,017423
0000000387,000064,000085,005440
0000000388,000107,000148,015836
0000000389,000132,000139,018348
0000000390,000066,000093,006138
0000000391,000098,000125,012250
0000000392,000119,000144,017136
0000000393,000137,000158,021646
0000000394,000076,000095,007220
0000000395,000138,000160,022080
0000000396,000130,000147,019110
0000000397,000081,000163,013203
0000000398,000104,000127,013208
0000000399,000117,000139,016263
0000000400,000073,000081,005913
0000000401,000123,000141,017343
0000000402,000076,000085,006460
0000000403,000126,000142,017892
0000000404,000072,000128,009216
0000000405,000124,000145,017980
0000000406,000098,000151,014798
0000000407,000135,000153,020655
0000000408,000076,000104,007904
0000000409,000089,000138,012282
0000000410,000062,000094,005828
0000000411,000135,000168,022680
0000000412,000133,000168,022344
0000000413,000083,000101,008383
0000000414,000125,000159,019875
0000000415,000124,000163,020212
0000000416,000083,000166,013778
0000000417,000121,000161,019481
0000000418,000118,000149,017582
0000000419,000123,000155,019065
0000000420,000078,000093,007254
0000000421,000077,000103,007931
0000000422,000097,000152,014744
0000000423,000126,000146,018396
0000000424,000125,000153,019125
0000000425,000084,000140,011760
0000000426,000090,000096,008640
0000000427,000062,000117,007254
0000000428,000125,000148,018500
0000000429,000069,000095,006555
0000000430,000112,000138,015456
0000000431,000114,000134,015276
0000000432,000082,000098,008036
0000000433,000111,000125,013875
0000000434,000089,000165,014685
0000000435,000153,000149,022797
0000000436,000154,000156,024024
0000000437,000150,000156,023400
0000000438,000129,000149,019221
0000000439,000149,000160,023840
0000000440,000081,000148,011988
0000000441,000080,000089,007120
0000000442,000072,000105,007560
0000000443,000153,000173,026469
0000000444,000076,000088,006688
0000000445,000077,000131,010087
0000000446,000150,000168,025200
0000000447,000075,000092,006900
0000000448,000145,000156,022620
0000000449,000146,000159,023214
0000000450,000082,000096,007872
0000000451,000153,000149,022797
0000000452,000097,000153,014841
0000000453,000157,000138,021666
0000000454,000148,000161,023828
0000000455,000152,000168,025536
0000000456,000129,000150,019350
0000000457,000077,000146,011242
0000000458,000153,000168,025704
0000000459,000101,000100,010100
0000000460,000072,000112,008064
0000000461,000153,000156,023868
0000000462,000080,000119,009520
0000000463,000073,000088,006424
0000000464,000139,000162,022518
0000000465,000135,000145,019575
0000000466,000084,000079,006636
0000000467,000087,000143,012441
0000000468,000143,000122,017446
0000000469,000059,000109,006431
0000000470,000144,000165,023760
0000000471,000143,000167,023881
0000000472,000127,000150,019050
0000000473,000140,000166,023240
0000000474,000078,000147,011466
0000000475,000134,000169,022646
0000000476,000126,000162,020412
0000000477,000090,000089,008010
0000000478,000074,000120,008880
0000000479,000134,000169,022646
0000000480,000084,000122,010248
0000000481,000073,000077,005621
0000000482,000134,000168,022512
0000000483,000085,000148,012580
0000000484,000089,000089,007921
0000000485,000145,000161,023345
0000000486,000147,000155,022785
0000000487,000122,000149,018178
0000000488,000058,000110,006380
0000000489,000153,000142,021726
0000000490,000158,000144,022752
0000000491,000097,000156,015132
0000000492,000157,000135,021195
0000000493,000147,000159,023373
0000000494,000136,000164,022304
0000000495,000098,000079,007742
0000000496,000069,000118,008142
0000000497,000135,000164,022140
0000000498,000091,000126,011466
0000000499,000084,000148,012432
0000000500,000148,000169,025012
0000000501,000067,000081,005427
0000000502,000088,000091,008008
0000000503,000153,000168,025704
0000000504,000123,000150,018450
0000000505,000149,000164,024436
0000000506,000153,000158,024174
0000000507,000063,000107,006741
0000000508,000109,000145,015805
0000000509,000155,000150,023250
0000000510,000148,000164,024272
0000000511,000104,000080,008320
0000000512,000150,000172,025800
0000000513,000148,000166,024568
0000000514,000082,000145,011890
0000000515,000150,000171,025650
0000000516,000082,000118,009676
0000000517,000067,000115,007705
0000000518,000125,000159,019875
0000000519,000138,000170,023460
0000000520,000082,000093,007626
0000000521,000072,000095,006840
0000000522,000141,000166,023406
0000000523,000159,000131,020829
0000000524,000102,000148,015096
0000000525,000062,000110,006820
0000000526,000108,000128,013824
0000000527,000134,000140,018760
0000000528,000073,000097,007081
0000000529,000056,000097,005432
0000000530,000071,000092,006532
0000000531,000127,000156,019812
0000000532,000125,000121,015125
0000000533,000081,000086,006966
0000000534,000093,000127,011811
0000000535,000067,000098,006566
0000000536,000058,000116,006728
0000000537,000061,000101,006161
0000000538,000079,000094,007426
0000000539,000058,000101,005858
0000000540,000098,000145,014210
0000000541,000075,000096,007200
0000000542,000058,000100,005800
0000000543,000063,000104,006552
0000000544,000072,000103,007416
0000000545,000066,000107,007062
0000000546,000072,000099,007128
0000000547,000066,000108,007128
0000000548,000136,000132,017952
0000000549,000121,000116,014036
0000000550,000066,000112,007392
0000000551,000093,000125,011625
0000000552,000065,000111,007215
0000000553,000060,000119,007140
0000000554,000057,000101,005757
0000000555,000076,000106,008056
0000000556,000090,000159,014310
0000000557,000071,000098,006958
0000000558,000070,000107,007490
0000000559,000085,000098,008330
0000000560,000065,000106,006890
0000000561,000079,000111,008769
0000000562,000066,000102,006732
0000000563,000056,000111,006216
0000000564,000077,000109,008393
0000000565,000120,000131,015720
0000000566,000117,000131,015327
0000000567,000064,000107,006848
0000000568,000075,000132,009900
0000000569,000062,000118,007316
0000000570,000062,000122,007564
0000000571,000059,000112,006608
0000000572,000057,000110,006270
0000000573,000126,000128,016128
0000000574,000057,000114,006498
0000000575,000064,000100,006400
0000000576,000085,000083,007055
0000000577,000063,000115,007245
0000000578,000062,000112,006944
0000000579,000091,000116,010556
0000000580,000058,000111,006438
0000000581,000120,000112,013440
0000000582,000055,000110,006050
0000000583,000123,000133,016359
0000000584,000079,000114,009006
0000000585,000060,000111,006660
0000000586,000062,000123,007626
0000000587,000078,000138,010764
0000000588,000056,000108,006048
0000000589,000059,000100,005900
0000000590,000129,000131,016899
0000000591,000054,000103,005562
0000000592,000054,000103,005562
0000000593,000058,000096,005568
0000000594,000075,000099,007425
0000000595,000087,000090,007830
0000000596,000119,000136,016184
0000000597,000057,000111,006327
0000000598,000077,000104,008008
0000000599,000093,000133,012369
0000000600,000059,000112,006608
0000000601,000058,000115,006670
0000000602,000081,000108,008748
0000000603,000061,000124,007564
0000000604,000053,000111,005883
0000000605,000081,000139,011259
0000000606,000060,000119,007140
0000000607,000133,000153,020349
0000000608,000055,000110,006050
0000000609,000055,000110,006050
0000000610,000059,000109,006431
0000000611,000126,000106,013356
0000000612,000072,000090,006480
0000000613,000079,000099,007821
0000000614,000057,000106,006042
0000000615,000091,000145,013195
0000000616,000102,000101,010302
0000000617,000063,000108,006804
0000000618,000082,000108,008856
0000000619,000094,000093,008742
0000000620,000081,000112,009072
0000000621,000059,000121,007139
0000000622,000084,000112,009408
0000000623,000129,000156,020124
0000000624,000079,000124,009796
0000000625,000092,000109,010028
0000000626,000085,000100,008500
0000000627,000089,000109,009701
0000000628,000122,000128,015616
0000000629,000088,000082,007216
0000000630,000090,000112,010080
0000000631,000068,000091,006188
0000000632,000097,000147,014259
0000000633,000076,000107,008132
0000000634,000096,000103,009888
0000000635,000106,000100,010600
0000000636,000085,000110,009350
0000000637,000090,000092,008280
0000000638,000083,000111,009213
0000000639,000116,000153,017748
0000000640,000059,000121,007139
0000000641,000079,000119,009401
0000000642,000071,000128,009088
0000000643,000083,000123,010209
0000000644,000085,000128,010880
0000000645,000115,000134,015410
0000000646,000088,000125,011000
0000000647,000091,000077,007007
0000000648,000107,000142,015194
0000000649,000088,000120,010560
0000000650,000065,000107,006955
0000000651,000090,000103,009270
0000000652,000070,000117,008190
0000000653,000108,000098,010584
0000000654,000073,000119,008687
0000000655,000109,000154,016786
0000000656,000084,000096,008064
0000000657,000066,000117,007722
0000000658,000066,000124,008184
0000000659,000061,000113,006893
0000000660,000066,000119,007854
0000000661,000064,000116,007424
0000000662,000098,000105,010290
0000000663,000115,000130,014950
0000000664,000089,000071,006319
0000000665,000098,000145,014210
0000000666,000113,000115,012995
0000000667,000104,000116,012064
0000000668,000067,000109,007303
0000000669,000120,000121,014520
0000000670,000122,000122,014884
0000000671,000110,000094,010340
0000000672,000110,000162,017820
0000000673,000086,000100,008600
0000000674,000113,000128,014464
0000000675,000113,000131,014803
0000000676,000069,000133,009177
0000000677,000094,000121,011374
0000000678,000069,000110,007590
0000000679,000090,000128,011520
0000000680,000097,000145,014065
0000000681,000102,000122,012444
0000000682,000070,000142,009940
0000000683,000090,000104,009360
0000000684,000071,000142,010082
0000000685,000071,000111,007881
0000000686,000068,000128,008704
0000000687,000066,000133,008778
0000000688,000088,000101,008888
0000000689,000100,000161,016100
0000000690,000082,000127,010414
0000000691,000101,000097,009797
0000000692,000073,000127,009271
0000000693,000067,000118,007906
0000000694,000076,000123,009348
0000000695,000115,000126,014490
0000000696,000081,000133,010773
0000000697,000069,000108,007452
0000000698,000097,000147,014259
0000000699,000081,000135,010935
0000000700,000082,000141,011562
0000000701,000093,000113,010509
0000000702,000094,000091,008554
0000000703,000074,000129,009546
0000000704,000068,000107,007276
0000000705,000074,000130,009620
0000000706,000090,000139,012510
0000000707,000073,000131,009563
0000000708,000070,000141,009870
0000000709,000106,000092,009752
0000000710,000070,000144,010080
0000000711,000116,000130,015080
0000000712,000071,000134,009514
0000000713,000093,000130,012090
0000000714,000064,000112,007168
0000000715,000071,000140,009940
0000000716,000073,000105,007665
0000000717,000096,000093,008928
0000000718,000076,000127,009652
0000000719,000086,000131,011266
0000000720,000091,000141,012831
0000000721,000062,000112,006944
0000000722,000092,000113,010396
0000000723,000089,000135,012015
0000000724,000086,000136,011696
0000000725,000079,000134,010586
0000000726,000087,000149,012963
0000000727,000101,000085,008585
0000000728,000114,000131,014934
0000000729,000081,000147,011907
0000000730,000073,000111,008103
0000000731,000092,000125,011500
0000000732,000090,000146,013140
0000000733,000065,000108,007020
0000000734,000079,000163,012877
0000000735,000069,000095,006555
0000000736,000075,000151,011325
0000000737,000081,000147,011907
0000000738,000062,000105,006510
0000000739,000089,000134,011926
0000000740,000072,000145,010440
0000000741,000063,000105,006615
0000000742,000056,000102,005712
0000000743,000093,000112,010416
0000000744,000079,000147,011613
0000000745,000062,000108,006696
0000000746,000076,000142,010792
0000000747,000080,000105,008400
0000000748,000081,000152,012312
0000000749,000111,000124,013764
0000000750,000091,000111,010101
0000000751,000079,000094,007426
0000000752,000091,000135,012285
0000000753,000081,000098,007938
0000000754,000079,000150,011850
0000000755,000067,000084,005628
0000000756,000125,000142,017750
0000000757,000072,000087,006264
0000000758,000064,000106,006784
0000000759,000106,000143,015158
0000000760,000072,000089,006408
0000000761,000071,000095,006745
0000000762,000091,000150,013650
0000000763,000072,000090,006480
0000000764,000089,000164,014596
0000000765,000090,000149,013410
0000000766,000067,000094,006298
0000000767,000092,000161,014812
0000000768,000053,000099,005247
0000000769,000057,000102,005814
0000000770,000096,000162,015552
0000000771,000096,000111,010656
0000000772,000058,000103,005974
0000000773,000101,000165,016665
0000000774,000084,000105,008820
0000000775,000058,000104,006032
0000000776,000096,000125,012000
0000000777,000112,000126,014112
0000000778,000094,000165,015510
0000000779,000063,000100,006300
0000000780,000088,000100,008800
0000000781,000088,000148,013024
0000000782,000063,000101,006363
0000000783,000089,000151,013439
0000000784,000066,000104,006864
0000000785,000075,000104,007800
0000000786,000087,000162,014094
0000000787,000088,000103,009064
0000000788,000075,000098,007350
0000000789,000084,000158,013272
0000000790,000089,000103,009167
0000000791,000102,000157,016014
0000000792,000086,000155,013330
0000000793,000096,000102,009792
0000000794,000098,000100,009800
0000000795,000093,000133,012369
0000000796,000091,000154,014014
0000000797,000063,000104,006552
0000000798,000094,000105,009870
0000000799,000100,000100,010000
0000000800,000077,000118,009086
0000000801,000124,000121,015004
0000000802,000077,000103,007931
0000000803,000097,000102,009894
0000000804,000116,000157,018212
0000000805,000094,000103,009682
0000000806,000105,000105,011025
0000000807,000128,000159,020352
0000000808,000100,000103,010300
0000000809,000094,000154,014476
0000000810,000093,000103,009579
0000000811,000079,000163,012877
0000000812,000065,000098,006370
0000000813,000060,000116,006960
0000000814,000083,000161,013363
0000000815,000100,000164,016400
0000000816,000061,000113,006893
0000000817,000077,000100,007700
0000000818,000105,000135,014175
0000000819,000083,000163,013529
0000000820,000061,000109,006649
0000000821,000085,000172,014620
0000000822,000093,000117,010881
0000000823,000061,000110,006710
0000000824,000072,000097,006984
0000000825,000079,000165,013035
0000000826,000131,000110,014410
0000000827,000064,000114,007296
0000000828,000086,000163,014018
0000000829,000077,000099,007623
0000000830,000058,000111,006438
0000000831,000082,000165,013530
0000000832,000064,000115,007360
0000000833,000082,000098,008036
0000000834,000084,000163,013692
0000000835,000059,000115,006785
0000000836,000102,000165,016830
0000000837,000054,000112,006048
0000000838,000110,000127,013970
0000000839,000079,000160,012640
0000000840,000054,000110,005940
0000000841,000094,000088,008272
0000000842,000095,000165,015675
0000000843,000079,000162,012798
0000000844,000055,000109,005995
0000000845,000075,000100,007500
0000000846,000081,000167,013527
0000000847,000092,000128,011776
0000000848,000074,000106,007844
0000000849,000113,000142,016046
0000000850,000080,000163,013040
0000000851,000068,000105,007140
0000000852,000080,000100,008000
0000000853,000092,000164,015088
0000000854,000059,000099,005841
0000000855,000093,000162,015066
0000000856,000074,000094,006956
0000000857,000085,000081,006885
0000000858,000102,000153,015606
0000000859,000075,000094,007050
0000000860,000111,000126,013986
0000000861,000082,000097,007954
0000000862,000133,000165,021945
0000000863,000074,000094,006956
0000000864,000134,000164,021976
0000000865,000075,000097,007275
0000000866,000095,000175,016625
0000000867,000119,000160,019040
0000000868,000077,000098,007546
0000000869,000099,000094,009306
0000000870,000115,000144,016560
0000000871,000124,000154,019096
0000000872,000091,000118,010738
0000000873,000074,000098,007252
0000000874,000073,000098,007154
0000000875,000109,000159,017331
0000000876,000068,000099,006732
0000000877,000103,000167,017201
0000000878,000066,000087,005742
0000000879,000084,000101,008484
0000000880,000104,000162,016848
0000000881,000072,000095,006840
0000000882,000086,000162,013932
0000000883,000075,000105,007875
0000000884,000122,000134,016348
0000000885,000091,000164,014924
0000000886,000075,000106,007950
0000000887,000084,000078,006552
0000000888,000098,000175,017150
0000000889,000068,000101,006868
0000000890,000079,000106,008374
0000000891,000116,000147,017052
0000000892,000076,000114,008664
0000000893,000080,000109,008720
0000000894,000080,000113,009040
0000000895,000101,000092,009292
0000000896,000082,000112,009184
0000000897,000070,000092,006440
0000000898,000085,000116,009860
0000000899,000083,000115,009545
0000000900,000084,000106,008904
0000000901,000075,000111,008325
0000000902,000123,000136,016728
0000000903,000111,000144,015984
0000000904,000075,000117,008775
0000000905,000100,000183,018300
0000000906,000077,000115,008855
0000000907,000081,000105,008505
0000000908,000086,000103,008858
0000000909,000084,000118,009912
0000000910,000068,000111,007548
0000000911,000075,000114,008550
0000000912,000103,000098,010094
0000000913,000067,000112,007504
0000000914,000066,000113,007458
0000000915,000070,000100,007000
0000000916,000067,000114,007638
0000000917,000077,000097,007469
0000000918,000073,000113,008249
0000000919,000123,000136,016728
0000000920,000124,000149,018476
0000000921,000076,000115,008740
0000000922,000085,000107,009095
0000000923,000080,000142,011360
0000000924,000085,000123,010455
0000000925,000085,000110,009350
0000000926,000087,000104,009048
0000000927,000066,000103,006798
0000000928,000085,000112,009520
0000000929,000082,000105,008610
0000000930,000068,000104,007072
0000000931,000102,000093,009486
0000000932,000070,000093,006510
0000000933,000069,000107,007383
0000000934,000127,000156,019812
0000000935,000071,000110,007810
0000000936,000118,000129,015222
0000000937,000055,000106,005830
0000000938,000072,000112,008064
0000000939,000080,000122,009760
0000000940,000067,000106,007102
0000000941,000080,000142,011360
0000000942,000077,000096,007392
0000000943,000076,000096,007296
0000000944,000091,000106,009646
0000000945,000098,000104,010192
0000000946,000070,000090,006300
0000000947,000068,000088,005984
0000000948,000125,000157,019625
0000000949,000116,000113,013108
0000000950,000104,000102,010608
0000000951,000066,000092,006072
0000000952,000078,000099,007722
0000000953,000069,000097,006693
0000000954,000070,000097,006790
0000000955,000057,000107,006099
0000000956,000082,000124,010168
0000000957,000065,000093,006045
0000000958,000088,000125,011000
0000000959,000064,000086,005504
0000000960,000066,000102,006732
0000000961,000064,000097,006208
0000000962,000128,000149,019072
0000000963,000081,000091,007371
0000000964,000101,000111,011211
0000000965,000064,000093,005952
0000000966,000116,000120,013920
0000000967,000069,000098,006762
0000000968,000099,000105,010395
0000000969,000082,000102,008364
0000000970,000075,000100,007500
0000000971,000071,000107,007597
0000000972,000077,000115,008855
0000000973,000070,000110,007700
0000000974,000071,000125,008875
0000000975,000084,000138,011592
0000000976,000074,000114,008436
0000000977,000076,000114,008664
0000000978,000130,000140,018200
0000000979,000074,000111,008214
0000000980,000066,000113,007458
0000000981,000087,000143,012441
0000000982,000084,000097,008148
0000000983,000101,000107,010807
0000000984,000067,000112,007504
0000000985,000082,000102,008364
0000000986,000071,000113,008023
0000000987,000104,000103,010712
0000000988,000071,000114,008094
0000000989,000097,000127,012319
0000000990,000069,000113,007797
0000000991,000077,000116,008932
0000000992,000071,000111,007881
0000000993,000067,000117,007839
0000000994,000115,000124,014260
0000000995,000077,000109,008393
0000000996,000079,000108,008532
0000000997,000079,000108,008532
0000000998,000090,000152,013680
0000000999,000075,000101,007575
0000001000,000088,000084,007392
0000001001,000086,000093,007998
0000001002,000075,000103,007725
0000001003,000080,000093,007440
0000001004,000103,000107,011021
0000001005,000116,000124,014384
0000001006,000083,000089,007387
0000001007,000085,000093,007905
0000001008,000078,000090,007020
0000001009,000071,000109,007739
0000001010,000131,000096,012576
0000001011,000073,000087,006351
0000001012,000067,000118,007906
0000001013,000071,000095,006745
0000001014,000090,000151,013590
0000001015,000077,000089,006853
0000001016,000078,000094,007332
0000001017,000093,000108,010044
0000001018,000081,000102,008262
0000001019,000071,000108,007668
0000001020,000080,000103,008240
0000001021,000077,000088,006776
0000001022,000126,000136,017136
0000001023,000090,000109,009810
0000001024,000082,000107,008774
0000001025,000082,000111,009102
0000001026,000126,000142,017892
0000001027,000067,000105,007035
0000001028,000092,000106,009752
0000001029,000083,000088,007304
0000001030,000073,000126,009198
0000001031,000087,000101,008787
0000001032,000084,000100,008400
0000001033,000089,000113,010057
0000001034,000088,000111,009768
0000001035,000093,000103,009579
0000001036,000085,000108,009180
0000001037,000129,000118,015222
0000001038,000088,000111,009768
0000001039,000076,000108,008208
0000001040,000078,000091,007098
0000001041,000093,000082,007626
0000001042,000088,000109,009592
0000001043,000127,000143,018161
0000001044,000087,000102,008874
0000001045,000093,000102,009486
0000001046,000064,000104,006656
0000001047,000086,000090,007740
0000001048,000093,000102,009486
0000001049,000075,000130,009750
0000001050,000093,000101,009393
0000001051,000091,000106,009646
0000001052,000093,000107,009951
0000001053,000099,000115,011385
0000001054,000099,000096,009504
0000001055,000126,000120,015120
0000001056,000095,000100,009500
0000001057,000123,000148,018204
0000001058,000079,000093,007347
0000001059,000097,000077,007469
0000001060,000082,000098,008036
0000001061,000095,000102,009690
0000001062,000097,000104,010088
0000001063,000093,000102,009486
0000001064,000075,000124,009300
0000001065,000067,000108,007236
0000001066,000081,000090,007290
0000001067,000093,000102,009486
0000001068,000082,000114,009348
0000001069,000091,000112,010192
0000001070,000083,000115,009545
0000001071,000086,000110,009460
0000001072,000126,000127,016002
0000001073,000125,000150,018750
0000001074,000065,000102,006630
0000001075,000072,000117,008424
0000001076,000071,000110,007810
0000001077,000107,000079,008453
0000001078,000081,000095,007695
0000001079,000069,000109,007521
0000001080,000074,000110,008140
0000001081,000086,000100,008600
0000001082,000078,000111,008658
0000001083,000081,000094,007614
0000001084,000081,000091,007371
0000001085,000084,000096,008064
0000001086,000096,000106,010176
0000001087,000125,000125,015625
0000001088,000100,000107,010700
0000001089,000079,000115,009085
0000001090,000105,000110,011550
0000001091,000139,000142,019738
0000001092,000097,000106,010282
0000001093,000100,000110,011000
0000001094,000108,000080,008640
0000001095,000073,000119,008687
0000001096,000085,000105,008925
0000001097,000075,000113,008475
0000001098,000100,000111,011100
0000001099,000091,000111,010101
0000001100,000082,000114,009348
0000001101,000100,000114,011400
0000001102,000079,000089,007031
0000001103,000102,000115,011730
0000001104,000093,000126,011718
0000001105,000123,000141,017343
0000001106,000092,000123,011316
0000001107,000129,000137,017673
0000001108,000070,000107,007490
0000001109,000090,000116,010440
0000001110,000063,000123,007749
0000001111,000089,000125,011125
0000001112,000103,000092,009476
0000001113,000095,000130,012350
0000001114,000082,000099,008118
0000001115,000081,000120,009720
0000001116,000082,000123,010086
0000001117,000062,000103,006386
0000001118,000085,000122,010370
0000001119,000073,000121,008833
0000001120,000078,000083,006474
0000001121,000079,000124,009796
0000001122,000121,000142,017182
0000001123,000081,000125,010125
0000001124,000127,000129,016383
0000001125,000081,000127,010287
0000001126,000061,000123,007503
0000001127,000071,000112,007952
0000001128,000075,000128,009600
0000001129,000104,000103,010712
0000001130,000071,000124,008804
0000001131,000077,000096,007392
0000001132,000077,000105,008085
0000001133,000069,000118,008142
0000001134,000062,000107,006634
0000001135,000068,000114,007752
0000001136,000074,000116,008584
0000001137,000082,000080,006560
0000001138,000062,000109,006758
0000001139,000104,000137,014248
0000001140,000069,000100,006900
0000001141,000132,000149,019668
0000001142,000063,000124,007812
0000001143,000088,000117,010296
0000001144,000070,000115,008050
0000001145,000074,000111,008214
0000001146,000105,000092,009660
0000001147,000081,000091,007371
0000001148,000082,000092,007544
0000001149,000065,000100,006500
0000001150,000077,000103,007931
0000001151,000063,000106,006678
0000001152,000067,000108,007236
0000001153,000062,000112,006944
0000001154,000064,000108,006912
0000001155,000106,000141,014946
0000001156,000070,000105,007350
0000001157,000081,000079,006399
0000001158,000065,000127,008255
0000001159,000076,000101,007676
0000001160,000128,000131,016768
0000001161,000098,000083,008134
0000001162,000084,000093,007812
0000001163,000096,000091,008736
0000001164,000103,000108,011124
0000001165,000091,000115,010465
0000001166,000102,000094,009588
0000001167,000078,000093,007254
0000001168,000105,000089,009345
0000001169,000110,000093,010230
0000001170,000089,000098,008722
0000001171,000110,000086,009460
0000001172,000109,000144,015696
0000001173,000110,000095,010450
0000001174,000079,000083,006557
0000001175,000111,000098,010878
0000001176,000074,000093,006882
0000001177,000131,000132,017292
0000001178,000068,000126,008568
0000001179,000101,000099,009999
0000001180,000085,000097,008245
0000001181,000089,000103,009167
0000001182,000092,000116,010672
0000001183,000091,000116,010556
0000001184,000085,000114,009690
0000001185,000071,000096,006816
0000001186,000090,000118,010620
0000001187,000097,000118,011446
0000001188,000093,000105,009765
0000001189,000124,000158,019592
0000001190,000108,000122,013176
0000001191,000114,000129,014706
0000001192,000121,000149,018029
0000001193,000080,000085,006800
0000001194,000105,000120,012600
0000001195,000073,000104,007592
0000001196,000073,000118,008614
0000001197,000105,000119,012495
0000001198,000106,000119,012614
0000001199,000107,000126,013482
0000001200,000061,000102,006222
0000001201,000093,000119,011067
0000001202,000075,000113,008475
0000001203,000069,000104,007176
0000001204,000083,000121,010043
0000001205,000106,000145,015370
0000001206,000066,000106,006996
0000001207,000084,000121,010164
0000001208,000118,000140,016520
0000001209,000080,000111,008880
0000001210,000079,000117,009243
0000001211,000080,000083,006640
0000001212,000096,000121,011616
0000001213,000066,000116,007656
0000001214,000066,000122,008052
0000001215,000076,000107,008132
0000001216,000108,000128,013824
0000001217,000079,000103,008137
0000001218,000082,000128,010496
0000001219,000079,000104,008216
0000001220,000079,000102,008058
0000001221,000064,000106,006784
0000001222,000131,000132,017292
0000001223,000101,000140,014140
0000001224,000078,000104,008112
0000001225,000075,000114,008550
0000001226,000084,000111,009324
0000001227,000089,000114,010146
0000001228,000087,000112,009744
0000001229,000072,000119,008568
0000001230,000080,000083,006640
0000001231,000098,000129,012642
0000001232,000084,000122,010248
0000001233,000099,000127,012573
0000001234,000086,000123,010578
0000001235,000120,000119,014280
0000001236,000144,000128,018432
0000001237,000078,000130,010140
0000001238,000119,000115,013685
0000001239,000105,000133,013965
0000001240,000068,000110,007480
0000001241,000115,000112,012880
0000001242,000062,000106,006572
0000001243,000112,000114,012768
0000001244,000104,000110,011440
0000001245,000062,000121,007502
0000001246,000104,000106,011024
0000001247,000088,000129,011352
0000001248,000109,000105,011445
0000001249,000065,000086,005590
0000001250,000090,000115,010350
0000001251,000095,000102,009690
0000001252,000143,000126,018018
0000001253,000104,000116,012064
0000001254,000105,000116,012180
0000001255,000070,000130,009100
0000001256,000103,000110,011330
0000001257,000115,000121,013915
0000001258,000057,000113,006441
0000001259,000066,000114,007524
0000001260,000104,000112,011648
0000001261,000062,000123,007626
0000001262,000108,000111,011988
0000001263,000112,000111,012432
0000001264,000101,000104,010504
0000001265,000078,000122,009516
0000001266,000125,000153,019125
0000001267,000101,000120,012120
0000001268,000085,000092,007820
0000001269,000081,000119,009639
0000001270,000104,000126,013104
0000001271,000111,000127,014097
0000001272,000110,000125,013750
0000001273,000072,000112,008064
0000001274,000117,000136,015912
0000001275,000063,000119,007497
0000001276,000094,000124,011656
0000001277,000060,000125,007500
0000001278,000093,000130,012090
0000001279,000069,000115,007935
0000001280,000093,000135,012555
0000001281,000088,000123,010824
0000001282,000135,000153,020655
0000001283,000094,000129,012126
0000001284,000081,000125,010125
0000001285,000101,000127,012827
0000001286,000087,000089,007743
0000001287,000114,000129,014706
0000001288,000088,000124,010912
0000001289,000097,000120,011640
0000001290,000108,000132,014256
0000001291,000064,000124,007936
0000001292,000097,000123,011931
0000001293,000078,000107,008346
0000001294,000062,000110,006820
0000001295,000103,000130,013390
0000001296,000102,000129,013158
0000001297,000065,000120,007800
0000001298,000098,000145,014210
0000001299,000101,000127,012827
0000001300,000111,000131,014541
0000001301,000119,000141,016779
0000001302,000083,000130,010790
0000001303,000121,000143,017303
0000001304,000093,000119,011067
0000001305,000089,000085,007565
0000001306,000112,000135,015120
0000001307,000113,000144,016272
0000001308,000065,000132,008580
0000001309,000078,000131,010218
0000001310,000086,000110,009460
0000001311,000078,000131,010218
0000001312,000081,000120,009720
0000001313,000106,000117,012402
0000001314,000123,000137,016851
0000001315,000108,000116,012528
0000001316,000068,000107,007276
0000001317,000100,000115,011500
0000001318,000097,000109,010573
0000001319,000104,000133,013832
0000001320,000088,000108,009504
0000001321,000084,000135,011340
0000001322,000108,000129,013932
0000001323,000110,000138,015180
0000001324,000093,000085,007905
0000001325,000069,000143,009867
0000001326,000110,000143,015730
0000001327,000107,000139,014873
0000001328,000092,000116,010672
0000001329,000116,000147,017052
0000001330,000123,000150,018450
0000001331,000087,000120,010440
0000001332,000105,000138,014490
0000001333,000107,000133,014231
0000001334,000074,000113,008362
0000001335,000108,000137,014796
0000001336,000104,000129,013416
0000001337,000110,000136,014960
0000001338,000085,000098,008330
0000001339,000068,000139,009452
0000001340,000102,000135,013770
0000001341,000083,000136,011288
0000001342,000087,000129,011223
0000001343,000090,000087,007830
0000001344,000083,000123,010209
0000001345,000095,000138,013110
0000001346,000086,000103,008858
0000001347,000092,000110,010120
0000001348,000093,000118,010974
0000001349,000086,000101,008686
0000001350,000077,000111,008547
0000001351,000067,000106,007102
0000001352,000069,000109,007521
0000001353,000112,000146,016352
0000001354,000059,000105,006195
0000001355,000065,000103,006695
0000001356,000086,000124,010664
0000001357,000096,000095,009120
0000001358,000078,000122,009516
0000001359,000077,000126,009702
0000001360,000086,000090,007740
0000001361,000080,000128,010240
0000001362,000126,000150,018900
0000001363,000096,000145,013920
0000001364,000093,000148,013764
0000001365,000089,000104,009256
0000001366,000087,000111,009657
0000001367,000092,000149,013708
0000001368,000063,000124,007812
0000001369,000099,000138,013662
0000001370,000088,000145,012760
0000001371,000086,000150,012900
0000001372,000078,000119,009282
0000001373,000082,000147,012054
0000001374,000096,000107,010272
0000001375,000082,000146,011972
0000001376,000099,000147,014553
0000001377,000076,000144,010944
0000001378,000075,000120,009000
0000001379,000085,000090,007650
0000001380,000080,000149,011920
0000001381,000085,000099,008415
0000001382,000106,000116,012296
0000001383,000079,000097,007663
0000001384,000106,000144,015264
0000001385,000078,000094,007332
0000001386,000081,000100,008100
0000001387,000075,000132,009900
0000001388,000091,000093,008463
0000001389,000077,000117,009009
0000001390,000071,000105,007455
0000001391,000105,000099,010395
0000001392,000108,000151,016308
0000001393,000094,000127,011938
0000001394,000102,000086,008772
0000001395,000093,000126,011718
0000001396,000074,000126,009324
0000001397,000082,000096,007872
0000001398,000095,000126,011970
0000001399,000109,000126,013734
0000001400,000099,000135,013365
0000001401,000108,000102,011016
0000001402,000096,000131,012576
0000001403,000100,000146,014600
0000001404,000073,000080,005840
0000001405,000098,000142,013916
0000001406,000103,000129,013287
0000001407,000096,000146,014016
0000001408,000096,000128,012288
0000001409,000125,000155,019375
0000001410,000067,000105,007035
0000001411,000084,000125,010500
0000001412,000087,000143,012441
0000001413,000099,000151,014949
0000001414,000086,000137,011782
0000001415,000077,000135,010395
0000001416,000078,000087,006786
0000001417,000085,000123,010455
0000001418,000108,000105,011340
0000001419,000087,000115,010005
0000001420,000089,000123,010947
0000001421,000096,000135,012960
0000001422,000070,000082,005740
0000001423,000093,000129,011997
0000001424,000086,000126,010836
0000001425,000108,000144,015552
0000001426,000086,000108,009288
0000001427,000071,000106,007526
0000001428,000085,000125,010625
0000001429,000099,000139,013761
0000001430,000100,000147,014700
0000001431,000096,000147,014112
0000001432,000097,000150,014550
0000001433,000077,000134,010318
0000001434,000084,000113,009492
0000001435,000077,000095,007315
0000001436,000079,000144,011376
0000001437,000075,000141,010575
0000001438,000126,000154,019404
0000001439,000074,000140,010360
0000001440,000082,000100,008200
0000001441,000082,000129,010578
0000001442,000073,000134,009782
0000001443,000085,000129,010965
0000001444,000074,000136,010064
0000001445,000081,000107,008667
0000001446,000102,000137,013974
0000001447,000113,000141,015933
0000001448,000090,000146,013140
0000001449,000118,000145,017110
0000001450,000079,000095,007505
0000001451,000113,000141,015933
0000001452,000080,000124,009920
0000001453,000101,000167,016867
0000001454,000083,000115,009545
0000001455,000113,000153,017289
0000001456,000101,000133,013433
0000001457,000085,000108,009180
0000001458,000099,000134,013266
0000001459,000097,000113,010961
0000001460,000096,000137,013152
0000001461,000092,000129,011868
0000001462,000094,000129,012126
0000001463,000089,000136,012104
0000001464,000078,000110,008580
0000001465,000092,000150,013800
0000001466,000097,000148,014356
0000001467,000076,000098,007448
0000001468,000109,000167,018203
0000001469,000108,000175,018900
0000001470,000115,000169,019435
0000001471,000097,000114,011058
0000001472,000080,000116,009280
0000001473,000106,000158,016748
0000001474,000104,000153,015912
0000001475,000079,000100,007900
0000001476,000117,000172,020124
0000001477,000097,000118,011446
0000001478,000089,000151,013439
0000001479,000087,000164,014268
0000001480,000085,000127,010795
0000001481,000114,000152,017328
0000001482,000101,000164,016564
0000001483,000086,000116,009976
0000001484,000072,000098,007056
0000001485,000101,000166,016766
0000001486,000112,000179,020048
0000001487,000086,000161,013846
0000001488,000094,000157,014758
0000001489,000091,000106,009646
0000001490,000085,000129,010965
0000001491,000087,000158,013746
0000001492,000087,000166,014442
0000001493,000073,000107,007811
0000001494,000087,000166,014442
0000001495,000109,000144,015696
0000001496,000106,000114,012084
0000001497,000092,000161,014812
0000001498,000095,000162,015390
0000001499,000065,000097,006305
0000001500,000082,000126,010332
0000001501,000062,000107,006634
0000001502,000103,000146,015038
0000001503,000096,000172,016512
0000001504,000104,000140,014560
0000001505,000127,000139,017653
0000001506,000128,000151,019328
0000001507,000096,000106,010176
0000001508,000086,000140,012040
0000001509,000122,000160,019520
0000001510,000123,000157,019311
0000001511,000067,000093,006231
0000001512,000122,000157,019154
0000001513,000113,000166,018758
0000001514,000106,000110,011660
0000001515,000116,000153,017748
0000001516,000088,000098,008624
0000001517,000118,000161,018998
0000001518,000104,000162,016848
0000001519,000083,000138,011454
0000001520,000059,000104,006136
0000001521,000120,000161,019320
0000001522,000120,000154,018480
0000001523,000127,000161,020447
0000001524,000101,000115,011615
0000001525,000134,000167,022378
0000001526,000084,000137,011508
0000001527,000126,000151,019026
0000001528,000125,000152,019000
0000001529,000097,000162,015714
0000001530,000080,000085,006800
0000001531,000120,000147,017640
0000001532,000088,000099,008712
0000001533,000114,000105,011970
0000001534,000120,000142,017040
0000001535,000111,000155,017205
0000001536,000117,000138,016146
0000001537,000085,000143,012155
0000001538,000078,000123,009594
0000001539,000116,000136,015776
0000001540,000119,000128,015232
0000001541,000120,000128,015360
0000001542,000084,000135,011340
0000001543,000095,000098,009310
0000001544,000119,000116,013804
0000001545,000117,000110,012870
0000001546,000100,000170,017000
0000001547,000087,000096,008352
0000001548,000111,000109,012099
0000001549,000079,000089,007031
0000001550,000106,000130,013780
0000001551,000118,000103,012154
0000001552,000112,000153,017136
0000001553,000106,000134,014204
0000001554,000120,000139,016680
0000001555,000080,000140,011200
0000001556,000075,000110,008250
0000001557,000128,000144,018432
0000001558,000115,000138,015870
0000001559,000081,000130,010530
0000001560,000104,000148,015392
0000001561,000103,000158,016274
0000001562,000095,000095,009025
0000001563,000096,000174,016704
0000001564,000080,000088,007040
0000001565,000102,000164,016728
0000001566,000100,000164,016400
0000001567,000082,000097,007954
0000001568,000073,000088,006424
0000001569,000088,000148,013024
0000001570,000119,000098,011662
0000001571,000086,000151,012986
0000001572,000076,000129,009804
0000001573,000087,000153,013311
0000001574,000087,000100,008700
0000001575,000110,000149,016390
0000001576,000079,000135,010665
0000001577,000104,000125,013000
0000001578,000098,000114,011172
0000001579,000098,000178,017444
0000001580,000087,000097,008439
0000001581,000096,000112,010752
0000001582,000091,000103,009373
0000001583,000120,000141,016920
0000001584,000124,000155,019220
0000001585,000063,000097,006111
0000001586,000075,000091,006825
0000001587,000120,000148,017760
0000001588,000118,000138,016284
0000001589,000120,000089,010680
0000001590,000089,000121,010769
0000001591,000120,000139,016680
0000001592,000097,000127,012319
0000001593,000086,000103,008858
0000001594,000119,000157,018683
0000001595,000106,000155,016430
0000001596,000098,000149,014602
0000001597,000126,000158,019908
0000001598,000087,000099,008613
0000001599,000124,000157,019468
0000001600,000090,000119,010710
0000001601,000118,000154,018172
0000001602,000120,000157,018840
0000001603,000066,000094,006204
0000001604,000132,000175,023100
0000001605,000084,000087,007308
0000001606,000082,000113,009266
0000001607,000121,000157,018997
0000001608,000108,000103,011124
0000001609,000098,000122,011956
0000001610,000115,000164,018860
0000001611,000084,000102,008568
0000001612,000097,000136,013192
0000001613,000105,000152,015960
0000001614,000081,000083,006723
0000001615,000097,000135,013095
0000001616,000102,000134,013668
0000001617,000095,000127,012065
0000001618,000094,000140,013160
0000001619,000089,000136,012104
0000001620,000091,000135,012285
0000001621,000100,000125,012500
0000001622,000068,000098,006664
0000001623,000092,000148,013616
0000001624,000087,000088,007656
0000001625,000100,000108,010800
0000001626,000100,000166,016600
0000001627,000073,000145,010585
0000001628,000105,000158,016590
0000001629,000082,000084,006888
0000001630,000080,000100,008000
0000001631,000096,000159,015264
0000001632,000100,000148,014800
0000001633,000097,000161,015617
0000001634,000109,000152,016568
0000001635,000109,000153,016677
0000001636,000101,000125,012625
0000001637,000108,000155,016740
0000001638,000089,000105,009345
0000001639,000113,000158,017854
0000001640,000062,000096,005952
0000001641,000103,000149,015347
0000001642,000078,000093,007254
0000001643,000107,000106,011342
0000001644,000098,000150,014700
0000001645,000083,000141,011703
0000001646,000085,000085,007225
0000001647,000132,000149,019668
0000001648,000096,000151,014496
0000001649,000088,000122,010736
0000001650,000110,000151,016610
0000001651,000113,000162,018306
0000001652,000128,000151,019328
0000001653,000103,000128,013184
0000001654,000118,000159,018762
0000001655,000101,000121,012221
0000001656,000120,000172,020640
0000001657,000110,000172,018920
0000001658,000060,000098,005880
0000001659,000106,000103,010918
0000001660,000082,000101,008282
0000001661,000096,000172,016512
0000001662,000132,000146,019272
0000001663,000085,000088,007480
0000001664,000076,000146,011096
0000001665,000088,000172,015136
0000001666,000080,000118,009440
0000001667,000085,000164,013940
0000001668,000085,000164,013940
0000001669,000087,000164,014268
0000001670,000087,000170,014790
0000001671,000099,000127,012573
0000001672,000103,000120,012360
0000001673,000085,000167,014195
0000001674,000125,000140,017500
0000001675,000125,000174,021750
0000001676,000095,000104,009880
0000001677,000098,000169,016562
0000001678,000067,000089,005963
0000001679,000084,000094,007896
0000001680,000100,000171,017100
0000001681,000072,000105,007560
0000001682,000074,000114,008436
0000001683,000082,000150,012300
0000001684,000101,000100,010100
0000001685,000106,000105,011130
0000001686,000108,000107,011556
0000001687,000098,000121,011858
0000001688,000100,000092,009200
0000001689,000118,000118,013924
0000001690,000100,000100,010000
0000001691,000102,000144,014688
0000001692,000102,000090,009180
0000001693,000101,000080,008080
0000001694,000089,000107,009523
0000001695,000102,000071,007242
0000001696,000066,000091,006006
0000001697,000084,000094,007896
0000001698,000099,000078,007722
0000001699,000068,000101,006868
0000001700,000071,000109,007739
0000001701,000069,000141,009729
0000001702,000098,000107,010486
0000001703,000101,000105,010605
0000001704,000104,000108,011232
0000001705,000129,000161,020769
0000001706,000075,000115,008625
0000001707,000099,000103,010197
0000001708,000123,000119,014637
0000001709,000101,000108,010908
0000001710,000099,000105,010395
0000001711,000105,000092,009660
0000001712,000093,000106,009858
0000001713,000086,000096,008256
0000001714,000095,000109,010355
0000001715,000067,000098,006566
0000001716,000085,000104,008840
0000001717,000063,000106,006678
0000001718,000072,000137,009864
0000001719,000075,000099,007425
0000001720,000088,000105,009240
0000001721,000090,000105,009450
0000001722,000086,000171,014706
0000001723,000097,000103,009991
0000001724,000117,000107,012519
0000001725,000073,000112,008176
0000001726,000099,000093,009207
0000001727,000104,000104,010816
0000001728,000107,000091,009737
0000001729,000109,000088,009592
0000001730,000103,000083,008549
0000001731,000068,000099,006732
0000001732,000085,000082,006970
0000001733,000108,000076,008208
0000001734,000074,000146,010804
0000001735,000096,000098,009408
0000001736,000078,000105,008190
0000001737,000073,000096,007008
0000001738,000103,000092,009476
0000001739,000090,000163,014670
0000001740,000104,000093,009672
0000001741,000094,000122,011468
0000001742,000100,000097,009700
0000001743,000071,000106,007526
0000001744,000056,000107,005992
0000001745,000105,000116,012180
0000001746,000102,000113,011526
0000001747,000099,000108,010692
0000001748,000067,000100,006700
0000001749,000101,000115,011615
0000001750,000086,000093,007998
0000001751,000100,000111,011100
0000001752,000071,000148,010508
0000001753,000112,000128,014336
0000001754,000081,000105,008505
0000001755,000111,000176,019536
0000001756,000069,000093,006417
0000001757,000097,000108,010476
0000001758,000100,000113,011300
0000001759,000082,000133,010906
0000001760,000099,000113,011187
0000001761,000069,000121,008349
0000001762,000082,000107,008774
0000001763,000095,000108,010260
0000001764,000096,000110,010560
0000001765,000099,000112,011088
0000001766,000065,000099,006435
0000001767,000086,000090,007740
0000001768,000096,000109,010464
0000001769,000101,000113,011413
0000001770,000097,000159,015423
0000001771,000083,000139,011537
0000001772,000097,000109,010573
0000001773,000081,000107,008667
0000001774,000063,000100,006300
0000001775,000097,000114,011058
0000001776,000088,000138,012144
0000001777,000097,000115,011155
0000001778,000098,000116,011368
0000001779,000069,000115,007935
0000001780,000081,000099,008019
0000001781,000095,000108,010260
0000001782,000081,000107,008667
0000001783,000081,000103,008343
0000001784,000069,000097,006693
0000001785,000091,000093,008463
0000001786,000077,000105,008085
0000001787,000111,000169,018759
0000001788,000075,000137,010275
0000001789,000077,000105,008085
0000001790,000078,000105,008190
0000001791,000102,000137,013974
0000001792,000082,000103,008446
0000001793,000064,000100,006400
0000001794,000080,000106,008480
0000001795,000090,000101,009090
0000001796,000099,000105,010395
0000001797,000077,000124,009548
0000001798,000094,000104,009776
0000001799,000097,000110,010670
0000001800,000088,000104,009152
0000001801,000115,000160,018400
0000001802,000076,000097,007372
0000001803,000074,000117,008658
0000001804,000075,000134,010050
0000001805,000098,000105,010290
0000001806,000077,000098,007546
0000001807,000077,000096,007392
0000001808,000095,000148,014060
0000001809,000078,000095,007410
0000001810,000084,000109,009156
0000001811,000064,000102,006528
0000001812,000091,000100,009100
0000001813,000068,000093,006324
0000001814,000067,000094,006298
0000001815,000073,000128,009344
0000001816,000081,000108,008748
0000001817,000069,000094,006486
0000001818,000103,000174,017922
0000001819,000070,000093,006510
0000001820,000077,000136,010472
0000001821,000074,000092,006808
0000001822,000074,000114,008436
0000001823,000088,000097,008536
0000001824,000093,000139,012927
0000001825,000082,000086,007052
0000001826,000081,000081,006561
0000001827,000101,000083,008383
0000001828,000082,000109,008938
0000001829,000081,000104,008424
0000001830,000099,000082,008118
0000001831,000091,000076,006916
0000001832,000073,000135,009855
0000001833,000091,000113,010283
0000001834,000083,000100,008300
0000001835,000095,000195,018525
0000001836,000089,000146,012994
0000001837,000087,000115,010005
0000001838,000093,000126,011718
0000001839,000093,000107,009951
0000001840,000093,000134,012462
0000001841,000086,000110,009460
0000001842,000087,000096,008352
0000001843,000085,000108,009180
0000001844,000091,000115,010465
0000001845,000085,000113,009605
0000001846,000090,000111,009990
0000001847,000085,000101,008585
0000001848,000079,000112,008848
0000001849,000077,000109,008393
0000001850,000080,000104,008320
0000001851,000097,000187,018139
0000001852,000100,000112,011200
0000001853,000076,000136,010336
0000001854,000072,000107,007704
0000001855,000071,000106,007526
0000001856,000080,000111,008880
0000001857,000104,000126,013104
0000001858,000087,000085,007395
0000001859,000071,000105,007455
0000001860,000089,000097,008633
0000001861,000079,000103,008137
0000001862,000073,000099,007227
0000001863,000086,000114,009804
0000001864,000100,000102,010200
0000001865,000088,000096,008448
0000001866,000104,000106,011024
0000001867,000079,000098,007742
0000001868,000106,000182,019292
0000001869,000098,000108,010584
0000001870,000114,000096,010944
0000001871,000080,000148,011840
0000001872,000118,000089,010502
0000001873,000126,000088,011088
0000001874,000102,000128,013056
0000001875,000084,000083,006972
0000001876,000128,000089,011392
0000001877,000130,000090,011700
0000001878,000091,000105,009555
0000001879,000111,000079,008769
0000001880,000110,000082,009020
0000001881,000103,000111,011433
0000001882,000105,000118,012390
0000001883,000074,000109,008066
0000001884,000106,000173,018338
0000001885,000093,000092,008556
0000001886,000109,000122,013298
0000001887,000102,000123,012546
0000001888,000108,000122,013176
0000001889,000080,000149,011920
0000001890,000103,000116,011948
0000001891,000111,000125,013875
0000001892,000113,000133,015029
0000001893,000096,000102,009792
0000001894,000112,000126,014112
0000001895,000104,000117,012168
0000001896,000076,000092,006992
0000001897,000110,000089,009790
0000001898,000098,000115,011270
0000001899,000104,000178,018512
0000001900,000090,000111,009990
0000001901,000091,000109,009919
0000001902,000098,000118,011564
0000001903,000089,000115,010235
0000001904,000089,000087,007743
0000001905,000102,000126,012852
0000001906,000090,000121,010890
0000001907,000080,000146,011680
0000001908,000099,000128,012672
0000001909,000088,000127,011176
0000001910,000108,000129,013932
0000001911,000081,000083,006723
0000001912,000088,000131,011528
0000001913,000095,000131,012445
0000001914,000080,000094,007520
0000001915,000073,000130,009490
0000001916,000066,000126,008316
0000001917,000099,000175,017325
0000001918,000095,000118,011210
0000001919,000065,000122,007930
0000001920,000090,000110,009900
0000001921,000098,000117,011466
0000001922,000060,000114,006840
0000001923,000092,000092,008464
0000001924,000061,000114,006954
0000001925,000081,000146,011826
0000001926,000058,000110,006380
0000001927,000062,000107,006634
0000001928,000061,000085,005185
0000001929,000103,000111,011433
0000001930,000065,000101,006565
0000001931,000065,000101,006565
0000001932,000077,000094,007238
0000001933,000075,000095,007125
0000001934,000091,000181,016471
0000001935,000087,000109,009483
0000001936,000071,000094,006674
0000001937,000118,000122,014396
0000001938,000068,000095,006460
0000001939,000092,000112,010304
0000001940,000070,000098,006860
0000001941,000090,000076,006840
0000001942,000073,000100,007300
0000001943,000075,000144,010800
0000001944,000079,000136,010744
0000001945,000061,000091,005551
0000001946,000086,000143,012298
0000001947,000098,000123,012054
0000001948,000074,000126,009324
0000001949,000077,000093,007161
0000001950,000075,000122,009150
0000001951,000145,000145,021025
0000001952,000098,000106,010388
0000001953,000078,000128,009984
0000001954,000119,000112,013328
0000001955,000080,000127,010160
0000001956,000077,000124,009548
0000001957,000058,000115,006670
0000001958,000075,000123,009225
0000001959,000092,000079,007268
0000001960,000126,000135,017010
0000001961,000074,000123,009102
0000001962,000101,000126,012726
0000001963,000062,000092,005704
0000001964,000102,000124,012648
0000001965,000125,000122,015250
0000001966,000123,000177,021771
0000001967,000122,000120,014640
0000001968,000082,000106,008692
0000001969,000114,000114,012996
0000001970,000085,000123,010455
0000001971,000099,000119,011781
0000001972,000108,000110,011880
0000001973,000107,000114,012198
0000001974,000058,000109,006322
0000001975,000100,000103,010300
0000001976,000109,000100,010900
0000001977,000089,000088,007832
0000001978,000127,000129,016383
0000001979,000113,000091,010283
0000001980,000065,000090,005850
0000001981,000096,000129,012384
0000001982,000116,000105,012180
0000001983,000102,000163,016626
0000001984,000127,000128,016256
0000001985,000120,000129,015480
0000001986,000080,000108,008640
0000001987,000084,000089,007476
0000001988,000105,000128,013440
0000001989,000118,000129,015222
0000001990,000111,000123,013653
0000001991,000114,000121,013794
0000001992,000058,000113,006554
0000001993,000103,000125,012875
0000001994,000099,000129,012771
0000001995,000120,000113,013560
0000001996,000081,000096,007776
0000001997,000097,000128,012416
0000001998,000106,000169,017914
0000001999,000062,000088,005456
0000002000,000096,000126,012096
0000002001,000099,000126,012474
0000002002,000106,000126,013356
0000002003,000083,000103,008549
0000002004,000088,000105,009240
0000002005,000086,000121,010406
0000002006,000085,000124,010540
0000002007,000090,000121,010890
0000002008,000091,000111,010101
0000002009,000066,000111,007326
0000002010,000071,000117,008307
0000002011,000065,000115,007475
0000002012,000105,000120,012600
0000002013,000122,000117,014274
0000002014,000109,000164,017876
0000002015,000075,000100,007500
0000002016,000078,000098,007644
0000002017,000125,000135,016875
0000002018,000092,000124,011408
0000002019,000101,000116,011716
0000002020,000101,000117,011817
0000002021,000081,000093,007533
0000002022,000092,000083,007636
0000002023,000081,000111,008991
0000002024,000082,000109,008938
0000002025,000083,000121,010043
0000002026,000092,000104,009568
0000002027,000076,000107,008132
0000002028,000107,000127,013589
0000002029,000140,000147,020580
0000002030,000103,000128,013184
0000002031,000126,000114,014364
0000002032,000069,000101,006969
0000002033,000100,000125,012500
0000002034,000075,000070,005250
0000002035,000095,000119,011305
0000002036,000072,000095,006840
0000002037,000105,000141,014805
0000002038,000092,000118,010856
0000002039,000080,000088,007040
0000002040,000078,000118,009204
0000002041,000125,000136,017000
0000002042,000125,000141,017625
0000002043,000130,000145,018850
0000002044,000146,000162,023652
0000002045,000075,000109,008175
0000002046,000145,000137,019865
0000002047,000128,000142,018176
0000002048,000127,000141,017907
0000002049,000116,000110,012760
0000002050,000131,000146,019126
0000002051,000074,000101,007474
0000002052,000088,000101,008888
0000002053,000105,000125,013125
0000002054,000127,000140,017780
0000002055,000077,000131,010087
0000002056,000104,000123,012792
0000002057,000132,000149,019668
0000002058,000085,000086,007310
0000002059,000137,000155,021235
0000002060,000145,000162,023490
0000002061,000125,000141,017625
0000002062,000076,000105,007980
0000002063,000127,000144,018288
0000002064,000118,000136,016048
0000002065,000118,000135,015930
0000002066,000114,000130,014820
0000002067,000083,000124,010292
0000002068,000111,000100,011100
0000002069,000085,000101,008585
0000002070,000111,000126,013986
0000002071,000075,000103,007725
0000002072,000108,000125,013500
0000002073,000102,000094,009588
0000002074,000123,000138,016974
0000002075,000093,000106,009858
0000002076,000110,000131,014410
0000002077,000109,000130,014170
0000002078,000106,000129,013674
0000002079,000135,000154,020790
0000002080,000100,000122,012200
0000002081,000082,000099,008118
0000002082,000080,000117,009360
0000002083,000100,000131,013100
0000002084,000101,000136,013736
0000002085,000101,000138,013938
0000002086,000081,000094,007614
0000002087,000104,000091,009464
0000002088,000115,000103,011845
0000002089,000110,000136,014960
0000002090,000066,000102,006732
0000002091,000073,000117,008541
0000002092,000088,000089,007832
0000002093,000076,000125,009500
0000002094,000076,000124,009424
0000002095,000076,000124,009424
0000002096,000081,000118,009558
0000002097,000081,000132,010692
0000002098,000124,000155,019220
0000002099,000081,000129,010449
0000002100,000086,000098,008428
0000002101,000086,000135,011610
0000002102,000092,000139,012788
0000002103,000103,000101,010403
0000002104,000162,000150,024300
0000002105,000078,000088,006864
0000002106,000090,000124,011160
0000002107,000152,000138,020976
0000002108,000115,000111,012765
0000002109,000073,000099,007227
0000002110,000062,000102,006324
0000002111,000152,000136,020672
0000002112,000139,000128,017792
0000002113,000086,000127,010922
0000002114,000129,000128,016512
0000002115,000132,000148,019536
0000002116,000092,000126,011592
0000002117,000080,000130,010400
0000002118,000088,000097,008536
0000002119,000126,000117,014742
0000002120,000111,000112,012432
0000002121,000137,000135,018495
0000002122,000086,000119,010234
0000002123,000080,000090,007200
0000002124,000129,000135,017415
0000002125,000068,000100,006800
0000002126,000103,000114,011742
0000002127,000139,000142,019738
0000002128,000081,000132,010692
0000002129,000062,000101,006262
0000002130,000128,000162,020736
0000002131,000135,000141,019035
0000002132,000133,000140,018620
0000002133,000136,000161,021896
0000002134,000136,000160,021760
0000002135,000130,000154,020020
0000002136,000079,000092,007268
0000002137,000128,000145,018560
0000002138,000090,000119,010710
0000002139,000079,000142,011218
0000002140,000135,000107,014445
0000002141,000063,000098,006174
0000002142,000137,000108,014796
0000002143,000067,000097,006499
0000002144,000107,000110,011770
0000002145,000109,000160,017440
0000002146,000124,000116,014384
0000002147,000091,000139,012649
0000002148,000080,000115,009200
0000002149,000108,000114,012312
0000002150,000106,000116,012296
0000002151,000114,000108,012312
0000002152,000108,000114,012312
0000002153,000084,000111,009324
0000002154,000100,000093,009300
0000002155,000074,000085,006290
0000002156,000079,000120,009480
0000002157,000087,000148,012876
0000002158,000093,000115,010695
0000002159,000068,000104,007072
0000002160,000068,000097,006596
0000002161,000114,000155,017670
0000002162,000106,000108,011448
0000002163,000109,000110,011990
0000002164,000081,000119,009639
0000002165,000127,000141,017907
0000002166,000088,000139,012232
0000002167,000127,000141,017907
0000002168,000122,000140,017080
0000002169,000130,000143,018590
0000002170,000085,000126,010710
0000002171,000131,000131,017161
0000002172,000090,000145,013050
0000002173,000132,000132,017424
0000002174,000073,000082,005986
0000002175,000126,000128,016128
0000002176,000124,000131,016244
0000002177,000061,000095,005795
0000002178,000069,000092,006348
0000002179,000121,000140,016940
0000002180,000108,000109,011772
0000002181,000083,000124,010292
0000002182,000123,000139,017097
0000002183,000086,000137,011782
0000002184,000144,000161,023184
0000002185,000081,000104,008424
0000002186,000128,000165,021120
0000002187,000114,000149,016986
0000002188,000090,000139,012510
0000002189,000105,000145,015225
0000002190,000088,000077,006776
0000002191,000102,000148,015096
0000002192,000099,000145,014355
0000002193,000057,000095,005415
0000002194,000100,000141,014100
0000002195,000071,000091,006461
0000002196,000105,000104,010920
0000002197,000123,000125,015375
0000002198,000085,000141,011985
0000002199,000071,000110,007810
0000002200,000113,000127,014351
0000002201,000088,000141,012408
0000002202,000118,000124,014632
0000002203,000119,000123,014637
0000002204,000090,000155,013950
0000002205,000124,000143,017732
0000002206,000122,000143,017446
0000002207,000094,000074,006956
0000002208,000123,000147,018081
0000002209,000058,000096,005568
0000002210,000082,000135,011070
0000002211,000122,000148,018056
0000002212,000122,000151,018422
0000002213,000078,000111,008658
0000002214,000086,000136,011696
0000002215,000109,000156,017004
0000002216,000070,000104,007280
0000002217,000105,000155,016275
0000002218,000085,000135,011475
0000002219,000090,000152,013680
0000002220,000090,000149,013410
0000002221,000095,000145,013775
0000002222,000100,000138,013800
0000002223,000100,000100,010000
0000002224,000090,000148,013320
0000002225,000087,000094,008178
0000002226,000050,000103,005150
0000002227,000100,000161,016100
0000002228,000094,000105,009870
0000002229,000100,000161,016100
0000002230,000088,000136,011968
0000002231,000094,000133,012502
0000002232,000133,000098,013034
0000002233,000083,000138,011454
0000002234,000069,000100,006900
0000002235,000141,000081,011421
0000002236,000093,000155,014415
0000002237,000099,000124,012276
0000002238,000155,000154,023870
0000002239,000089,000114,010146
0000002240,000158,000156,024648
0000002241,000076,000110,008360
0000002242,000156,000157,024492
0000002243,000055,000098,005390
0000002244,000151,000155,023405
0000002245,000106,000100,010600
0000002246,000153,000141,021573
0000002247,000098,000133,013034
0000002248,000157,000145,022765
0000002249,000156,000157,024492
0000002250,000085,000161,013685
0000002251,000087,000143,012441
0000002252,000063,000099,006237
0000002253,000154,000165,025410
0000002254,000155,000175,027125
0000002255,000112,000110,012320
0000002256,000148,000163,024124
0000002257,000154,000160,024640
0000002258,000060,000104,006240
0000002259,000151,000155,023405
0000002260,000068,000100,006800
0000002261,000154,000129,019866
0000002262,000099,000090,008910
0000002263,000155,000168,026040
0000002264,000108,000120,012960
0000002265,000164,000174,028536
0000002266,000096,000164,015744
0000002267,000079,000115,009085
0000002268,000161,000182,029302
0000002269,000063,000106,006678
0000002270,000162,000180,029160
0000002271,000118,000104,012272
0000002272,000156,000177,027612
0000002273,000162,000145,023490
0000002274,000148,000157,023236
0000002275,000067,000120,008040
0000002276,000162,000178,028836
0000002277,000084,000123,010332
0000002278,000100,000074,007400
0000002279,000137,000177,024249
0000002280,000105,000125,013125
0000002281,000118,000159,018762
0000002282,000080,000154,012320
0000002283,000136,000148,020128
0000002284,000112,000085,009520
0000002285,000076,000118,008968
0000002286,000155,000177,027435
0000002287,000063,000106,006678
0000002288,000150,000170,025500
0000002289,000143,000165,023595
0000002290,000150,000174,026100
0000002291,000081,000127,010287
0000002292,000148,000176,026048
0000002293,000063,000092,005796
0000002294,000138,000172,023736
0000002295,000083,000155,012865
0000002296,000088,000080,007040
0000002297,000109,000097,010573
0000002298,000147,000179,026313
0000002299,000103,000123,012669
0000002300,000147,000163,023961
0000002301,000067,000126,008442
0000002302,000154,000181,027874
0000002303,000062,000107,006634
0000002304,000146,000174,025404
0000002305,000149,000175,026075
0000002306,000139,000172,023908
0000002307,000064,000118,007552
0000002308,000126,000146,018396
0000002309,000135,000177,023895
0000002310,000122,000167,020374
0000002311,000108,000099,010692
0000002312,000068,000088,005984
0000002313,000142,000175,024850
0000002314,000078,000092,007176
0000002315,000101,000123,012423
0000002316,000138,000128,017664
0000002317,000120,000134,016080
0000002318,000111,000127,014097
0000002319,000136,000151,020536
0000002320,000061,000103,006283
0000002321,000128,000159,020352
0000002322,000136,000151,020536
0000002323,000114,000151,017214
0000002324,000165,000146,024090
0000002325,000066,000118,007788
0000002326,000090,000096,008640
0000002327,000107,000125,013375
0000002328,000113,000104,011752
0000002329,000067,000098,006566
0000002330,000100,000102,010200
0000002331,000079,000095,007505
0000002332,000100,000121,012100
0000002333,000097,000104,010088
0000002334,000105,000130,013650
0000002335,000100,000107,010700
0000002336,000104,000111,011544
0000002337,000057,000102,005814
0000002338,000097,000106,010282
0000002339,000123,000156,019188
0000002340,000102,000098,009996
0000002341,000105,000100,010500
0000002342,000067,000120,008040
0000002343,000105,000099,010395
0000002344,000111,000125,013875
0000002345,000064,000096,006144
0000002346,000104,000093,009672
0000002347,000105,000091,009555
0000002348,000078,000096,007488
0000002349,000100,000123,012300
0000002350,000104,000083,008632
0000002351,000111,000119,013209
0000002352,000103,000073,007519
0000002353,000104,000068,007072
0000002354,000116,000139,016124
0000002355,000061,000106,006466
0000002356,000097,000095,009215
0000002357,000099,000097,009603
0000002358,000096,000097,009312
0000002359,000067,000123,008241
0000002360,000088,000086,007568
0000002361,000067,000097,006499
0000002362,000098,000096,009408
0000002363,000093,000106,009858
0000002364,000093,000119,011067
0000002365,000071,000097,006887
0000002366,000097,000113,010961
0000002367,000102,000123,012546
0000002368,000094,000111,010434
0000002369,000117,000137,016029
0000002370,000095,000109,010355
0000002371,000083,000104,008632
0000002372,000096,000096,009216
0000002373,000105,000110,011550
0000002374,000068,000124,008432
0000002375,000102,000109,011118
0000002376,000101,000111,011211
0000002377,000097,000109,010573
0000002378,000090,000112,010080
0000002379,000112,000127,014224
0000002380,000095,000114,010830
0000002381,000122,000136,016592
0000002382,000101,000118,011918
0000002383,000102,000120,012240
0000002384,000082,000103,008446
0000002385,000102,000118,012036
0000002386,000063,000100,006300
0000002387,000099,000114,011286
0000002388,000099,000114,011286
0000002389,000095,000110,010450
0000002390,000092,000112,010304
0000002391,000123,000139,017097
0000002392,000089,000106,009434
0000002393,000117,000128,014976
0000002394,000087,000107,009309
0000002395,000085,000110,009350
0000002396,000086,000112,009632
0000002397,000078,000102,007956
0000002398,000082,000111,009102
0000002399,000078,000108,008424
0000002400,000122,000142,017324
0000002401,000076,000102,007752
0000002402,000114,000153,017442
min,000050,000067,005063
max,000165,000195,029302
mean,000095,000121,011698
std,000022,000023,004473
