index,width,height,areas
0000000000,000120,000129,015480
0000000001,000105,000119,012495
0000000002,000113,000130,014690
0000000003,000144,000151,021744
0000000004,000121,000150,018150
0000000005,000134,000164,021976
0000000006,000071,000124,008804
0000000007,000075,000130,009750
0000000008,000083,000142,011786
0000000009,000107,000165,017655
0000000010,000129,000188,024252
0000000011,000069,000122,008418
0000000012,000073,000129,009417
0000000013,000073,000126,009198
0000000014,000081,000136,011016
0000000015,000098,000144,014112
0000000016,000116,000165,019140
0000000017,000142,000186,026412
0000000018,000076,000123,009348
0000000019,000074,000125,009250
0000000020,000077,000133,010241
0000000021,000093,000151,014043
0000000022,000110,000167,018370
0000000023,000121,000197,023837
0000000024,000098,000116,011368
0000000025,000102,000122,012444
0000000026,000132,000142,018744
0000000027,000137,000147,020139
0000000028,000159,000165,026235
0000000029,000072,000119,008568
0000000030,000074,000128,009472
0000000031,000083,000142,011786
0000000032,000094,000159,014946
0000000033,000114,000189,021546
0000000034,000069,000122,008418
0000000035,000073,000129,009417
0000000036,000103,000127,013081
0000000037,000106,000135,014310
0000000038,000156,000194,030264
0000000039,000170,000200,034000
0000000040,000097,000124,012028
0000000041,000103,000126,012978
0000000042,000117,000139,016263
0000000043,000131,000166,021746
0000000044,000088,000123,010824
0000000045,000090,000131,011790
0000000046,000098,000141,013818
0000000047,000118,000162,019116
0000000048,000157,000187,029359
0000000049,000083,000125,010375
0000000050,000090,000131,011790
0000000051,000095,000127,012065
0000000052,000090,000126,011340
0000000053,000089,000121,010769
0000000054,000097,000125,012125
0000000055,000101,000129,013029
0000000056,000098,000141,013818
0000000057,000119,000161,019159
0000000058,000146,000189,027594
0000000059,000108,000128,013824
0000000060,000109,000131,014279
0000000061,000107,000143,015301
0000000062,000149,000170,025330
0000000063,000185,000202,037370
0000000064,000113,000133,015029
0000000065,000091,000121,011011
0000000066,000112,000141,015792
0000000067,000131,000166,021746
0000000068,000144,000180,025920
0000000069,000137,000176,024112
0000000070,000104,000121,012584
0000000071,000106,000123,013038
0000000072,000109,000136,014824
0000000073,000132,000152,020064
0000000074,000162,000180,029160
0000000075,000155,000174,026970
0000000076,000103,000125,012875
0000000077,000118,000130,015340
0000000078,000128,000146,018688
0000000079,000189,000193,036477
0000000080,000208,000206,042848
0000000081,000096,000121,011616
0000000082,000099,000122,012078
0000000083,000115,000139,015985
0000000084,000105,000131,013755
0000000085,000105,000128,013440
0000000086,000117,000139,016263
0000000087,000133,000162,021546
0000000088,000123,000129,015867
0000000089,000126,000132,016632
0000000090,000140,000152,021280
0000000091,000189,000193,036477
0000000092,000132,000135,017820
0000000093,000121,000121,014641
0000000094,000129,000142,018318
0000000095,000154,000160,024640
0000000096,000178,000183,032574
0000000097,000123,000124,015252
0000000098,000120,000120,014400
0000000099,000130,000137,017810
0000000100,000117,000128,014976
0000000101,000110,000129,014190
0000000102,000122,000143,017446
0000000103,000160,000169,027040
0000000104,000122,000131,015982
0000000105,000128,000130,016640
0000000106,000153,000147,022491
0000000107,000189,000171,032319
0000000108,000198,000189,037422
0000000109,000201,000192,038592
0000000110,000192,000178,034176
0000000111,000138,000129,017802
0000000112,000131,000128,016768
0000000113,000133,000143,019019
0000000114,000185,000194,035890
0000000115,000115,000123,014145
0000000116,000113,000125,014125
0000000117,000120,000122,014640
0000000118,000113,000124,014012
0000000119,000122,000137,016714
0000000120,000151,000158,023858
0000000121,000153,000162,024786
0000000122,000185,000184,034040
0000000123,000128,000127,016256
0000000124,000136,000140,019040
0000000125,000181,000162,029322
0000000126,000123,000122,015006
0000000127,000115,000121,013915
0000000128,000117,000125,014625
0000000129,000126,000139,017514
0000000130,000214,000185,039590
0000000131,000137,000128,017536
0000000132,000134,000125,016750
0000000133,000147,000139,020433
0000000134,000189,000162,030618
0000000135,000095,000129,012255
0000000136,000104,000136,014144
0000000137,000122,000154,018788
0000000138,000138,000170,023460
0000000139,000156,000196,030576
0000000140,000144,000203,029232
0000000141,000076,000121,009196
0000000142,000080,000137,010960
0000000143,000081,000139,011259
0000000144,000099,000146,014454
0000000145,000119,000160,019040
0000000146,000081,000125,010125
0000000147,000091,000125,011375
0000000148,000091,000122,011102
0000000149,000120,000148,017760
0000000150,000143,000164,023452
0000000151,000147,000168,024696
0000000152,000165,000187,030855
0000000153,000127,000128,016256
0000000154,000123,000125,015375
0000000155,000109,000109,011881
0000000156,000142,000179,025418
0000000157,000099,000120,011880
0000000158,000091,000113,010283
0000000159,000136,000194,026384
0000000160,000105,000110,011550
0000000161,000117,000131,015327
0000000162,000121,000161,019481
0000000163,000072,000124,008928
0000000164,000079,000124,009796
0000000165,000089,000144,012816
0000000166,000109,000124,013516
0000000167,000127,000140,017780
0000000168,000132,000144,019008
0000000169,000109,000125,013625
0000000170,000137,000149,020413
0000000171,000154,000166,025564
0000000172,000189,000203,038367
0000000173,000153,000154,023562
0000000174,000165,000162,026730
0000000175,000093,000120,011160
0000000176,000101,000127,012827
0000000177,000107,000128,013696
0000000178,000129,000189,024381
0000000179,000111,000132,014652
0000000180,000144,000144,020736
0000000181,000183,000187,034221
0000000182,000187,000196,036652
0000000183,000085,000146,012410
0000000184,000099,000167,016533
0000000185,000168,000171,028728
0000000186,000193,000196,037828
0000000187,000124,000130,016120
0000000188,000127,000135,017145
0000000189,000154,000147,022638
0000000190,000180,000162,029160
0000000191,000205,000180,036900
0000000192,000119,000134,015946
0000000193,000115,000126,014490
0000000194,000147,000149,021903
0000000195,000184,000171,031464
0000000196,000204,000192,039168
0000000197,000114,000130,014820
0000000198,000113,000126,014238
0000000199,000109,000120,013080
0000000200,000112,000131,014672
0000000201,000114,000134,015276
0000000202,000133,000120,015960
0000000203,000137,000110,015070
0000000204,000141,000119,016779
0000000205,000152,000116,017632
0000000206,000138,000122,016836
0000000207,000141,000125,017625
0000000208,000089,000145,012905
0000000209,000081,000119,009639
0000000210,000092,000154,014168
0000000211,000089,000146,012994
0000000212,000096,000147,014112
0000000213,000102,000143,014586
0000000214,000107,000134,014338
0000000215,000123,000135,016605
0000000216,000131,000143,018733
0000000217,000153,000163,024939
0000000218,000143,000159,022737
0000000219,000131,000150,019650
0000000220,000148,000165,024420
0000000221,000134,000145,019430
0000000222,000157,000148,023236
0000000223,000150,000150,022500
0000000224,000147,000149,021903
0000000225,000161,000130,020930
0000000226,000160,000126,020160
0000000227,000158,000128,020224
0000000228,000155,000141,021855
0000000229,000094,000135,012690
0000000230,000111,000129,014319
0000000231,000093,000151,014043
0000000232,000119,000153,018207
0000000233,000092,000162,014904
0000000234,000082,000143,011726
0000000235,000095,000148,014060
0000000236,000087,000141,012267
0000000237,000106,000143,015158
0000000238,000100,000143,014300
0000000239,000104,000146,015184
0000000240,000125,000154,019250
0000000241,000174,000166,028884
0000000242,000170,000161,027370
0000000243,000157,000152,023864
0000000244,000131,000145,018995
0000000245,000154,000149,022946
0000000246,000168,000152,025536
0000000247,000178,000152,027056
0000000248,000173,000151,026123
0000000249,000168,000154,025872
0000000250,000187,000166,031042
0000000251,000144,000150,021600
0000000252,000156,000170,026520
0000000253,000163,000176,028688
0000000254,000164,000162,026568
0000000255,000169,000165,027885
0000000256,000154,000187,028798
0000000257,000100,000169,016900
0000000258,000106,000158,016748
0000000259,000108,000166,017928
0000000260,000099,000155,015345
0000000261,000107,000170,018190
0000000262,000103,000171,017613
0000000263,000112,000174,019488
0000000264,000124,000182,022568
0000000265,000128,000185,023680
0000000266,000132,000188,024816
0000000267,000128,000184,023552
0000000268,000129,000189,024381
0000000269,000161,000150,024150
0000000270,000099,000154,015246
0000000271,000136,000163,022168
0000000272,000139,000162,022518
0000000273,000166,000168,027888
0000000274,000171,000183,031293
0000000275,000124,000164,020336
0000000276,000114,000163,018582
0000000277,000202,000166,033532
0000000278,000220,000178,039160
0000000279,000116,000196,022736
0000000280,000118,000198,023364
0000000281,000125,000206,025750
0000000282,000107,000177,018939
0000000283,000109,000180,019620
0000000284,000118,000187,022066
0000000285,000151,000200,030200
0000000286,000183,000177,032391
0000000287,000130,000111,014430
0000000288,000134,000115,015410
0000000289,000135,000126,017010
0000000290,000147,000156,022932
0000000291,000171,000180,030780
0000000292,000127,000128,016256
0000000293,000142,000137,019454
0000000294,000153,000142,021726
0000000295,000165,000138,022770
0000000296,000178,000145,025810
0000000297,000176,000158,027808
0000000298,000154,000133,020482
0000000299,000138,000118,016284
0000000300,000129,000110,014190
0000000301,000105,000094,009870
0000000302,000112,000101,011312
0000000303,000133,000110,014630
0000000304,000138,000113,015594
0000000305,000124,000109,013516
0000000306,000147,000133,019551
0000000307,000125,000137,017125
0000000308,000132,000149,019668
0000000309,000142,000157,022294
0000000310,000200,000166,033200
0000000311,000133,000116,015428
0000000312,000141,000128,018048
0000000313,000164,000138,022632
0000000314,000181,000141,025521
0000000315,000209,000159,033231
0000000316,000162,000150,024300
0000000317,000122,000087,010614
0000000318,000122,000091,011102
0000000319,000136,000100,013600
0000000320,000165,000128,021120
0000000321,000115,000109,012535
0000000322,000160,000193,030880
0000000323,000170,000205,034850
0000000324,000119,000099,011781
0000000325,000171,000127,021717
0000000326,000127,000114,014478
0000000327,000124,000110,013640
0000000328,000156,000109,017004
0000000329,000173,000139,024047
0000000330,000185,000176,032560
0000000331,000128,000119,015232
0000000332,000123,000097,011931
0000000333,000179,000137,024523
0000000334,000189,000140,026460
0000000335,000127,000119,015113
0000000336,000131,000123,016113
0000000337,000155,000130,020150
0000000338,000181,000144,026064
0000000339,000215,000146,031390
0000000340,000193,000129,024897
0000000341,000229,000155,035495
0000000342,000118,000152,017936
0000000343,000122,000164,020008
0000000344,000153,000176,026928
0000000345,000176,000172,030272
0000000346,000112,000150,016800
0000000347,000114,000160,018240
0000000348,000122,000168,020496
0000000349,000157,000217,034069
0000000350,000143,000088,012584
0000000351,000170,000107,018190
0000000352,000121,000074,008954
0000000353,000151,000111,016761
0000000354,000165,000096,015840
0000000355,000201,000121,024321
0000000356,000120,000137,016440
0000000357,000121,000139,016819
0000000358,000126,000140,017640
0000000359,000139,000132,018348
0000000360,000156,000131,020436
0000000361,000162,000133,021546
0000000362,000174,000135,023490
0000000363,000192,000141,027072
0000000364,000221,000170,037570
0000000365,000130,000139,018070
0000000366,000185,000157,029045
0000000367,000124,000146,018104
0000000368,000118,000159,018762
0000000369,000240,000154,036960
0000000370,000115,000129,014835
0000000371,000120,000133,015960
0000000372,000130,000128,016640
0000000373,000140,000125,017500
0000000374,000150,000140,021000
0000000375,000154,000177,027258
0000000376,000194,000187,036278
0000000377,000168,000176,029568
0000000378,000186,000190,035340
0000000379,000117,000137,016029
0000000380,000123,000142,017466
0000000381,000176,000170,029920
0000000382,000208,000173,035984
0000000383,000127,000126,016002
0000000384,000137,000134,018358
0000000385,000164,000152,024928
0000000386,000188,000166,031208
0000000387,000232,000201,046632
0000000388,000127,000131,016637
0000000389,000117,000122,014274
0000000390,000121,000121,014641
0000000391,000131,000125,016375
0000000392,000144,000136,019584
0000000393,000180,000162,029160
0000000394,000217,000193,041881
0000000395,000154,000207,031878
0000000396,000139,000183,025437
0000000397,000116,000153,017748
0000000398,000111,000147,016317
0000000399,000128,000122,015616
0000000400,000132,000127,016764
0000000401,000146,000143,020878
0000000402,000179,000167,029893
0000000403,000211,000196,041356
0000000404,000224,000194,043456
0000000405,000127,000128,016256
0000000406,000130,000132,017160
0000000407,000166,000166,027556
0000000408,000156,000177,027612
0000000409,000117,000114,013338
0000000410,000124,000123,015252
0000000411,000151,000145,021895
0000000412,000176,000165,029040
0000000413,000116,000120,013920
0000000414,000124,000117,014508
0000000415,000162,000141,022842
0000000416,000177,000157,027789
0000000417,000167,000177,029559
0000000418,000130,000150,019500
0000000419,000119,000116,013804
0000000420,000121,000125,015125
0000000421,000121,000121,014641
0000000422,000173,000164,028372
0000000423,000098,000119,011662
0000000424,000120,000130,015600
0000000425,000200,000192,038400
0000000426,000112,000124,013888
0000000427,000180,000194,034920
0000000428,000108,000123,013284
0000000429,000131,000143,018733
0000000430,000102,000124,012648
0000000431,000106,000128,013568
0000000432,000130,000149,019370
0000000433,000128,000154,019712
0000000434,000130,000159,020670
0000000435,000150,000184,027600
0000000436,000125,000150,018750
0000000437,000098,000134,013132
0000000438,000121,000164,019844
0000000439,000133,000184,024472
0000000440,000152,000214,032528
0000000441,000111,000140,015540
0000000442,000112,000144,016128
0000000443,000129,000168,021672
0000000444,000149,000195,029055
0000000445,000173,000229,039617
0000000446,000110,000141,015510
0000000447,000111,000140,015540
0000000448,000103,000123,012669
0000000449,000104,000124,012896
0000000450,000115,000164,018860
0000000451,000155,000163,025265
0000000452,000173,000181,031313
0000000453,000101,000153,015453
0000000454,000122,000127,015494
0000000455,000109,000119,012971
0000000456,000125,000130,016250
0000000457,000135,000142,019170
0000000458,000126,000176,022176
0000000459,000148,000201,029748
0000000460,000124,000126,015624
0000000461,000119,000124,014756
0000000462,000136,000143,019448
0000000463,000166,000167,027722
0000000464,000182,000185,033670
0000000465,000103,000142,014626
0000000466,000191,000182,034762
0000000467,000115,000131,015065
0000000468,000120,000131,015720
0000000469,000125,000133,016625
0000000470,000163,000143,023309
0000000471,000183,000161,029463
0000000472,000204,000174,035496
0000000473,000215,000184,039560
0000000474,000141,000129,018189
0000000475,000137,000127,017399
0000000476,000180,000135,024300
0000000477,000207,000150,031050
0000000478,000224,000169,037856
0000000479,000227,000172,039044
0000000480,000127,000125,015875
0000000481,000134,000127,017018
0000000482,000141,000130,018330
0000000483,000163,000142,023146
0000000484,000121,000130,015730
0000000485,000132,000141,018612
0000000486,000152,000151,022952
0000000487,000159,000150,023850
0000000488,000124,000122,015128
0000000489,000128,000126,016128
0000000490,000146,000138,020148
0000000491,000163,000150,024450
0000000492,000184,000169,031096
0000000493,000122,000124,015128
0000000494,000117,000132,015444
0000000495,000119,000124,014756
0000000496,000187,000186,034782
0000000497,000127,000124,015748
0000000498,000142,000133,018886
0000000499,000144,000135,019440
0000000500,000153,000143,021879
0000000501,000169,000162,027378
0000000502,000206,000189,038934
0000000503,000123,000120,014760
0000000504,000106,000134,014204
0000000505,000103,000135,013905
0000000506,000160,000145,023200
0000000507,000187,000163,030481
0000000508,000215,000180,038700
0000000509,000128,000135,017280
0000000510,000134,000133,017822
0000000511,000138,000134,018492
0000000512,000137,000134,018358
0000000513,000172,000134,023048
0000000514,000228,000179,040812
0000000515,000093,000130,012090
0000000516,000103,000131,013493
0000000517,000150,000145,021750
0000000518,000183,000156,028548
0000000519,000097,000123,011931
0000000520,000108,000139,015012
0000000521,000128,000152,019456
0000000522,000129,000135,017415
0000000523,000120,000134,016080
0000000524,000145,000142,020590
0000000525,000160,000145,023200
0000000526,000134,000138,018492
0000000527,000125,000138,017250
0000000528,000121,000133,016093
0000000529,000137,000143,019591
0000000530,000139,000142,019738
0000000531,000161,000138,022218
0000000532,000162,000150,024300
0000000533,000145,000154,022330
0000000534,000156,000155,024180
0000000535,000144,000157,022608
0000000536,000137,000152,020824
0000000537,000176,000164,028864
0000000538,000157,000156,024492
0000000539,000159,000159,025281
0000000540,000181,000162,029322
0000000541,000180,000163,029340
0000000542,000155,000151,023405
0000000543,000162,000155,025110
0000000544,000176,000145,025520
0000000545,000197,000132,026004
0000000546,000181,000122,022082
0000000547,000186,000125,023250
0000000548,000149,000152,022648
0000000549,000161,000174,028014
0000000550,000185,000203,037555
0000000551,000174,000188,032712
0000000552,000182,000185,033670
0000000553,000183,000186,034038
0000000554,000168,000173,029064
0000000555,000176,000169,029744
0000000556,000206,000191,039346
0000000557,000191,000164,031324
0000000558,000200,000175,035000
0000000559,000209,000193,040337
0000000560,000204,000189,038556
0000000561,000178,000168,029904
0000000562,000170,000179,030430
0000000563,000196,000181,035476
0000000564,000137,000184,025208
0000000565,000165,000177,029205
0000000566,000141,000170,023970
0000000567,000174,000153,026622
0000000568,000174,000147,025578
0000000569,000200,000184,036800
0000000570,000167,000190,031730
0000000571,000200,000196,039200
0000000572,000209,000189,039501
0000000573,000185,000197,036445
0000000574,000189,000192,036288
0000000575,000147,000196,028812
0000000576,000237,000144,034128
0000000577,000234,000186,043524
0000000578,000227,000176,039952
0000000579,000222,000185,041070
0000000580,000065,000156,010140
0000000581,000071,000163,011573
0000000582,000082,000182,014924
0000000583,000086,000207,017802
0000000584,000088,000211,018568
0000000585,000106,000255,027030
0000000586,000079,000155,012245
0000000587,000085,000167,014195
0000000588,000090,000180,016200
0000000589,000082,000191,015662
0000000590,000090,000205,018450
0000000591,000100,000231,023100
0000000592,000088,000202,017776
0000000593,000083,000159,013197
0000000594,000086,000168,014448
0000000595,000089,000183,016287
0000000596,000090,000203,018270
0000000597,000118,000250,029500
0000000598,000094,000154,014476
0000000599,000096,000229,021984
0000000600,000102,000239,024378
0000000601,000074,000149,011026
0000000602,000090,000224,020160
0000000603,000082,000153,012546
0000000604,000088,000165,014520
0000000605,000096,000178,017088
0000000606,000094,000209,019646
0000000607,000105,000239,025095
0000000608,000069,000154,010626
0000000609,000070,000163,011410
0000000610,000099,000183,018117
0000000611,000085,000197,016745
0000000612,000065,000155,010075
0000000613,000068,000162,011016
0000000614,000075,000182,013650
0000000615,000064,000154,009856
0000000616,000071,000168,011928
0000000617,000083,000157,013031
0000000618,000081,000158,012798
0000000619,000105,000181,019005
0000000620,000070,000144,010080
0000000621,000077,000153,011781
0000000622,000080,000171,013680
0000000623,000096,000198,019008
0000000624,000116,000227,026332
0000000625,000087,000158,013746
0000000626,000081,000156,012636
0000000627,000083,000173,014359
0000000628,000102,000205,020910
0000000629,000104,000209,021736
0000000630,000119,000233,027727
0000000631,000120,000226,027120
0000000632,000079,000134,010586
0000000633,000079,000143,011297
0000000634,000084,000158,013272
0000000635,000093,000176,016368
0000000636,000102,000190,019380
0000000637,000081,000148,011988
0000000638,000098,000143,014014
0000000639,000109,000149,016241
0000000640,000124,000164,020336
0000000641,000120,000173,020760
0000000642,000113,000214,024182
0000000643,000073,000138,010074
0000000644,000097,000154,014938
0000000645,000081,000170,013770
0000000646,000113,000143,016159
0000000647,000158,000209,033022
0000000648,000096,000142,013632
0000000649,000101,000148,014948
0000000650,000105,000177,018585
0000000651,000108,000204,022032
0000000652,000130,000236,030680
0000000653,000132,000241,031812
0000000654,000105,000147,015435
0000000655,000111,000155,017205
0000000656,000113,000169,019097
0000000657,000106,000180,019080
0000000658,000099,000154,015246
0000000659,000095,000155,014725
0000000660,000095,000209,019855
0000000661,000102,000233,023766
0000000662,000102,000235,023970
0000000663,000111,000248,027528
0000000664,000096,000157,015072
0000000665,000084,000171,014364
0000000666,000113,000243,027459
0000000667,000089,000160,014240
0000000668,000078,000170,013260
0000000669,000088,000196,017248
0000000670,000099,000240,023760
0000000671,000063,000150,009450
0000000672,000066,000160,010560
0000000673,000072,000169,012168
0000000674,000085,000180,015300
0000000675,000084,000205,017220
0000000676,000098,000235,023030
0000000677,000099,000151,014949
0000000678,000101,000156,015756
0000000679,000125,000170,021250
0000000680,000143,000193,027599
0000000681,000148,000225,033300
0000000682,000087,000157,013659
0000000683,000104,000231,024024
0000000684,000119,000255,030345
0000000685,000064,000154,009856
0000000686,000069,000164,011316
0000000687,000086,000183,015738
0000000688,000114,000149,016986
0000000689,000105,000151,015855
0000000690,000118,000153,018054
0000000691,000144,000165,023760
0000000692,000133,000195,025935
0000000693,000105,000167,017535
0000000694,000108,000169,018252
0000000695,000134,000167,022378
0000000696,000139,000169,023491
0000000697,000066,000138,009108
0000000698,000062,000133,008246
0000000699,000088,000158,013904
0000000700,000092,000175,016100
0000000701,000065,000142,009230
0000000702,000065,000149,009685
0000000703,000071,000166,011786
0000000704,000078,000171,013338
0000000705,000080,000187,014960
0000000706,000069,000146,010074
0000000707,000064,000139,008896
0000000708,000068,000144,009792
0000000709,000097,000161,015617
0000000710,000145,000210,030450
0000000711,000123,000202,024846
0000000712,000054,000151,008154
0000000713,000066,000157,010362
0000000714,000101,000215,021715
0000000715,000089,000235,020915
0000000716,000092,000201,018492
0000000717,000077,000145,011165
0000000718,000090,000143,012870
0000000719,000099,000148,014652
0000000720,000105,000155,016275
0000000721,000114,000168,019152
0000000722,000118,000175,020650
0000000723,000127,000186,023622
0000000724,000149,000217,032333
0000000725,000091,000180,016380
0000000726,000097,000195,018915
0000000727,000108,000135,014580
0000000728,000115,000138,015870
0000000729,000138,000152,020976
0000000730,000168,000203,034104
0000000731,000111,000142,015762
0000000732,000117,000150,017550
0000000733,000079,000132,010428
0000000734,000081,000134,010854
0000000735,000105,000145,015225
0000000736,000116,000154,017864
0000000737,000136,000176,023936
0000000738,000164,000205,033620
0000000739,000080,000144,011520
0000000740,000084,000131,011004
0000000741,000090,000138,012420
0000000742,000111,000150,016650
0000000743,000110,000172,018920
0000000744,000129,000215,027735
0000000745,000066,000133,008778
0000000746,000066,000137,009042
0000000747,000114,000209,023826
0000000748,000071,000147,010437
0000000749,000099,000215,021285
0000000750,000105,000227,023835
0000000751,000083,000134,011122
0000000752,000096,000147,014112
0000000753,000114,000156,017784
0000000754,000128,000176,022528
0000000755,000142,000202,028684
0000000756,000107,000134,014338
0000000757,000100,000144,014400
0000000758,000101,000151,015251
0000000759,000117,000176,020592
0000000760,000125,000188,023500
0000000761,000131,000198,025938
0000000762,000136,000207,028152
0000000763,000082,000132,010824
0000000764,000089,000140,012460
0000000765,000145,000212,030740
0000000766,000096,000142,013632
0000000767,000098,000146,014308
0000000768,000102,000153,015606
0000000769,000103,000176,018128
0000000770,000119,000199,023681
0000000771,000153,000236,036108
0000000772,000103,000182,018746
0000000773,000120,000203,024360
0000000774,000141,000236,033276
0000000775,000078,000136,010608
0000000776,000079,000138,010902
0000000777,000097,000158,015326
0000000778,000123,000183,022509
0000000779,000142,000222,031524
0000000780,000126,000118,014868
0000000781,000131,000127,016637
0000000782,000140,000141,019740
0000000783,000154,000159,024486
0000000784,000122,000195,023790
0000000785,000091,000174,015834
0000000786,000105,000113,011865
0000000787,000109,000120,013080
0000000788,000127,000142,018034
0000000789,000135,000155,020925
0000000790,000182,000187,034034
0000000791,000107,000117,012519
0000000792,000100,000123,012300
0000000793,000136,000196,026656
0000000794,000075,000121,009075
0000000795,000110,000126,013860
0000000796,000092,000120,011040
0000000797,000126,000220,027720
0000000798,000117,000128,014976
0000000799,000126,000126,015876
0000000800,000113,000158,017854
0000000801,000107,000122,013054
0000000802,000108,000126,013608
0000000803,000133,000214,028462
0000000804,000074,000156,011544
0000000805,000077,000153,011781
0000000806,000081,000168,013608
0000000807,000079,000173,013667
0000000808,000090,000177,015930
0000000809,000077,000166,012782
0000000810,000090,000149,013410
0000000811,000094,000145,013630
0000000812,000079,000129,010191
0000000813,000088,000148,013024
0000000814,000090,000144,012960
0000000815,000116,000184,021344
0000000816,000105,000195,020475
0000000817,000083,000179,014857
0000000818,000114,000195,022230
0000000819,000131,000177,023187
0000000820,000068,000149,010132
0000000821,000070,000150,010500
0000000822,000102,000147,014994
0000000823,000076,000149,011324
0000000824,000082,000153,012546
0000000825,000104,000161,016744
0000000826,000096,000186,017856
0000000827,000105,000190,019950
0000000828,000119,000207,024633
0000000829,000126,000219,027594
0000000830,000115,000215,024725
0000000831,000107,000210,022470
0000000832,000138,000208,028704
0000000833,000119,000178,021182
0000000834,000103,000172,017716
0000000835,000143,000160,022880
0000000836,000132,000161,021252
0000000837,000121,000165,019965
0000000838,000135,000212,028620
0000000839,000095,000195,018525
0000000840,000109,000195,021255
0000000841,000109,000237,025833
0000000842,000114,000240,027360
0000000843,000111,000209,023199
0000000844,000109,000231,025179
0000000845,000107,000250,026750
0000000846,000118,000246,029028
0000000847,000115,000233,026795
0000000848,000134,000232,031088
0000000849,000134,000238,031892
0000000850,000138,000240,033120
0000000851,000144,000242,034848
0000000852,000129,000245,031605
0000000853,000121,000233,028193
0000000854,000100,000225,022500
0000000855,000121,000107,012947
0000000856,000135,000121,016335
0000000857,000151,000153,023103
0000000858,000207,000165,034155
0000000859,000115,000104,011960
0000000860,000118,000095,011210
0000000861,000126,000118,014868
0000000862,000134,000134,017956
0000000863,000161,000132,021252
0000000864,000206,000136,028016
0000000865,000219,000146,031974
0000000866,000121,000097,011737
0000000867,000209,000155,032395
0000000868,000193,000146,028178
0000000869,000129,000122,015738
0000000870,000134,000127,017018
0000000871,000136,000130,017680
0000000872,000151,000144,021744
0000000873,000155,000147,022785
0000000874,000184,000169,031096
0000000875,000181,000181,032761
0000000876,000130,000107,013910
0000000877,000136,000111,015096
0000000878,000148,000122,018056
0000000879,000181,000138,024978
0000000880,000203,000170,034510
0000000881,000206,000153,031518
0000000882,000132,000112,014784
0000000883,000135,000113,015255
0000000884,000138,000117,016146
0000000885,000138,000126,017388
0000000886,000156,000148,023088
0000000887,000139,000113,015707
0000000888,000159,000130,020670
0000000889,000162,000150,024300
0000000890,000171,000197,033687
0000000891,000143,000115,016445
0000000892,000148,000119,017612
0000000893,000176,000141,024816
0000000894,000179,000152,027208
0000000895,000204,000176,035904
0000000896,000129,000125,016125
0000000897,000136,000132,017952
0000000898,000161,000160,025760
0000000899,000172,000156,026832
0000000900,000203,000167,033901
0000000901,000220,000182,040040
0000000902,000129,000119,015351
0000000903,000133,000125,016625
0000000904,000232,000170,039440
0000000905,000136,000136,018496
0000000906,000140,000161,022540
0000000907,000175,000167,029225
0000000908,000135,000123,016605
0000000909,000144,000130,018720
0000000910,000147,000161,023667
0000000911,000136,000116,015776
0000000912,000141,000127,017907
0000000913,000134,000116,015544
0000000914,000138,000119,016422
0000000915,000148,000149,022052
0000000916,000192,000126,024192
0000000917,000126,000105,013230
0000000918,000131,000112,014672
0000000919,000146,000145,021170
0000000920,000153,000144,022032
0000000921,000216,000149,032184
0000000922,000137,000115,015755
0000000923,000133,000100,013300
0000000924,000122,000116,014152
0000000925,000122,000111,013542
0000000926,000230,000184,042320
0000000927,000115,000122,014030
0000000928,000098,000128,012544
0000000929,000108,000133,014364
0000000930,000120,000151,018120
0000000931,000134,000173,023182
0000000932,000115,000117,013455
0000000933,000129,000164,021156
0000000934,000101,000120,012120
0000000935,000109,000122,013298
0000000936,000108,000123,013284
0000000937,000112,000162,018144
0000000938,000122,000172,020984
0000000939,000072,000115,008280
0000000940,000139,000188,026132
0000000941,000076,000121,009196
0000000942,000168,000182,030576
0000000943,000088,000138,012144
0000000944,000122,000143,017446
0000000945,000089,000141,012549
0000000946,000107,000127,013589
0000000947,000105,000156,016380
0000000948,000099,000118,011682
0000000949,000109,000159,017331
0000000950,000123,000127,015621
0000000951,000138,000185,025530
0000000952,000115,000122,014030
0000000953,000090,000123,011070
0000000954,000120,000123,014760
0000000955,000094,000129,012126
0000000956,000107,000122,013054
0000000957,000105,000144,015120
0000000958,000119,000148,017612
0000000959,000121,000165,019965
0000000960,000134,000168,022512
0000000961,000139,000183,025437
0000000962,000149,000206,030694
0000000963,000077,000115,008855
0000000964,000150,000107,016050
0000000965,000091,000138,012558
0000000966,000104,000163,016952
0000000967,000158,000113,017854
0000000968,000128,000175,022400
0000000969,000175,000127,022225
0000000970,000095,000113,010735
0000000971,000148,000126,018648
0000000972,000105,000123,012915
0000000973,000155,000119,018445
0000000974,000111,000131,014541
0000000975,000161,000126,020286
0000000976,000118,000149,017582
0000000977,000180,000136,024480
0000000978,000125,000175,021875
0000000979,000206,000156,032136
0000000980,000080,000105,008400
0000000981,000243,000188,045684
0000000982,000085,000111,009435
0000000983,000138,000133,018354
0000000984,000117,000133,015561
0000000985,000121,000118,014278
0000000986,000139,000150,020850
0000000987,000144,000150,021600
0000000988,000165,000178,029370
0000000989,000161,000162,026082
0000000990,000084,000107,008988
0000000991,000185,000183,033855
0000000992,000087,000112,009744
0000000993,000201,000200,040200
0000000994,000086,000122,010492
0000000995,000132,000136,017952
0000000996,000088,000124,010912
0000000997,000123,000135,016605
0000000998,000097,000137,013289
0000000999,000119,000143,017017
0000001000,000116,000165,019140
0000001001,000113,000132,014916
0000001002,000111,000112,012432
0000001003,000123,000162,019926
0000001004,000113,000114,012882
0000001005,000129,000130,016770
0000001006,000124,000167,020708
0000001007,000135,000135,018225
0000001008,000130,000179,023270
0000001009,000146,000147,021462
0000001010,000147,000211,031017
0000001011,000159,000164,026076
0000001012,000211,000177,037347
0000001013,000128,000136,017408
0000001014,000165,000167,027555
0000001015,000135,000146,019710
0000001016,000098,000114,011172
0000001017,000143,000167,023881
0000001018,000091,000112,010192
0000001019,000117,000133,015561
0000001020,000135,000152,020520
0000001021,000169,000180,030420
0000001022,000120,000179,021480
0000001023,000164,000174,028536
0000001024,000116,000144,016704
0000001025,000109,000111,012099
0000001026,000151,000204,030804
0000001027,000113,000116,013108
0000001028,000130,000129,016770
0000001029,000103,000115,011845
0000001030,000127,000128,016256
0000001031,000083,000109,009047
0000001032,000124,000172,021328
0000001033,000089,000106,009434
0000001034,000133,000186,024738
0000001035,000078,000105,008190
0000001036,000141,000202,028482
0000001037,000116,000148,017168
0000001038,000116,000129,014964
0000001039,000113,000135,015255
0000001040,000100,000108,010800
0000001041,000112,000141,015792
0000001042,000099,000111,010989
0000001043,000104,000124,012896
0000001044,000123,000168,020664
0000001045,000126,000120,015120
0000001046,000071,000107,007597
0000001047,000127,000126,016002
0000001048,000072,000113,008136
0000001049,000125,000133,016625
0000001050,000081,000115,009315
0000001051,000095,000115,010925
0000001052,000130,000149,019370
0000001053,000139,000174,024186
0000001054,000092,000111,010212
0000001055,000110,000146,016060
0000001056,000159,000194,030846
0000001057,000115,000168,019320
0000001058,000124,000123,015252
0000001059,000091,000137,012467
0000001060,000140,000190,026600
0000001061,000124,000115,014260
0000001062,000159,000219,034821
0000001063,000131,000121,015851
0000001064,000124,000119,014756
0000001065,000143,000129,018447
0000001066,000173,000173,029929
0000001067,000157,000138,021666
0000001068,000130,000125,016250
0000001069,000193,000171,033003
0000001070,000130,000129,016770
0000001071,000127,000109,013843
0000001072,000122,000155,018910
0000001073,000131,000114,014934
0000001074,000125,000128,016000
0000001075,000136,000124,016864
0000001076,000118,000117,013806
0000001077,000221,000176,038896
0000001078,000140,000173,024220
0000001079,000113,000121,013673
0000001080,000151,000191,028841
0000001081,000120,000124,014880
0000001082,000119,000120,014280
0000001083,000133,000134,017822
0000001084,000114,000118,013452
0000001085,000159,000158,025122
0000001086,000123,000144,017712
0000001087,000184,000178,032752
0000001088,000160,000161,025760
0000001089,000191,000183,034953
0000001090,000119,000122,014518
0000001091,000176,000179,031504
0000001092,000126,000129,016254
0000001093,000178,000180,032040
0000001094,000146,000142,020732
0000001095,000123,000124,015252
0000001096,000168,000153,025704
0000001097,000125,000128,016000
0000001098,000185,000168,031080
0000001099,000131,000145,018995
0000001100,000207,000185,038295
0000001101,000151,000158,023858
0000001102,000114,000112,012768
0000001103,000114,000144,016416
0000001104,000122,000118,014396
0000001105,000123,000131,016113
0000001106,000140,000137,019180
0000001107,000114,000125,014250
0000001108,000162,000151,024462
0000001109,000103,000134,013802
0000001110,000193,000172,033196
0000001111,000106,000127,013462
0000001112,000114,000107,012198
0000001113,000129,000141,018189
0000001114,000128,000150,019200
0000001115,000113,000111,012543
0000001116,000134,000150,020100
0000001117,000133,000132,017556
0000001118,000075,000106,007950
0000001119,000118,000145,017110
0000001120,000085,000131,011135
0000001121,000120,000145,017400
0000001122,000124,000153,018972
0000001123,000119,000144,017136
0000001124,000120,000176,021120
0000001125,000144,000146,021024
0000001126,000143,000123,017589
0000001127,000126,000146,018396
0000001128,000140,000123,017220
0000001129,000129,000177,022833
0000001130,000127,000111,014097
0000001131,000128,000179,022912
0000001132,000122,000108,013176
0000001133,000122,000169,020618
0000001134,000135,000133,017955
0000001135,000154,000157,024178
0000001136,000134,000152,020368
0000001137,000186,000146,027156
0000001138,000132,000179,023628
0000001139,000184,000126,023184
0000001140,000102,000155,015810
0000001141,000221,000132,029172
0000001142,000106,000127,013462
0000001143,000173,000186,032178
0000001144,000098,000127,012446
0000001145,000165,000178,029370
0000001146,000114,000136,015504
0000001147,000168,000189,031752
0000001148,000121,000147,017787
0000001149,000168,000182,030576
0000001150,000121,000151,018271
0000001151,000171,000183,031293
0000001152,000130,000170,022100
0000001153,000222,000196,043512
0000001154,000157,000198,031086
0000001155,000213,000191,040683
0000001156,000156,000206,032136
0000001157,000181,000189,034209
0000001158,000135,000195,026325
0000001159,000094,000124,011656
0000001160,000098,000130,012740
0000001161,000100,000134,013400
0000001162,000122,000179,021838
0000001163,000130,000197,025610
0000001164,000074,000126,009324
0000001165,000081,000136,011016
0000001166,000090,000149,013410
0000001167,000120,000192,023040
0000001168,000074,000117,008658
0000001169,000080,000118,009440
0000001170,000109,000155,016895
0000001171,000080,000123,009840
0000001172,000088,000144,012672
0000001173,000097,000158,015326
0000001174,000115,000182,020930
0000001175,000091,000122,011102
0000001176,000093,000127,011811
0000001177,000107,000141,015087
0000001178,000111,000145,016095
0000001179,000125,000156,019500
0000001180,000101,000123,012423
0000001181,000131,000147,019257
0000001182,000140,000155,021700
0000001183,000167,000189,031563
0000001184,000101,000117,011817
0000001185,000108,000125,013500
0000001186,000080,000126,010080
0000001187,000078,000127,009906
0000001188,000085,000140,011900
0000001189,000124,000183,022692
0000001190,000101,000122,012322
0000001191,000104,000126,013104
0000001192,000116,000138,016008
0000001193,000117,000150,017550
0000001194,000142,000183,025986
0000001195,000099,000117,011583
0000001196,000111,000144,015984
0000001197,000085,000120,010200
0000001198,000089,000125,011125
0000001199,000088,000135,011880
0000001200,000093,000124,011532
0000001201,000124,000162,020088
0000001202,000119,000115,013685
0000001203,000121,000120,014520
0000001204,000128,000135,017280
0000001205,000151,000157,023707
0000001206,000155,000172,026660
0000001207,000149,000169,025181
0000001208,000135,000119,016065
0000001209,000123,000116,014268
0000001210,000124,000117,014508
0000001211,000117,000107,012519
0000001212,000119,000115,013685
0000001213,000109,000128,013952
0000001214,000146,000149,021754
0000001215,000148,000131,019388
0000001216,000141,000139,019599
0000001217,000171,000158,027018
0000001218,000197,000183,036051
0000001219,000127,000128,016256
0000001220,000118,000127,014986
0000001221,000138,000138,019044
0000001222,000144,000144,020736
0000001223,000150,000160,024000
0000001224,000175,000187,032725
0000001225,000110,000123,013530
0000001226,000118,000133,015694
min,000054,000074,007597
max,000243,000255,046632
mean,000129,000153,020011
std,000035,000031,007645
