,x,y,z,distance,azimuth,elevation
0000000000,00000.6444,00000.4158,00000.2857,00000.8184,00032.8310,00088.4594
0000000001,00000.8072,00000.1375,00000.6923,00001.0723,00009.6679,00088.3550
0000000002,00000.0127,-0000.2615,00000.4231,00000.4976,00272.7809,00089.4740
0000000003,00000.4599,00000.0575,00000.7629,00000.8926,00007.1312,00089.0690
0000000004,00001.0264,-0000.3522,00000.2675,00001.1177,00341.0597,00087.8197
0000000005,00000.5788,-0000.2712,00000.7416,00000.9790,00334.8943,00088.7160
0000000006,00000.1858,-0000.6522,00000.3597,00000.7676,00285.8982,00088.6378
0000000007,00000.9205,-0000.5637,00000.1588,00001.0910,00328.5163,00087.8315
0000000008,00000.1022,-0000.3916,00000.2597,00000.4809,00284.6206,00089.1871
0000000009,00000.3634,-0000.3213,00000.6072,00000.7772,00318.5209,00089.0257
0000000010,00000.6386,-0000.6377,00000.4480,00001.0076,00315.0408,00088.1869
0000000011,00000.3853,-0000.4382,00000.5545,00000.8050,00311.3244,00088.8278
0000000012,00000.6908,00000.1088,00000.4828,00000.8498,00008.9518,00088.5953
0000000013,00000.2325,-0000.5657,00000.2472,00000.6597,00292.3438,00088.7714
0000000014,00000.4799,-0000.3106,00000.5745,00000.8105,00327.0887,00088.8516
0000000015,00000.6706,-0000.7242,00000.5211,00001.1161,00312.8006,00088.0171
0000000016,00000.9693,-0000.1215,00000.6488,00001.1727,00352.8578,00088.0375
0000000017,00000.0940,-0000.2892,00000.7581,00000.8168,00287.9988,00089.3892
0000000018,00000.7145,-0000.3502,00000.3414,00000.8659,00333.8912,00088.4015
0000000019,00000.6248,00000.4319,00000.2975,00000.8158,00034.6548,00088.4741
0000000020,00000.4536,00000.1181,00000.5894,00000.7530,00014.5925,00089.0585
0000000021,00000.7968,00000.1606,00000.6819,00001.0610,00011.3960,00088.3671
0000000022,00000.0152,-0000.2804,00000.4074,00000.4948,00273.0983,00089.4359
0000000023,00000.4728,-0000.1536,00000.7299,00000.8831,00341.9975,00089.0014
0000000024,00001.1147,-0000.1423,00000.3096,00001.1656,00352.7255,00087.7423
0000000025,00000.8017,-0000.5347,00000.2571,00000.9974,00326.3004,00088.0640
0000000026,00000.2404,-0000.6329,00000.3352,00000.7555,00290.7943,00088.6399
0000000027,00000.5815,-0000.3749,00000.6601,00000.9563,00327.1909,00088.6101
0000000028,00000.0809,-0000.4248,00000.2634,00000.5063,00280.7771,00089.1314
0000000029,00000.8026,00000.2407,00000.3611,00000.9124,00016.6949,00088.3167
0000000030,00000.6946,-0000.4564,00000.4727,00000.9562,00326.6929,00088.3304
0000000031,00000.3759,-0000.4061,00000.5277,00000.7646,00312.7850,00088.8885
0000000032,00000.5892,-0000.6591,00000.6546,00001.1001,00311.7947,00088.2239
0000000033,00000.8802,-0000.1358,00000.7290,00001.1509,00351.2262,00088.2109
0000000034,00000.8714,-0000.2456,00000.3153,00000.9587,00344.2624,00088.1812
0000000035,00000.5886,-0000.1295,00000.7132,00000.9338,00347.5873,00088.7894
0000000036,00000.6164,00000.4420,00000.3604,00000.8398,00035.6419,00088.4762
0000000037,00000.1214,-0000.3046,00000.7820,00000.8479,00291.7305,00089.3414
0000000038,00000.3956,-0000.2237,00000.5489,00000.7126,00330.5116,00089.0871
0000000039,00000.7983,00000.2834,00000.7052,00001.1023,00019.5446,00088.2982
0000000040,-0000.0117,-0000.2641,00000.3595,00000.4462,00267.4666,00089.4690
0000000041,00001.1515,-0000.1974,00000.2877,00001.2032,00350.2709,00087.6527
0000000042,00000.6187,-0000.2136,00000.7175,00000.9712,00340.9529,00088.6852
0000000043,00000.8099,-0000.5759,00000.2466,00001.0239,00324.5851,00088.0035
0000000044,00000.2992,-0000.7253,00000.2708,00000.8300,00292.4143,00088.4239
0000000045,00000.5785,-0000.4455,00000.6568,00000.9821,00322.3994,00088.5331
0000000046,00000.6252,-0000.6506,00000.3598,00000.9714,00313.8598,00088.1873
0000000047,00000.0210,-0000.4323,00000.1891,00000.4723,00272.7750,00089.1306
0000000048,00000.4116,-0000.5803,00000.1693,00000.7313,00305.3462,00088.5709
0000000049,00000.7914,00000.2977,00000.3189,00000.9037,00020.6178,00088.3014
0000000050,00000.3263,-0000.4827,00000.6567,00000.8779,00304.0575,00088.8295
0000000051,00000.7565,-0000.6296,00000.6091,00001.1574,00320.2282,00088.0227
0000000052,00000.6832,-0000.2278,00000.4254,00000.8364,00341.5618,00088.5533
0000000053,00000.3891,00000.0345,00000.5969,00000.7134,00005.0699,00089.2153
0000000054,00000.3982,-0000.2372,00000.5471,00000.7170,00329.2180,00089.0691
0000000055,00000.5507,-0000.1985,00000.6900,00000.9049,00340.1769,00088.8241
0000000056,00000.8161,-0000.1427,00000.7904,00001.1450,00350.0827,00088.3357
0000000057,00000.0619,-0000.3394,00000.7359,00000.8127,00280.3309,00089.3070
0000000058,00001.1955,-0000.0501,00000.3288,00001.2409,00357.6008,00087.5958
0000000059,00000.7223,00000.2914,00000.7648,00001.0916,00021.9700,00088.4353
0000000060,-0000.0228,-0000.2833,00000.2734,00000.3944,00265.3980,00089.4290
0000000061,00000.5315,-0000.3561,00000.7182,00000.9618,00326.1804,00088.7149
0000000062,00000.9767,00000.2134,00000.4071,00001.0795,00012.3226,00087.9915
0000000063,00000.4536,-0000.6729,00000.2762,00000.8573,00303.9821,00088.3697
0000000064,00000.6704,-0000.6568,00000.3019,00000.9859,00315.5873,00088.1146
0000000065,00000.5692,-0000.3578,00000.7363,00000.9970,00327.8465,00088.6495
0000000066,00000.0612,-0000.4246,00000.1879,00000.4683,00278.1966,00089.1382
0000000067,00000.7103,-0000.4487,00000.6408,00001.0566,00327.7158,00088.3123
0000000068,00000.3675,-0000.6059,00000.1808,00000.7313,00301.2390,00088.5765
0000000069,00000.8930,00000.1518,00000.2315,00000.9349,00009.6457,00088.1803
0000000070,00000.4054,-0000.2501,00000.5563,00000.7324,00328.3285,00089.0432
0000000071,00000.6450,-0000.6523,00000.2596,00000.9533,00314.6792,00088.1571
0000000072,00000.3848,-0000.3835,00000.7418,00000.9195,00315.1027,00088.9087
0000000073,00000.1415,-0000.4528,00000.4221,00000.6350,00287.3496,00089.0470
0000000074,00000.7867,-0000.5401,00000.6040,00001.1294,00325.5324,00088.0829
0000000075,00000.9150,-0000.2210,00000.2796,00000.9819,00346.4185,00088.1090
0000000076,00000.5610,-0000.1068,00000.9169,00001.0802,00349.2214,00088.8528
0000000077,00000.6745,-0000.1367,00000.8709,00001.1100,00348.5426,00088.6175
0000000078,00000.4797,-0000.6489,00000.3657,00000.8860,00306.4744,00088.3788
0000000079,00000.4238,-0000.3759,00000.6306,00000.8477,00318.4235,00088.8621
0000000080,00000.7011,00000.2978,00000.7677,00001.0814,00023.0171,00088.4699
0000000081,00000.7679,-0000.0629,00000.5700,00000.9584,00355.3188,00088.4523
0000000082,00000.9723,00000.2107,00000.3460,00001.0533,00012.2255,00088.0014
0000000083,00000.5569,-0000.4497,00000.6383,00000.9590,00321.0783,00088.5621
0000000084,00000.8742,-0000.2141,00000.4597,00001.0107,00346.2374,00088.1918
0000000085,00000.6836,-0000.6972,00000.2160,00001.0000,00314.4365,00088.0384
0000000086,00000.5146,-0000.6958,00000.2663,00000.9055,00306.4892,00088.2615
0000000087,00000.6284,-0000.3434,00000.7107,00001.0089,00331.3412,00088.5614
0000000088,00000.8837,00000.1681,00000.1398,00000.9103,00010.7713,00088.1929
0000000089,00000.5456,-0000.0600,00000.5501,00000.7771,00353.7260,00088.8974
0000000090,00000.2119,-0000.5879,00000.1679,00000.6471,00289.8265,00088.7447
0000000091,00000.4792,-0000.2657,00000.7988,00000.9686,00330.9902,00088.8994
0000000092,00000.1581,-0000.2845,00000.5776,00000.6630,00299.0532,00089.3462
0000000093,00000.5008,-0000.4601,00000.4707,00000.8271,00317.4248,00088.6338
0000000094,00000.3694,-0000.2710,00000.7911,00000.9142,00323.7397,00089.0797
0000000095,00000.8898,-0000.5405,00000.5507,00001.1778,00328.7223,00087.9083
0000000096,00000.5595,-0000.0719,00000.8820,00001.0469,00352.6768,00088.8669
0000000097,00000.6242,-0000.1088,00000.8534,00001.0630,00350.1171,00088.7272
0000000098,00000.4713,-0000.6353,00000.2586,00000.8322,00306.5677,00088.4109
0000000099,00000.0022,-0000.3080,00000.1583,00000.3463,00270.4033,00089.3813
0000000100,00000.3018,-0000.3327,00000.6558,00000.7949,00312.2202,00089.0977
0000000101,00000.6788,00000.2843,00000.7763,00001.0697,00022.7229,00088.5216
0000000102,00000.7549,-0000.0757,00000.5794,00000.9546,00354.2701,00088.4759
0000000103,00000.9596,00000.1859,00000.3613,00001.0420,00010.9632,00088.0364
0000000104,00000.4466,-0000.3019,00000.7761,00000.9450,00325.9434,00088.9171
0000000105,00000.5218,-0000.4515,00000.6572,00000.9529,00319.1350,00088.6139
0000000106,00000.5868,-0000.7037,00000.2644,00000.9536,00309.8230,00088.1593
0000000107,-0000.1008,-0000.2667,00000.4316,00000.5173,00249.3002,00089.4273
0000000108,00001.0483,-0000.1415,00000.1866,00001.0741,00352.3109,00087.8749
0000000109,00000.6104,-0000.3324,00000.7164,00000.9982,00331.4324,00088.6038
0000000110,00000.8558,00000.2635,00000.1008,00000.9011,00017.1155,00088.2011
0000000111,00000.1473,-0000.5507,00000.1850,00000.5994,00284.9713,00088.8549
0000000112,00000.4572,-0000.4813,00000.3815,00000.7657,00313.5257,00088.6665
0000000113,00000.3982,-0000.2393,00000.8372,00000.9574,00328.9982,00089.0668
0000000114,00000.5793,-0000.5924,00000.4877,00000.9615,00314.3579,00088.3355
0000000115,00000.3538,-0000.2794,00000.7651,00000.8881,00321.7017,00089.0944
0000000116,00000.9242,-0000.5403,00000.4837,00001.1747,00329.6912,00087.8492
0000000117,00000.5801,-0000.1090,00000.8533,00001.0376,00349.3602,00088.8144
0000000118,00000.5526,-0000.0496,00000.8559,00001.0200,00354.8665,00088.8855
0000000119,00000.5212,-0000.7018,00000.3203,00000.9311,00306.6000,00088.2437
0000000120,00000.9803,-0000.1394,00000.3098,00001.0375,00351.9076,00088.0107
0000000121,00000.6274,00000.2036,00000.7834,00001.0241,00017.9752,00088.6750
0000000122,00000.2360,-0000.3069,00000.6361,00000.7446,00307.5627,00089.2223
0000000123,00000.4110,-0000.2507,00000.8001,00000.9338,00328.6141,00089.0329
0000000124,00001.0537,00000.0624,00000.3848,00001.1235,00003.3893,00087.8794
0000000125,00000.3698,-0000.3805,00000.7063,00000.8834,00314.1833,00088.9341
0000000126,-0000.0397,-0000.5438,00000.4108,00000.6826,00265.8209,00088.9048
0000000127,00001.0637,-0000.1392,00000.1163,00001.0790,00352.5430,00087.8447
0000000128,-0000.1545,-0000.4217,00000.3050,00000.5429,00249.8829,00089.0978
0000000129,00000.5408,-0000.2235,00000.7668,00000.9646,00337.5513,00088.8245
0000000130,-0000.0643,-0000.4443,00000.2542,00000.5158,00261.7678,00089.0983
0000000131,00000.3257,-0000.3724,00000.7418,00000.8917,00311.1711,00089.0062
0000000132,00000.8168,00000.2780,00000.1692,00000.8792,00018.7970,00088.2668
0000000133,00000.8407,-0000.0931,00000.1995,00000.8690,00353.6792,00088.3008
0000000134,00000.3918,-0000.5497,00000.4921,00000.8354,00305.4805,00088.6440
0000000135,00000.9622,-0000.5640,00000.3433,00001.1669,00329.6247,00087.7592
0000000136,00000.5851,-0000.6443,00000.2298,00000.9001,00312.2429,00088.2517
0000000137,00000.4858,00000.0036,00000.9541,00001.0706,00000.4189,00089.0242
0000000138,00000.5625,-0000.0482,00000.8965,00001.0594,00355.1024,00088.8660
0000000139,00000.9338,00000.3438,00000.4942,00001.1110,00020.2122,00088.0009
0000000140,00000.6155,00000.1756,00000.8471,00001.0617,00015.9244,00088.7143
0000000141,00000.8645,-0000.1715,00000.3983,00000.9672,00348.7796,00088.2295
0000000142,00000.2026,-0000.2713,00000.6433,00000.7270,00306.7522,00089.3198
0000000143,00000.4274,-0000.1581,00000.8055,00000.9255,00339.7025,00089.0847
0000000144,00000.2478,-0000.4351,00000.7167,00000.8743,00299.6620,00088.9943
0000000145,00000.9110,-0000.1985,00000.1673,00000.9473,00347.7061,00088.1268
0000000146,-0000.0616,-0000.5561,00000.3034,00000.6365,00263.6776,00088.8761
0000000147,00000.5092,-0000.2059,00000.8369,00001.0011,00337.9803,00088.8966
0000000148,-0000.1136,-0000.3370,00000.4202,00000.5505,00251.3673,00089.2857
0000000149,00000.4652,-0000.5773,00000.4772,00000.8817,00308.8604,00088.5107
0000000150,00000.3085,00000.0511,00000.7287,00000.7930,00009.3961,00089.3719
0000000151,00000.7939,-0000.1410,00000.2620,00000.8479,00349.9330,00088.3801
0000000152,00000.3276,-0000.3874,00000.7263,00000.8860,00310.2169,00088.9809
0000000153,00000.9320,-0000.5704,00000.3503,00001.1475,00328.5348,00087.8046
0000000154,00000.4965,00000.2062,00000.8292,00000.9883,00022.5563,00088.9200
0000000155,00000.5850,-0000.6749,00000.2524,00000.9281,00310.9151,00088.2057
0000000156,00000.4725,00000.1683,00000.9848,00001.1052,00019.5992,00088.9924
0000000157,00000.5480,-0000.0660,00000.9308,00001.0822,00353.1284,00088.8913
0000000158,00000.9889,-0000.1080,00000.3063,00001.0409,00353.7664,00088.0015
0000000159,00000.3592,-0000.1024,00000.8419,00000.9210,00344.0840,00089.2498
0000000160,00000.6090,00000.1758,00000.8670,00001.0740,00016.0981,00088.7267
0000000161,00000.1622,-0000.2087,00000.6970,00000.7454,00307.8414,00089.4691
0000000162,00000.1951,-0000.4950,00000.6705,00000.8560,00291.5144,00088.9313
0000000163,00000.3394,-0000.3690,00000.3686,00000.6223,00312.6115,00088.9930
0000000164,00000.0436,-0000.6201,00000.3307,00000.7042,00274.0207,00088.7512
0000000165,00000.6240,-0000.0969,00000.5698,00000.8506,00351.1767,00088.7315
0000000166,00000.4724,-0000.1417,00000.9109,00001.0358,00343.2975,00089.0093
0000000167,00000.7287,-0000.3424,00000.5160,00000.9563,00334.8307,00088.3826
0000000168,00000.4410,-0000.5838,00000.5475,00000.9138,00307.0640,00088.5302
0000000169,00000.3215,00000.0468,00000.7286,00000.7978,00008.2844,00089.3474
0000000170,00000.7171,-0000.1736,00000.3126,00000.8013,00346.3880,00088.5178
0000000171,00000.3085,-0000.3770,00000.7242,00000.8728,00309.2954,00089.0216
0000000172,00000.3942,00000.1156,00000.7923,00000.8925,00016.3455,00089.1748
0000000173,00000.9643,-0000.4586,00000.4173,00001.1464,00334.5672,00087.8548
0000000174,00000.7721,-0000.4139,00000.3142,00000.9307,00331.8065,00088.2401
0000000175,00000.4277,-0000.6745,00000.3061,00000.8553,00302.3755,00088.3956
0000000176,00000.3542,00000.2714,00001.0164,00001.1101,00037.4602,00089.1036
0000000177,00000.4053,-0000.0648,00000.9874,00001.0693,00350.9216,00089.1756
0000000178,00000.8832,-0000.5670,00000.3130,00001.0952,00327.3020,00087.8914
0000000179,00000.8415,-0000.0588,00000.4960,00000.9785,00356.0007,00088.3054
0000000180,00001.1490,00000.0520,00000.1567,00001.1608,00002.5892,00087.6892
0000000181,00000.8469,00000.4601,00000.4071,00001.0463,00028.5142,00088.0637
0000000182,00000.5111,00000.2438,00000.8979,00001.0616,00025.4989,00088.8625
0000000183,00000.1817,-0000.5698,00000.6312,00000.8695,00287.6898,00088.7987
0000000184,00000.1615,-0000.1865,00000.7415,00000.7815,00310.8858,00089.5045
0000000185,00000.0479,-0000.6078,00000.2867,00000.6738,00274.5093,00088.7752
0000000186,00000.4499,00000.0008,00000.9365,00001.0389,00000.1060,00089.0964
0000000187,00000.7574,-0000.1286,00000.5422,00000.9403,00350.3678,00088.4566
0000000188,00000.7094,-0000.2660,00000.5224,00000.9202,00339.4453,00088.4781
0000000189,00000.4776,-0000.4857,00000.6540,00000.9444,00314.5198,00088.6316
0000000190,00000.3985,00000.1567,00000.8283,00000.9325,00021.4701,00089.1398
0000000191,00000.7431,-0000.2161,00000.3175,00000.8365,00343.7845,00088.4453
0000000192,00000.3993,00000.1840,00000.7101,00000.8352,00024.7343,00089.1168
0000000193,00000.6400,-0000.3233,00000.7091,00001.0084,00333.1942,00088.5597
0000000194,00000.8609,-0000.5503,00000.4746,00001.1266,00327.4129,00087.9473
0000000195,00000.7047,-0000.4300,00000.2947,00000.8766,00328.6129,00088.3416
0000000196,00000.4041,-0000.7144,00000.2312,00000.8527,00299.4936,00088.3511
0000000197,00000.2870,00000.2304,00001.0179,00001.0824,00038.7490,00089.2607
0000000198,00000.3373,00000.0028,00000.9885,00001.0445,00000.4688,00089.3225
0000000199,00000.6781,-0000.7012,00000.2455,00001.0058,00314.0439,00088.0403
0000000200,00000.8907,00000.1740,00000.4795,00001.0264,00011.0538,00088.1767
0000000201,00001.1849,00000.0126,00000.1763,00001.1980,00000.6107,00087.6192
0000000202,00000.4473,00000.2416,00000.9087,00001.0413,00028.3710,00088.9788
0000000203,00000.8468,00000.3797,00000.5669,00001.0875,00024.1523,00088.1356
0000000204,00000.2395,-0000.6112,00000.6142,00000.8990,00291.3983,00088.6813
0000000205,00000.1615,-0000.2908,00000.7942,00000.8610,00299.0453,00089.3319
0000000206,00000.3787,-0000.0216,00000.7558,00000.8456,00356.7304,00089.2381
0000000207,00000.4905,-0000.0181,00000.9358,00001.0567,00357.8862,00089.0140
0000000208,00000.2892,-0000.0082,00000.7352,00000.7901,00358.3680,00089.4188
0000000209,00000.6232,-0000.1819,00000.6215,00000.8988,00343.7306,00088.6958
0000000210,00000.8727,-0000.1566,00000.4286,00000.9848,00349.8248,00088.2188
0000000211,00000.6000,-0000.5258,00000.5383,00000.9624,00318.7702,00088.3973
0000000212,00000.6762,-0000.2982,00000.3080,00000.8007,00336.2022,00088.5153
0000000213,00000.6961,-0000.2904,00000.7207,00001.0432,00337.3570,00088.4848
0000000214,00000.7733,-0000.6245,00000.4988,00001.1121,00321.0781,00088.0030
0000000215,00000.2831,00000.0708,00000.9883,00001.0305,00014.0458,00089.4138
0000000216,00000.3873,-0000.0170,00000.9808,00001.0547,00357.4825,00089.2213
0000000217,00000.8299,00000.2518,00000.5262,00001.0144,00016.8779,00088.2577
0000000218,00000.4136,-0000.6165,00000.4052,00000.8458,00303.8567,00088.5087
0000000219,00000.6560,00000.3741,00000.7966,00001.0977,00029.6951,00088.4829
0000000220,00001.0493,-0000.1566,00000.1424,00001.0704,00351.5093,00087.8686
0000000221,00000.4425,-0000.5624,00000.6361,00000.9574,00308.1935,00088.5625
0000000222,00000.7351,00000.3637,00000.6530,00001.0483,00026.3256,00088.3525
0000000223,00000.7251,-0000.1098,00000.6744,00000.9963,00351.3916,00088.5267
0000000224,00000.1419,-0000.1656,00000.8963,00000.9224,00310.5900,00089.5619
0000000225,00000.3902,-0000.1130,00000.6708,00000.7842,00343.8441,00089.1841
0000000226,00000.2717,-0000.1296,00000.7215,00000.7818,00334.4944,00089.3954
0000000227,00001.0303,-0000.3362,00000.5260,00001.2046,00341.9280,00087.8227
0000000228,00000.5746,-0000.1667,00000.6780,00000.9043,00343.8194,00088.7981
0000000229,00000.7290,-0000.2181,00000.4710,00000.8949,00343.3438,00088.4713
0000000230,00000.6214,-0000.6381,00000.3604,00000.9608,00314.2430,00088.2107
0000000231,00000.7644,-0000.2710,00000.6949,00001.0680,00340.4815,00088.3708
0000000232,00000.6489,-0000.3508,00000.3393,00000.8120,00331.6013,00088.5182
0000000233,00000.8242,-0000.5586,00000.3217,00001.0463,00325.8698,00087.9997
0000000234,00000.8304,-0000.7029,00000.4291,00001.1695,00319.7532,00087.8141
0000000235,00000.6553,00000.0312,00000.8739,00001.0928,00002.7232,00088.6821
0000000236,00000.2825,-0000.0324,00000.9288,00000.9713,00353.4571,00089.4288
0000000237,00000.7071,00000.3430,00000.5640,00000.9673,00025.8750,00088.4213
0000000238,00000.4551,-0000.4845,00000.2817,00000.7219,00313.2055,00088.6648
0000000239,00000.8809,-0000.2391,00000.2091,00000.9364,00344.8170,00088.1663
0000000240,00000.3246,-0000.3203,00000.7542,00000.8814,00315.3853,00089.0839
0000000241,00000.8559,00000.2991,00000.6273,00001.1025,00019.2656,00088.1786
0000000242,00000.5624,00000.2100,00000.8117,00001.0096,00020.4764,00088.7940
0000000243,00000.3982,-0000.2217,00000.5295,00000.6987,00330.8878,00089.0845
0000000244,00000.7089,-0000.0868,00000.6512,00000.9665,00353.0205,00088.5653
0000000245,00000.3896,-0000.5537,00000.5417,00000.8670,00305.1299,00088.6401
0000000246,00000.1873,00000.0216,00000.9912,00001.0090,00006.5762,00089.6213
0000000247,00001.0331,-0000.3271,00000.5158,00001.2002,00342.4295,00087.8228
0000000248,00000.4598,00000.0074,00000.7714,00000.8981,00000.9184,00089.0763
0000000249,00000.6577,-0000.2145,00000.4956,00000.8510,00341.9333,00088.6103
0000000250,00000.8776,-0000.2124,00000.6560,00001.1161,00346.3971,00088.1860
0000000251,00000.8284,00000.0290,00000.2259,00000.8591,00002.0059,00088.3349
0000000252,00000.8898,-0000.5304,00000.3605,00001.0968,00329.1997,00087.9188
0000000253,00000.7366,-0000.7157,00000.3923,00001.0994,00315.8233,00087.9365
0000000254,00000.7732,00000.0565,00000.8185,00001.1273,00004.1778,00088.4427
0000000255,00000.6820,00000.3590,00000.5766,00000.9626,00027.7583,00088.4517
0000000256,00000.2901,-0000.0852,00000.9145,00000.9632,00343.6277,00089.3926
0000000257,00000.1924,-0000.6903,00000.2948,00000.7749,00285.5761,00088.5604
0000000258,00000.8612,-0000.2475,00000.2155,00000.9216,00343.9655,00088.2000
0000000259,00000.2889,-0000.1666,00000.8386,00000.9024,00330.0243,00089.3302
0000000260,00000.5206,00000.2631,00000.8311,00001.0153,00026.8155,00088.8283
0000000261,00000.7872,00000.4162,00000.6831,00001.1223,00027.8655,00088.2111
0000000262,00000.7506,-0000.0594,00000.7422,00001.0573,00355.4778,00088.4874
0000000263,00000.3736,-0000.5022,00000.4933,00000.7969,00306.6477,00088.7427
0000000264,00000.1807,-0000.4006,00000.6277,00000.7662,00294.2803,00089.1171
0000000265,00000.5930,-0000.5890,00000.4209,00000.9358,00315.1927,00088.3209
0000000266,00001.0262,-0000.2748,00000.5609,00001.2013,00345.0071,00087.8657
0000000267,00000.9033,-0000.4146,00000.2109,00001.0160,00335.3480,00088.0033
0000000268,00000.4337,00000.0930,00000.7719,00000.8903,00012.1010,00089.1090
0000000269,00000.5435,-0000.2034,00000.5250,00000.7826,00339.4832,00088.8343
0000000270,00000.7881,00000.2049,00000.1585,00000.8296,00014.5739,00088.3641
0000000271,00000.8847,-0000.2545,00000.6816,00001.1454,00343.9500,00088.1507
0000000272,00000.9200,-0000.4912,00000.3994,00001.1168,00331.9013,00087.9047
0000000273,00000.6861,-0000.7582,00000.5011,00001.1388,00312.1409,00087.9456
0000000274,00000.2957,-0000.4346,00000.4039,00000.6629,00304.2319,00088.9442
0000000275,00000.8684,00000.0105,00000.7116,00001.1227,00000.6905,00088.2554
0000000276,00000.3700,-0000.1340,00000.8996,00000.9819,00340.0977,00089.2095
0000000277,00000.6302,00000.2349,00000.6460,00000.9326,00020.4445,00088.6489
0000000278,00000.8977,00000.3375,00000.3493,00001.0206,00020.6031,00088.0734
0000000279,00000.2532,-0000.7005,00000.3287,00000.8142,00289.8697,00088.5037
0000000280,00000.5622,-0000.0731,00000.7691,00000.9554,00352.5872,00088.8612
0000000281,00001.0991,00000.2989,00000.2573,00001.1677,00015.2141,00087.7116
0000000282,00000.6372,-0000.0199,00000.7997,00001.0227,00358.2145,00088.7194
0000000283,00000.2535,-0000.2839,00000.6831,00000.7820,00311.7593,00089.2354
0000000284,00000.2304,-0000.3914,00000.5595,00000.7206,00300.4832,00089.0877
0000000285,00001.0171,-0000.2309,00000.6127,00001.2096,00347.2096,00087.9045
0000000286,00000.0520,-0000.3264,00000.1943,00000.3834,00279.0549,00089.3362
0000000287,00000.3943,00000.1634,00000.7967,00000.9038,00022.5108,00089.1426
0000000288,00000.8477,-0000.2154,00000.6937,00001.1163,00345.7442,00088.2430
0000000289,00000.7988,00000.1074,00000.2305,00000.8383,00007.6546,00088.3809
0000000290,00000.9360,-0000.4710,00000.3702,00001.1113,00333.2907,00087.8948
0000000291,00000.3889,-0000.4043,00000.4142,00000.6973,00313.8872,00088.8733
0000000292,00000.7584,-0000.7631,00000.4200,00001.1549,00314.8206,00087.8385
0000000293,00000.8639,00000.3207,00000.3963,00001.0031,00020.3654,00088.1488
0000000294,00000.9170,-0000.0159,00000.6410,00001.1189,00359.0045,00088.1574
0000000295,00000.6113,00000.2264,00000.6748,00000.9382,00020.3219,00088.6906
0000000296,00000.3974,-0000.1680,00000.8850,00000.9846,00337.0873,00089.1334
0000000297,00000.4321,-0000.6963,00000.2908,00000.8695,00301.8264,00088.3538
0000000298,00001.0950,00000.2915,00000.2746,00001.1659,00014.9073,00087.7234
0000000299,00000.7204,-0000.0268,00000.7548,00001.0438,00357.8693,00088.5518
0000000300,00000.4674,-0000.0303,00000.8139,00000.9390,00356.2893,00089.0592
0000000301,00000.1518,-0000.3961,00000.6962,00000.8152,00290.9672,00089.1480
0000000302,00000.2327,-0000.3535,00000.6838,00000.8042,00303.3624,00089.1499
0000000303,00000.9934,-0000.3006,00000.2762,00001.0740,00343.1629,00087.9148
0000000304,00000.2412,-0000.4034,00000.5313,00000.7094,00300.8766,00089.0559
0000000305,00000.9236,-0000.1760,00000.7225,00001.1857,00349.2137,00088.1112
0000000306,00000.4706,00000.2933,00000.8120,00000.9833,00031.9395,00088.8862
0000000307,00000.4016,-0000.0727,00000.5720,00000.7027,00349.7453,00089.1802
0000000308,00001.0040,-0000.1015,00000.7439,00001.2537,00354.2287,00087.9726
0000000309,00000.7581,00000.0730,00000.3191,00000.8257,00005.5027,00088.4701
0000000310,00000.6887,-0000.8471,00000.3559,00001.1483,00309.1082,00087.8066
0000000311,00000.9794,-0000.4841,00000.3133,00001.1365,00333.6981,00087.8051
0000000312,00000.9550,-0000.0244,00000.5675,00001.1112,00358.5342,00088.0807
0000000313,00000.9333,00000.3819,00000.1784,00001.0240,00022.2550,00087.9741
0000000314,00000.5258,-0000.2593,00000.8236,00001.0110,00333.7529,00088.8223
0000000315,00000.6450,00000.0665,00000.7108,00000.9622,00005.8901,00088.6974
0000000316,00000.5667,-0000.2873,00000.7589,00000.9898,00333.1158,00088.7237
0000000317,00001.0580,00000.4562,00000.3202,00001.1958,00023.3243,00087.6852
0000000318,00000.4754,00000.0389,00000.8219,00000.9502,00004.6733,00089.0419
0000000319,00000.3721,-0000.5300,00000.8299,00001.0527,00305.0703,00088.6991
0000000320,00000.2469,-0000.4647,00000.6234,00000.8158,00297.9807,00088.9430
0000000321,00000.1488,-0000.2483,00000.7745,00000.8268,00300.9326,00089.4187
0000000322,00000.6960,-0000.3809,00000.2664,00000.8369,00331.3098,00088.4061
0000000323,00000.1838,-0000.4556,00000.5061,00000.7054,00291.9722,00089.0131
0000000324,00000.8352,-0000.0857,00000.8369,00001.1855,00354.1425,00088.3133
0000000325,00000.5161,00000.0086,00000.7960,00000.9487,00000.9522,00088.9631
0000000326,00000.5005,-0000.3954,00000.4230,00000.7654,00321.6945,00088.7187
0000000327,00000.3767,-0000.0530,00000.5580,00000.6753,00351.9951,00089.2358
0000000328,00000.9291,-0000.1193,00000.7529,00001.2018,00352.6812,00088.1181
0000000329,00000.7225,00000.1016,00000.3810,00000.8231,00008.0059,00088.5343
0000000330,00000.6726,-0000.4992,00000.4195,00000.9368,00323.4200,00088.3173
0000000331,00000.7694,-0000.8284,00000.2755,00001.1637,00312.8866,00087.7285
0000000332,00000.9194,00000.4004,00000.1605,00001.0156,00023.5324,00087.9853
0000000333,00001.0262,-0000.0428,00000.5196,00001.1511,00357.6118,00087.9365
0000000334,00000.6348,-0000.2283,00000.7958,00001.0433,00340.2177,00088.6449
0000000335,00000.8068,00000.0675,00000.6031,00001.0096,00004.7853,00088.3736
0000000336,00000.5386,-0000.2502,00000.7648,00000.9683,00335.0791,00088.8071
0000000337,00001.0688,00000.4594,00000.2408,00001.1880,00023.2608,00087.6626
0000000338,00000.3299,-0000.4613,00000.8442,00001.0170,00305.5720,00088.8609
0000000339,00000.2706,-0000.4407,00000.6293,00000.8146,00301.5540,00088.9611
0000000340,00000.5290,00000.1816,00000.8178,00000.9908,00018.9413,00088.8764
0000000341,00000.1764,-0000.2105,00000.8132,00000.8583,00309.9605,00089.4483
0000000342,00000.1577,-0000.5532,00000.5102,00000.7688,00285.9099,00088.8446
0000000343,00000.7917,-0000.0276,00000.8834,00001.1866,00358.0007,00088.4086
0000000344,00000.4906,-0000.2534,00000.6748,00000.8720,00332.6844,00088.8908
0000000345,00000.5188,-0000.3484,00000.4338,00000.7608,00326.1171,00088.7446
0000000346,00000.3789,-0000.0212,00000.6644,00000.7652,00356.7997,00089.2377
0000000347,00000.7673,-0000.7992,00000.2538,00001.1366,00313.8333,00087.7741
0000000348,00000.9419,-0000.2031,00000.6969,00001.1892,00347.8336,00088.0643
0000000349,00000.7643,-0000.0089,00000.3177,00000.8277,00359.3363,00088.4646
0000000350,00000.7605,-0000.5581,00000.2863,00000.9858,00323.7279,00088.1050
0000000351,00001.0591,-0000.0563,00000.5163,00001.1796,00356.9574,00087.8691
0000000352,00000.8535,00000.4688,00000.2552,00001.0066,00028.7765,00088.0437
0000000353,00000.7494,00000.0968,00000.6421,00000.9916,00007.3587,00088.4820
0000000354,00000.6999,-0000.0980,00000.8191,00001.0818,00352.0287,00088.5804
0000000355,00001.0606,00000.4576,00000.2196,00001.1758,00023.3404,00087.6792
0000000356,00000.2838,-0000.2818,00000.8309,00000.9222,00315.2074,00089.1966
0000000357,00000.5363,00000.0278,00000.8246,00000.9840,00002.9686,00088.9214
0000000358,00000.4096,-0000.1954,00000.8088,00000.9274,00334.4916,00089.0885
0000000359,00000.4102,-0000.4257,00000.5456,00000.8045,00313.9410,00088.8125
0000000360,00000.2421,-0000.4731,00000.8347,00000.9895,00297.0947,00088.9325
0000000361,00000.8395,-0000.1353,00000.2858,00000.8970,00350.8456,00088.2918
0000000362,00000.1586,-0000.4906,00000.6224,00000.8082,00287.9174,00088.9644
0000000363,00000.7745,00000.0031,00000.8980,00001.1859,00000.2290,00088.4441
0000000364,00000.8399,-0000.2740,00000.4356,00000.9850,00341.9305,00088.2252
0000000365,00000.1060,-0000.3264,00000.3881,00000.5180,00287.9940,00089.3107
0000000366,00000.7497,-0000.0671,00000.3256,00000.8202,00354.8845,00088.4879
0000000367,00001.1197,-0000.2627,00000.3709,00001.2085,00346.7963,00087.6892
0000000368,00000.8181,-0000.7208,00000.2439,00001.1172,00318.6191,00087.8095
0000000369,00000.7241,-0000.3311,00000.7189,00001.0728,00335.4257,00088.4004
0000000370,00000.7066,-0000.6040,00000.3640,00000.9983,00319.4736,00088.1326
0000000371,00000.8136,00000.4738,00000.3584,00001.0074,00030.2147,00088.1086
0000000372,00000.7919,-0000.1106,00000.8059,00001.1352,00352.0483,00088.3938
0000000373,00000.7994,-0000.0559,00000.5854,00000.9924,00355.9970,00088.3902
0000000374,00000.3572,-0000.4627,00000.3417,00000.6771,00307.6712,00088.8259
0000000375,00001.0473,00000.4476,00000.2115,00001.1585,00023.1425,00087.7116
0000000376,00000.3711,-0000.2725,00000.8509,00000.9675,00323.7132,00089.0751
0000000377,00000.3130,00000.0581,00000.8464,00000.9043,00010.5243,00089.3606
0000000378,00000.4257,-0000.4486,00000.5179,00000.8066,00313.4997,00088.7577
0000000379,00000.3823,-0000.1822,00000.8135,00000.9171,00334.5142,00089.1493
0000000380,00000.2151,-0000.5284,00000.7794,00000.9659,00292.1494,00088.8540
0000000381,00000.9095,-0000.0429,00000.2931,00000.9565,00357.2979,00088.1708
0000000382,00000.6051,-0000.0423,00000.9252,00001.1063,00356.0014,00088.7815
0000000383,00000.2112,-0000.4787,00000.6851,00000.8620,00293.8020,00088.9489
0000000384,00000.8029,-0000.3316,00000.4613,00000.9836,00337.5626,00088.2549
0000000385,00001.0915,-0000.2323,00000.3935,00001.1833,00347.9832,00087.7580
0000000386,00000.1460,-0000.2610,00000.4985,00000.5813,00299.2289,00089.3994
0000000387,00000.8370,-0000.0365,00000.1175,00000.8460,00357.5032,00088.3170
0000000388,00000.9044,-0000.6904,00000.3106,00001.1794,00322.6418,00087.7140
0000000389,00000.7064,-0000.4322,00000.6119,00001.0297,00328.5441,00088.3364
0000000390,00000.7563,-0000.6183,00000.2434,00001.0067,00320.7334,00088.0375
0000000391,00000.5452,-0000.1653,00000.6232,00000.8443,00343.1321,00088.8557
0000000392,00000.8587,-0000.0449,00000.8035,00001.1769,00357.0051,00088.2726
0000000393,00000.9040,-0000.0059,00000.5011,00001.0336,00359.6235,00088.1840
0000000394,00000.3145,-0000.3978,00000.4440,00000.6740,00308.3232,00088.9813
0000000395,00001.0412,00000.4454,00000.2285,00001.1553,00023.1582,00087.7247
0000000396,00000.3614,00000.1365,00000.8755,00000.9569,00020.6934,00089.2239
0000000397,00000.5494,-0000.4652,00000.5018,00000.8775,00319.7412,00088.5539
0000000398,00000.2817,-0000.6320,00000.6847,00000.9735,00294.0237,00088.6099
0000000399,00000.9675,-0000.0296,00000.2377,00000.9967,00358.2462,00088.0555
0000000400,00000.5006,-0000.1080,00000.8216,00000.9681,00347.8213,00088.9712
0000000401,00000.6091,-0000.1775,00000.8566,00001.0659,00343.7558,00088.7256
0000000402,00000.2422,-0000.3646,00000.7530,00000.8710,00303.6012,00089.1208
0000000403,00001.0713,-0000.2215,00000.3880,00001.1607,00348.3176,00087.8022
0000000404,00000.7393,-0000.4462,00000.3518,00000.9324,00328.8867,00088.2654
0000000405,00000.8440,-0000.0919,00000.0889,00000.8536,00353.7871,00088.2945
0000000406,00000.2125,-0000.1569,00000.5694,00000.6277,00323.5721,00089.4694
0000000407,00000.9822,-0000.6724,00000.2289,00001.2121,00325.6075,00087.6084
0000000408,00000.7175,-0000.4681,00000.5758,00001.0323,00326.8799,00088.2789
0000000409,00000.6375,-0000.6771,00000.1840,00000.9480,00313.2760,00088.1316
0000000410,00000.4588,-0000.3166,00000.6184,00000.8326,00325.3929,00088.8802
0000000411,00000.7743,-0000.3526,00000.5889,00001.0347,00335.5178,00088.2909
0000000412,00000.9146,-0000.0127,00000.4486,00001.0188,00359.2060,00088.1624
0000000413,00000.2769,-0000.0729,00000.7185,00000.7735,00345.2498,00089.4248
0000000414,00000.3515,-0000.3653,00000.5089,00000.7183,00313.9001,00088.9817
0000000415,00000.9697,00000.0334,00000.3001,00001.0156,00001.9756,00088.0508
0000000416,00000.8180,-0000.0927,00000.7225,00001.0953,00353.5327,00088.3463
0000000417,00000.6610,-0000.2229,00000.7795,00001.0461,00341.3688,00088.5986
0000000418,00000.5464,-0000.4126,00000.4904,00000.8422,00322.9415,00088.6246
0000000419,00000.3312,-0000.6226,00000.6974,00000.9918,00298.0129,00088.5833
0000000420,00000.7700,-0000.3695,00000.4502,00000.9655,00334.3644,00088.2842
0000000421,00001.0786,-0000.2338,00000.3558,00001.1596,00347.7693,00087.7827
0000000422,00000.8680,-0000.4202,00000.5636,00001.1170,00334.1660,00088.0625
0000000423,00000.3722,-0000.4947,00000.6678,00000.9107,00306.9575,00088.7563
0000000424,00000.6903,-0000.3785,00000.3428,00000.8586,00331.2646,00088.4186
0000000425,00000.8109,-0000.1899,00000.1372,00000.8441,00346.8187,00088.3269
0000000426,00000.6963,-0000.4747,00000.5653,00001.0148,00325.7166,00088.3070
0000000427,00001.0192,-0000.3490,00000.3697,00001.1390,00341.0986,00087.8356
0000000428,00000.9568,-0000.4525,00000.2765,00001.0939,00334.6902,00087.8735
0000000429,00000.4098,-0000.3490,00000.6475,00000.8420,00319.5788,00088.9188
0000000430,00000.9826,00000.0257,00000.3115,00001.0311,00001.4984,00088.0252
0000000431,00000.7486,-0000.3464,00000.5789,00001.0078,00335.1691,00088.3428
0000000432,00000.2755,-0000.0691,00000.8038,00000.8525,00345.9250,00089.4294
0000000433,00000.4146,-0000.3122,00000.7553,00000.9164,00323.0196,00088.9575
0000000434,00000.2491,-0000.4663,00000.3638,00000.6418,00298.1147,00088.9380
0000000435,00000.9184,00000.0621,00000.3804,00000.9960,00003.8696,00088.1507
0000000436,00000.7264,-0000.0806,00000.6763,00000.9958,00353.6717,00088.5317
0000000437,00000.5645,-0000.5038,00000.3887,00000.8506,00318.2569,00088.4801
0000000438,00000.5038,-0000.5407,00000.7256,00001.0357,00312.9726,00088.5154
0000000439,00000.7216,-0000.3533,00000.5016,00000.9471,00333.9141,00088.3860
0000000440,00000.7153,-0000.4805,00000.5881,00001.0433,00326.1077,00088.2689
0000000441,00001.1287,-0000.2510,00000.2318,00001.1793,00347.4612,00087.6769
0000000442,00000.3747,-0000.3853,00000.7565,00000.9280,00314.2003,00088.9203
0000000443,00000.8304,-0000.2400,00000.1271,00000.8737,00343.8822,00088.2635
0000000444,00000.6775,-0000.4663,00000.5706,00001.0011,00325.4607,00088.3477
0000000445,00001.0905,-0000.3772,00000.3022,00001.1928,00340.9200,00087.6817
0000000446,00000.9192,-0000.5861,00000.2545,00001.1195,00327.4774,00087.8097
0000000447,00000.4349,-0000.0758,00000.7055,00000.8322,00350.1142,00089.1134
0000000448,00000.9639,00000.0866,00000.1621,00000.9812,00005.1321,00088.0558
0000000449,00000.6731,-0000.2716,00000.6675,00000.9860,00338.0205,00088.5420
0000000450,00000.2877,-0000.0803,00000.8918,00000.9405,00344.4109,00089.4001
0000000451,00000.6482,-0000.3774,00000.6564,00000.9967,00329.7901,00088.4932
0000000452,00000.2372,-0000.4924,00000.2755,00000.6121,00295.7232,00088.9021
0000000453,00000.6973,-0000.0850,00000.6958,00000.9888,00353.0465,00088.5888
0000000454,00000.5304,-0000.4626,00000.3689,00000.7946,00318.9052,00088.5863
0000000455,00000.3466,-0000.7058,00000.5796,00000.9769,00296.1562,00088.4203
0000000456,00000.7028,-0000.3007,00000.7249,00001.0534,00336.8317,00088.4644
0000000457,00000.6764,-0000.3536,00000.5339,00000.9315,00332.4036,00088.4668
0000000458,00001.1402,-0000.2596,00000.2078,00001.1877,00347.1755,00087.6506
0000000459,00000.3810,-0000.3494,00000.7356,00000.8991,00317.4734,00088.9616
0000000460,00000.7796,-0000.3003,00000.1526,00000.8492,00338.9341,00088.3218
0000000461,00000.4469,-0000.3788,00000.7124,00000.9224,00319.7201,00088.8232
0000000462,00000.3885,-0000.1685,00000.7043,00000.8218,00336.5491,00089.1493
0000000463,00001.1131,-0000.3750,00000.2550,00001.2020,00341.3815,00087.6400
0000000464,00000.9608,00000.0831,00000.1412,00000.9746,00004.9408,00088.0626
0000000465,00000.8543,-0000.3387,00000.4188,00001.0099,00338.3725,00088.1538
0000000466,00000.6891,-0000.3071,00000.6832,00001.0178,00335.9840,00088.4844
0000000467,00000.3950,00000.1582,00000.9958,00001.0829,00021.8301,00089.1454
0000000468,00000.9282,-0000.2325,00000.6323,00001.1469,00345.9370,00088.0776
0000000469,00000.2871,-0000.4598,00000.2648,00000.6033,00301.9771,00088.9112
0000000470,00000.6444,-0000.0963,00000.7377,00000.9843,00351.5041,00088.6912
0000000471,00000.6408,-0000.4451,00000.4037,00000.8785,00325.2176,00088.4327
0000000472,00000.3799,-0000.7096,00000.5620,00000.9816,00298.1621,00088.3831
0000000473,00000.8870,-0000.3666,00000.6107,00001.1376,00337.5475,00088.0718
0000000474,00001.1524,-0000.1779,00000.2790,00001.1990,00351.2222,00087.6572
0000000475,00000.3599,-0000.5271,00000.2760,00000.6954,00304.3233,00088.7178
0000000476,00000.7049,-0000.4875,00000.3365,00000.9207,00325.3308,00088.2783
0000000477,00000.5044,-0000.4505,00000.6891,00000.9655,00318.2319,00088.6416
0000000478,00001.0155,-0000.3477,00000.4668,00001.1705,00341.1000,00087.8435
0000000479,00000.4280,-0000.4310,00000.6765,00000.9092,00314.7997,00088.7799
0000000480,00000.7322,-0000.3698,00000.1629,00000.8363,00333.2044,00088.3522
0000000481,00001.0847,-0000.4135,00000.2125,00001.1802,00339.1349,00087.6676
0000000482,00000.4931,-0000.1423,00000.5722,00000.7687,00343.9070,00088.9690
0000000483,00000.9646,00000.1416,00000.1921,00000.9937,00008.3499,00088.0414
0000000484,00000.9123,-0000.2752,00000.4008,00001.0338,00343.2131,00088.0856
0000000485,00000.1710,00000.0493,00000.9314,00000.9483,00016.0837,00089.6426
0000000486,00000.8433,-0000.2307,00000.6024,00001.0617,00344.6971,00088.2436
0000000487,00000.8806,-0000.1380,00000.6936,00001.1294,00351.0928,00088.2094
0000000488,00000.7863,-0000.5904,00000.3162,00001.0329,00323.0955,00088.0246
0000000489,00000.6591,-0000.3947,00000.4382,00000.8845,00329.0858,00088.4567
0000000490,00000.4699,-0000.1813,00000.5958,00000.7801,00338.9048,00088.9884
0000000491,00000.4587,00000.0117,00000.8837,00000.9957,00001.4638,00089.0784
0000000492,00000.4794,-0000.7467,00000.5366,00001.0370,00302.7016,00088.2173
0000000493,00001.0443,-0000.3485,00000.4765,00001.1996,00341.5450,00087.7882
0000000494,00000.7169,-0000.4927,00000.3079,00000.9228,00325.4998,00088.2525
0000000495,00000.5386,-0000.5191,00000.5870,00000.9509,00316.0590,00088.4973
0000000496,00000.3087,-0000.4205,00000.5377,00000.7491,00306.2867,00088.9521
0000000497,00000.5176,-0000.1356,00000.6173,00000.8169,00345.3213,00088.9252
0000000498,00000.4297,-0000.4455,00000.6669,00000.9098,00313.9696,00088.7567
0000000499,00001.0587,-0000.4466,00000.2157,00001.1691,00337.1268,00087.6915
0000000500,00000.9356,00000.2549,00000.2373,00000.9983,00015.2379,00088.0519
0000000501,00000.9022,-0000.1565,00000.4919,00001.0395,00350.1598,00088.1604
0000000502,00000.9413,-0000.1196,00000.6530,00001.1518,00352.7607,00088.0937
0000000503,00000.1636,00000.0165,00000.9023,00000.9171,00005.7776,00089.6698
0000000504,00000.7754,-0000.5662,00000.3240,00001.0133,00323.8620,00088.0712
0000000505,00000.8702,-0000.1941,00000.6600,00001.1093,00347.4284,00088.2090
0000000506,00000.4586,-0000.5819,00000.4636,00000.8740,00308.2405,00088.5116
0000000507,00000.3490,-0000.0260,00000.9047,00000.9700,00355.7328,00089.2970
0000000508,00000.2083,-0000.1085,00000.9172,00000.9468,00332.4771,00089.5283
0000000509,00000.9817,-0000.4152,00000.5088,00001.1811,00337.0744,00087.8586
0000000510,00000.4003,-0000.5674,00000.5668,00000.8964,00305.2049,00088.6050
0000000511,00000.7441,-0000.5030,00000.2444,00000.9308,00325.9429,00088.1957
0000000512,00000.2986,-0000.4643,00000.4512,00000.7130,00302.7517,00088.8912
0000000513,00000.4520,-0000.2121,00000.6735,00000.8384,00334.8571,00088.9971
0000000514,00001.0581,-0000.4800,00000.2224,00001.1830,00335.5988,00087.6655
0000000515,00000.9814,00000.1790,00000.1602,00001.0103,00010.3342,00087.9959
0000000516,00000.7769,-0000.2355,00000.5531,00000.9823,00343.1371,00088.3693
0000000517,00000.8215,-0000.6018,00000.2139,00001.0405,00323.7759,00087.9542
0000000518,00000.1478,00000.0217,00000.8799,00000.8925,00008.3481,00089.6999
0000000519,00000.9562,-0000.0967,00000.6916,00001.1840,00354.2251,00088.0692
0000000520,00000.8841,-0000.3037,00000.5480,00001.0836,00341.0426,00088.1220
0000000521,00000.3212,-0000.5922,00000.4544,00000.8126,00298.4754,00088.6466
0000000522,00000.2654,00000.0006,00000.9215,00000.9590,00000.1324,00089.4670
0000000523,00000.1765,-0000.1384,00000.9113,00000.9385,00321.8834,00089.5495
0000000524,00000.9942,-0000.3301,00000.5542,00001.1852,00341.6321,00087.8953
0000000525,00000.5218,-0000.5915,00000.4887,00000.9278,00311.4171,00088.4156
0000000526,00000.5871,-0000.4446,00000.4519,00000.8640,00322.8635,00088.5206
0000000527,00000.9940,00000.2202,00000.4654,00001.1194,00012.4903,00087.9546
0000000528,00000.3376,-0000.5056,00000.4418,00000.7515,00303.7278,00088.7788
0000000529,00000.6202,-0000.2742,00000.5283,00000.8596,00336.1487,00088.6379
0000000530,00000.8234,-0000.5973,00000.2083,00001.0383,00324.0453,00087.9564
0000000531,00000.9282,-0000.0941,00000.2397,00000.9633,00354.2121,00088.1256
0000000532,00000.8719,-0000.2938,00000.4573,00001.0274,00341.3779,00088.1517
0000000533,00000.2185,-0000.2433,00000.5279,00000.6210,00311.9237,00089.3431
0000000534,00000.1390,00000.0202,00000.8746,00000.8858,00008.2585,00089.7178
0000000535,00000.7047,-0000.1720,00000.7027,00001.0099,00346.2834,00088.5428
0000000536,00000.8964,-0000.3530,00000.4724,00001.0730,00338.5072,00088.0646
0000000537,00000.3716,-0000.6439,00000.3663,00000.8287,00299.9947,00088.5066
0000000538,00000.3875,-0000.0606,00000.8911,00000.9736,00351.1108,00089.2123
0000000539,00000.9430,-0000.3141,00000.6157,00001.1692,00341.5793,00088.0032
0000000540,00000.1390,-0000.2221,00000.8916,00000.9293,00302.0430,00089.4737
0000000541,00000.5594,-0000.5478,00000.4655,00000.9109,00315.6031,00088.4271
0000000542,00001.0175,00000.2731,00000.4754,00001.1558,00015.0234,00087.8835
0000000543,00000.5645,-0000.4177,00000.4665,00000.8430,00323.5036,00088.5894
0000000544,00000.8799,-0000.5565,00000.2700,00001.0756,00327.6882,00087.9083
0000000545,00000.3438,-0000.5542,00000.3730,00000.7513,00301.8130,00088.6899
0000000546,00000.6588,-0000.2745,00000.5010,00000.8720,00337.3816,00088.5663
0000000547,00000.9725,-0000.2179,00000.3873,00001.0692,00347.3724,00087.9979
0000000548,00000.8968,-0000.1558,00000.2324,00000.9395,00350.1425,00088.1713
0000000549,00000.1708,-0000.4017,00000.3150,00000.5384,00293.0378,00089.1231
0000000550,00000.8022,-0000.2946,00000.6906,00001.0987,00339.8324,00088.2832
0000000551,00001.2023,-0000.2169,00000.3452,00001.2695,00349.7716,00087.5453
0000000552,00000.8461,-0000.3589,00000.4907,00001.0419,00337.0162,00088.1536
0000000553,00000.5147,-0000.6489,00000.3400,00000.8953,00308.4238,00088.3361
0000000554,00000.4357,-0000.1856,00000.8739,00000.9940,00336.9309,00089.0488
0000000555,00000.8012,-0000.3759,00000.6908,00001.1227,00334.8671,00088.2220
0000000556,00000.1399,-0000.2284,00000.8898,00000.9293,00301.4918,00089.4620
0000000557,00000.5727,-0000.5350,00000.4695,00000.9136,00316.9494,00088.4257
0000000558,00000.9893,00000.3334,00000.5179,00001.1653,00018.6224,00087.9027
0000000559,00000.5528,-0000.5693,00000.3467,00000.8659,00314.1527,00088.4059
0000000560,00000.9082,-0000.5186,00000.2843,00001.0838,00330.2725,00087.8989
0000000561,00000.4851,-0000.3695,00000.4835,00000.7782,00322.7068,00088.7751
0000000562,00000.7110,-0000.2997,00000.4307,00000.8837,00337.1419,00088.4499
0000000563,00000.9707,-0000.1323,00000.4810,00001.0914,00352.2369,00088.0318
0000000564,00000.8700,-0000.2851,00000.2774,00000.9566,00341.8548,00088.1608
0000000565,00000.1639,-0000.3265,00000.3627,00000.5148,00296.6518,00089.2662
0000000566,00000.8582,-0000.3539,00000.5278,00001.0678,00337.5905,00088.1351
0000000567,00000.5698,-0000.5878,00000.2620,00000.8596,00314.1068,00088.3554
0000000568,00001.0330,-0000.1268,00000.5587,00001.1813,00353.0033,00087.9090
0000000569,00001.0496,-0000.3097,00000.3943,00001.1632,00343.5604,00087.8013
0000000570,00000.5144,-0000.2879,00000.7968,00000.9912,00330.7610,00088.8158
0000000571,00000.7656,-0000.3678,00000.7007,00001.1011,00334.3441,00088.2937
0000000572,00000.2622,-0000.3553,00000.8582,00000.9652,00306.4233,00089.1131
0000000573,00000.5851,-0000.5117,00000.4972,00000.9227,00318.8284,00088.4385
0000000574,00000.9243,-0000.4765,00000.3326,00001.0918,00332.7254,00087.9108
0000000575,00000.9374,00000.2992,00000.6231,00001.1647,00017.7027,00088.0231
0000000576,00000.5562,-0000.5854,00000.3109,00000.8653,00313.5348,00088.3778
0000000577,00000.3884,-0000.3754,00000.5306,00000.7571,00315.9750,00088.9150
0000000578,00000.7539,-0000.2315,00000.4308,00000.8986,00342.9310,00088.4158
0000000579,00000.7659,-0000.2088,00000.5530,00000.9675,00344.7477,00088.4053
0000000580,00000.8206,-0000.3319,00000.2760,00000.9272,00337.9765,00088.2216
0000000581,00000.0408,-0000.3447,00000.2797,00000.4457,00276.7425,00089.3028
0000000582,00000.5491,-0000.5954,00000.2215,00000.8397,00312.6823,00088.3729
0000000583,00000.3661,-0000.4516,00000.5822,00000.8227,00309.0255,00088.8322
0000000584,00000.5913,-0000.2639,00000.6649,00000.9281,00335.9518,00088.6993
0000000585,00000.8605,-0000.3921,00000.4486,00001.0467,00335.5056,00088.1002
0000000586,00001.1032,-0000.2301,00000.4365,00001.2086,00348.2175,00087.7358
0000000587,00000.4014,00000.3636,00000.8415,00001.0007,00042.1735,00088.9121
0000000588,00000.6837,-0000.3611,00000.6321,00000.9987,00332.1593,00088.4468
0000000589,00000.6753,-0000.3326,00000.7733,00001.0792,00333.7764,00088.4878
0000000590,00000.9032,-0000.4916,00000.3977,00001.1026,00331.4409,00087.9340
0000000591,00000.5574,-0000.6091,00000.2648,00000.8671,00312.4650,00088.3414
0000000592,00000.5796,-0000.4544,00000.6113,00000.9572,00321.9045,00088.5204
0000000593,00000.9554,00000.2161,00000.6337,00001.1666,00012.7435,00088.0322
0000000594,00000.4731,-0000.4158,00000.4424,00000.7697,00318.6889,00088.7349
0000000595,00000.8705,-0000.4137,00000.2420,00000.9937,00334.5811,00088.0638
0000000596,00001.1133,-0000.2189,00000.2247,00001.1566,00348.8756,00087.7204
0000000597,00000.7495,-0000.1759,00000.4475,00000.8905,00346.7894,00088.4535
0000000598,00000.8054,-0000.3320,00000.2729,00000.9129,00337.5966,00088.2499
0000000599,00000.5398,-0000.5888,00000.2103,00000.8260,00312.5124,00088.3954
0000000600,00000.2883,00000.2715,00000.9347,00001.0151,00043.2840,00089.2046
0000000601,00001.1420,-0000.2502,00000.2862,00001.2036,00347.6432,00087.6511
0000000602,00000.4361,-0000.5076,00000.5248,00000.8504,00310.6647,00088.6557
0000000603,00000.6445,-0000.2725,00000.6358,00000.9454,00337.0824,00088.5944
0000000604,00000.8314,-0000.4280,00000.3705,00001.0059,00332.7628,00088.1213
0000000605,00000.7917,-0000.5334,00000.4547,00001.0574,00326.0303,00088.0821
0000000606,00000.6137,-0000.3325,00000.8121,00001.0708,00331.5506,00088.5980
0000000607,00000.7134,00000.0127,00000.6362,00000.9560,00001.0214,00088.5666
0000000608,00000.6663,-0000.4418,00000.5405,00000.9650,00326.4563,00088.3940
0000000609,00000.5310,-0000.6644,00000.3836,00000.9330,00308.6335,00088.2914
0000000610,00000.7638,-0000.4868,00000.5072,00001.0381,00327.4866,00088.1804
0000000611,-0000.1023,-0000.4037,00000.5057,00000.6551,00255.7776,00089.1635
0000000612,00000.9438,00000.0681,00000.5996,00001.1202,00004.1276,00088.0990
0000000613,00000.6804,-0000.3995,00000.2948,00000.8423,00329.5775,00088.4150
0000000614,00001.1458,-0000.2196,00000.1786,00001.1803,00349.1512,00087.6559
0000000615,00000.7066,-0000.4926,00000.2390,00000.8940,00325.1183,00088.2695
0000000616,00000.7248,-0000.0605,00000.4654,00000.8635,00355.2245,00088.5390
0000000617,00000.5547,-0000.5694,00000.1940,00000.8183,00314.2500,00088.4030
0000000618,00000.2901,00000.2885,00000.9260,00001.0123,00044.8386,00089.1781
0000000619,00000.8568,-0000.3589,00000.2922,00000.9738,00337.2716,00088.1337
0000000620,00000.7068,-0000.2464,00000.6229,00000.9738,00340.7817,00088.4963
0000000621,00000.9969,-0000.4136,00000.3937,00001.1488,00337.4655,00087.8316
0000000622,00000.7440,-0000.5154,00000.2489,00000.9387,00325.2914,00088.1817
0000000623,00000.8322,-0000.4971,00000.3852,00001.0431,00329.1477,00088.0526
0000000624,00000.6080,-0000.3317,00000.8272,00001.0789,00331.3824,00088.6087
0000000625,00000.7545,-0000.4323,00000.5324,00001.0196,00330.1903,00088.2532
0000000626,00000.4801,-0000.5796,00000.4857,00000.8957,00309.6344,00088.4881
0000000627,-0000.0345,-0000.4463,00000.5430,00000.7037,00265.5836,00089.1009
0000000628,00000.6059,-0000.2391,00000.6074,00000.8906,00338.4680,00088.6915
0000000629,00000.5734,-0000.3440,00000.4468,00000.8042,00329.0422,00088.6567
0000000630,00000.9376,00000.1178,00000.5884,00001.1132,00007.1621,00088.1015
0000000631,00000.6986,-0000.5764,00000.2147,00000.9308,00320.4733,00088.1806
0000000632,00000.6919,00000.0449,00000.5349,00000.8757,00003.7111,00088.6072
0000000633,00000.8612,-0000.3830,00000.2999,00000.9891,00336.0256,00088.1065
0000000634,00000.2077,00000.2561,00000.9200,00000.9773,00050.9620,00089.3376
0000000635,00000.9321,-0000.4592,00000.1535,00001.0504,00333.7749,00087.9124
0000000636,00001.0571,-0000.3140,00000.4288,00001.1832,00343.4553,00087.7845
0000000637,00000.6875,-0000.2359,00000.6483,00000.9739,00341.0581,00088.5400
0000000638,00000.0888,-0000.4506,00000.3815,00000.5971,00281.1436,00089.0774
0000000639,00000.8773,-0000.4613,00000.3230,00001.0424,00332.2654,00088.0088
0000000640,00000.9442,-0000.3125,00000.2440,00001.0241,00341.6859,00088.0019
0000000641,00000.6450,-0000.3057,00000.8368,00001.0998,00334.6443,00088.5661
0000000642,00000.8193,-0000.4412,00000.4965,00001.0547,00331.6986,00088.1306
0000000643,00000.4644,-0000.5663,00000.5045,00000.8894,00309.3511,00088.5288
0000000644,-0000.0506,-0000.4870,00000.5310,00000.7223,00264.0660,00089.0165
0000000645,00000.4984,-0000.3485,00000.6178,00000.8669,00325.0373,00088.7783
0000000646,00000.6614,-0000.4938,00000.2826,00000.8725,00323.2540,00088.3418
0000000647,00000.8032,-0000.5906,00000.3556,00001.0585,00323.6707,00087.9971
0000000648,00000.9632,00000.1642,00000.5716,00001.1321,00009.6733,00088.0370
0000000649,00000.6761,-0000.1575,00000.4953,00000.8528,00346.8829,00088.6055
0000000650,00000.8068,-0000.3580,00000.4000,00000.9691,00336.0699,00088.2267
0000000651,00000.3023,00000.1709,00000.8992,00000.9639,00029.4873,00089.3025
0000000652,00001.1456,-0000.2616,00000.4670,00001.2644,00347.1384,00087.6391
0000000653,00000.8075,-0000.3816,00000.5975,00001.0746,00334.7061,00088.2057
0000000654,00000.0920,-0000.3559,00000.2475,00000.4431,00284.4920,00089.2617
0000000655,00000.4175,-0000.1571,00000.6361,00000.7769,00339.3866,00089.1039
0000000656,00000.8637,-0000.4371,00000.3211,00001.0199,00333.1564,00088.0552
0000000657,00000.7713,-0000.2454,00000.7959,00001.1352,00342.3489,00088.3739
0000000658,00000.8133,-0000.3215,00000.5594,00001.0381,00338.4301,00088.2432
0000000659,00000.4203,-0000.5503,00000.5233,00000.8680,00307.3733,00088.6089
0000000660,00000.4826,-0000.6919,00000.1602,00000.8586,00304.8957,00088.3054
0000000661,00000.6066,-0000.5036,00000.2058,00000.8148,00320.2995,00088.4162
0000000662,00000.1955,-0000.3218,00000.6873,00000.7837,00301.2721,00089.2436
0000000663,00000.1370,-0000.4190,00000.6999,00000.8271,00288.1065,00089.1145
0000000664,00000.5918,-0000.4353,00000.3294,00000.8051,00323.6597,00088.5242
0000000665,00001.0368,00000.1256,00000.5511,00001.1808,00006.9056,00087.9019
0000000666,00000.6561,-0000.0809,00000.5143,00000.8376,00352.9695,00088.6720
0000000667,00001.1983,-0000.2615,00000.3116,00001.2655,00347.6919,00087.5356
0000000668,00000.8408,-0000.3221,00000.4004,00000.9854,00339.0404,00088.1911
0000000669,00000.3110,-0000.3329,00000.6055,00000.7578,00313.0565,00089.0849
0000000670,00000.5677,-0000.0909,00000.6388,00000.8594,00350.9040,00088.8451
0000000671,00001.1681,-0000.1062,00000.2655,00001.2026,00354.8031,00087.6433
0000000672,00000.8860,-0000.3956,00000.4669,00001.0768,00335.9412,00088.0507
0000000673,00000.0749,-0000.4103,00000.2543,00000.4885,00280.3474,00089.1622
0000000674,00001.1513,00000.0007,00000.4326,00001.2299,00000.0340,00087.6869
0000000675,00000.5994,-0000.2098,00000.8817,00001.0866,00340.7079,00088.7243
0000000676,00000.7878,-0000.2108,00000.6050,00001.0154,00345.0218,00088.3617
0000000677,00000.4588,-0000.0272,00000.6011,00000.7567,00356.6133,00089.0767
0000000678,00000.3924,-0000.5587,00000.5274,00000.8627,00305.0815,00088.6285
0000000679,00000.0128,-0000.4640,00000.6105,00000.7669,00271.5824,00089.0676
0000000680,00000.6144,-0000.4671,00000.2605,00000.8146,00322.7531,00088.4496
0000000681,00000.1045,-0000.5388,00000.4986,00000.7416,00280.9800,00088.8975
0000000682,00001.1375,-0000.3376,00000.2497,00001.2125,00343.4696,00087.6160
0000000683,00001.0150,00000.0087,00000.5023,00001.1326,00000.4893,00087.9607
0000000684,00000.7507,-0000.0858,00000.4196,00000.8643,00353.4791,00088.4822
0000000685,00001.1262,-0000.0593,00000.2803,00001.1620,00356.9850,00087.7342
0000000686,00000.5316,-0000.0200,00000.6474,00000.8380,00357.8498,00088.9314
0000000687,00000.9560,-0000.3010,00000.2023,00001.0225,00342.5239,00087.9864
0000000688,00000.2532,-0000.2714,00000.6330,00000.7338,00313.0179,00089.2545
0000000689,00000.0726,-0000.4068,00000.2410,00000.4783,00280.1247,00089.1700
0000000690,00001.1053,-0000.3721,00000.2411,00001.1909,00341.3949,00087.6568
0000000691,00001.0737,-0000.0396,00000.4520,00001.1656,00357.8901,00087.8414
0000000692,00000.4279,-0000.1910,00000.9654,00001.0731,00335.9394,00089.0588
0000000693,00000.8010,-0000.2029,00000.5897,00001.0152,00345.7873,00088.3400
0000000694,00000.4951,-0000.0283,00000.5770,00000.7608,00356.7307,00089.0040
0000000695,00001.1263,-0000.3945,00000.2907,00001.2283,00340.6952,00087.6022
0000000696,00000.2769,-0000.5659,00000.5870,00000.8611,00296.0720,00088.7344
0000000697,00000.4286,-0000.5258,00000.3195,00000.7498,00309.1845,00088.6373
0000000698,00000.6400,-0000.4978,00000.2019,00000.8355,00322.1215,00088.3712
0000000699,00000.1159,-0000.5188,00000.4039,00000.6677,00282.5933,00088.9321
0000000700,00001.0893,00000.0654,00000.4290,00001.1726,00003.4346,00087.8075
0000000701,00000.8840,-0000.1859,00000.3088,00000.9546,00348.1245,00088.1853
0000000702,00000.1321,-0000.5141,00000.3127,00000.6160,00284.4057,00088.9338
0000000703,00000.5493,00000.0533,00000.6209,00000.8307,00005.5390,00088.8914
0000000704,00000.8535,-0000.4159,00000.1806,00000.9665,00334.0203,00088.0926
0000000705,00000.1981,-0000.3089,00000.6750,00000.7683,00302.6674,00089.2629
0000000706,00001.1119,-0000.3899,00000.2120,00001.1972,00340.6783,00087.6326
0000000707,00001.0332,-0000.2421,00000.1794,00001.0763,00346.8109,00087.8679
0000000708,00001.0501,-0000.1184,00000.4738,00001.1581,00353.5655,00087.8769
0000000709,00000.3470,-0000.3020,00000.9374,00001.0442,00318.9674,00089.0759
0000000710,00000.8463,-0000.1922,00000.5695,00001.0380,00347.2072,00088.2566
0000000711,00000.6200,-0000.0061,00000.5095,00000.8025,00359.4370,00088.7545
0000000712,00000.9850,-0000.5379,00000.2470,00001.1492,00331.3627,00087.7451
0000000713,00000.2511,-0000.4719,00000.6226,00000.8207,00298.0182,00088.9262
0000000714,00000.4620,-0000.0592,00000.5933,00000.7543,00352.6989,00089.0645
0000000715,00000.4068,-0000.5734,00000.3207,00000.7727,00305.3537,00088.5878
0000000716,00001.0936,00000.1628,00000.3595,00001.1626,00008.4682,00087.7786
0000000717,00000.0961,-0000.3985,00000.4335,00000.5967,00283.5634,00089.1766
0000000718,00000.8999,-0000.0692,00000.3061,00000.9530,00355.6031,00088.1869
0000000719,00000.1923,-0000.6053,00000.2687,00000.6896,00287.6231,00088.7242
0000000720,00000.6136,00000.1348,00000.6233,00000.8849,00012.3922,00088.7381
0000000721,00000.8593,-0000.3906,00000.1329,00000.9533,00335.5542,00088.1036
0000000722,00000.1497,-0000.3532,00000.6122,00000.7224,00292.9695,00089.2294
0000000723,00000.9165,-0000.4887,00000.2216,00001.0621,00331.9360,00087.9133
0000000724,00000.3873,-0000.3614,00000.8901,00001.0358,00316.9749,00088.9359
0000000725,00001.0701,-0000.1710,00000.1786,00001.0982,00350.9198,00087.8229
0000000726,00001.0613,-0000.1688,00000.4822,00001.1779,00350.9606,00087.8410
0000000727,00000.8302,-0000.1975,00000.6771,00001.0893,00346.6204,00088.2857
0000000728,00000.6095,00000.0052,00000.4982,00000.7872,00000.4847,00088.7756
0000000729,00001.0256,-0000.5121,00000.2188,00001.1671,00333.4682,00087.6968
0000000730,00000.1139,-0000.5115,00000.5305,00000.7457,00282.5537,00088.9474
0000000731,00000.0827,-0000.5704,00000.4459,00000.7287,00278.2521,00088.8421
0000000732,00000.3703,-0000.6731,00000.3308,00000.8364,00298.8187,00088.4568
0000000733,00000.2427,-0000.5850,00000.2753,00000.6906,00292.5339,00088.7278
0000000734,00000.2898,00000.0434,00000.6565,00000.7190,00008.5153,00089.4113
0000000735,00001.0936,00000.1685,00000.3506,00001.1607,00008.7581,00087.7769
0000000736,00000.8247,00000.0656,00000.3379,00000.8936,00004.5473,00088.3381
0000000737,00000.5199,00000.0548,00000.6832,00000.8603,00006.0225,00088.9499
0000000738,00000.8993,-0000.3416,00000.1330,00000.9712,00339.1991,00088.0673
0000000739,00000.1961,-0000.4056,00000.5880,00000.7407,00295.8079,00089.0951
0000000740,00000.3220,-0000.2176,00000.7888,00000.8793,00325.9536,00089.2193
0000000741,00000.4117,-0000.3971,00000.8663,00001.0381,00316.0282,00088.8510
0000000742,00001.1246,-0000.0674,00000.5251,00001.2429,00356.5717,00087.7366
0000000743,00000.4475,00000.1530,00000.5575,00000.7310,00018.8800,00089.0500
0000000744,00000.5431,-0000.1567,00000.4905,00000.7484,00343.9052,00088.8646
0000000745,00001.0889,-0000.3965,00000.2309,00001.1816,00339.9902,00087.6717
0000000746,00000.8477,-0000.2494,00000.5230,00001.0268,00343.6031,00088.2249
0000000747,00000.1141,-0000.6086,00000.4159,00000.7460,00280.6182,00088.7561
0000000748,00000.0558,-0000.4356,00000.4611,00000.6368,00277.3019,00089.1179
0000000749,00000.1358,-0000.6060,00000.4256,00000.7529,00282.6336,00088.7524
0000000750,00000.2956,-0000.6051,00000.3485,00000.7583,00296.0311,00088.6471
0000000751,00001.1064,00000.2380,00000.2251,00001.1539,00012.1401,00087.7263
0000000752,00000.7876,00000.1310,00000.3738,00000.8816,00009.4411,00088.3960
0000000753,00000.4905,00000.0994,00000.6836,00000.8472,00011.4514,00088.9948
0000000754,00000.9176,-0000.3573,00000.1372,00000.9942,00338.7251,00088.0217
0000000755,00000.1596,-0000.1059,00000.6936,00000.7196,00326.4353,00089.6153
0000000756,00000.4388,-0000.4654,00000.4613,00000.7886,00313.3130,00088.7151
0000000757,00000.6411,-0000.0750,00000.7515,00000.9906,00353.3244,00088.7034
0000000758,00000.5309,-0000.5248,00000.7769,00001.0774,00315.3341,00088.5003
0000000759,00000.2263,00000.0901,00000.6779,00000.7203,00021.7029,00089.5107
0000000760,00001.1201,-0000.0489,00000.4857,00001.2219,00357.5014,00087.7474
0000000761,00000.5707,00000.2160,00000.4515,00000.7591,00020.7274,00088.7742
0000000762,00000.5623,-0000.2200,00000.5065,00000.7881,00338.6319,00088.7871
0000000763,00001.1306,-0000.3948,00000.2108,00001.2160,00340.7509,00087.5939
0000000764,00000.8594,-0000.2165,00000.5500,00001.0431,00345.8629,00088.2195
0000000765,00000.1862,-0000.6477,00000.3200,00000.7461,00286.0353,00088.6461
0000000766,00000.2995,-0000.0642,00000.8625,00000.9153,00347.9036,00089.3847
0000000767,00000.2296,-0000.5854,00000.4490,00000.7726,00291.4192,00088.7369
0000000768,00000.3067,-0000.5495,00000.5462,00000.8333,00299.1721,00088.7359
0000000769,00001.0682,00000.0971,00000.3163,00001.1183,00005.1942,00087.8451
0000000770,00000.8260,00000.1040,00000.3725,00000.9121,00007.1754,00088.3275
0000000771,00000.4853,00000.1878,00000.6452,00000.8289,00021.1597,00088.9547
0000000772,00000.9993,-0000.0604,00000.1878,00001.0185,00356.5383,00087.9888
0000000773,00000.4753,-0000.4823,00000.4331,00000.8038,00314.5821,00088.6398
0000000774,00000.1526,00000.0687,00000.6432,00000.6646,00024.2466,00089.6639
0000000775,00000.6296,-0000.0948,00000.6994,00000.9458,00351.4341,00088.7209
0000000776,00000.5869,-0000.5352,00000.7448,00001.0888,00317.6382,00088.4044
0000000777,00001.1196,-0000.1686,00000.3685,00001.1907,00351.4376,00087.7251
0000000778,00000.6145,00000.2664,00000.4198,00000.7904,00023.4425,00088.6546
0000000779,00000.6058,-0000.2497,00000.4276,00000.7825,00337.5985,00088.6836
0000000780,00000.2537,-0000.1709,00000.6025,00000.6757,00326.0374,00089.3855
0000000781,00001.1569,-0000.3054,00000.2471,00001.2218,00345.2109,00087.5959
0000000782,00000.8199,-0000.2629,00000.5483,00001.0208,00342.2223,00088.2703
0000000783,00000.2145,-0000.6504,00000.3100,00000.7518,00288.2544,00088.6242
0000000784,00000.2589,-0000.6069,00000.4540,00000.8009,00293.1016,00088.6747
0000000785,00000.1389,-0000.0294,00000.8203,00000.8325,00348.0347,00089.7148
0000000786,00001.1482,00000.0477,00000.2751,00001.1816,00002.3796,00087.6911
0000000787,00000.9163,-0000.0735,00000.1436,00000.9304,00355.4125,00088.1532
0000000788,00000.1170,-0000.0048,00000.6244,00000.6353,00357.6633,00089.7648
0000000789,00000.4600,00000.2170,00000.6460,00000.8222,00025.2533,00088.9783
0000000790,00000.1594,-0000.0109,00000.7753,00000.7916,00356.0759,00089.6791
0000000791,00000.9935,-0000.0508,00000.1994,00001.0146,00357.0746,00088.0014
0000000792,00000.2099,-0000.4409,00000.4521,00000.6654,00295.4557,00089.0192
0000000793,00000.6037,-0000.5381,00000.7094,00001.0758,00318.2908,00088.3753
0000000794,00000.5573,-0000.0325,00000.7420,00000.9286,00356.6583,00088.8786
0000000795,00001.0898,-0000.1494,00000.3526,00001.1551,00352.1940,00087.7900
0000000796,00000.6718,00000.2978,00000.3482,00000.8132,00023.9099,00088.5238
0000000797,00000.6883,-0000.0728,00000.4175,00000.8083,00353.9646,00088.6096
0000000798,00000.1957,-0000.5195,00000.4690,00000.7267,00290.6390,00088.8849
0000000799,00000.1715,-0000.2371,00000.5252,00000.6012,00305.8706,00089.4123
0000000800,00000.7713,-0000.4722,00000.4994,00001.0331,00328.5279,00088.1832
0000000801,00000.9637,-0000.1368,00000.3856,00001.0470,00351.9226,00088.0445
0000000802,00000.2415,-0000.6259,00000.3430,00000.7535,00291.0942,00088.6523
0000000803,00000.2383,-0000.5211,00000.5867,00000.8201,00294.5747,00088.8490
0000000804,00000.2986,00000.0770,00000.8865,00000.9386,00014.4516,00089.3806
0000000805,00000.1069,-0000.0553,00000.6232,00000.6347,00332.6764,00089.7582
0000000806,00001.1153,00000.1022,00000.2358,00001.1446,00005.2346,00087.7497
0000000807,00000.9090,00000.0195,00000.1766,00000.9262,00001.2287,00088.1734
0000000808,00000.4703,00000.2062,00000.6965,00000.8653,00023.6799,00088.9685
0000000809,00000.5341,00000.0827,00000.7059,00000.8890,00008.7979,00088.9144
0000000810,00000.9805,-0000.1993,00000.1165,00001.0073,00348.5089,00087.9899
0000000811,00000.5623,-0000.2291,00000.8682,00001.0595,00337.8348,00088.7804
0000000812,00000.1419,-0000.3450,00000.4590,00000.5915,00292.3559,00089.2508
0000000813,00000.6055,-0000.5458,00000.6723,00001.0566,00317.9720,00088.3624
0000000814,00000.4853,00000.0295,00000.8088,00000.9437,00003.4787,00089.0234
0000000815,00000.9702,-0000.2575,00000.5430,00001.1413,00345.1335,00087.9833
0000000816,00000.7119,00000.3094,00000.2721,00000.8225,00023.4895,00088.4407
0000000817,00000.6688,-0000.0498,00000.4019,00000.7819,00355.7386,00088.6527
0000000818,00000.0840,-0000.5025,00000.5133,00000.7232,00279.4866,00088.9767
0000000819,00000.6710,-0000.4586,00000.5134,00000.9613,00325.6464,00088.3673
0000000820,00000.7981,-0000.0774,00000.4809,00000.9349,00354.4619,00088.3893
0000000821,00000.2004,-0000.6198,00000.3981,00000.7634,00287.9159,00088.6914
0000000822,00001.0945,-0000.1695,00000.3479,00001.1609,00351.1976,00087.7747
0000000823,00000.0943,-0000.0735,00000.6169,00000.6284,00322.0795,00089.7598
0000000824,00000.1747,-0000.5931,00000.4129,00000.7435,00286.4081,00088.7580
0000000825,00001.1571,00000.0742,00000.2256,00001.1812,00003.6706,00087.6705
0000000826,00000.9048,-0000.1364,00000.1621,00000.9292,00351.4281,00088.1619
0000000827,00000.4912,00000.1991,00000.7245,00000.8977,00022.0651,00088.9353
0000000828,00000.5379,00000.0574,00000.6812,00000.8698,00006.0858,00088.9133
0000000829,00000.5136,-0000.5436,00000.6095,00000.9648,00313.3777,00088.4977
0000000830,00000.1345,-0000.4017,00000.3438,00000.5455,00288.5078,00089.1492
0000000831,00000.5543,-0000.1923,00000.8307,00001.0170,00340.8682,00088.8215
0000000832,00000.0978,-0000.3688,00000.4486,00000.5889,00284.8540,00089.2336
0000000833,00000.3309,-0000.1674,00000.7238,00000.8132,00333.1579,00089.2551
0000000834,00000.6194,-0000.5542,00000.6347,00001.0458,00318.1812,00088.3303
0000000835,00000.7857,00000.3343,00000.2964,00000.9039,00023.0467,00088.2846
0000000836,00000.9173,-0000.2730,00000.5312,00001.0946,00343.4281,00088.0773
0000000837,00000.0858,-0000.5368,00000.4311,00000.6938,00279.0815,00088.9080
0000000838,00000.6771,00000.1525,00000.4086,00000.8054,00012.6897,00088.6058
0000000839,00000.7753,-0000.1082,00000.5266,00000.9434,00352.0555,00088.4275
0000000840,00000.1573,-0000.6288,00000.3422,00000.7330,00284.0449,00088.6980
0000000841,00000.5457,-0000.4043,00000.5450,00000.8708,00323.4681,00088.6357
0000000842,00000.1025,-0000.1066,00000.5909,00000.6091,00313.8592,00089.7030
0000000843,00001.0010,-0000.1977,00000.2923,00001.0614,00348.8290,00087.9500
0000000844,00000.0775,-0000.5886,00000.3170,00000.6730,00277.5006,00088.8074
0000000845,00001.1915,00000.0499,00000.1724,00001.2049,00002.3989,00087.6040
0000000846,00000.6903,00000.2516,00000.5145,00000.8969,00020.0251,00088.5241
0000000847,00000.4627,-0000.6265,00000.4940,00000.9223,00306.4451,00088.4354
0000000848,00000.5575,-0000.0053,00000.6780,00000.8778,00359.4592,00088.8800
0000000849,00000.3859,00000.1847,00000.7582,00000.8706,00025.5816,00089.1406
0000000850,00000.1093,-0000.2856,00000.4276,00000.5257,00290.9404,00089.3858
0000000851,00000.6894,-0000.1071,00000.8810,00001.1238,00351.1689,00088.5985
0000000852,-0000.0609,-0000.4138,00000.3364,00000.5368,00261.6330,00089.1598
0000000853,00000.7121,00000.3616,00000.1903,00000.8210,00026.9184,00088.3955
0000000854,00000.5965,-0000.5148,00000.5945,00000.9870,00319.2000,00088.4172
0000000855,00000.4248,-0000.1744,00000.7241,00000.8575,00337.6727,00089.0776
0000000856,00000.9503,-0000.2745,00000.4516,00001.0874,00343.8866,00088.0128
0000000857,00000.0597,-0000.5740,00000.4179,00000.7125,00275.9367,00088.8408
0000000858,00000.6595,00000.1648,00000.4024,00000.7899,00014.0301,00088.6345
0000000859,00000.5279,-0000.0114,00000.7766,00000.9390,00358.7640,00088.9394
0000000860,00000.1168,-0000.6444,00000.2685,00000.7078,00280.2759,00088.6844
0000000861,00000.4596,-0000.4433,00000.6028,00000.8781,00316.0363,00088.7173
0000000862,00000.0611,-0000.6404,00000.3406,00000.7279,00275.4469,00088.7078
0000000863,00000.9474,-0000.4581,00000.3024,00001.0949,00334.1969,00087.8858
0000000864,00001.1670,00000.0043,00000.1860,00001.1818,00000.2111,00087.6552
0000000865,00000.6368,00000.2521,00000.5429,00000.8740,00021.6000,00088.6241
0000000866,00000.5628,-0000.1712,00000.5763,00000.8235,00343.0757,00088.8183
0000000867,00000.4518,-0000.6617,00000.4602,00000.9240,00304.3226,00088.3904
0000000868,00000.7381,00000.2588,00000.2611,00000.8246,00019.3216,00088.4288
0000000869,00000.3097,00000.0881,00000.7764,00000.8405,00015.8796,00089.3532
0000000870,00000.1338,-0000.3135,00000.4043,00000.5288,00293.1164,00089.3154
0000000871,00000.7082,-0000.0696,00000.8942,00001.1428,00354.3898,00088.5705
0000000872,-0000.0443,-0000.4249,00000.4186,00000.5981,00264.0529,00089.1419
0000000873,00000.6197,-0000.6302,00000.5885,00001.0619,00314.5187,00088.2243
0000000874,00001.0021,-0000.3428,00000.3564,00001.1175,00341.1177,00087.8721
0000000875,00000.0093,-0000.1633,00000.4764,00000.5037,00273.2744,00089.6714
0000000876,00000.8531,-0000.1862,00000.4036,00000.9620,00347.6900,00088.2458
0000000877,00000.1988,-0000.6106,00000.4105,00000.7621,00288.0324,00088.7100
0000000878,00000.3148,-0000.6060,00000.3106,00000.7502,00297.4479,00088.6282
0000000879,00000.5155,-0000.0951,00000.7587,00000.9222,00349.5443,00088.9470
0000000880,00000.5894,00000.1501,00000.5069,00000.7917,00014.2840,00088.7783
0000000881,00000.4274,-0000.4365,00000.5952,00000.8530,00314.3981,00088.7728
0000000882,00000.1118,-0000.2887,00000.6573,00000.7265,00291.1803,00089.3782
0000000883,00000.8999,-0000.5065,00000.2355,00001.0592,00330.6303,00087.9253
0000000884,00000.7069,00000.3556,00000.2954,00000.8446,00026.7027,00088.4104
0000000885,00001.1613,00000.2544,00000.1863,00001.2033,00012.3550,00087.6115
0000000886,00000.5692,00000.1817,00000.5718,00000.8270,00017.7037,00088.7999
0000000887,00000.6048,-0000.1734,00000.4948,00000.8003,00344.0052,00088.7363
0000000888,00000.5331,-0000.6762,00000.4533,00000.9731,00308.2521,00088.2701
0000000889,00000.3487,00000.0868,00000.7627,00000.8432,00013.9795,00089.2781
0000000890,00000.1275,-0000.4018,00000.2942,00000.5141,00287.6109,00089.1532
0000000891,00000.6647,-0000.2527,00000.8123,00001.0796,00339.1835,00088.5714
0000000892,00000.0199,-0000.3376,00000.6044,00000.6926,00273.3810,00089.3207
0000000893,00000.3196,-0000.2874,00000.6326,00000.7648,00318.0388,00089.1367
0000000894,00000.6735,-0000.7311,00000.5004,00001.1129,00312.6542,00088.0030
0000000895,00001.0015,-0000.2620,00000.2945,00001.0763,00345.3372,00087.9202
0000000896,00000.6742,-0000.3514,00000.3402,00000.8330,00332.4718,00088.4727
0000000897,00000.5040,00000.1186,00000.5140,00000.7296,00013.2387,00088.9600
0000000898,00000.4889,-0000.2221,00000.6677,00000.8568,00335.5701,00088.9214
0000000899,00000.8620,-0000.5382,00000.1853,00001.0330,00328.0234,00087.9584
0000000900,00000.1111,-0000.2710,00000.7051,00000.7635,00292.2901,00089.4118
0000000901,00000.4950,-0000.2972,00000.5914,00000.8265,00329.0141,00088.8403
min,-0000.1545,-0000.8471,00000.0889,00000.3463,00000.0340,00087.5356
max,00001.2023,00000.4738,00001.0179,00001.2695,00359.6235,00089.7648
mean,00000.6031,-0000.2443,00000.5157,00000.9349,00264.3965,00088.5412
std,00000.3009,00000.2749,00000.2158,00000.1672,00125.1380,00000.5012
