,x,y,z,distance,azimuth,elevation
0000000000,-0000.3361,00000.4317,00000.4880,00000.7331,00127.9052,00088.9912
0000000001,-0000.2492,-0000.0281,00000.6204,00000.6692,00186.4426,00089.5376
0000000002,-0000.2412,00000.0101,00000.6070,00000.6533,00177.6100,00089.5548
0000000003,-0000.1580,00000.3571,00000.5769,00000.6967,00113.8674,00089.2799
0000000004,-0000.2005,00000.4198,00000.5055,00000.6870,00115.5298,00089.1422
0000000005,-0000.2243,00000.4619,00000.4704,00000.6963,00115.8966,00089.0533
0000000006,-0000.5310,00000.0746,00000.3732,00000.6533,00172.0033,00089.0113
0000000007,-0000.5611,00000.1228,00000.3458,00000.6704,00167.6590,00088.9410
0000000008,-0000.5312,00000.2376,00000.3549,00000.6816,00155.8981,00088.9270
0000000009,-0000.5345,00000.2615,00000.2996,00000.6662,00153.9287,00088.9029
0000000010,-0000.0390,-0000.5647,00000.8644,00001.0332,00266.0506,00088.9564
0000000011,-0000.6778,00000.1099,00000.2006,00000.7153,00170.7897,00088.7340
0000000012,-0000.0080,-0000.5446,00000.8174,00000.9823,00269.1551,00088.9957
0000000013,-0000.6849,-0000.0267,00000.2127,00000.7177,00182.2298,00088.7361
0000000014,-0000.0220,-0000.4813,00000.7386,00000.8818,00267.3827,00089.1117
0000000015,-0000.6846,00000.0794,00000.1566,00000.7068,00173.3882,00088.7292
0000000016,00000.0046,-0000.4350,00000.6516,00000.7835,00270.6066,00089.1979
0000000017,-0000.4392,00000.4880,00000.2301,00000.6957,00131.9866,00088.7895
0000000018,-0000.0171,-0000.4808,00000.5914,00000.7623,00267.9645,00089.1130
0000000019,-0000.0214,-0000.5123,00000.6102,00000.7970,00267.6122,00089.0546
0000000020,-0000.3211,00000.5488,00000.2983,00000.7023,00120.3347,00088.8277
0000000021,00000.0063,-0000.4740,00000.5383,00000.7173,00270.7622,00089.1259
0000000022,00000.0346,00000.4868,00000.9071,00001.0300,00085.9312,00089.1002
0000000023,00000.0113,-0000.4497,00000.5127,00000.6820,00271.4445,00089.1707
0000000024,00000.0239,00000.4605,00000.8673,00000.9823,00087.0297,00089.1499
0000000025,-0000.0567,-0000.5675,00000.7545,00000.9458,00264.2927,00088.9484
0000000026,00000.0037,00000.4159,00000.8094,00000.9100,00089.4835,00089.2332
0000000027,-0000.0730,-0000.6128,00000.7922,00001.0042,00263.2089,00088.8622
0000000028,00000.0041,00000.3961,00000.7730,00000.8686,00089.4136,00089.2697
0000000029,00000.0851,-0000.7479,00000.7213,00001.0425,00276.4955,00088.6121
0000000030,-0000.0141,00000.3635,00000.6877,00000.7780,00092.2145,00089.3293
0000000031,00000.0912,-0000.7436,00000.7090,00001.0315,00276.9902,00088.6186
0000000032,-0000.0408,00000.3162,00000.6001,00000.6795,00097.3486,00089.4122
0000000033,00000.0797,-0000.7110,00000.6892,00000.9934,00276.3983,00088.6808
0000000034,-0000.2170,00000.5380,00000.8505,00001.0295,00111.9674,00088.9303
0000000035,00000.0869,-0000.6220,00000.6135,00000.8780,00277.9555,00088.8420
0000000036,-0000.2110,00000.4994,00000.8046,00000.9702,00112.9002,00089.0004
0000000037,00000.0975,-0000.5640,00000.5423,00000.7885,00279.8080,00088.9446
0000000038,-0000.2004,00000.4644,00000.7243,00000.8834,00113.3471,00089.0674
0000000039,00000.1066,-0000.4851,00000.4722,00000.6854,00282.3954,00089.0842
0000000040,00000.0758,00000.3331,00000.8016,00000.8714,00077.1833,00089.3702
0000000041,-0000.0516,-0000.4344,00000.9237,00001.0220,00263.2239,00089.1934
0000000042,00000.0444,00000.3188,00000.7083,00000.7780,00082.0686,00089.4065
0000000043,-0000.0464,-0000.4146,00000.8805,00000.9744,00263.6178,00089.2308
0000000044,00000.0084,00000.3003,00000.5953,00000.6668,00088.3968,00089.4462
0000000045,-0000.0441,-0000.3976,00000.7825,00000.8789,00263.6727,00089.2623
0000000046,00000.2955,00000.3888,00000.8956,00001.0201,00052.7610,00089.0995
0000000047,-0000.0321,-0000.3648,00000.6795,00000.7718,00264.9780,00089.3249
0000000048,00000.2879,00000.3767,00000.8531,00000.9760,00052.6144,00089.1258
0000000049,00000.0012,-0000.3625,00000.5746,00000.6794,00270.1962,00089.3316
0000000050,00000.2493,00000.3544,00000.7552,00000.8706,00054.8748,00089.2011
0000000051,00000.3076,-0000.5653,00000.7855,00001.0154,00298.5492,00088.8134
0000000052,00000.1991,00000.3370,00000.6684,00000.7746,00059.4318,00089.2783
0000000053,00000.3165,-0000.5518,00000.7479,00000.9818,00299.8413,00088.8270
0000000054,-0000.0153,00000.2667,00000.9572,00000.9938,00093.2784,00089.5075
0000000055,00000.3243,-0000.4860,00000.6612,00000.8824,00303.7161,00088.9227
0000000056,-0000.0127,00000.2544,00000.9311,00000.9653,00092.8623,00089.5303
0000000057,00000.3062,-0000.4258,00000.5735,00000.7771,00305.7245,00089.0331
0000000058,-0000.0475,00000.2477,00000.8047,00000.8433,00100.8625,00089.5351
0000000059,00000.3055,-0000.3976,00000.5167,00000.7200,00307.5341,00089.0755
0000000060,-0000.0533,00000.2438,00000.7332,00000.7745,00102.3202,00089.5398
0000000061,00000.3045,-0000.3804,00000.4923,00000.6927,00308.6811,00089.1016
0000000062,-0000.0713,00000.2273,00000.6234,00000.6674,00107.4133,00089.5607
0000000063,00000.3169,-0000.4261,00000.8797,00001.0275,00306.6420,00089.0209
0000000064,-0000.0919,00000.4803,00000.9052,00001.0288,00100.8371,00089.0984
0000000065,00000.3223,-0000.4095,00000.8342,00000.9836,00308.2008,00089.0392
0000000066,-0000.1303,00000.3357,00000.5719,00000.6758,00111.2207,00089.3361
0000000067,00000.3237,-0000.4059,00000.8184,00000.9692,00308.5676,00089.0427
0000000068,00000.2384,00000.6090,00000.7919,00001.0270,00068.6211,00088.7942
0000000069,00000.3409,-0000.3636,00000.7285,00000.8827,00313.1578,00089.0810
0000000070,00000.2186,00000.5910,00000.7719,00000.9964,00069.6984,00088.8381
0000000071,00000.3221,-0000.3294,00000.6365,00000.7858,00314.3537,00089.1505
0000000072,00000.2087,00000.5750,00000.7554,00000.9720,00070.0494,00088.8721
0000000073,00000.3168,-0000.2717,00000.5458,00000.6871,00319.3852,00089.2306
0000000074,00000.1858,00000.5101,00000.6850,00000.8740,00069.9907,00088.9991
0000000075,-0000.2675,-0000.6535,00000.7552,00001.0339,00247.7408,00088.6980
0000000076,00000.1645,00000.4402,00000.6124,00000.7720,00069.5046,00089.1336
0000000077,-0000.2579,-0000.6222,00000.7217,00000.9872,00247.4846,00088.7581
0000000078,00000.1338,00000.3941,00000.5466,00000.6870,00071.2451,00089.2327
0000000079,-0000.2344,-0000.5618,00000.6429,00000.8854,00247.3522,00088.8776
0000000080,00000.1145,00000.1569,00001.0031,00001.0218,00053.8752,00089.6418
0000000081,-0000.2115,-0000.4871,00000.5819,00000.7878,00246.5273,00089.0209
0000000082,00000.1001,00000.1621,00000.9497,00000.9686,00058.3136,00089.6487
0000000083,-0000.1729,-0000.4172,00000.5111,00000.6820,00247.4925,00089.1674
0000000084,00000.0935,00000.1762,00000.8401,00000.8635,00062.0583,00089.6323
0000000085,-0000.0775,-0000.4301,00000.5289,00000.6861,00259.7862,00089.1942
0000000086,00000.0900,00000.1744,00000.6889,00000.7163,00062.7158,00089.6381
0000000087,00000.0304,-0000.3391,00000.9679,00001.0261,00275.1297,00089.3724
0000000088,-0000.1487,00000.2004,00000.9671,00000.9987,00126.5789,00089.5399
0000000089,00000.0344,-0000.3326,00000.9118,00000.9712,00275.9101,00089.3835
0000000090,00000.3756,00000.6795,00000.6967,00001.0432,00061.0728,00088.5684
0000000091,00000.0490,-0000.3241,00000.8276,00000.8902,00278.5905,00089.3958
0000000092,00000.3484,00000.6468,00000.6618,00000.9888,00061.6888,00088.6453
0000000093,00000.0392,-0000.3285,00000.8094,00000.8745,00276.8129,00089.3900
0000000094,00000.2995,00000.5792,00000.6072,00000.8910,00062.6522,00088.7977
0000000095,00000.2755,00000.5565,00000.5871,00000.8546,00063.6624,00088.8551
0000000096,00000.0538,-0000.2958,00000.7144,00000.7751,00280.3151,00089.4457
0000000097,00000.2424,00000.5055,00000.5534,00000.7878,00064.3817,00088.9662
0000000098,00000.0501,-0000.2657,00000.6208,00000.6771,00280.6818,00089.5014
0000000099,00000.2757,-0000.3831,00000.7485,00000.8849,00305.7421,00089.1297
0000000100,00000.1764,00000.4364,00000.4866,00000.6770,00067.9852,00089.1321
0000000101,00000.0163,00000.6867,00000.7700,00001.0318,00088.6383,00088.7335
0000000102,-0000.1312,-0000.2781,00000.8935,00000.9449,00244.7370,00089.4331
0000000103,-0000.0006,00000.6569,00000.7315,00000.9832,00090.0522,00088.7888
0000000104,00000.2409,-0000.5230,00000.8569,00001.0324,00294.7256,00088.9383
0000000105,-0000.0194,00000.5954,00000.6591,00000.8885,00091.8673,00088.9016
0000000106,00000.2261,-0000.5029,00000.8142,00000.9833,00294.2074,00088.9834
0000000107,-0000.0335,00000.5286,00000.5824,00000.7872,00093.6273,00089.0235
0000000108,00000.1538,-0000.4500,00000.7278,00000.8694,00288.8646,00089.1232
0000000109,-0000.0632,00000.4737,00000.4959,00000.6887,00097.5972,00089.1189
0000000110,00000.1120,-0000.4004,00000.6650,00000.7843,00285.6328,00089.2335
0000000111,-0000.0220,00000.5249,00000.8867,00001.0306,00092.4051,00089.0313
0000000112,00000.0840,-0000.3755,00000.5668,00000.6851,00282.6133,00089.2905
0000000113,-0000.0370,00000.4946,00000.8474,00000.9818,00094.2799,00089.0855
0000000114,00000.1563,-0000.3101,00000.9653,00001.0259,00296.7482,00089.3596
0000000115,-0000.0458,00000.4369,00000.7349,00000.8562,00095.9875,00089.1900
0000000116,00000.1722,-0000.3053,00000.9109,00000.9760,00299.4205,00089.3538
0000000117,00000.3781,00000.2655,00000.9190,00001.0286,00035.0741,00089.1483
0000000118,00000.1677,-0000.3023,00000.8065,00000.8775,00299.0121,00089.3626
0000000119,00000.3467,00000.2231,00000.8918,00000.9825,00032.7656,00089.2399
0000000120,00000.1489,-0000.2910,00000.7107,00000.7823,00297.1024,00089.3973
0000000121,00000.3135,00000.2024,00000.7876,00000.8715,00032.8430,00089.3120
0000000122,00000.1569,-0000.2862,00000.7036,00000.7756,00298.7272,00089.3983
0000000123,00000.2587,00000.2050,00000.6994,00000.7734,00038.3916,00089.3915
0000000124,00000.1634,-0000.2529,00000.6097,00000.6800,00302.8647,00089.4449
0000000125,00000.2231,00000.1909,00000.6048,00000.6724,00040.5538,00089.4586
0000000126,00000.3481,-0000.3171,00000.9139,00001.0281,00317.6619,00089.1318
0000000127,00000.2580,00000.2326,00000.9536,00001.0149,00042.0446,00089.3595
0000000128,00000.3496,-0000.3263,00000.8555,00000.9801,00316.9696,00089.1183
0000000129,00000.2426,00000.2308,00000.9554,00001.0124,00043.5730,00089.3826
0000000130,00000.3253,-0000.2923,00000.7542,00000.8718,00318.0630,00089.1937
0000000131,00000.2058,00000.2422,00000.9224,00000.9756,00049.6433,00089.4140
0000000132,00000.3122,-0000.2492,00000.6349,00000.7502,00321.3978,00089.2634
0000000133,00000.1740,00000.2345,00000.8000,00000.8516,00053.4298,00089.4617
0000000134,00000.1152,-0000.4911,00000.8982,00001.0301,00283.1971,00089.0700
0000000135,00000.4563,00000.1858,00000.8946,00001.0213,00022.1523,00089.0916
0000000136,-0000.4238,-0000.4314,00000.8374,00001.0329,00225.5134,00088.8850
0000000137,00000.4513,00000.2157,00000.9011,00001.0306,00025.5499,00089.0777
0000000138,-0000.3814,-0000.4049,00000.8002,00000.9745,00226.7119,00088.9745
0000000139,00000.4389,00000.2241,00000.8521,00000.9844,00027.0447,00089.0915
0000000140,-0000.3307,-0000.3805,00000.7235,00000.8818,00229.0062,00089.0706
0000000141,00000.3981,00000.2282,00000.7551,00000.8836,00029.8254,00089.1540
0000000142,-0000.2930,-0000.3306,00000.6427,00000.7799,00228.4492,00089.1855
0000000143,00000.3417,00000.2247,00000.6682,00000.7834,00033.3363,00089.2460
0000000144,-0000.2430,-0000.2779,00000.5650,00000.6749,00228.8332,00089.3195
0000000145,00000.2830,00000.2048,00000.5863,00000.6825,00035.8893,00089.3558
0000000146,-0000.2312,-0000.4409,00000.8905,00001.0203,00242.3251,00089.0820
0000000147,00000.4073,00000.3393,00000.8776,00001.0253,00039.7938,00089.0227
0000000148,-0000.2231,-0000.4243,00000.8511,00000.9768,00242.2578,00089.1162
0000000149,00000.4403,00000.3464,00000.8106,00000.9854,00038.1950,00088.9669
0000000150,-0000.2093,-0000.3816,00000.7646,00000.8798,00241.2617,00089.1975
0000000151,00000.3631,00000.3174,00000.7411,00000.8842,00041.1550,00089.1108
0000000152,-0000.2010,-0000.3372,00000.6729,00000.7790,00239.1983,00089.2763
0000000153,00000.3080,00000.2866,00000.6587,00000.7816,00042.9351,00089.2242
0000000154,-0000.1539,-0000.3014,00000.5716,00000.6643,00242.9496,00089.3761
0000000155,00000.2485,00000.2508,00000.5816,00000.6804,00045.2623,00089.3489
0000000156,-0000.2071,-0000.5432,00000.7237,00000.9283,00249.1351,00088.9281
0000000157,00000.3184,00000.4031,00000.6641,00000.8395,00051.6888,00089.0529
0000000158,-0000.1955,-0000.5010,00000.7019,00000.8842,00248.6848,00089.0084
0000000159,00000.2636,00000.3356,00000.5459,00000.6929,00051.8528,00089.2132
0000000160,-0000.2142,-0000.5256,00000.8176,00000.9952,00247.8304,00088.9536
0000000161,00000.2525,00000.3341,00000.5399,00000.6833,00052.9191,00089.2278
0000000162,-0000.1299,-0000.3874,00000.6676,00000.7827,00251.4668,00089.2467
0000000163,00000.3853,00000.4869,00000.7966,00001.0100,00051.6412,00088.8551
0000000164,-0000.0921,-0000.3588,00000.5633,00000.6742,00255.5987,00089.3169
0000000165,00000.3166,00000.5752,00000.7465,00000.9941,00061.1746,00088.7894
0000000166,-0000.4366,-0000.4717,00000.7849,00001.0145,00227.2150,00088.8148
0000000167,00000.1841,00000.1032,00000.8849,00000.9097,00029.2632,00089.6108
0000000168,-0000.4123,-0000.4717,00000.7641,00000.9881,00228.8461,00088.8448
0000000169,00000.1895,00000.1757,00000.8211,00000.8608,00042.8374,00089.5236
0000000170,-0000.2830,-0000.3781,00000.6389,00000.7945,00233.1840,00089.1292
0000000171,00000.2605,00000.0598,00000.9715,00001.0076,00012.9179,00089.5072
0000000172,-0000.2590,-0000.3536,00000.5798,00000.7269,00233.7765,00089.1918
0000000173,00000.6056,00000.5059,00000.6913,00001.0491,00039.8734,00088.5450
0000000174,-0000.2267,-0000.3326,00000.5482,00000.6801,00235.7156,00089.2579
0000000175,00000.5669,00000.4832,00000.6651,00000.9986,00040.4406,00088.6265
0000000176,-0000.2277,-0000.5205,00000.7200,00000.9171,00246.3762,00088.9525
0000000177,00000.5012,00000.4297,00000.6181,00000.9044,00040.6106,00088.7828
0000000178,-0000.3335,-0000.5686,00000.7998,00001.0364,00239.6048,00088.7845
0000000179,00000.4915,00000.4238,00000.6129,00000.8927,00040.7685,00088.8033
0000000180,00000.4981,-0000.5505,00000.7335,00001.0436,00312.1420,00088.6311
0000000181,00000.4153,00000.3807,00000.5539,00000.7901,00042.5123,00088.9612
0000000182,00000.4602,-0000.5179,00000.7139,00000.9948,00311.6225,00088.7226
0000000183,00000.3491,00000.3358,00000.4928,00000.6910,00043.8877,00089.1069
0000000184,00000.4205,-0000.4319,00000.6501,00000.8866,00314.2332,00088.8885
0000000185,00000.5267,00000.4136,00000.7978,00001.0416,00038.1434,00088.7652
0000000186,00000.5085,-0000.3696,00000.8259,00001.0379,00323.9894,00088.8410
0000000187,00000.4890,00000.4228,00000.7594,00000.9973,00040.8459,00088.8080
0000000188,00000.4942,-0000.3527,00000.7821,00000.9901,00324.4864,00088.8805
0000000189,00000.5918,00000.5298,00000.6232,00001.0096,00041.8387,00088.5354
0000000190,00000.4642,-0000.3019,00000.6957,00000.8892,00326.9601,00088.9790
0000000191,00000.5800,00000.5282,00000.6204,00001.0002,00042.3255,00088.5536
0000000192,00000.4432,-0000.2794,00000.5856,00000.7857,00327.7716,00089.0341
0000000193,00000.4733,00000.5036,00000.5699,00000.8958,00046.7786,00088.7257
0000000194,00000.4267,-0000.2189,00000.4954,00000.6895,00332.8454,00089.1158
0000000195,00000.3386,00000.4561,00000.4743,00000.7400,00053.4127,00088.9526
0000000196,00000.4359,-0000.2151,00000.5018,00000.6986,00333.7321,00089.1038
0000000197,00000.3896,00000.4709,00000.5204,00000.8028,00050.3945,00088.8731
0000000198,00000.4357,-0000.2095,00000.4961,00000.6927,00334.3235,00089.1087
0000000199,00000.2932,00000.4204,00000.4492,00000.6815,00055.1063,00089.0550
0000000200,00000.6309,-0000.5231,00000.6560,00001.0498,00320.3354,00088.4888
0000000201,-0000.1149,00000.7222,00000.7435,00001.0429,00099.0358,00088.6516
0000000202,00000.6092,-0000.4896,00000.6280,00001.0026,00321.2151,00088.5589
0000000203,-0000.3235,00000.7024,00000.6788,00001.0290,00114.7320,00088.5741
0000000204,00000.5768,-0000.4150,00000.5516,00000.8995,00324.2620,00088.6898
0000000205,-0000.2873,00000.7152,00000.6908,00001.0350,00111.8847,00088.5788
0000000206,00000.5674,-0000.3472,00000.4694,00000.8141,00328.5399,00088.7735
0000000207,-0000.2634,00000.6629,00000.6893,00000.9919,00111.6669,00088.6848
0000000208,00000.5628,-0000.3399,00000.4641,00000.8047,00328.8731,00088.7878
0000000209,-0000.2460,00000.5935,00000.6168,00000.8906,00112.5107,00088.8154
0000000210,00000.5297,-0000.2731,00000.3792,00000.7064,00332.7232,00088.9012
0000000211,-0000.2278,00000.5349,00000.5397,00000.7932,00113.0684,00088.9280
0000000212,00000.0813,00000.7760,00000.6950,00001.0449,00084.0187,00088.5613
0000000213,00000.6386,-0000.2275,00000.7902,00001.0411,00340.3898,00088.7500
0000000214,00000.6208,-0000.2151,00000.7440,00000.9926,00340.8885,00088.7885
0000000215,00000.0648,00000.7505,00000.6523,00000.9964,00085.0655,00088.6111
0000000216,00000.5827,-0000.1957,00000.6441,00000.8903,00341.4325,00088.8667
0000000217,00000.0778,00000.6703,00000.5767,00000.8876,00083.3782,00088.7558
0000000218,00000.0851,00000.6484,00000.5578,00000.8596,00082.5235,00088.7941
0000000219,00000.5555,-0000.1630,00000.5670,00000.8103,00343.6433,00088.9326
0000000220,00000.0807,00000.5968,00000.5229,00000.7976,00082.3003,00088.8895
0000000221,00000.5523,-0000.1568,00000.5515,00000.7962,00344.1496,00088.9413
0000000222,00000.0733,00000.5215,00000.4604,00000.6995,00082.0010,00089.0291
0000000223,00000.5227,-0000.0918,00000.4558,00000.6995,00350.0428,00089.0216
0000000224,-0000.1357,00000.8238,00000.6385,00001.0510,00099.3514,00088.4606
0000000225,00000.4604,-0000.1036,00000.4614,00000.6600,00347.3199,00089.1299
0000000226,-0000.1352,00000.8036,00000.6207,00001.0244,00099.5502,00088.4973
0000000227,00000.4843,-0000.3824,00000.8112,00001.0192,00321.7078,00088.8623
0000000228,-0000.1393,00000.7842,00000.6062,00001.0009,00100.0727,00088.5314
0000000229,00000.2052,-0000.8063,00000.6191,00001.0371,00284.2757,00088.4658
0000000230,-0000.1333,00000.7005,00000.5423,00000.8959,00100.7769,00088.6851
0000000231,00000.1920,-0000.7738,00000.6059,00001.0013,00283.9355,00088.5300
0000000232,-0000.1017,00000.6794,00000.5172,00000.8599,00098.5155,00088.7334
0000000233,00000.1933,-0000.6885,00000.5465,00000.9001,00285.6791,00088.6814
0000000234,-0000.0920,00000.6340,00000.4815,00000.8014,00098.2603,00088.8188
0000000235,00000.1894,-0000.4763,00000.4120,00000.6576,00291.6820,00089.0549
0000000236,-0000.0841,00000.5634,00000.4109,00000.7024,00098.4893,00088.9497
0000000237,00000.3862,-0000.7654,00000.6117,00001.0532,00296.7720,00088.4191
0000000238,-0000.0888,00000.5523,00000.4053,00000.6908,00099.1364,00088.9686
0000000239,00000.4050,-0000.7405,00000.6032,00001.0374,00298.6731,00088.4436
0000000240,00000.4027,-0000.7016,00000.5953,00001.0043,00299.8533,00088.5085
0000000241,00000.3711,00000.7200,00000.6697,00001.0510,00062.7330,00088.5065
0000000242,00000.3862,-0000.6681,00000.5835,00000.9675,00300.0280,00088.5772
0000000243,00000.3684,00000.6948,00000.6256,00001.0049,00062.0678,00088.5499
0000000244,00000.3352,00000.6378,00000.5458,00000.9039,00062.2792,00088.6715
0000000245,00000.3645,-0000.6090,00000.5509,00000.8984,00300.9049,00088.6914
0000000246,00000.3135,-0000.5245,00000.5077,00000.7944,00300.8683,00088.8734
0000000247,00000.3064,00000.5605,00000.4646,00000.7899,00061.3390,00088.8222
0000000248,00000.2858,-0000.4572,00000.4422,00000.6973,00302.0161,00089.0059
0000000249,00000.2786,00000.5030,00000.4023,00000.7017,00061.0160,00088.9398
0000000250,00000.2834,-0000.5494,00000.4836,00000.7849,00297.2848,00088.8603
0000000251,00000.2761,00000.4967,00000.3932,00000.6911,00060.9337,00088.9521
0000000252,00000.2787,-0000.5681,00000.5103,00000.8129,00296.1329,00088.8333
0000000253,00000.2244,00000.8367,00000.6015,00001.0547,00074.9856,00088.4026
0000000254,00000.3364,-0000.6039,00000.7271,00001.0033,00299.1173,00088.7253
0000000255,00000.2112,00000.7914,00000.5846,00001.0063,00075.0566,00088.4896
0000000256,00000.3405,-0000.6215,00000.7244,00001.0134,00298.7154,00088.6933
0000000257,00000.2001,00000.7687,00000.5788,00000.9828,00075.4097,00088.5354
0000000258,00000.5657,-0000.5727,00000.6713,00001.0481,00314.6465,00088.5157
0000000259,00000.1132,00000.7840,00000.6369,00001.0164,00081.7823,00088.5394
0000000260,00000.5520,-0000.5407,00000.6371,00001.0014,00315.5936,00088.5753
0000000261,00000.1414,00000.7818,00000.5985,00000.9947,00079.7488,00088.5350
0000000262,00000.4878,-0000.4728,00000.5800,00000.8933,00315.8918,00088.7474
0000000263,00000.1230,00000.7151,00000.5391,00000.9039,00080.2442,00088.6620
0000000264,00000.4535,-0000.3953,00000.5109,00000.7893,00318.9185,00088.8907
0000000265,00000.0999,00000.6469,00000.4671,00000.8042,00081.2230,00088.7930
0000000266,00000.4199,-0000.3328,00000.4363,00000.6910,00321.6021,00089.0121
0000000267,00000.0758,00000.5727,00000.3966,00000.7007,00082.4628,00088.9348
0000000268,-0000.0940,-0000.7752,00000.6905,00001.0424,00263.0879,00088.5601
0000000269,00000.4449,00000.7118,00000.6259,00001.0471,00057.9932,00088.4521
0000000270,-0000.0679,-0000.7416,00000.6634,00000.9973,00264.7675,00088.6269
0000000271,00000.4311,00000.6679,00000.5940,00000.9923,00057.1551,00088.5342
0000000272,-0000.0846,-0000.6848,00000.6376,00000.9395,00262.9580,00088.7278
0000000273,00000.3563,00000.4192,00000.3644,00000.6599,00049.6378,00088.9857
0000000274,-0000.3875,-0000.5005,00000.6299,00000.8930,00232.2578,00088.8329
0000000275,00000.6731,00000.6904,00000.3408,00001.0227,00045.7286,00088.2219
0000000276,-0000.3384,-0000.4419,00000.5528,00000.7845,00232.5569,00088.9737
0000000277,00000.6732,00000.6605,00000.3404,00001.0026,00044.4528,00088.2610
0000000278,-0000.2736,-0000.3664,00000.4727,00000.6577,00233.2499,00089.1569
0000000279,00000.7484,00000.6798,00000.3536,00001.0711,00042.2490,00088.1355
0000000280,-0000.2401,-0000.1525,00000.9835,00001.0238,00212.4232,00089.4756
0000000281,00000.6348,00000.5941,00000.3014,00000.9202,00043.1051,00088.3968
0000000282,-0000.2233,-0000.1330,00000.9350,00000.9704,00210.7824,00089.5207
0000000283,00000.5784,00000.5149,00000.2734,00000.8213,00041.6773,00088.5721
0000000284,-0000.2139,-0000.1406,00000.8135,00000.8528,00213.3181,00089.5281
0000000285,00000.5173,00000.4489,00000.2372,00000.7248,00040.9488,00088.7371
0000000286,-0000.1836,-0000.1320,00000.7339,00000.7679,00215.7117,00089.5832
0000000287,00000.7263,00000.6676,00000.2592,00001.0200,00042.5881,00088.1809
0000000288,-0000.1616,-0000.1370,00000.6310,00000.6656,00220.2909,00089.6094
0000000289,00000.6325,00000.6149,00000.2548,00000.9182,00044.1891,00088.3734
0000000290,-0000.2005,-0000.1863,00000.7097,00000.7606,00222.9078,00089.4954
0000000291,00000.5633,00000.5530,00000.2275,00000.8215,00044.4727,00088.5445
0000000292,-0000.2170,-0000.1879,00000.7289,00000.7834,00220.8855,00089.4707
0000000293,00000.5317,00000.5208,00000.2148,00000.7747,00044.4102,00088.6276
0000000294,-0000.2742,-0000.2207,00000.8180,00000.8905,00218.8405,00089.3510
0000000295,00000.4987,00000.4943,00000.2011,00000.7304,00044.7467,00088.7053
0000000296,-0000.3217,-0000.3451,00000.8736,00000.9928,00227.0071,00089.1302
0000000297,00000.7428,00000.6648,00000.3087,00001.0436,00041.8262,00088.1618
0000000298,-0000.1878,-0000.2483,00000.7171,00000.7818,00232.8915,00089.4260
0000000299,00000.5197,00000.4381,00000.3117,00000.7478,00040.1336,00088.7467
0000000300,-0000.1820,-0000.2328,00000.6974,00000.7574,00231.9723,00089.4552
0000000301,00000.4955,00000.4242,00000.3026,00000.7190,00040.5655,00088.7974
0000000302,-0000.1621,-0000.1704,00000.6164,00000.6597,00226.4309,00089.5664
0000000303,00000.6583,00000.6282,00000.5070,00001.0417,00043.6570,00088.3221
0000000304,-0000.0985,-0000.3077,00000.9326,00000.9869,00252.2539,00089.4043
0000000305,00000.6472,00000.6263,00000.5136,00001.0368,00044.0598,00088.3392
0000000306,00000.0198,-0000.1972,00000.8432,00000.8662,00275.7227,00089.6346
0000000307,00000.6048,00000.6434,00000.4806,00001.0054,00046.7738,00088.3717
0000000308,00000.0253,-0000.1570,00000.7682,00000.7845,00279.1488,00089.7068
0000000309,00000.5517,00000.5837,00000.4257,00000.9090,00046.6119,00088.5191
0000000310,00000.0328,-0000.1610,00000.7566,00000.7743,00281.5292,00089.6970
0000000311,00000.4931,00000.5113,00000.3772,00000.8043,00046.0419,00088.6902
0000000312,-0000.0089,-0000.1229,00000.7345,00000.7448,00265.8726,00089.7728
0000000313,00000.4396,00000.4303,00000.3223,00000.6945,00044.3830,00088.8657
0000000314,00000.0649,-0000.9705,00000.3163,00001.0228,00273.8256,00088.2064
0000000315,00000.6138,00000.7556,00000.3535,00001.0356,00050.9117,00088.2050
0000000316,00000.0220,-0001.0050,00000.3520,00001.0651,00271.2559,00088.1463
0000000317,00000.5614,00000.6481,00000.3435,00000.9237,00049.1022,00088.4190
0000000318,00000.0025,-0000.8973,00000.3958,00000.9808,00270.1597,00088.3454
0000000319,00000.4812,00000.7430,00000.4551,00000.9953,00057.0723,00088.3677
0000000320,-0000.0046,-0000.8264,00000.3785,00000.9089,00269.6834,00088.4762
0000000321,00000.5311,00000.7904,00000.3949,00001.0309,00056.0981,00088.2440
0000000322,-0000.0071,-0000.7316,00000.3519,00000.8119,00269.4469,00088.6509
0000000323,00000.4647,00000.7100,00000.3369,00000.9129,00056.7968,00088.4354
0000000324,00000.0114,-0000.6233,00000.3359,00000.7082,00271.0473,00088.8505
0000000325,00000.4174,00000.6377,00000.3055,00000.8211,00056.7932,00088.5946
0000000326,00000.2193,-0000.8199,00000.6096,00001.0450,00284.9718,00088.4350
0000000327,00000.3552,00000.5501,00000.2739,00000.7098,00057.1488,00088.7927
0000000328,00000.0034,-0000.5566,00000.5773,00000.8019,00270.3466,00088.9738
0000000329,00000.4994,00000.8879,00000.2581,00001.0509,00060.6427,00088.1215
0000000330,00000.4829,00000.8803,00000.2392,00001.0321,00061.2525,00088.1485
0000000331,-0000.0778,-0000.7704,00000.6186,00000.9910,00264.2325,00088.5722
0000000332,00000.4260,00000.8154,00000.2371,00000.9500,00062.4162,00088.3036
0000000333,-0000.0775,-0000.8000,00000.6191,00001.0146,00264.4674,00088.5179
0000000334,-0000.0094,-0000.7338,00000.5001,00000.8880,00269.2683,00088.6469
0000000335,00000.4137,00000.8008,00000.2384,00000.9323,00062.6770,00088.3379
0000000336,00000.0016,-0000.6509,00000.4531,00000.7931,00270.1424,00088.7998
0000000337,00000.3646,00000.7024,00000.2149,00000.8200,00062.5703,00088.5408
0000000338,-0000.0036,-0000.5796,00000.4187,00000.7150,00269.6426,00088.9313
0000000339,00000.3111,00000.6241,00000.1930,00000.7236,00063.5013,00088.7142
0000000340,00000.5918,00000.8304,00000.1953,00001.0382,00054.5220,00088.1197
0000000341,-0000.0072,-0000.5604,00000.4095,00000.6941,00269.2685,00088.9666
0000000342,-0000.0655,-0000.5323,00000.3770,00000.6556,00262.9888,00089.0112
0000000343,00000.3182,00000.8323,00000.2085,00000.9152,00069.0777,00088.3569
0000000344,-0000.4148,-0000.7367,00000.6198,00001.0483,00240.6195,00088.4411
0000000345,00000.3313,00000.8354,00000.2091,00000.9226,00068.3689,00088.3429
0000000346,-0000.3868,-0000.6982,00000.5952,00000.9956,00241.0142,00088.5283
0000000347,00000.3442,00000.9951,00000.2111,00001.0739,00070.9192,00088.0583
0000000348,-0000.3647,-0000.6552,00000.5685,00000.9410,00240.9002,00088.6174
0000000349,00000.3152,00000.9405,00000.2165,00001.0152,00071.4706,00088.1710
0000000350,-0000.3529,-0000.6462,00000.5598,00000.9249,00241.3578,00088.6424
0000000351,00000.2484,00000.7532,00000.2070,00000.8196,00071.7468,00088.5377
0000000352,00000.2200,00000.6639,00000.1939,00000.7258,00071.6672,00088.7104
0000000353,-0000.3244,-0000.6284,00000.5471,00000.8941,00242.6924,00088.6960
0000000354,-0000.2689,-0000.5658,00000.4798,00000.7891,00244.5789,00088.8449
0000000355,00000.2269,00000.6389,00000.2262,00000.7147,00070.4438,00088.7499
0000000356,00000.2364,00000.6517,00000.2349,00000.7320,00070.0605,00088.7216
0000000357,-0000.2321,-0000.4924,00000.4261,00000.6913,00244.7652,00088.9963
0000000358,-0000.2313,-0000.9512,00000.4065,00001.0600,00256.3340,00088.1948
0000000359,00000.4436,00000.8679,00000.4361,00001.0678,00062.9290,00088.2027
0000000360,-0000.1843,-0000.9756,00000.3502,00001.0528,00259.3024,00088.1691
0000000361,00000.4149,00000.8326,00000.4162,00001.0191,00063.5158,00088.2846
0000000362,-0000.1714,-0000.9522,00000.3175,00001.0183,00259.7960,00088.2160
0000000363,00000.3700,00000.7480,00000.3818,00000.9177,00063.6787,00088.4612
0000000364,-0000.1641,-0000.8525,00000.3000,00000.9185,00259.1056,00088.3992
0000000365,00000.3281,00000.6480,00000.3395,00000.8018,00063.1441,00088.6607
0000000366,-0000.1502,-0000.7692,00000.2908,00000.8359,00258.9531,00088.5550
0000000367,00000.2797,00000.5739,00000.3119,00000.7106,00064.0206,00088.8228
0000000368,-0000.1440,-0000.7464,00000.2904,00000.8137,00259.0764,00088.5984
0000000369,00000.4411,00000.8581,00000.3746,00001.0350,00062.7955,00088.2208
0000000370,-0000.1350,-0000.7382,00000.2658,00000.7961,00259.6328,00088.6163
0000000371,00000.4080,00000.8288,00000.2137,00000.9482,00063.7903,00088.2966
0000000372,00000.1081,-0000.9482,00000.4183,00001.0420,00276.5035,00088.2402
0000000373,00000.4412,00000.9262,00000.2224,00001.0497,00064.5277,00088.1083
0000000374,00000.0785,-0000.9113,00000.4386,00001.0144,00274.9238,00088.3133
0000000375,00000.0977,00000.8978,00000.2528,00000.9378,00083.7869,00088.3347
0000000376,00000.2651,00000.8418,00000.2709,00000.9232,00072.5218,00088.3726
0000000377,00000.0767,-0000.8031,00000.4051,00000.9028,00275.4524,00088.5125
0000000378,00000.2740,00000.9240,00000.4528,00001.0648,00073.4828,00088.2228
0000000379,00000.0563,-0000.6317,00000.3488,00000.7238,00275.0959,00088.8307
0000000380,00000.2274,00000.9124,00000.3967,00001.0206,00076.0041,00088.2661
0000000381,00000.0547,-0000.6059,00000.3389,00000.6964,00275.1572,00088.8783
0000000382,00000.1841,00000.7431,00000.3480,00000.8409,00076.0865,00088.5885
0000000383,00000.0207,-0000.8817,00000.4941,00001.0109,00271.3444,00088.3737
0000000384,00000.1772,00000.7089,00000.3373,00000.8048,00075.9658,00088.6526
0000000385,00000.0821,-0000.7138,00000.3721,00000.8091,00276.5600,00088.6753
0000000386,00000.1774,00000.6873,00000.3318,00000.7835,00075.5262,00088.6912
0000000387,00000.1707,-0000.8426,00000.6048,00001.0512,00281.4532,00088.4147
0000000388,00000.1638,00000.6176,00000.3116,00000.7109,00075.1474,00088.8219
0000000389,00000.1857,-0000.7935,00000.5868,00001.0043,00283.1697,00088.4973
0000000390,00000.1040,00000.9146,00000.5126,00001.0536,00083.5150,00088.3026
0000000391,-0000.3832,-0000.5011,00000.5629,00000.8455,00232.5912,00088.8369
0000000392,00000.0992,00000.7935,00000.6395,00001.0239,00082.8769,00088.5255
0000000393,-0000.4111,-0000.5328,00000.5486,00000.8683,00232.3453,00088.7591
0000000394,00000.0699,00000.5608,00000.5208,00000.7685,00082.8938,00088.9581
0000000395,-0000.4332,-0000.5969,00000.5060,00000.8944,00234.0253,00088.6401
0000000396,00000.0528,00000.5007,00000.4702,00000.6889,00083.9814,00089.0716
0000000397,-0000.3172,-0000.5859,00000.4454,00000.8014,00241.5692,00088.7715
0000000398,-0000.1778,00000.8995,00000.2974,00000.9639,00101.1847,00088.3093
0000000399,-0000.3531,-0000.7246,00000.4908,00000.9437,00244.0162,00088.5138
0000000400,-0000.1879,00000.8928,00000.3292,00000.9700,00101.8852,00088.3176
0000000401,-0000.3585,-0000.7957,00000.5060,00001.0088,00245.7444,00088.3908
0000000402,-0000.2028,00000.9481,00000.3483,00001.0302,00102.0766,00088.2122
0000000403,-0000.3136,-0000.7074,00000.4630,00000.9017,00246.0915,00088.5733
0000000404,-0000.2014,00000.9536,00000.3478,00001.0349,00101.9280,00088.2027
0000000405,-0000.2141,-0000.7887,00000.5971,00001.0121,00254.8111,00088.4931
0000000406,-0000.1783,00000.8488,00000.3058,00000.9196,00101.8621,00088.4008
0000000407,-0000.2021,-0000.7927,00000.5725,00000.9985,00255.7013,00088.4915
0000000408,-0000.1772,00000.7417,00000.2762,00000.8110,00103.4356,00088.5940
0000000409,-0000.1519,-0000.7019,00000.5370,00000.8968,00257.7881,00088.6757
0000000410,-0000.1869,00000.8971,00000.5302,00001.0587,00101.7668,00088.3103
0000000411,-0000.0605,-0000.5161,00000.4028,00000.6575,00263.3108,00089.0419
0000000412,-0000.1893,00000.8526,00000.5059,00001.0093,00102.5181,00088.3896
0000000413,-0000.3213,-0000.6696,00000.6983,00001.0194,00244.3631,00088.6306
0000000414,-0000.1734,00000.7624,00000.4430,00000.8987,00102.8143,00088.5582
0000000415,-0000.3403,-0000.7077,00000.6395,00001.0127,00244.3180,00088.5521
0000000416,-0000.1561,00000.6823,00000.3862,00000.7994,00102.8875,00088.7095
0000000417,-0000.1964,-0000.5709,00000.5149,00000.7935,00251.0187,00088.8869
0000000418,-0000.1496,00000.6045,00000.3351,00000.7072,00103.8955,00088.8517
0000000419,-0000.0939,-0000.9236,00000.4477,00001.0306,00264.1941,00088.2882
0000000420,-0000.0323,00000.8319,00000.5635,00001.0053,00092.2249,00088.4648
0000000421,-0000.1813,-0000.8923,00000.4410,00001.0117,00258.5149,00088.3211
0000000422,-0000.0332,00000.9696,00000.4328,00001.0623,00091.9618,00088.2111
0000000423,-0000.0852,-0000.6174,00000.3191,00000.7002,00262.1447,00088.8509
0000000424,-0000.0426,00000.9672,00000.4028,00001.0486,00092.5228,00088.2148
0000000425,00000.3679,-0000.9086,00000.4213,00001.0669,00292.0427,00088.1925
0000000426,-0000.0548,00000.9393,00000.3941,00001.0201,00093.3382,00088.2650
0000000427,00000.3555,-0000.9053,00000.4226,00001.0605,00291.4416,00088.2065
0000000428,-0000.0602,00000.9195,00000.3888,00001.0001,00093.7430,00088.3008
0000000429,00000.3247,-0000.8683,00000.4100,00001.0136,00290.5004,00088.2906
0000000430,-0000.0708,00000.8206,00000.3587,00000.8984,00094.9323,00088.4812
0000000431,00000.3103,-0000.8063,00000.3816,00000.9444,00291.0472,00088.4070
0000000432,-0000.0757,00000.7384,00000.3258,00000.8106,00095.8530,00088.6313
0000000433,00000.3045,-0000.7767,00000.3713,00000.9132,00291.4042,00088.4616
0000000434,-0000.2870,00000.8331,00000.4691,00000.9983,00109.0052,00088.3752
0000000435,00000.2701,-0000.6839,00000.3425,00000.8112,00291.5537,00088.6442
0000000436,-0000.2017,00000.5836,00000.3142,00000.6928,00109.0710,00088.8615
0000000437,00000.2410,-0000.5929,00000.3109,00000.7115,00292.1193,00088.8200
0000000438,-0000.0934,00000.9157,00000.5208,00001.0576,00095.8248,00088.3026
0000000439,00000.3566,-0000.8765,00000.3521,00001.0097,00292.1360,00088.2550
0000000440,-0000.0075,00001.0038,00000.2643,00001.0381,00090.4254,00088.1488
0000000441,00000.3550,-0000.9196,00000.3632,00001.0506,00291.1107,00088.1822
0000000442,00000.0217,00000.9898,00000.2630,00001.0244,00088.7434,00088.1744
0000000443,00000.3067,-0000.8095,00000.2849,00000.9113,00290.7482,00088.4039
0000000444,00000.0241,00000.8785,00000.2740,00000.9206,00088.4272,00088.3795
0000000445,00000.2898,-0000.7257,00000.2586,00000.8231,00291.7709,00088.5591
0000000446,00000.0148,00000.7594,00000.2532,00000.8006,00088.8810,00088.5995
0000000447,00000.2623,-0000.6752,00000.2500,00000.7662,00291.2298,00088.6644
0000000448,00000.2128,00000.9638,00000.3315,00001.0412,00077.5480,00088.1799
0000000449,00000.2416,-0000.6357,00000.2419,00000.7218,00290.8093,00088.7461
0000000450,00000.1348,00000.8738,00000.2743,00000.9257,00081.2267,00088.3698
0000000451,00000.1371,-0001.0179,00000.3074,00001.0722,00277.6733,00088.1059
0000000452,00000.0852,00000.7585,00000.2475,00000.8024,00083.5912,00088.5927
0000000453,00000.1471,-0000.9675,00000.2960,00001.0224,00278.6471,00088.1954
0000000454,00000.1581,00001.0071,00000.2300,00001.0450,00081.0789,00088.1202
0000000455,00000.1357,-0000.8606,00000.2731,00000.9131,00278.9582,00088.3934
0000000456,00000.1519,00000.9974,00000.2067,00001.0298,00081.3386,00088.1396
0000000457,00000.1297,-0000.7684,00000.2579,00000.8209,00279.5814,00088.5631
0000000458,00000.1190,00000.8770,00000.1838,00000.9039,00082.2718,00088.3681
0000000459,00000.3687,-0000.9577,00000.2547,00001.0573,00291.0546,00088.1077
0000000460,-0000.1049,00001.0230,00000.1847,00001.0448,00095.8527,00088.1037
0000000461,00000.3730,-0000.9703,00000.2272,00001.0641,00291.0256,00088.0830
0000000462,-0000.1202,00000.9717,00000.1644,00000.9928,00097.0526,00088.1946
0000000463,-0000.1151,00000.8976,00000.1784,00000.9224,00097.3085,00088.3313
0000000464,00000.3544,-0000.9524,00000.1935,00001.0345,00290.4087,00088.1261
0000000465,-0000.1111,00000.8084,00000.1700,00000.8335,00097.8239,00088.4954
0000000466,00000.3255,-0000.8680,00000.1992,00000.9482,00290.5527,00088.2906
0000000467,-0000.2729,00000.9606,00000.3043,00001.0439,00105.8589,00088.1586
0000000468,00000.3152,-0000.8398,00000.2001,00000.9191,00290.5699,00088.3459
0000000469,-0000.3306,00000.9389,00000.3195,00001.0454,00109.3945,00088.1644
0000000470,00000.2706,-0000.7513,00000.1901,00000.8208,00289.8112,00088.5276
0000000471,-0000.3789,00000.9540,00000.2587,00001.0586,00111.6638,00088.1071
0000000472,00000.2484,-0000.6602,00000.1790,00000.7278,00290.6198,00088.6993
0000000473,-0000.3694,00000.8276,00000.2381,00000.9370,00114.0517,00088.3289
0000000474,00000.5081,-0000.8895,00000.3249,00001.0747,00299.7366,00088.1109
0000000475,-0000.3409,00000.8087,00000.2342,00000.9084,00112.8570,00088.3817
0000000476,00000.4941,-0000.8547,00000.3329,00001.0419,00300.0297,00088.1795
0000000477,-0000.2903,00000.7435,00000.2027,00000.8235,00111.3305,00088.5282
0000000478,00000.4794,-0000.8349,00000.3341,00001.0190,00299.8627,00088.2248
0000000479,-0000.2397,00000.6589,00000.1795,00000.7237,00109.9921,00088.7072
0000000480,00000.4311,-0000.7433,00000.3313,00000.9209,00300.1103,00088.4155
0000000481,-0000.3135,00000.8695,00000.5054,00001.0535,00109.8243,00088.2956
0000000482,00000.4001,-0000.6330,00000.3024,00000.8076,00302.2946,00088.6192
0000000483,-0000.3037,00000.7837,00000.5404,00000.9992,00111.1804,00088.4502
0000000484,00000.3589,-0000.5519,00000.2796,00000.7152,00303.0388,00088.7862
0000000485,-0000.2288,00000.6677,00000.4607,00000.8429,00108.9145,00088.6985
0000000486,00000.3654,-0000.6278,00000.4435,00000.8511,00300.1989,00088.6607
0000000487,-0000.2282,00000.6192,00000.4418,00000.7941,00110.2278,00088.7832
0000000488,00000.5402,-0000.7462,00000.4647,00001.0318,00305.9063,00088.3013
0000000489,-0000.2347,00000.5145,00000.3977,00000.6913,00114.5253,00088.9574
0000000490,00000.5478,-0000.7193,00000.4551,00001.0122,00307.2930,00088.3328
0000000491,-0000.4882,00000.7880,00000.4616,00001.0356,00121.7808,00088.2906
0000000492,00000.4811,-0000.6470,00000.4204,00000.9093,00306.6347,00088.5132
0000000493,-0000.5712,00000.7766,00000.3695,00001.0324,00126.3352,00088.2223
0000000494,00000.4398,-0000.5675,00000.3786,00000.8117,00307.7752,00088.6761
0000000495,-0000.4665,00000.8886,00000.2684,00001.0388,00117.7009,00088.1494
0000000496,00000.4099,-0000.4790,00000.3311,00000.7121,00310.5540,00088.8377
0000000497,-0000.4291,00000.7839,00000.2294,00000.9226,00118.6966,00088.3521
0000000498,00000.6459,-0000.8073,00000.2971,00001.0757,00308.6642,00088.0935
0000000499,-0000.4087,00000.6843,00000.2112,00000.8246,00120.8469,00088.5302
0000000500,00000.6106,-0000.7725,00000.2919,00001.0270,00308.3249,00088.1843
0000000501,-0000.3953,00000.5770,00000.1855,00000.7236,00124.4173,00088.7104
0000000502,00000.5634,-0000.6740,00000.2673,00000.9183,00309.8909,00088.3801
0000000503,00000.0328,00000.5250,00000.6501,00000.8362,00086.4281,00089.0302
0000000504,00000.5157,-0000.5830,00000.2551,00000.8190,00311.4951,00088.5649
0000000505,00000.0373,00000.5929,00000.6701,00000.8955,00086.3960,00088.9047
0000000506,00000.4680,-0000.4910,00000.2438,00000.7208,00313.6254,00088.7492
0000000507,00000.1793,00000.5547,00000.6885,00000.9022,00072.0912,00088.9251
0000000508,00000.5468,-0000.5301,00000.3294,00000.8298,00315.8892,00088.5957
0000000509,-0000.0742,00000.8501,00000.4792,00000.9787,00094.9876,00088.4265
0000000510,00000.5386,-0000.5186,00000.3231,00000.8145,00316.0882,00088.6214
0000000511,00000.0727,00000.8168,00000.4110,00000.9173,00084.9162,00088.4879
0000000512,00000.4906,-0000.4389,00000.2851,00000.7173,00318.1851,00088.7863
0000000513,00000.0572,00000.8090,00000.3938,00000.9016,00085.9524,00088.5046
0000000514,00000.4729,-0000.3897,00000.2728,00000.6707,00320.5136,00088.8702
0000000515,-0000.3559,00000.8527,00000.2155,00000.9488,00112.6550,00088.2962
0000000516,00000.6970,-0000.6445,00000.4447,00001.0483,00317.2430,00088.2494
0000000517,-0000.3148,00000.8416,00000.1961,00000.9197,00110.5088,00088.3432
0000000518,00000.6858,-0000.6274,00000.3704,00001.0006,00317.5470,00088.2860
0000000519,-0000.3027,00000.8331,00000.1995,00000.9086,00109.9705,00088.3655
0000000520,00000.7288,-0000.6913,00000.3205,00001.0544,00316.5126,00088.1476
0000000521,-0000.2371,00000.8720,00000.2477,00000.9370,00105.2089,00088.3336
0000000522,00000.7289,-0000.6682,00000.2824,00001.0283,00317.4876,00088.1767
0000000523,-0000.0254,00000.4518,00000.5860,00000.7404,00093.2149,00089.1656
0000000524,00000.6529,-0000.5828,00000.2590,00000.9127,00318.2500,00088.3862
0000000525,00000.0484,00000.1279,00000.6897,00000.7031,00069.2742,00089.7478
0000000526,00000.7938,-0000.6455,00000.1840,00001.0395,00320.8794,00088.1133
0000000527,-0000.0702,00000.5637,00000.4354,00000.7158,00097.1019,00088.9525
0000000528,00000.7938,-0000.6464,00000.1754,00001.0386,00320.8417,00088.1123
0000000529,-0000.0484,00000.5249,00000.4821,00000.7144,00095.2714,00089.0281
0000000530,00000.6223,-0000.5098,00000.1929,00000.8272,00320.6733,00088.5167
0000000531,00000.2923,00000.5450,00000.4145,00000.7445,00061.7910,00088.8598
0000000532,00000.5090,-0000.4319,00000.1650,00000.6876,00319.6830,00088.7692
0000000533,00000.0540,00000.6623,00000.3095,00000.7330,00085.3413,00088.7748
0000000534,00000.6555,-0000.7772,00000.2454,00001.0459,00310.1481,00088.1251
0000000535,00000.0287,00000.6452,00000.3039,00000.7138,00087.4494,00088.8092
0000000536,00000.6519,-0000.7640,00000.2337,00001.0312,00310.4701,00088.1480
0000000537,-0000.2609,00000.5570,00000.3591,00000.7122,00115.0962,00088.8660
0000000538,00000.5972,-0000.7898,00000.2488,00001.0209,00307.0938,00088.1742
0000000539,00000.0420,00000.8116,00000.2137,00000.8403,00087.0385,00088.5014
0000000540,00000.5281,-0000.7280,00000.2015,00000.9217,00305.9586,00088.3415
0000000541,00000.0834,00000.7853,00000.1576,00000.8053,00083.9402,00088.5439
0000000542,00000.4632,-0000.6550,00000.1999,00000.8268,00305.2676,00088.5207
0000000543,00000.0577,00000.7975,00000.1324,00000.8105,00085.8618,00088.5256
0000000544,00000.3939,-0000.5771,00000.1935,00000.7250,00304.3169,00088.7117
0000000545,-0000.0856,00000.7681,00000.1546,00000.7882,00096.3612,00088.5749
0000000546,00000.7294,-0000.5183,00000.5612,00001.0562,00324.6022,00088.3501
0000000547,-0000.1470,00000.7563,00000.1599,00000.7868,00101.0035,00088.5794
0000000548,00000.6861,-0000.4908,00000.5477,00001.0058,00324.4214,00088.4445
0000000549,-0000.3176,00000.7471,00000.1517,00000.8259,00113.0316,00088.5031
0000000550,00000.6158,-0000.4434,00000.4944,00000.9057,00324.2451,00088.6008
0000000551,-0000.4487,00000.6572,00000.1365,00000.8074,00124.3239,00088.5327
0000000552,00000.5352,-0000.3966,00000.4514,00000.8047,00323.4573,00088.7718
0000000553,00000.4021,00000.7478,00000.1968,00000.8716,00061.7363,00088.4344
0000000554,00000.8153,-0000.4321,00000.3478,00000.9861,00332.0746,00088.2985
0000000555,00000.3552,00000.7271,00000.1753,00000.8280,00063.9659,00088.5079
0000000556,00000.3432,00000.6556,00000.1656,00000.7583,00062.3692,00088.6356
0000000557,00000.8294,-0000.4050,00000.3352,00000.9820,00333.9724,00088.2980
0000000558,00000.8948,-0000.3963,00000.3190,00001.0294,00336.1104,00088.1953
0000000559,00000.4599,00000.5567,00000.1493,00000.7374,00050.4407,00088.6685
0000000560,00000.7872,-0000.3641,00000.3124,00000.9219,00335.1773,00088.4006
0000000561,00000.4598,00000.5558,00000.1458,00000.7359,00050.4021,00088.6699
0000000562,00000.6921,-0000.3244,00000.3008,00000.8214,00334.8881,00088.5906
0000000563,00000.0981,00000.6315,00000.3100,00000.7103,00081.1678,00088.8216
0000000564,00000.0219,00000.5485,00000.3993,00000.6788,00087.7113,00088.9879
0000000565,00000.6483,-0000.3027,00000.2908,00000.7723,00334.9701,00088.6807
0000000566,00000.0188,00000.4222,00000.5117,00000.6636,00087.4531,00089.2208
0000000567,00000.6093,-0000.2750,00000.2644,00000.7189,00335.7059,00088.7673
0000000568,00000.1288,00000.2923,00000.5835,00000.6652,00066.2158,00089.4110
0000000569,00000.5964,-0000.2800,00000.2545,00000.7062,00334.8519,00088.7853
0000000570,00000.0544,00000.2363,00000.6192,00000.6650,00077.0316,00089.5530
0000000571,00000.5926,-0000.2910,00000.2638,00000.7110,00333.8475,00088.7827
0000000572,00000.1123,00000.2483,00000.6204,00000.6776,00065.6699,00089.4975
0000000573,00000.6052,-0000.2986,00000.2680,00000.7261,00333.7376,00088.7557
0000000574,00000.5820,-0000.1494,00000.8410,00001.0336,00345.6059,00088.8921
0000000575,00000.8907,-0000.4792,00000.2942,00001.0533,00331.7190,00088.1349
0000000576,00000.5710,-0000.1490,00000.7958,00000.9907,00345.3727,00088.9119
0000000577,00000.8986,-0000.4699,00000.2794,00001.0518,00332.3942,00088.1301
0000000578,00000.4216,-0000.0547,00000.5796,00000.7188,00352.6075,00089.2161
0000000579,00000.8679,-0000.4549,00000.2484,00001.0109,00332.3387,00088.1931
0000000580,00000.4105,-0000.0399,00000.5493,00000.6869,00354.4503,00089.2395
0000000581,00000.7852,-0000.4245,00000.2350,00000.9230,00331.6015,00088.3540
0000000582,00000.5486,00000.0509,00000.8753,00001.0343,00005.2962,00088.9841
0000000583,00000.6987,-0000.3834,00000.2168,00000.8259,00331.2470,00088.5304
0000000584,00000.5360,00000.0541,00000.8267,00000.9867,00005.7593,00089.0067
0000000585,00000.5765,-0000.3330,00000.2089,00000.6978,00329.9888,00088.7724
0000000586,00000.7982,-0000.4484,00000.4531,00001.0215,00330.6739,00088.3119
0000000587,00000.4874,00000.0643,00000.7241,00000.8752,00007.5200,00089.0935
0000000588,00000.4700,00000.0704,00000.6838,00000.8327,00008.5190,00089.1237
0000000589,00000.7139,-0000.4117,00000.3906,00000.9120,00330.0270,00088.4804
0000000590,00000.4428,00000.0684,00000.6380,00000.7796,00008.7789,00089.1739
0000000591,00000.8476,-0000.3735,00000.4774,00001.0420,00336.2214,00088.2921
0000000592,00000.3927,00000.0773,00000.5589,00000.6874,00011.1325,00089.2621
0000000593,00000.8206,-0000.3413,00000.4903,00001.0151,00337.4176,00088.3612
0000000594,00000.3858,-0000.0019,00000.9434,00001.0192,00359.7224,00089.2886
0000000595,00000.7801,-0000.3318,00000.5056,00000.9871,00336.9585,00088.4368
0000000596,00000.3609,-0000.0042,00000.9115,00000.9804,00359.3302,00089.3346
0000000597,00000.8013,-0000.3424,00000.5212,00001.0154,00336.8613,00088.3932
0000000598,00000.3625,-0000.0076,00000.8964,00000.9670,00358.7989,00089.3315
0000000599,00000.8637,-0000.3012,00000.3380,00000.9751,00340.7726,00088.3134
0000000600,00000.3621,00000.0114,00000.7955,00000.8741,00001.8088,00089.3321
0000000601,00000.9378,-0000.2857,00000.3215,00001.0317,00343.0556,00088.1923
0000000602,00000.3567,00000.0315,00000.6909,00000.7782,00005.0496,00089.3398
0000000603,-0000.1125,-0000.9662,00000.2143,00000.9960,00263.3557,00088.2064
0000000604,00000.3463,-0000.1188,00000.9604,00001.0278,00341.0696,00089.3250
0000000605,-0000.1307,-0001.0105,00000.1872,00001.0360,00262.6308,00088.1211
0000000606,00000.3147,-0000.0539,00000.8214,00000.8813,00350.2878,00089.4113
0000000607,-0000.0978,-0000.9026,00000.1808,00000.9257,00263.8174,00088.3259
0000000608,00000.3127,00000.0585,00000.6448,00000.7190,00010.5970,00089.4136
0000000609,-0000.0252,-0001.0615,00000.2009,00001.0807,00268.6389,00088.0419
0000000610,00000.2971,00000.0627,00000.6043,00000.6763,00011.9155,00089.4401
0000000611,-0000.0130,-0001.0075,00000.2076,00001.0287,00269.2621,00088.1421
0000000612,00000.7852,00000.0450,00000.6950,00001.0495,00003.2778,00088.5499
0000000613,-0000.0104,-0000.9068,00000.1934,00000.9273,00269.3424,00088.3278
0000000614,00000.7408,00000.0576,00000.6696,00001.0002,00004.4444,00088.6300
0000000615,00000.0036,-0000.8009,00000.1817,00000.8213,00270.2561,00088.5232
0000000616,00000.6474,00000.0541,00000.6210,00000.8987,00004.7757,00088.8022
0000000617,00000.1611,-0001.0237,00000.1922,00001.0540,00278.9455,00088.0890
0000000618,00000.5688,00000.0409,00000.5539,00000.7950,00004.1092,00088.9485
0000000619,00000.1076,-0001.0035,00000.2173,00001.0324,00276.1206,00088.1389
0000000620,00000.5510,00000.0422,00000.5404,00000.7729,00004.3745,00088.9811
0000000621,00000.0473,-0000.7378,00000.2020,00000.7664,00273.6674,00088.6369
0000000622,00000.4446,00000.0581,00000.4663,00000.6470,00007.4452,00089.1732
0000000623,-0000.4919,-0000.8278,00000.4055,00001.0448,00239.2811,00088.2243
0000000624,00000.7331,-0000.2206,00000.7106,00001.0446,00343.2544,00088.5883
0000000625,-0000.4448,-0000.8180,00000.4009,00001.0137,00241.4656,00088.2832
0000000626,00000.6964,-0000.2174,00000.6801,00000.9974,00342.6629,00088.6548
0000000627,-0000.3814,-0000.7333,00000.3763,00000.9082,00242.5194,00088.4759
0000000628,00000.5150,-0000.1222,00000.5428,00000.7581,00346.6481,00089.0241
0000000629,-0000.3361,-0000.6597,00000.3353,00000.8128,00242.9989,00088.6349
0000000630,00000.6554,-0000.0381,00000.8031,00001.0373,00356.6757,00088.7895
0000000631,-0000.2880,-0000.5820,00000.2715,00000.7038,00243.6730,00088.8028
0000000632,00000.6110,-0000.0429,00000.7724,00000.9858,00355.9815,00088.8707
0000000633,-0000.2993,-0000.8921,00000.3785,00001.0143,00251.4558,00088.2648
0000000634,00000.5502,-0000.0347,00000.7001,00000.8911,00356.3861,00088.9836
0000000635,-0000.2589,-0000.7918,00000.3460,00000.9020,00251.8939,00088.4639
0000000636,00000.7187,00000.1975,00000.7244,00001.0394,00015.3619,00088.6256
0000000637,-0000.2268,-0000.7110,00000.3234,00000.8133,00252.3095,00088.6240
0000000638,00000.6878,00000.1792,00000.7006,00000.9980,00014.5998,00088.6895
0000000639,-0000.1981,-0000.6208,00000.2904,00000.7134,00252.3017,00088.7984
0000000640,00000.6064,00000.1521,00000.6317,00000.8888,00014.0800,00088.8472
0000000641,-0000.3526,-0000.9537,00000.2153,00001.0393,00249.7101,00088.1251
0000000642,00000.5871,00000.1401,00000.6228,00000.8672,00013.4202,00088.8872
0000000643,-0000.3375,-0000.9423,00000.2249,00001.0259,00250.2946,00088.1542
0000000644,00000.5435,00000.1407,00000.5739,00000.8028,00014.5117,00088.9649
0000000645,-0000.3037,-0000.9594,00000.2421,00001.0351,00252.4337,00088.1442
0000000646,00000.5282,00000.1486,00000.5590,00000.7833,00015.7167,00088.9882
0000000647,-0000.2517,-0000.8570,00000.2303,00000.9224,00253.6323,00088.3530
0000000648,00000.4615,00000.1487,00000.4934,00000.6917,00017.8553,00089.1061
0000000649,-0000.2101,-0000.7607,00000.2155,00000.8180,00254.5618,00088.5449
0000000650,00000.5446,00000.1289,00000.8676,00001.0325,00013.3162,00088.9681
0000000651,-0000.3421,-0000.9327,00000.2217,00001.0179,00249.8542,00088.1681
0000000652,00000.5294,00000.1359,00000.8172,00000.9831,00014.3983,00088.9923
0000000653,-0000.3661,-0000.9104,00000.2446,00001.0113,00248.0952,00088.1906
0000000654,00000.7089,00000.0460,00000.7558,00001.0372,00003.7104,00088.6901
0000000655,-0000.3048,-0000.8181,00000.2865,00000.9189,00249.5652,00088.3901
0000000656,00000.6810,00000.1290,00000.6998,00000.9849,00010.7248,00088.7220
0000000657,-0000.3496,-0000.9072,00000.3330,00001.0276,00248.9244,00088.2073
0000000658,00000.5972,00000.3524,00000.7122,00000.9941,00030.5446,00088.7213
0000000659,-0000.2219,-0000.6816,00000.3568,00000.8007,00251.9684,00088.6783
0000000660,00000.5348,00000.2949,00000.6415,00000.8857,00028.8760,00088.8739
0000000661,-0000.4789,-0000.9148,00000.2803,00001.0700,00242.3657,00088.0958
0000000662,00000.4757,00000.2608,00000.5801,00000.7942,00028.7326,00088.9997
0000000663,-0000.5685,-0000.8211,00000.3354,00001.0535,00235.3044,00088.1584
0000000664,00000.4045,00000.2485,00000.5071,00000.6946,00031.5651,00089.1247
0000000665,-0000.5636,-0000.7820,00000.3225,00001.0165,00234.2222,00088.2225
0000000666,00000.6054,00000.1494,00000.7829,00001.0009,00013.8652,00088.8503
0000000667,-0000.5157,-0000.7505,00000.2921,00000.9563,00235.5032,00088.3209
0000000668,-0000.4841,-0000.7298,00000.2760,00000.9183,00236.4416,00088.3850
0000000669,00000.6016,00000.1562,00000.7688,00000.9886,00014.5570,00088.8539
0000000670,-0000.4190,-0000.6631,00000.2356,00000.8190,00237.7126,00088.5537
0000000671,00000.8351,00000.2322,00000.6027,00001.0558,00015.5376,00088.4017
0000000672,-0000.3679,-0000.5914,00000.1934,00000.7228,00238.1136,00088.7158
0000000673,00000.6443,00000.1972,00000.5042,00000.8416,00017.0207,00088.7576
0000000674,-0000.6109,-0000.8477,00000.2402,00001.0721,00234.2189,00088.0732
0000000675,00000.5958,00000.1784,00000.5051,00000.8012,00016.6715,00088.8533
0000000676,00000.5556,00000.1922,00000.4619,00000.7476,00019.0871,00088.9161
0000000677,-0000.6074,-0000.7939,00000.2348,00001.0268,00232.5801,00088.1568
0000000678,00000.5214,00000.1983,00000.4299,00000.7043,00020.8198,00088.9715
0000000679,-0000.5361,-0000.7078,00000.2299,00000.9172,00232.8610,00088.3627
0000000680,00000.6330,00000.2837,00000.7075,00000.9908,00024.1457,00088.7210
0000000681,-0000.4748,-0000.6275,00000.2233,00000.8180,00232.8867,00088.5490
0000000682,00000.6503,00000.2898,00000.7031,00001.0006,00024.0222,00088.6873
0000000683,-0000.3956,-0000.5557,00000.1815,00000.7059,00234.5522,00088.7421
0000000684,00000.6006,00000.2533,00000.6114,00000.8937,00022.8709,00088.7981
0000000685,-0000.5451,-0000.5951,00000.6571,00001.0407,00227.5127,00088.5120
0000000686,00000.7523,-0000.3485,00000.6331,00001.0432,00335.1412,00088.4712
0000000687,-0000.3358,-0000.3826,00000.4338,00000.6689,00228.7265,00089.0613
0000000688,00000.7094,-0000.3240,00000.6185,00000.9954,00335.4511,00088.5619
0000000689,-0000.6015,-0000.5339,00000.6364,00001.0256,00221.5919,00088.5169
0000000690,00000.4934,-0000.1771,00000.4470,00000.6889,00340.2591,00089.0334
0000000691,-0000.5876,-0000.5109,00000.6231,00000.9973,00221.0082,00088.5642
0000000692,00000.8328,-0000.2739,00000.5908,00001.0572,00341.7925,00088.3834
0000000693,-0000.5385,-0000.4925,00000.5841,00000.9347,00222.4439,00088.6544
0000000694,00000.7724,-0000.2984,00000.5690,00001.0047,00338.8763,00088.4732
0000000695,-0000.5257,-0000.4638,00000.5580,00000.8960,00221.4248,00088.7074
0000000696,00000.6853,-0000.2793,00000.5156,00000.9019,00337.8293,00088.6355
0000000697,-0000.4761,-0000.4030,00000.4905,00000.7935,00220.2476,00088.8500
0000000698,00000.5997,-0000.1416,00000.3482,00000.7078,00346.7169,00088.8638
0000000699,-0000.4233,-0000.3518,00000.4211,00000.6930,00219.7261,00088.9852
0000000700,00000.5744,-0000.1361,00000.3261,00000.6744,00346.6697,00088.9115
0000000701,-0000.6145,-0000.6283,00000.5396,00001.0313,00225.6373,00088.3794
0000000702,00000.8964,-0000.2437,00000.4352,00001.0258,00344.7898,00088.2871
0000000703,-0000.6160,-0000.6230,00000.4977,00001.0076,00225.3207,00088.3845
0000000704,00000.8955,-0000.2042,00000.4324,00001.0152,00347.1553,00088.3063
0000000705,-0000.5210,-0000.5977,00000.4199,00000.8972,00228.9241,00088.5380
0000000706,00000.8137,-0000.1937,00000.3781,00000.9180,00346.6080,00088.4576
0000000707,-0000.4458,-0000.5167,00000.3847,00000.7834,00229.2109,00088.7417
0000000708,00000.7230,-0000.1810,00000.3332,00000.8164,00345.9425,00088.6257
0000000709,-0000.3972,-0000.4571,00000.3462,00000.6976,00229.0088,00088.8834
0000000710,-0000.6584,-0000.5592,00000.5590,00001.0289,00220.3399,00088.4071
0000000711,00000.7762,-0000.1591,00000.5678,00000.9748,00348.4124,00088.5390
0000000712,00000.8158,-0000.1581,00000.5839,00001.0156,00349.0290,00088.4677
0000000713,-0000.6641,-0000.5233,00000.5319,00000.9990,00218.2379,00088.4408
0000000714,00000.7373,-0000.1210,00000.4997,00000.8989,00350.6792,00088.6223
0000000715,-0000.6072,-0000.4592,00000.4841,00000.9022,00217.0952,00088.5962
0000000716,00000.7861,00000.1079,00000.4605,00000.9174,00007.8184,00088.5368
0000000717,-0000.5379,-0000.4270,00000.4058,00000.7977,00218.4440,00088.7337
0000000718,00000.7648,00000.0787,00000.4725,00000.9024,00005.8779,00088.5823
0000000719,-0000.4705,-0000.3731,00000.3475,00000.6938,00218.4163,00088.8928
0000000720,00000.6725,00000.0876,00000.4269,00000.8013,00007.4193,00088.7496
0000000721,-0000.7178,-0000.4405,00000.4932,00000.9759,00211.5345,00088.4471
0000000722,00000.5976,00000.0777,00000.3732,00000.7089,00007.4055,00088.8888
0000000723,00000.1700,-0000.6366,00000.6672,00000.9377,00284.9565,00088.7851
0000000724,00000.7961,00000.0488,00000.4732,00000.9274,00003.5046,00088.5294
0000000725,00000.2514,-0000.6686,00000.6268,00000.9503,00290.6060,00088.6830
0000000726,00000.8166,00000.0439,00000.4808,00000.9486,00003.0761,00088.4921
0000000727,00000.0866,-0000.7091,00000.5826,00000.9218,00276.9618,00088.6829
0000000728,00000.8907,00000.0242,00000.4944,00001.0190,00001.5560,00088.3570
0000000729,00000.2600,-0000.2292,00000.9556,00001.0165,00318.6066,00089.3610
0000000730,00000.8284,00000.1619,00000.3517,00000.9144,00011.0565,00088.4437
0000000731,00000.2419,-0000.2172,00000.9174,00000.9733,00318.0869,00089.4005
0000000732,00000.7361,00000.1575,00000.3158,00000.8163,00012.0784,00088.6120
0000000733,00000.1560,-0000.1183,00000.9030,00000.9240,00322.8116,00089.6390
0000000734,00000.6360,00000.1573,00000.2718,00000.7093,00013.8897,00088.7920
0000000735,-0000.0580,-0000.2099,00000.9395,00000.9644,00254.5522,00089.5985
0000000736,00000.9272,00000.1186,00000.4353,00001.0311,00007.2875,00088.2764
0000000737,00000.4957,-0000.3311,00000.7968,00000.9951,00326.2577,00088.9009
0000000738,00000.9004,00000.0807,00000.5273,00001.0465,00005.1206,00088.3330
0000000739,00000.4878,-0000.3191,00000.7995,00000.9894,00326.8087,00088.9253
0000000740,00000.8481,00000.1079,00000.2858,00000.9014,00007.2529,00088.4236
0000000741,00000.4133,-0000.2043,00000.8526,00000.9693,00333.6963,00089.1499
0000000742,00000.7693,00000.1242,00000.2605,00000.8217,00009.1726,00088.5630
0000000743,00000.7572,-0000.5851,00000.2494,00000.9889,00322.3080,00088.2355
0000000744,00000.6755,00000.1292,00000.2316,00000.7257,00010.8289,00088.7320
0000000745,-0000.5903,-0000.5445,00000.3648,00000.8820,00222.6883,00088.5193
0000000746,00000.9607,00000.1980,00000.3085,00001.0282,00011.6463,00088.1913
0000000747,-0000.6171,-0000.6019,00000.3487,00000.9299,00224.2858,00088.4105
0000000748,00000.8515,00000.1873,00000.2875,00000.9181,00012.4073,00088.3923
0000000749,-0000.6401,-0000.6438,00000.2531,00000.9425,00225.1672,00088.3259
0000000750,00000.7577,00000.1627,00000.2588,00000.8171,00012.1163,00088.5710
0000000751,-0000.6516,-0000.5997,00000.2334,00000.9158,00222.6250,00088.3670
0000000752,00001.0511,00000.0815,00000.2456,00001.0825,00004.4361,00088.0559
0000000753,-0000.6809,-0000.5220,00000.2724,00000.9002,00217.4739,00088.4180
0000000754,00000.9370,00000.0877,00000.2317,00000.9692,00005.3460,00088.2646
0000000755,-0000.7302,-0000.5123,00000.3272,00000.9502,00215.0541,00088.3551
0000000756,00000.9136,00000.0872,00000.2293,00000.9459,00005.4533,00088.3078
0000000757,-0000.7365,-0000.4735,00000.3199,00000.9322,00212.7364,00088.3855
0000000758,00000.6859,00000.0574,00000.2080,00000.7190,00004.7833,00088.7309
0000000759,-0000.7417,-0000.4349,00000.3173,00000.9165,00210.3868,00088.4146
0000000760,00000.9702,00000.0675,00000.4400,00001.0675,00003.9775,00088.2066
0000000761,-0000.7418,-0000.5754,00000.1966,00000.9591,00217.7990,00088.2690
0000000762,00000.8176,00000.0552,00000.3605,00000.8953,00003.8643,00088.4889
0000000763,-0000.4657,-0000.3016,00000.7072,00000.8989,00212.9281,00088.9770
0000000764,00000.7413,00000.0460,00000.3297,00000.8126,00003.5546,00088.6306
0000000765,-0000.4332,-0000.3354,00000.7749,00000.9490,00217.7504,00088.9898
0000000766,00000.6507,00000.0405,00000.2960,00000.7160,00003.5639,00088.7979
0000000767,-0000.4106,-0000.1716,00000.7761,00000.8946,00202.6794,00089.1795
0000000768,00000.9535,-0000.1412,00000.3814,00001.0366,00351.5753,00088.2225
0000000769,-0000.4334,-0000.1313,00000.7522,00000.8780,00196.8550,00089.1651
0000000770,00000.8458,-0000.1613,00000.3396,00000.9256,00349.2036,00088.4123
0000000771,-0000.3818,-0000.1717,00000.7788,00000.8842,00204.2161,00089.2281
0000000772,00000.7347,-0000.1442,00000.2884,00000.8023,00348.8974,00088.6195
0000000773,00000.9941,-0000.2154,00000.2698,00001.0523,00347.7743,00088.1243
0000000774,-0000.3382,-0000.1524,00000.7883,00000.8712,00204.2514,00089.3161
0000000775,-0000.4848,-0000.1713,00000.6975,00000.8665,00199.4588,00089.0520
0000000776,00000.9795,-0000.2034,00000.2605,00001.0338,00348.2695,00088.1552
0000000777,00000.6585,-0000.1584,00000.2195,00000.7120,00346.4756,00088.7512
0000000778,-0000.4686,-0000.2544,00000.7009,00000.8806,00208.4972,00089.0169
0000000779,00000.9627,-0000.2840,00000.2654,00001.0382,00343.5654,00088.1492
0000000780,-0000.5676,-0000.2835,00000.6863,00000.9346,00206.5393,00088.8302
0000000781,-0000.6094,-0000.2173,00000.6245,00000.8992,00199.6227,00088.8072
0000000782,00000.9636,-0000.2639,00000.2361,00001.0266,00344.6840,00088.1578
0000000783,00000.0015,-0000.1457,00000.8361,00000.8487,00270.5818,00089.7313
0000000784,00000.8823,00000.2613,00000.4853,00001.0403,00016.4942,00088.3032
0000000785,00000.8370,00000.2823,00000.4693,00001.0003,00018.6347,00088.3712
0000000786,00000.3496,-0000.2419,00000.7552,00000.8667,00325.3167,00089.2161
0000000787,00000.7726,00000.2384,00000.4261,00000.9139,00017.1501,00088.5092
0000000788,00000.3070,-0000.1804,00000.7801,00000.8576,00329.5712,00089.3434
0000000789,00000.6685,00000.1959,00000.3662,00000.7870,00016.3299,00088.7156
0000000790,00000.2539,-0000.1352,00000.7816,00000.8328,00331.9648,00089.4696
0000000791,00000.6501,00000.1937,00000.3579,00000.7670,00016.5934,00088.7493
0000000792,00000.3985,-0000.1662,00000.7469,00000.8627,00337.3651,00089.2039
0000000793,00000.6000,00000.1867,00000.3276,00000.7087,00017.2826,00088.8414
0000000794,00000.2142,-0000.6000,00000.6258,00000.8930,00289.6428,00088.8253
0000000795,00000.5791,00000.1887,00000.3201,00000.6881,00018.0496,00088.8769
0000000796,00000.5397,-0000.3059,00000.5911,00000.8568,00330.4534,00088.8562
0000000797,00001.0078,00000.0883,00000.2436,00001.0406,00005.0089,00088.1344
0000000798,00000.0472,-0000.6614,00000.5113,00000.8373,00274.0817,00088.7774
0000000799,00000.8674,00000.1103,00000.2179,00000.9011,00007.2445,00088.3876
0000000800,00000.1736,-0000.6704,00000.4881,00000.8472,00284.5187,00088.7231
0000000801,00000.9223,00000.2568,00000.4204,00001.0456,00015.5602,00088.2347
0000000802,00000.2072,-0000.7438,00000.3679,00000.8553,00285.5688,00088.5763
0000000803,00000.9334,00000.3376,00000.3782,00001.0621,00019.8857,00088.1697
0000000804,-0000.1959,-0000.6601,00000.4783,00000.8384,00253.4705,00088.7304
0000000805,00000.8832,00000.3774,00000.3305,00001.0157,00023.1372,00088.2289
0000000806,-0000.0491,-0000.7754,00000.3134,00000.8378,00266.3791,00088.5673
0000000807,00000.8010,00000.3366,00000.3024,00000.9200,00022.7931,00088.3978
0000000808,00000.0754,-0000.8594,00000.1690,00000.8791,00275.0129,00088.4092
0000000809,00000.7087,00000.3186,00000.2566,00000.8183,00024.2078,00088.5673
0000000810,00000.5648,-0000.6241,00000.1663,00000.8580,00312.1446,00088.4479
0000000811,00000.6127,00000.3232,00000.2072,00000.7230,00027.8145,00088.7228
0000000812,00000.4000,-0000.7342,00000.1320,00000.8465,00298.5795,00088.4583
0000000813,00000.5848,00000.3246,00000.1931,00000.6962,00029.0363,00088.7667
0000000814,00000.7186,-0000.3914,00000.2023,00000.8429,00331.4250,00088.4912
0000000815,00000.8128,00000.3544,00000.5689,00001.0535,00023.5576,00088.3650
0000000816,00000.7042,-0000.4868,00000.1255,00000.8653,00325.3440,00088.4214
0000000817,00000.7729,00000.3526,00000.5428,00001.0081,00024.5264,00088.4336
0000000818,-0000.5276,-0000.5089,00000.2982,00000.7914,00223.9658,00088.6483
0000000819,00000.6768,00000.3391,00000.4748,00000.8936,00026.6096,00088.6042
0000000820,-0000.4380,-0000.6479,00000.2514,00000.8214,00235.9398,00088.5581
0000000821,00000.6011,00000.3142,00000.4180,00000.7967,00027.5987,00088.7494
0000000822,-0000.5378,-0000.6430,00000.1570,00000.8529,00230.0894,00088.4542
0000000823,00000.8734,00000.4581,00000.3861,00001.0591,00027.6755,00088.1814
0000000824,-0000.3717,-0000.7748,00000.1957,00000.8814,00244.3720,00088.4154
0000000825,00000.7816,00000.4435,00000.2406,00000.9303,00029.5718,00088.3429
0000000826,-0000.4850,-0000.3412,00000.6279,00000.8637,00215.1252,00088.9066
0000000827,00000.9490,00000.3279,00000.2187,00001.0276,00019.0607,00088.1485
0000000828,-0000.5779,-0000.3103,00000.5591,00000.8619,00208.2305,00088.7906
0000000829,00000.9669,00000.4115,00000.2186,00001.0734,00023.0553,00088.0621
0000000830,00000.3110,-0000.1815,00000.6781,00000.7678,00329.7358,00089.3360
0000000831,00000.8350,00000.3731,00000.2105,00000.9385,00024.0796,00088.3136
0000000832,00000.3034,-0000.1694,00000.6894,00000.7720,00330.8309,00089.3594
0000000833,00000.9028,00000.4947,00000.2835,00001.0678,00028.7221,00088.1017
0000000834,00000.2404,-0000.0756,00000.6959,00000.7401,00342.5521,00089.5354
0000000835,00000.8648,00000.4854,00000.2872,00001.0325,00029.3042,00088.1713
0000000836,00000.4315,-0000.1559,00000.6386,00000.7863,00340.1324,00089.1541
0000000837,00000.6972,00000.3856,00000.2254,00000.8280,00028.9489,00088.5309
0000000838,00000.5055,-0000.2469,00000.5584,00000.7927,00333.9670,00088.9626
0000000839,00000.7057,00000.2767,00000.5318,00000.9259,00021.4091,00088.6024
0000000840,00000.6034,-0000.1892,00000.4725,00000.7894,00342.5924,00088.8339
0000000841,00000.7478,00000.4456,00000.4765,00000.9924,00030.7908,00088.3948
0000000842,00000.1491,-0000.5243,00000.5738,00000.7915,00285.8693,00088.9949
0000000843,00000.7338,00000.4923,00000.4680,00000.9999,00033.8566,00088.3707
0000000844,00000.3573,-0000.5429,00000.4740,00000.8044,00303.3506,00088.8016
0000000845,00000.8819,-0000.0039,00000.2519,00000.9171,00359.7480,00088.3739
0000000846,00000.4124,-0000.4948,00000.4643,00000.7940,00309.8115,00088.8122
0000000847,00000.8747,-0000.0470,00000.2254,00000.9045,00356.9243,00088.3848
0000000848,00000.2132,-0000.6251,00000.4314,00000.7889,00288.8333,00088.7821
0000000849,00000.9011,-0000.0968,00000.2340,00000.9360,00353.8694,00088.3289
0000000850,00000.5064,-0000.5692,00000.1597,00000.7784,00311.6579,00088.5952
0000000851,00000.9681,-0000.0065,00000.2040,00000.9894,00359.6126,00088.2147
0000000852,00000.7186,00000.4034,00000.4000,00000.9160,00029.3077,00088.4805
0000000853,00000.6634,-0000.3697,00000.1466,00000.7735,00330.8688,00088.5996
0000000854,00000.6088,00000.4024,00000.4475,00000.8561,00033.4631,00088.6543
0000000855,00000.6362,-0000.3457,00000.1147,00000.7331,00331.4827,00088.6649
0000000856,00000.6120,-0000.3760,00000.1126,00000.7270,00328.4298,00088.6756
0000000857,00000.5455,00000.4487,00000.4973,00000.8638,00039.4377,00088.6977
0000000858,00000.4547,00000.5836,00000.4623,00000.8724,00052.0790,00088.6359
0000000859,00000.6093,-0000.4003,00000.1268,00000.7400,00326.6947,00088.6557
0000000860,00000.8214,00000.3333,00000.1949,00000.9076,00022.0851,00088.3655
0000000861,00000.0690,-0000.8185,00000.1433,00000.8338,00274.8204,00088.4855
0000000862,00000.2806,-0000.6928,00000.1257,00000.7579,00292.0501,00088.6218
0000000863,00000.7522,00000.3882,00000.1748,00000.8644,00027.2988,00088.4391
0000000864,00000.2693,-0000.6667,00000.1308,00000.7308,00291.9964,00088.6742
0000000865,00000.8385,-0000.1730,00000.2049,00000.8804,00348.3435,00088.4212
0000000866,-0000.1221,-0000.7447,00000.1425,00000.7679,00260.6872,00088.6086
0000000867,00000.8092,-0000.2078,00000.1899,00000.8568,00345.5991,00088.4594
0000000868,-0000.2713,-0000.7223,00000.1858,00000.7936,00249.4151,00088.5773
0000000869,00000.7966,-0000.1786,00000.1785,00000.8357,00347.3644,00088.4947
0000000870,-0000.3201,-0000.7001,00000.1693,00000.7882,00245.4319,00088.5806
0000000871,00000.7717,-0000.1016,00000.2047,00000.8048,00352.4990,00088.5648
0000000872,00000.7830,-0000.0603,00000.1736,00000.8043,00355.5985,00088.5519
0000000873,-0000.2807,-0000.5116,00000.5275,00000.7867,00241.2497,00088.9240
0000000874,00000.7105,00000.0850,00000.1607,00000.7334,00006.8195,00088.6806
0000000875,-0000.3624,-0000.4669,00000.4910,00000.7684,00232.1858,00088.9102
0000000876,00000.7165,00000.0937,00000.1661,00000.7415,00007.4508,00088.6676
0000000877,00000.0128,-0000.2880,00000.6954,00000.7527,00272.5412,00089.4686
0000000878,00000.7231,00000.2741,00000.1845,00000.7950,00020.7572,00088.5741
0000000879,-0000.3820,-0000.3145,00000.5363,00000.7297,00219.4623,00089.0877
0000000880,00000.6508,00000.3295,00000.2726,00000.7787,00026.8505,00088.6550
0000000881,-0000.3142,-0000.2462,00000.5928,00000.7147,00218.0890,00089.2641
0000000882,00000.5175,00000.3744,00000.4385,00000.7747,00035.8852,00088.8224
0000000883,-0000.5467,-0000.5532,00000.2191,00000.8081,00225.3383,00088.5658
0000000884,00000.5904,-0000.0614,00000.4204,00000.7274,00354.0584,00088.9055
0000000885,-0000.5352,-0000.6120,00000.1630,00000.8291,00228.8296,00088.5010
0000000886,00000.6973,00000.3690,00000.1943,00000.8125,00027.8828,00088.5453
0000000887,00000.0071,-0000.1715,00000.6489,00000.6713,00272.3617,00089.6836
0000000888,00000.6139,-0000.0388,00000.3435,00000.7045,00356.3840,00088.8659
0000000889,-0000.0515,-0000.2297,00000.6146,00000.6582,00257.3587,00089.5661
0000000890,00000.5187,00000.0351,00000.4198,00000.6682,00003.8663,00089.0414
0000000891,00000.2059,-0000.4160,00000.5143,00000.6928,00296.3316,00089.1441
0000000892,00000.2108,-0000.4108,00000.5067,00000.6855,00297.1677,00089.1487
0000000893,00000.5582,00000.3115,00000.3268,00000.7179,00029.1678,00088.8214
0000000894,00000.5477,00000.3065,00000.3138,00000.7017,00029.2351,00088.8428
0000000895,00000.2631,-0000.5207,00000.3450,00000.6777,00296.8047,00088.9244
0000000896,00000.4629,00000.3358,00000.3990,00000.6973,00035.9617,00088.9456
0000000897,00000.3291,-0000.4356,00000.4119,00000.6839,00307.0704,00088.9934
0000000898,00000.4798,00000.1186,00000.4710,00000.6827,00013.8883,00089.0887
0000000899,-0000.1573,-0000.5941,00000.3410,00000.7028,00255.1679,00088.8669
0000000900,00000.6627,-0000.0233,00000.2373,00000.7043,00357.9891,00088.7773
0000000901,-0000.2621,-0000.4729,00000.4044,00000.6752,00241.0019,00089.0032
0000000902,00000.6741,00000.1744,00000.1483,00000.7119,00014.5025,00088.7162
0000000903,-0000.2698,-0000.4822,00000.3911,00000.6769,00240.7683,00088.9813
0000000904,00000.6498,00000.2934,00000.1492,00000.7284,00024.2961,00088.6854
0000000905,-0000.2933,-0000.5633,00000.2403,00000.6791,00242.4983,00088.8290
0000000906,00000.3191,-0000.0181,00000.5999,00000.6797,00356.7571,00089.4108
0000000907,-0000.3321,-0000.2489,00000.5453,00000.6852,00216.8501,00089.2348
0000000908,00000.2494,-0000.0499,00000.5967,00000.6487,00348.6891,00089.5311
0000000909,-0000.3297,-0000.2488,00000.5369,00000.6774,00217.0410,00089.2385
0000000910,00000.2070,-0000.0796,00000.6225,00000.6608,00338.9668,00089.5910
0000000911,-0000.2672,-0000.2117,00000.5891,00000.6806,00218.3854,00089.3714
0000000912,00000.2284,-0000.0410,00000.6606,00000.7002,00349.8348,00089.5722
0000000913,-0000.5601,-0000.0347,00000.8615,00001.0281,00183.5418,00088.9654
0000000914,00000.2387,-0000.0143,00000.5911,00000.6376,00356.5607,00089.5592
0000000915,-0000.5169,-0000.0315,00000.8250,00000.9741,00183.4877,00089.0452
0000000916,00000.2706,-0000.1560,00000.6037,00000.6797,00330.0351,00089.4241
0000000917,-0000.4558,-0000.0263,00000.7537,00000.8812,00183.2965,00089.1583
0000000918,00000.2813,-0000.1594,00000.5934,00000.6758,00330.4608,00089.4038
0000000919,-0000.3854,-0000.0773,00000.6639,00000.7716,00191.3448,00089.2753
0000000920,00000.3864,-0000.1165,00000.5149,00000.6542,00343.2171,00089.2558
0000000921,-0000.2758,-0000.1000,00000.5596,00000.6318,00199.9225,00089.4591
0000000922,-0000.3223,-0000.0781,00000.6191,00000.7023,00193.6126,00089.3886
0000000923,-0000.3552,-0000.0588,00000.6845,00000.7734,00189.4034,00089.3362
0000000924,-0000.3201,-0000.0115,00000.9717,00001.0232,00182.0521,00089.4094
0000000925,-0000.2979,-0000.0169,00000.9076,00000.9554,00183.2416,00089.4499
0000000926,-0000.2610,-0000.0314,00000.8131,00000.8545,00186.8652,00089.5154
0000000927,-0000.2446,-0000.0483,00000.7247,00000.7664,00191.1826,00089.5404
0000000928,-0000.5489,-0000.3263,00000.8097,00001.0313,00210.7312,00088.8225
0000000929,-0000.3439,-0000.1123,00000.5725,00000.6772,00198.0787,00089.3331
0000000930,-0000.5078,-0000.2348,00000.8551,00001.0218,00204.8122,00088.9685
0000000931,-0000.4280,-0000.0511,00000.6495,00000.7795,00186.8113,00089.2053
0000000932,-0000.3411,-0000.0057,00000.5483,00000.6458,00180.9637,00089.3710
0000000933,-0000.5511,00000.2293,00000.8410,00001.0312,00157.4115,00088.8995
0000000934,-0000.5294,00000.2087,00000.8070,00000.9875,00158.4865,00088.9508
0000000935,-0000.5258,00000.2021,00000.7975,00000.9764,00158.9751,00088.9613
0000000936,-0000.4702,00000.1862,00000.7209,00000.8806,00158.3923,00089.0676
0000000937,-0000.3999,00000.1718,00000.6401,00000.7741,00156.7529,00089.1975
0000000938,-0000.3817,00000.1656,00000.6108,00000.7390,00156.5467,00089.2329
0000000939,-0000.3560,00000.1464,00000.5640,00000.6828,00157.6405,00089.2903
0000000940,-0000.3131,00000.1110,00000.9582,00001.0142,00160.4765,00089.3875
0000000941,-0000.3086,00000.0987,00000.9161,00000.9718,00162.2611,00089.4026
0000000942,-0000.2834,00000.0901,00000.8165,00000.8690,00162.3641,00089.4516
0000000943,-0000.2687,00000.0773,00000.7141,00000.7669,00163.9584,00089.4845
0000000944,-0000.2589,00000.0641,00000.6228,00000.6776,00166.0963,00089.5082
0000000945,-0000.7456,00000.1229,00000.7095,00001.0365,00170.6368,00088.6067
0000000946,-0000.6968,00000.1136,00000.6850,00000.9837,00170.7416,00088.6982
0000000947,-0000.6339,00000.1009,00000.6307,00000.8999,00170.9587,00088.8165
0000000948,-0000.6269,00000.0959,00000.6216,00000.8880,00171.3020,00088.8306
0000000949,-0000.5438,00000.0695,00000.5599,00000.7836,00172.7151,00088.9893
0000000950,-0000.4409,00000.0469,00000.4857,00000.6576,00173.9340,00089.1826
0000000951,-0000.4630,00000.0110,00000.4647,00000.6560,00178.6398,00089.1462
0000000952,-0000.7027,-0000.0658,00000.7613,00001.0382,00185.3469,00088.6986
0000000953,-0000.6596,-0000.0584,00000.7336,00000.9882,00185.0571,00088.7790
0000000954,-0000.7070,-0000.0174,00000.7438,00001.0263,00181.4113,00088.6959
0000000955,-0000.6594,00000.0669,00000.7913,00001.0322,00174.2035,00088.7780
0000000956,-0000.6774,-0000.0008,00000.7152,00000.9851,00180.0648,00088.7509
0000000957,-0000.5849,-0000.0224,00000.6537,00000.8775,00182.1968,00088.9209
0000000958,-0000.5092,-0000.0148,00000.5874,00000.7775,00181.6627,00089.0607
0000000959,-0000.4373,-0000.0269,00000.5281,00000.6862,00183.5210,00089.1921
0000000960,-0000.4793,-0000.1958,00000.8456,00000.9915,00202.2231,00089.0453
0000000961,-0000.3089,-0000.1506,00000.9342,00000.9954,00205.9926,00089.3664
0000000962,-0000.4406,-0000.0462,00000.9232,00001.0240,00185.9808,00089.1833
0000000963,-0000.4119,-0000.0605,00000.8836,00000.9768,00188.3530,00089.2324
0000000964,-0000.3684,-0000.0648,00000.7851,00000.8696,00189.9736,00089.3103
0000000965,-0000.5953,-0000.2973,00000.7384,00000.9940,00206.5353,00088.7731
0000000966,-0000.8127,-0000.3152,00000.5627,00001.0375,00201.2000,00088.3927
0000000967,-0000.7946,-0000.3715,00000.5665,00001.0442,00205.0576,00088.3826
0000000968,-0000.6425,-0000.3222,00000.5263,00000.8909,00206.6353,00088.6747
0000000969,-0000.5724,-0000.3045,00000.4599,00000.7949,00208.0125,00088.8046
0000000970,-0000.4921,-0000.2988,00000.3904,00000.6956,00211.2638,00088.9385
0000000971,-0000.6528,-0000.2898,00000.6891,00000.9925,00203.9369,00088.6831
0000000972,-0000.5204,-0000.2676,00000.5233,00000.7850,00207.2132,00088.9210
0000000973,-0000.4494,-0000.2410,00000.4657,00000.6906,00208.2060,00089.0598
0000000974,-0000.4413,-0000.2031,00000.4930,00000.6921,00204.7160,00089.1043
0000000975,-0000.7235,-0000.1210,00000.7372,00001.0400,00189.4919,00088.6474
0000000976,-0000.4413,-0000.1280,00000.5114,00000.6875,00196.1745,00089.1528
0000000977,-0000.1602,-0000.0321,00000.9661,00000.9798,00191.3132,00089.6987
0000000978,-0000.1663,-0000.0306,00000.9529,00000.9678,00190.4298,00089.6883
0000000979,-0000.6300,00000.4672,00000.6257,00001.0033,00143.4400,00088.5538
0000000980,-0000.6350,00000.4138,00000.6365,00000.9897,00146.9113,00088.6025
0000000981,-0000.5758,00000.3397,00000.5830,00000.8870,00149.4573,00088.7673
0000000982,-0000.5074,00000.2844,00000.5318,00000.7882,00150.7293,00088.9275
0000000983,-0000.4669,00000.2482,00000.4490,00000.6937,00152.0056,00089.0251
0000000984,-0000.5530,00000.3337,00000.8051,00001.0322,00148.8897,00088.8090
0000000985,-0000.4813,00000.3340,00000.7935,00000.9863,00145.2466,00088.9198
0000000986,-0000.4195,00000.2563,00000.7126,00000.8657,00148.5735,00089.0936
0000000987,-0000.3606,00000.1784,00000.5434,00000.6762,00153.6770,00089.2582
0000000988,-0000.3544,00000.1678,00000.5063,00000.6404,00154.6623,00089.2770
0000000989,-0000.3886,00000.1667,00000.5543,00000.6972,00156.7794,00089.2204
0000000990,-0000.4486,00000.2096,00000.6192,00000.7929,00154.9530,00089.0871
0000000991,-0000.3432,00000.2339,00000.8229,00000.9218,00145.7207,00089.2342
0000000992,-0000.2786,00000.1831,00000.8584,00000.9209,00146.6864,00089.3853
0000000993,-0000.2463,00000.1708,00000.8185,00000.8716,00145.2660,00089.4473
0000000994,-0000.2161,00000.1269,00000.7312,00000.7729,00149.5692,00089.5380
0000000995,-0000.1853,00000.2789,00000.9504,00001.0077,00123.6071,00089.3827
0000000996,-0000.2127,00000.2195,00000.9731,00001.0200,00134.1033,00089.4364
0000000997,-0000.1795,00000.2262,00000.9292,00000.9731,00128.4260,00089.4676
0000000998,-0000.1383,00000.1906,00000.8190,00000.8521,00125.9595,00089.5659
0000000999,-0000.1571,00000.1208,00000.6400,00000.6700,00142.4440,00089.6346
0000001000,-0000.3915,00000.3699,00000.8534,00001.0091,00136.6239,00089.0069
0000001001,-0000.3743,00000.3288,00000.8450,00000.9809,00138.7040,00089.0815
0000001002,-0000.4331,00000.2487,00000.8984,00001.0278,00150.1361,00089.0793
0000001003,-0000.2944,00000.2117,00000.9428,00001.0101,00144.2828,00089.3314
0000001004,-0000.2908,00000.1809,00000.7723,00000.8449,00148.1128,00089.3686
0000001005,-0000.2708,00000.1759,00000.7066,00000.7769,00146.9958,00089.4045
0000001006,-0000.4576,00000.5330,00000.7592,00001.0343,00130.6510,00088.7047
0000001007,-0000.4168,00000.4920,00000.7471,00000.9869,00130.2729,00088.8110
0000001008,-0000.3798,00000.4225,00000.6664,00000.8756,00131.9505,00088.9526
0000001009,-0000.3445,00000.3753,00000.6021,00000.7887,00132.5490,00089.0608
0000001010,-0000.3367,00000.3635,00000.5967,00000.7756,00132.8075,00089.0864
0000001011,-0000.3000,00000.3145,00000.5277,00000.6836,00133.6478,00089.1987
0000001012,-0000.2999,00000.5318,00000.8056,00001.0108,00119.4195,00088.8742
0000001013,-0000.2695,00000.5309,00000.7867,00000.9865,00116.9103,00088.9023
0000001014,-0000.2734,00000.4513,00000.7109,00000.8854,00121.2032,00089.0271
0000001015,-0000.2432,00000.3737,00000.6418,00000.7815,00123.0604,00089.1779
0000001016,-0000.2351,00000.3556,00000.6262,00000.7575,00123.4712,00089.2140
0000001017,-0000.2108,00000.3043,00000.5713,00000.6807,00124.7143,00089.3174
0000001018,-0000.2599,00000.3584,00000.9255,00001.0260,00125.9435,00089.1837
0000001019,-0000.2462,00000.3378,00000.8871,00000.9806,00126.0900,00089.2294
0000001020,-0000.2443,00000.2314,00000.5913,00000.6803,00136.5582,00089.3796
0000001021,-0000.3291,00000.5745,00000.6771,00000.9470,00119.8096,00088.7793
0000001022,-0000.3771,00000.5963,00000.7016,00000.9950,00122.3101,00088.6991
0000001023,-0000.3459,00000.5096,00000.6406,00000.8887,00124.1693,00088.8643
0000001024,-0000.2712,00000.3801,00000.5084,00000.6904,00125.5080,00089.1390
0000001025,-0000.3846,00000.6274,00000.5472,00000.9171,00121.5119,00088.6431
0000001026,-0000.4449,00000.6124,00000.5687,00000.9468,00125.9958,00088.6043
0000001027,-0000.4130,00000.5199,00000.5774,00000.8799,00128.4652,00088.7757
0000001028,-0000.3153,00000.3606,00000.4922,00000.6868,00131.1691,00089.1169
0000001029,-0000.5850,00000.6170,00000.5093,00000.9911,00133.4723,00088.4322
0000001030,-0000.5497,00000.6152,00000.5729,00001.0044,00131.7792,00088.4787
0000001031,-0000.4597,00000.4491,00000.4588,00000.7896,00135.6742,00088.8150
0000001032,-0000.4112,00000.3895,00000.4039,00000.6956,00136.5493,00088.9557
0000001033,-0000.4461,00000.6861,00000.4236,00000.9215,00123.0361,00088.4910
0000001034,-0000.5628,00000.7162,00000.4461,00001.0142,00128.1633,00088.3204
0000001035,-0000.4930,00000.6251,00000.4240,00000.9020,00128.2658,00088.5321
0000001036,-0000.4254,00000.5549,00000.3817,00000.7967,00127.4750,00088.7107
0000001037,-0000.3654,00000.5149,00000.3132,00000.7048,00125.3628,00088.8358
0000001038,-0000.3602,00000.6714,00000.4465,00000.8831,00118.2130,00088.5950
0000001039,-0000.3255,00000.6743,00000.4421,00000.8695,00115.7678,00088.6194
0000001040,-0000.4839,00000.7356,00000.5046,00001.0149,00123.3387,00088.3764
0000001041,-0000.3449,00000.5804,00000.4294,00000.8001,00120.7242,00088.7551
0000001042,-0000.3057,00000.5117,00000.3659,00000.6994,00120.8519,00088.9010
0000001043,-0000.5731,00000.5967,00000.3373,00000.8934,00133.8414,00088.4745
0000001044,-0000.5285,00000.5311,00000.3135,00000.8122,00134.8576,00088.6185
0000001045,-0000.4731,00000.4500,00000.2734,00000.7079,00136.4385,00088.7961
0000001046,-0000.7777,00000.6733,00000.2916,00001.0692,00139.1154,00088.1030
0000001047,-0000.7391,00000.6360,00000.2710,00001.0121,00139.2881,00088.2019
0000001048,-0000.6898,00000.6289,00000.3094,00000.9834,00137.6426,00088.2786
0000001049,-0000.6459,00000.5828,00000.2568,00000.9071,00137.9431,00088.3958
0000001050,-0000.7777,00000.6104,00000.3927,00001.0637,00141.8726,00088.1770
0000001051,-0000.7984,00000.5621,00000.3789,00001.0474,00144.8535,00088.1994
0000001052,-0000.7480,00000.5273,00000.3573,00000.9824,00144.8208,00088.3125
0000001053,-0000.6744,00000.4860,00000.3484,00000.9013,00144.2205,00088.4672
0000001054,-0000.6053,00000.4382,00000.3210,00000.8133,00144.0996,00088.6222
0000001055,-0000.5350,00000.3723,00000.2801,00000.7094,00145.1618,00088.7982
0000001056,-0000.6795,00000.6111,00000.5293,00001.0561,00138.0300,00088.3148
0000001057,-0000.6382,00000.5759,00000.5138,00001.0015,00137.9384,00088.4149
0000001058,-0000.5746,00000.5245,00000.4590,00000.9033,00137.6090,00088.5654
0000001059,-0000.5205,00000.4511,00000.4008,00000.7969,00139.0829,00088.7300
0000001060,-0000.4574,00000.3990,00000.3551,00000.7032,00138.9048,00088.8809
0000001061,-0000.7141,00000.4619,00000.5069,00000.9901,00147.1007,00088.4318
0000001062,-0000.8444,00000.6081,00000.2430,00001.0686,00144.2393,00088.0811
0000001063,-0000.7715,00000.5626,00000.1951,00000.9746,00143.9009,00088.2392
0000001064,-0000.6852,00000.5170,00000.1959,00000.8804,00142.9636,00088.4173
0000001065,-0000.6329,00000.4829,00000.1920,00000.8189,00142.6594,00088.5321
0000001066,-0000.5691,00000.4024,00000.1670,00000.7167,00144.7370,00088.7148
0000001067,-0000.7320,00000.5413,00000.1777,00000.9275,00143.5191,00088.3213
0000001068,-0000.6355,00000.5025,00000.1593,00000.8256,00141.6661,00088.5062
0000001069,-0000.7582,00000.4744,00000.5563,00001.0533,00147.9688,00088.3508
0000001070,-0000.5222,00000.4390,00000.5762,00000.8930,00139.9445,00088.7421
0000001071,-0000.4632,00000.3765,00000.5123,00000.7866,00140.8932,00088.8995
0000001072,-0000.4030,00000.3239,00000.4519,00000.6867,00141.2123,00089.0467
0000001073,-0000.6632,00000.3877,00000.6501,00001.0064,00149.6852,00088.5835
0000001074,-0000.6548,00000.3794,00000.6437,00000.9935,00149.9144,00088.6045
0000001075,-0000.4618,00000.2957,00000.5208,00000.7562,00147.3691,00088.9890
0000001076,-0000.4206,00000.2624,00000.4674,00000.6813,00148.0450,00089.0860
0000001077,-0001.0152,00000.1446,00000.2770,00001.0622,00171.8919,00088.1090
0000001078,-0000.9762,00000.1238,00000.2955,00001.0274,00172.7749,00088.1856
0000001079,-0000.9654,00000.1218,00000.2962,00001.0172,00172.8122,00088.2056
0000001080,-0000.8613,00000.1328,00000.2825,00000.9161,00171.2331,00088.3930
0000001081,-0000.7532,00000.1259,00000.2556,00000.8052,00170.5094,00088.5920
0000001082,-0000.7130,00000.1311,00000.2485,00000.7664,00169.5815,00088.6633
0000001083,-0000.8658,00000.1876,00000.2614,00000.9236,00167.7758,00088.3665
0000001084,-0000.8552,00000.2291,00000.2568,00000.9218,00165.0039,00088.3674
0000001085,-0000.6712,00000.1386,00000.2178,00000.7191,00168.3316,00088.7363
0000001086,-0000.9339,00000.2556,00000.3909,00001.0442,00164.6903,00088.2146
0000001087,-0000.8961,00000.2750,00000.4178,00001.0262,00162.9389,00088.2715
0000001088,-0000.8647,00000.2779,00000.4193,00001.0004,00162.1823,00088.3252
0000001089,-0000.7827,00000.2326,00000.3966,00000.9078,00163.4489,00088.4944
0000001090,-0000.6867,00000.2191,00000.3513,00000.8019,00162.3051,00088.6709
0000001091,-0000.6054,00000.1699,00000.3103,00000.7012,00164.3220,00088.8406
0000001092,-0000.7745,00000.2652,00000.6433,00001.0411,00161.1001,00088.4906
0000001093,-0000.6484,00000.1628,00000.5913,00000.8925,00165.9026,00088.7673
0000001094,-0000.5616,00000.1209,00000.5174,00000.7731,00167.8513,00088.9408
0000001095,-0000.5086,00000.0846,00000.4629,00000.6929,00170.5568,00089.0493
0000001096,-0000.7903,00000.1864,00000.4419,00000.9244,00166.7251,00088.5028
0000001097,-0000.7887,00000.1444,00000.4250,00000.9075,00169.6263,00088.5215
0000001098,-0000.8874,00000.1503,00000.4597,00001.0106,00170.3895,00088.3404
0000001099,-0000.7051,00000.1118,00000.3770,00000.8074,00170.9932,00088.6836
0000001100,-0000.8827,00000.3335,00000.2755,00000.9830,00159.3012,00088.2600
0000001101,-0000.8916,00000.3954,00000.3171,00001.0256,00156.0858,00088.2015
0000001102,-0000.7959,00000.3463,00000.2999,00000.9184,00156.4841,00088.3994
0000001103,-0000.7054,00000.3040,00000.2706,00000.8143,00156.6871,00088.5837
0000001104,-0000.6234,00000.2570,00000.2408,00000.7160,00157.5968,00088.7566
0000001105,-0000.9047,00000.3683,00000.2426,00001.0065,00157.8497,00088.1988
0000001106,-0000.9729,00000.3791,00000.2247,00001.0681,00158.7106,00088.0744
0000001107,-0000.8518,00000.4925,00000.2479,00001.0146,00149.9648,00088.1857
0000001108,-0000.8074,00000.4428,00000.2210,00000.9469,00151.2595,00088.3021
0000001109,-0000.7862,00000.4221,00000.2176,00000.9185,00151.7704,00088.3546
0000001110,-0000.9151,00000.5157,00000.2245,00001.0741,00150.6000,00088.0630
0000001111,-0000.8346,00000.6241,00000.2076,00001.0627,00143.2106,00088.0782
0000001112,-0000.6842,00000.0446,00000.2914,00000.7450,00176.2745,00088.7357
0000001113,-0000.6496,00000.0274,00000.2761,00000.7064,00177.5824,00088.8012
0000001114,-0000.9018,-0000.0853,00000.3192,00000.9604,00185.4010,00088.3296
0000001115,-0000.9377,-0000.0990,00000.4037,00001.0257,00186.0260,00088.2613
0000001116,-0000.8564,-0000.1059,00000.3907,00000.9472,00187.0507,00088.4089
0000001117,-0000.8116,-0000.1074,00000.3756,00000.9008,00187.5406,00088.4904
0000001118,-0000.7245,-0000.1165,00000.3368,00000.8074,00189.1313,00088.6469
0000001119,-0000.6297,-0000.1156,00000.2830,00000.7000,00190.4023,00088.8195
0000001120,-0000.8373,-0000.0521,00000.6183,00001.0422,00183.5616,00088.4531
0000001121,-0000.7834,-0000.0600,00000.5868,00000.9807,00184.3812,00088.5512
0000001122,-0000.7019,-0000.0814,00000.5435,00000.8914,00186.6161,00088.6971
0000001123,-0000.6298,-0000.1001,00000.5014,00000.8112,00189.0291,00088.8241
0000001124,-0000.6161,-0000.0959,00000.4895,00000.7927,00188.8474,00088.8504
0000001125,-0000.5378,-0000.1102,00000.4260,00000.6949,00191.5838,00088.9877
0000001126,-0000.5200,-0000.1157,00000.3729,00000.6502,00192.5481,00089.0178
0000001127,-0000.5422,-0000.1129,00000.3847,00000.6743,00191.7666,00088.9789
0000001128,-0000.8336,00000.0102,00000.6296,00001.0446,00179.2956,00088.4628
0000001129,-0000.6938,-0000.0023,00000.5556,00000.8889,00180.1887,00088.7207
0000001130,-0000.6133,-0000.0148,00000.4945,00000.7880,00181.3815,00088.8688
0000001131,-0000.5774,00000.0315,00000.4406,00000.7270,00176.8751,00088.9338
0000001132,-0000.7690,-0000.2203,00000.5915,00000.9948,00195.9867,00088.5251
0000001133,-0000.6845,-0000.1942,00000.5504,00000.8995,00195.8419,00088.6880
0000001134,-0000.8627,-0000.3340,00000.5075,00001.0552,00201.1636,00088.2941
0000001135,-0000.8093,-0000.3354,00000.4772,00000.9976,00202.5127,00088.3846
0000001136,-0000.7253,-0000.3134,00000.4381,00000.9034,00203.3734,00088.5431
0000001137,-0000.9012,-0000.2148,00000.4936,00001.0497,00193.4051,00088.2917
0000001138,-0000.7622,-0000.2156,00000.4421,00000.9071,00195.7929,00088.5394
0000001139,-0000.6714,-0000.1857,00000.3960,00000.8013,00195.4577,00088.7156
0000001140,-0000.9287,-0000.0652,00000.4996,00001.0565,00184.0133,00088.2833
0000001141,-0000.8745,-0000.0741,00000.4864,00001.0034,00184.8467,00088.3817
0000001142,-0000.6891,-0000.0845,00000.4049,00000.8037,00186.9929,00088.7199
0000001143,-0000.9399,-0000.2703,00000.2783,00001.0168,00196.0421,00088.1966
0000001144,-0000.9432,-0000.2835,00000.3151,00001.0341,00196.7284,00088.1838
0000001145,-0000.8931,-0000.3198,00000.3379,00001.0070,00199.7017,00088.2507
0000001146,-0000.7769,-0000.3285,00000.3166,00000.9010,00202.9234,00088.4446
0000001147,-0000.6906,-0000.2933,00000.2813,00000.8013,00203.0119,00088.6166
0000001148,-0000.5966,-0000.2549,00000.2509,00000.6956,00203.1316,00088.8038
0000001149,-0000.8995,-0000.3954,00000.3983,00001.0602,00203.7262,00088.1881
0000001150,-0000.6545,-0000.3082,00000.3507,00000.8040,00205.2133,00088.6660
0000001151,-0001.0018,-0000.1767,00000.2898,00001.0577,00190.0040,00088.1242
0000001152,-0000.8531,-0000.2027,00000.2743,00000.9188,00193.3658,00088.3830
0000001153,-0000.7442,-0000.1644,00000.2454,00000.8007,00192.4553,00088.5946
0000001154,-0000.6273,-0000.1380,00000.2465,00000.6880,00192.4102,00088.8157
0000001155,-0000.9720,-0000.3055,00000.2647,00001.0527,00197.4503,00088.1212
0000001156,-0000.9397,-0000.3087,00000.2640,00001.0238,00198.1835,00088.1761
0000001157,-0001.0097,-0000.0209,00000.2948,00001.0521,00181.1839,00088.1376
0000001158,-0000.9738,-0000.0328,00000.2689,00001.0107,00181.9267,00088.2034
0000001159,-0000.8548,-0000.0172,00000.2406,00000.8881,00181.1527,00088.4235
0000001160,-0000.9401,-0000.4105,00000.2556,00001.0572,00203.5894,00088.1084
0000001161,-0000.9066,-0000.4038,00000.2381,00001.0206,00204.0083,00088.1699
0000001162,-0000.8114,-0000.3670,00000.2213,00000.9176,00204.3350,00088.3579
0000001163,-0000.6202,-0000.3138,00000.1849,00000.7192,00206.8387,00088.7185
0000001164,-0000.8532,-0000.5484,00000.3096,00001.0605,00212.7314,00088.1296
0000001165,-0000.6299,-0000.4370,00000.2462,00000.8052,00214.7514,00088.5863
0000001166,-0000.5612,-0000.3789,00000.2213,00000.7124,00214.0207,00088.7514
0000001167,-0000.8100,-0000.5604,00000.3955,00001.0615,00214.6781,00088.1836
0000001168,-0000.6293,-0000.4054,00000.3008,00000.8067,00212.7929,00088.6197
0000001169,-0000.5693,-0000.3500,00000.2515,00000.7140,00211.5831,00088.7679
0000001170,-0000.8738,-0000.5422,00000.2021,00001.0481,00211.8209,00088.1036
0000001171,-0000.7694,-0000.4930,00000.1682,00000.9292,00212.6502,00088.3149
0000001172,-0000.7803,-0000.6308,00000.2858,00001.0433,00218.9523,00088.1498
0000001173,-0000.4940,-0000.4954,00000.1781,00000.7220,00225.0817,00088.7099
0000001174,-0000.7043,-0000.6879,00000.3211,00001.0356,00224.3268,00088.1846
0000001175,-0000.5045,-0000.4665,00000.2069,00000.7176,00222.7588,00088.7330
0000001176,-0000.5037,00000.1896,00000.7066,00000.8882,00159.3689,00089.0076
0000001177,-0000.4685,00000.2590,00000.6779,00000.8638,00151.0636,00089.0129
0000001178,-0000.5671,00000.2942,00000.6701,00000.9259,00152.5798,00088.8220
0000001179,-0000.8268,00000.0098,00000.3811,00000.9105,00179.3242,00088.4753
0000001180,-0000.7341,00000.0111,00000.4655,00000.8694,00179.1321,00088.6462
0000001181,-0000.6996,00000.0852,00000.5606,00000.9005,00173.0570,00088.7006
0000001182,-0000.7050,00000.2416,00000.5801,00000.9444,00161.0795,00088.6259
0000001183,-0000.9475,00000.2201,00000.2338,00001.0004,00166.9243,00088.2064
0000001184,-0000.9519,-0000.0869,00000.2224,00000.9814,00185.2193,00088.2375
0000001185,-0000.4706,00000.6360,00000.3389,00000.8607,00126.4968,00088.5411
0000001186,-0000.5331,00000.6508,00000.3413,00000.9078,00129.3228,00088.4488
0000001187,-0000.5541,00000.6662,00000.3409,00000.9312,00129.7510,00088.4022
0000001188,-0000.6230,00000.7379,00000.1949,00000.9852,00130.1742,00088.2192
0000001189,-0000.4797,00000.7499,00000.2891,00000.9360,00122.6092,00088.3585
0000001190,-0000.0627,00000.0545,00000.9054,00000.9092,00139.0198,00089.8469
0000001191,-0000.1061,-0000.0310,00000.8395,00000.8467,00196.2787,00089.7963
0000001192,-0000.0574,00000.0426,00000.8405,00000.8435,00143.3829,00089.8682
0000001193,-0000.0465,00000.0647,00000.8303,00000.8342,00125.7142,00089.8530
0000001194,-0000.1942,00000.3165,00000.7617,00000.8474,00121.5324,00089.3153
0000001195,-0000.2729,00000.3051,00000.6899,00000.8022,00131.8071,00089.2453
0000001196,-0000.6963,00000.3462,00000.4644,00000.9057,00153.5635,00088.5662
0000001197,-0000.6930,00000.2869,00000.4601,00000.8799,00157.5076,00088.6171
0000001198,-0000.8386,00000.3252,00000.1931,00000.9200,00158.8079,00088.3414
0000001199,-0000.8294,00000.1910,00000.1913,00000.8723,00167.0330,00088.4307
0000001200,-0000.8678,00000.0725,00000.1918,00000.8917,00175.2221,00088.3942
0000001201,-0000.8101,-0000.0957,00000.1953,00000.8388,00186.7381,00088.4959
0000001202,-0000.7783,-0000.1372,00000.1732,00000.8091,00190.0002,00088.5428
0000001203,-0000.7871,-0000.2015,00000.1730,00000.8308,00194.3607,00088.5018
0000001204,-0000.7682,-0000.2386,00000.1778,00000.8238,00197.2539,00088.5168
0000001205,-0000.5548,00000.6481,00000.1893,00000.8739,00130.5650,00088.4268
0000001206,-0000.1345,-0000.0472,00000.7543,00000.7676,00199.3536,00089.7372
0000001207,-0000.1083,00000.1304,00000.7348,00000.7541,00129.7053,00089.6875
0000001208,-0000.1455,00000.1684,00000.7264,00000.7597,00130.8253,00089.5897
0000001209,-0000.6129,-0000.4932,00000.1253,00000.7966,00218.8222,00088.5494
0000001210,-0000.6595,-0000.4063,00000.1364,00000.7866,00211.6375,00088.5716
0000001211,-0000.7944,-0000.0076,00000.2220,00000.8249,00180.5471,00088.5351
0000001212,-0000.7510,-0000.0057,00000.2835,00000.8028,00180.4346,00088.6152
0000001213,-0000.5630,00000.2349,00000.4377,00000.7508,00157.3558,00088.8753
0000001214,-0000.5337,00000.2689,00000.4411,00000.7428,00153.2618,00088.8981
0000001215,-0000.6858,00000.2319,00000.1766,00000.7452,00161.3147,00088.6651
0000001216,-0000.7284,00000.0912,00000.1642,00000.7522,00172.8627,00088.6464
0000001217,-0000.6892,00000.2948,00000.1299,00000.7608,00156.8384,00088.6178
0000001218,-0000.5151,00000.5452,00000.2074,00000.7782,00133.3747,00088.6170
0000001219,-0000.4415,00000.6203,00000.2664,00000.8066,00125.4400,00088.5962
min,-0001.0152,-0001.0615,00000.1126,00000.6318,00001.5560,00088.0419
max,00001.0511,00001.0230,00001.0031,00001.0825,00359.7480,00089.8682
mean,00000.0046,-0000.0081,00000.4879,00000.8807,00180.0275,00088.7483
std,00000.5006,00000.5061,00000.2162,00000.1262,00103.8254,00000.3956
